Division,WeightClassKg,Place,Name,Team,BodyweightKg,Best3SquatKg,Best3BenchKg,Best3DeadliftKg,TotalKg,Equipment,Event,Sex
Boys,55.79,1,Jesus Rios,Palacios,51.94,120.2,99.79,154.22,374.21,Single-ply,SBD,M
Boys,51.71,2,Trey Schmedt,Victoria East,51.48,124.74,61.23,149.69,335.66,Single-ply,SBD,M
Boys,51.71,3,Carl Lindley,Cuero,50.35,97.52,63.5,113.4,274.42,Single-ply,SBD,M
Boys,51.71,4,Juan Cruz,Aransas Pass,45.81,102.06,58.97,102.06,263.08,Single-ply,SBD,M
Boys,51.71,5,Manuel Cruz,Aransas Pass,39.92,72.57,43.09,90.72,206.38,Single-ply,SBD,M
Boys,51.71,DQ,John Champion,Skidmore-Tynan,51.71,,,,,Single-ply,SBD,M
Boys,51.71,DQ,Cody Faust,Yoakum,48.08,83.91,52.16,,,Single-ply,SBD,M
Boys,51.71,DQ,Matt Garza,Jourdanton,46.49,,,,,Single-ply,SBD,M
Boys,55.79,1,John Ramirez,Victoria West,55.79,142.88,108.86,151.95,403.7,Single-ply,SBD,M
Boys,55.79,2,Colton Rodriguez,Jourdanton,55.57,136.08,65.77,147.42,349.27,Single-ply,SBD,M
Boys,59.87,3,Lamar Turner,Edna,56.02,124.74,65.77,142.88,333.39,Single-ply,SBD,M
Boys,55.79,DQ,Cy Strieber,Yorktown,55.79,,,,,Single-ply,SBD,M
Boys,55.79,DQ,Gabriel Jame Garcia,Yoakum,55.79,,,,,Single-ply,SBD,M
Boys,55.79,DQ,Trenton Thedford,Vanderbilt Industrial,55.79,,,,,Single-ply,SBD,M
Boys,59.87,1,Kayden Kurtz,Vanderbilt Industrial,59.87,136.08,72.57,156.49,365.14,Single-ply,SBD,M
Boys,59.87,2,Michael III Chomout,Yoakum,59.19,120.2,81.65,129.27,331.12,Single-ply,SBD,M
Boys,59.87,3,Shane Mendel,Schulenburg,57.38,90.72,61.23,108.86,260.82,Single-ply,SBD,M
Boys,59.87,4,Ben Villareal,Cuero,58.51,83.91,52.16,108.86,244.94,Single-ply,SBD,M
Boys,59.87,DQ,Neco Camarillo,Jourdanton,59.87,,,,,Single-ply,SBD,M
Boys,59.87,DQ,Daniel Silva,Edna,59.87,,,,,Single-ply,SBD,M
Boys,59.87,DQ,Brandon Smith,Yorktown,59.87,,,,,Single-ply,SBD,M
Boys,59.87,DQ,Darren Graham,San Antonio Holy Cross,59.87,,,,,Single-ply,SBD,M
Boys,59.87,DQ,Ryan Garza,Yoakum,57.61,,,,,Single-ply,SBD,M
Boys,59.87,DQ,Devin Kelly,Aransas Pass,58.97,70.31,,,,Single-ply,SBD,M
Boys,59.87,DQ,Benjamin Uribe,Jourdanton,58.06,,,,,Single-ply,SBD,M
Boys,59.87,DQ,Mauro Garcia,Port Lavaca Calhoun,59.65,,,,,Single-ply,SBD,M
Boys,59.87,DQ,Manuel Salazar,Refugio,56.7,61.23,,,,Single-ply,SBD,M
Boys,67.13,1,Michael Latapie,Palacios,64.41,179.17,138.35,210.92,528.44,Single-ply,SBD,M
Boys,67.13,2,Modesto Martinez,Victoria West,67.13,215.46,115.67,197.31,528.44,Single-ply,SBD,M
Boys,67.13,3,Caleb Marek,Victoria West,67.13,190.51,113.4,206.38,510.29,Single-ply,SBD,M
Boys,67.13,4,Daniel Martinez,Port Lavaca Calhoun,65.32,174.63,92.99,215.46,483.08,Single-ply,SBD,M
Boys,67.13,5,Juan Gonzales,Yoakum,66.22,179.17,138.35,163.29,480.81,Single-ply,SBD,M
Boys,67.13,6,Daniel Leita,Port Lavaca Calhoun,64.86,174.63,99.79,179.17,453.59,Single-ply,SBD,M
Boys,67.13,7,Jordan Cole,Aransas Pass,65.54,167.83,97.52,172.37,437.72,Single-ply,SBD,M
Boys,67.13,8,Triston Barefield,Cuero,65.54,161.03,97.52,176.9,435.45,Single-ply,SBD,M
Boys,67.13,9,Alex Rocha,Skidmore-Tynan,66,165.56,113.4,156.49,435.45,Single-ply,SBD,M
Boys,67.13,10,Nathan Thiry,Yoakum,66.22,151.95,108.86,165.56,426.38,Single-ply,SBD,M
Boys,67.13,11,Thomas Aranda,Refugio,65.32,154.22,92.99,176.9,424.11,Single-ply,SBD,M
Boys,67.13,12,Brandon De Los Santos,Jourdanton,63.05,147.42,86.18,176.9,410.5,Single-ply,SBD,M
Boys,67.13,13,David Nunez,Edna,61.69,161.03,86.18,156.49,403.7,Single-ply,SBD,M
Boys,67.13,14,Daniel Santillan,Vanderbilt Industrial,65.54,140.61,90.72,167.83,399.16,Single-ply,SBD,M
Boys,67.13,15,Robert Kinsel,Jourdanton,64.86,151.95,74.84,147.42,374.21,Single-ply,SBD,M
Boys,74.84,16,Elex Martinez,Cuero,67.36,142.88,74.84,151.95,369.68,Single-ply,SBD,M
Boys,67.13,17,Tre'vion Green,Victoria West,61.69,138.35,77.11,142.88,358.34,Single-ply,SBD,M
Boys,67.13,18,Kenneth Rowlett,Vanderbilt Industrial,61.46,131.54,86.18,138.35,356.07,Single-ply,SBD,M
Boys,67.13,19,Michael VanHouten,Edna,62.37,111.13,61.23,174.63,347,Single-ply,SBD,M
Boys,67.13,20,Sam Bonorden,Victoria St. Joseph,63.73,131.54,72.57,138.35,342.46,Single-ply,SBD,M
Boys,67.13,21,Milam Lemke,Yorktown,65.77,124.74,70.31,142.88,337.93,Single-ply,SBD,M
Boys,67.13,22,Federico Flores,Skidmore-Tynan,66.9,124.74,68.04,127.01,319.78,Single-ply,SBD,M
Boys,67.13,23,Nicholas Hernandez,Skidmore-Tynan,61.92,120.2,68.04,104.33,292.57,Single-ply,SBD,M
Boys,67.13,DQ,Alex Ramos,Skidmore-Tynan,67.13,,,,,Single-ply,SBD,M
Boys,67.13,DQ,Matt Vallejo,Victoria St. Joseph,67.13,,,,,Single-ply,SBD,M
Boys,67.13,DQ,Andrew Garcia,Goliad,66.68,,,,,Single-ply,SBD,M
Boys,67.13,DQ,Clint Mician,Schulenburg,66.22,,,,,Single-ply,SBD,M
Boys,82.1,1,Dalton Manning,Schulenburg,75.07,208.65,149.69,215.46,573.79,Single-ply,SBD,M
Boys,74.84,2,Jared Garza,Yoakum,70.76,215.46,120.2,176.9,512.56,Single-ply,SBD,M
Boys,74.84,3,Ta'Von Cantu,Edna,72.8,185.97,111.13,199.58,496.68,Single-ply,SBD,M
Boys,74.84,4,JC Garcia,Port Lavaca Calhoun,71.44,176.9,108.86,188.24,474,Single-ply,SBD,M
Boys,74.84,5,Richard Fullingim,Goliad,73.94,195.04,108.86,149.69,453.59,Single-ply,SBD,M
Boys,74.84,6,Ethan Brown,Vanderbilt Industrial,74.84,167.83,108.86,167.83,444.52,Single-ply,SBD,M
Boys,74.84,7,Jarrett Davenport,Victoria East,68.04,136.08,115.67,183.7,435.45,Single-ply,SBD,M
Boys,74.84,8,Logan Muehlstein,Goliad,70.31,154.22,92.99,172.37,419.57,Single-ply,SBD,M
Boys,74.84,9,Devantae Herron,Victoria East,70.99,136.08,102.06,174.63,412.77,Single-ply,SBD,M
Boys,74.84,10,Carson Berger,Vanderbilt Industrial,72.8,149.69,104.33,154.22,408.23,Single-ply,SBD,M
Boys,74.84,11,Eric Pena,Cuero,68.95,145.15,74.84,165.56,385.55,Single-ply,SBD,M
Boys,74.84,DQ,Daylan Hanes,Edna,74.84,,,,,Single-ply,SBD,M
Boys,74.84,DQ,Aaron Samora,Edna,74.84,,,,,Single-ply,SBD,M
Boys,74.84,DQ,Trevor Tillman,Schulenburg,74.84,,,,,Single-ply,SBD,M
Boys,74.84,DQ,Isidro Garza,Yorktown,74.84,,,,,Single-ply,SBD,M
Boys,74.84,DQ,Shawn Bryant,Victoria East,73.94,147.42,79.38,,,Single-ply,SBD,M
Boys,74.84,DQ,Trip Locke,Jourdanton,71.21,,,,,Single-ply,SBD,M
Boys,82.1,1,Oziel Rios,Palacios,81.42,208.65,172.37,226.8,607.81,Single-ply,SBD,M
Boys,82.1,2,Jhony Zelaya,Victoria East,81.87,208.65,129.27,185.97,523.9,Single-ply,SBD,M
Boys,82.1,3,Nazario Chapa,Aransas Pass,75.98,183.7,136.08,181.44,501.22,Single-ply,SBD,M
Boys,89.81,4,Luis Baez,Mathis,82.33,188.24,113.4,199.58,501.22,Single-ply,SBD,M
Boys,82.1,5,Josh Flatt,Victoria West,80.29,192.78,115.67,181.44,489.88,Single-ply,SBD,M
Boys,82.1,6,Bobby Morris,Victoria East,80.51,183.7,99.79,204.12,487.61,Single-ply,SBD,M
Boys,82.1,7,Edward Rubio,Goliad,80.29,170.1,92.99,213.19,476.27,Single-ply,SBD,M
Boys,82.1,8,Ricky Camarillo,Yoakum,81.19,174.63,115.67,181.44,471.74,Single-ply,SBD,M
Boys,82.1,9,Anthony McGuill,Refugio,79.61,163.29,95.25,176.9,435.45,Single-ply,SBD,M
Boys,82.1,10,AJ Garcia,Edna,76.88,156.49,81.65,147.42,385.55,Single-ply,SBD,M
Boys,82.1,11,Keith Beardsley,Aransas Pass,75.3,133.81,81.65,142.88,358.34,Single-ply,SBD,M
Boys,82.1,12,Walker Gann,Victoria St. Joseph,77.34,102.06,83.91,163.29,349.27,Single-ply,SBD,M
Boys,82.1,13,Dawon Ditrich,Schulenburg,77.56,136.08,65.77,124.74,326.59,Single-ply,SBD,M
Boys,82.1,DQ,Michael Neely,Yorktown,82.1,,,,,Single-ply,SBD,M
Boys,89.81,DQ,Karl Gibson,Mathis,82.33,,,,,Single-ply,SBD,M
Boys,89.81,1,Jake McDavid,Aransas Pass,86.64,204.12,136.08,242.67,582.87,Single-ply,SBD,M
Boys,89.81,2,Dustin Hempel,Vanderbilt Industrial,89.36,208.65,142.88,231.33,582.87,Single-ply,SBD,M
Boys,89.81,3,Stephon Shelton,Victoria East,89.58,185.97,117.93,231.33,535.24,Single-ply,SBD,M
Boys,89.81,4,James Johnson,Victoria East,87.54,188.24,106.59,188.24,483.08,Single-ply,SBD,M
Boys,89.81,5,Curtis Nix,Victoria East,83.46,151.95,99.79,204.12,455.86,Single-ply,SBD,M
Boys,89.81,6,Hunter Doggett,Cuero,87.54,147.42,92.99,151.95,392.36,Single-ply,SBD,M
Boys,89.81,7,Hugo Campos,Port Lavaca Calhoun,86.18,129.27,108.86,131.54,369.68,Single-ply,SBD,M
Boys,89.81,8,Manuel Vacca,Jourdanton,88.68,133.81,74.84,147.42,356.07,Single-ply,SBD,M
Boys,89.81,9,Jerry Alvarez,Yorktown,87.09,102.06,61.23,106.59,269.89,Single-ply,SBD,M
Boys,89.81,10,Johnny Reyes,Edna,84.37,102.06,68.04,70.31,240.4,Single-ply,SBD,M
Boys,89.81,DQ,Gabe Garza,Yorktown,89.81,,,,,Single-ply,SBD,M
Boys,89.81,DQ,Nick Vallejo,Victoria St. Joseph,89.81,,,,,Single-ply,SBD,M
Boys,89.81,DQ,Valdemar Ramirez,Skidmore-Tynan,89.81,,,,,Single-ply,SBD,M
Boys,89.81,DQ,Jacob Lopez,San Antonio Brooks Academy,88.45,,,,,Single-ply,SBD,M
Boys,89.81,DQ,Wesley Roberts,Cuero,84.37,,,,,Single-ply,SBD,M
Boys,89.81,DQ,Tim Esquivel,Mathis,86.41,210.92,122.47,,,Single-ply,SBD,M
Boys,89.81,DQ,Mario Mendoza,Port Lavaca Calhoun,83.46,,,,,Single-ply,SBD,M
Boys,109.77,1,Connor Chumchall,Victoria West,100.02,274.42,133.81,215.46,623.69,Single-ply,SBD,M
Boys,99.79,2,Joseph Perez,Refugio,93.44,204.12,124.74,204.12,532.97,Single-ply,SBD,M
Boys,99.79,3,Derric Robinson,Port Lavaca Calhoun,96.39,188.24,120.2,208.65,517.1,Single-ply,SBD,M
Boys,99.79,4,Cody Park,Goliad,99.34,213.19,102.06,188.24,503.49,Single-ply,SBD,M
Boys,99.79,5,Thomas Duran,San Antonio Brooks Academy,93.21,167.83,113.4,204.12,485.34,Single-ply,SBD,M
Boys,99.79,6,Shawn Martinez,Victoria West,94.8,206.38,106.59,156.49,469.47,Single-ply,SBD,M
Boys,99.79,7,Ryan Lasko,Skidmore-Tynan,90.95,170.1,99.79,190.51,460.4,Single-ply,SBD,M
Boys,99.79,8,Jared Wagner,Cuero,95.71,170.1,102.06,181.44,453.59,Single-ply,SBD,M
Boys,99.79,9,Clayton Mays,Schulenburg,99.79,172.37,97.52,181.44,451.32,Single-ply,SBD,M
Boys,99.79,10,Frank Balaszi,Jourdanton,97.3,165.56,97.52,158.76,421.84,Single-ply,SBD,M
Boys,99.79,DQ,Nick Avila,Skidmore-Tynan,99.79,,,,,Single-ply,SBD,M
Boys,99.79,DQ,Louie Lopez,Victoria St. Joseph,99.79,,,,,Single-ply,SBD,M
Boys,99.79,DQ,Sean Bastian,Vanderbilt Industrial,94.8,,,,,Single-ply,SBD,M
Boys,99.79,DQ,Ryan Gibson,Jourdanton,98.88,197.31,111.13,,,Single-ply,SBD,M
Boys,99.79,DQ,Dalton Wallen,Aransas Pass,94.8,,,,,Single-ply,SBD,M
Boys,99.79,DQ,Justin Garza,Yoakum,91.63,158.76,,,,Single-ply,SBD,M
Boys,99.79,DQ,Alex Coleman,Victoria St. Joseph,97.52,215.46,,,,Single-ply,SBD,M
Boys,109.77,1,Gabriel García,Yoakum,108.64,272.16,142.88,226.8,641.83,Single-ply,SBD,M
Boys,109.77,2,Matt Ramirez,Victoria West,107.5,229.06,133.81,226.8,589.67,Single-ply,SBD,M
Boys,109.77,3,Eddie Garcia,Port Lavaca Calhoun,102.29,210.92,111.13,181.44,503.49,Single-ply,SBD,M
Boys,124.74,4,Krystian Brzozowski,Yoakum,110,154.22,142.88,201.85,498.95,Single-ply,SBD,M
Boys,109.77,5,Justin Broll,Yorktown,103.19,124.74,83.91,124.74,333.39,Single-ply,SBD,M
Boys,109.77,6,Jake Hughes,Yorktown,106.82,124.74,61.23,102.06,288.03,Single-ply,SBD,M
Boys,109.77,DQ,Zeke Calzada,Port Lavaca Calhoun,109.77,,,,,Single-ply,SBD,M
Boys,109.77,DQ,Christian Mascorro,Refugio,109.77,,,,,Single-ply,SBD,M
Boys,109.77,DQ,Caeveon Patton,Cuero,109.77,,,,,Single-ply,SBD,M
Boys,124.74,1,Austin Speed,Goliad,120.88,285.76,165.56,260.82,712.14,Single-ply,SBD,M
Boys,124.74,2,Mason Davis,Vanderbilt Industrial,111.13,242.67,136.08,240.4,619.15,Single-ply,SBD,M
Boys,124.74,3,Rene Gonzalez,Mathis,114.08,242.67,156.49,195.04,594.21,Single-ply,SBD,M
Boys,124.74,4,Ben Morgan,Victoria West,117.48,213.19,131.54,181.44,526.17,Single-ply,SBD,M
Boys,124.74,5,Nathan Serna,Jourdanton,118.16,195.04,102.06,183.7,480.81,Single-ply,SBD,M
Boys,124.74,6,Hunter Rodriguez,Goliad,124.06,176.9,92.99,183.7,453.59,Single-ply,SBD,M
Boys,124.74,7,Jose Villarreal,Skidmore-Tynan,112.94,136.08,88.45,136.08,360.61,Single-ply,SBD,M
Boys,124.74,8,Emilio Vargas,Goliad,114.08,136.08,65.77,140.61,342.46,Single-ply,SBD,M
Boys,124.74,DQ,Arturo Sanchez,Port Lavaca Calhoun,124.74,,,,,Single-ply,SBD,M
Boys,124.74,DQ,Caleb Lemke,Yorktown,124.74,,,,,Single-ply,SBD,M
Boys,124.74,DQ,Evan Krause,Yorktown,124.74,,,,,Single-ply,SBD,M
Boys,124.74,DQ,Brady Vickery,Vanderbilt Industrial,110.45,249.48,,,,Single-ply,SBD,M
Boys,124.74,DQ,Trace Mascorro,Refugio,111.13,,,,,Single-ply,SBD,M
Boys,124.74,DQ,Andrew Munoz,Cuero,122.92,,,,,Single-ply,SBD,M
Boys,124.74,DQ,Dylan Kallus,Edna,119.75,213.19,113.4,,,Single-ply,SBD,M
Boys,124.74+,1,Joseph Pena,San Antonio Holy Cross,139.71,290.3,165.56,174.63,630.49,Single-ply,SBD,M
Boys,124.74+,2,Jeremiah Sodia,Victoria West,131.54,260.82,129.27,215.46,605.55,Single-ply,SBD,M
Boys,124.74+,3,Arturo Romero,Port Lavaca Calhoun,128.37,242.67,122.47,213.19,578.33,Single-ply,SBD,M
Boys,124.74+,4,Danny Sanchez,Victoria West,136.08,254.01,133.81,190.51,578.33,Single-ply,SBD,M
Boys,124.74+,5,Alexander Acosta,Skidmore-Tynan,128.82,158.76,127.01,185.97,471.74,Single-ply,SBD,M
Boys,124.74+,6,Travis Drost,Victoria East,125.65,145.15,92.99,204.12,442.25,Single-ply,SBD,M
Boys,124.74+,7,Trey Cantue,Skidmore-Tynan,126.55,181.44,115.67,142.88,439.98,Single-ply,SBD,M
Boys,124.74+,8,Dalton Brown,Refugio,125.19,156.49,117.93,129.27,403.7,Single-ply,SBD,M
Boys,124.74+,DQ,Wyatt Neuman,Edna,125.19,,,,,Single-ply,SBD,M
Boys,124.74+,DQ,Ryan Jimenez,Skidmore-Tynan,125.19,,,,,Single-ply,SBD,M
Boys,124.74+,DQ,Levi Perry,Vanderbilt Industrial,137.44,,,,,Single-ply,SBD,M
Boys,124.74+,DQ,Diego Hernandez,Cuero,132.68,,,,,Single-ply,SBD,M
Boys,,NS,Charlie Quarry,Victoria St. Joseph,,,,,,Single-ply,SBD,M
