Division,WeightClassKg,Place,Name,Team,BodyweightKg,Best3SquatKg,Best3BenchKg,Best3DeadliftKg,TotalKg,Equipment,Event,Sex
Girls,44.23,1,Kenzee Gerik,Waco Connally,42.37,102.06,36.29,102.06,240.4,Single-ply,SBD,F
Girls,44.23,2,Camryn Riggins,College Station,42.64,95.25,36.29,102.06,233.6,Single-ply,SBD,F
Girls,44.23,3,Elizabeth Warren,Moody,43,86.18,36.29,92.99,215.46,Single-ply,SBD,F
Girls,44.23,4,Karla Esquivel,Waco Midway,43.18,70.31,29.48,83.91,183.7,Single-ply,SBD,F
Girls,44.23,5,Li Ann Borucki,Waco Midway,43.18,68.04,34.02,63.5,165.56,Single-ply,SBD,F
Girls,44.23,6,Alex Rodriguez,Waco Midway,43.54,54.43,29.48,74.84,158.76,Single-ply,SBD,F
Girls,47.85,1,Amanda Hubbard,Moody,46.99,99.79,58.97,120.2,278.96,Single-ply,SBD,F
Girls,47.85,2,Tara Moreno,Alvarado,47.72,108.86,52.16,113.4,274.42,Single-ply,SBD,F
Girls,47.85,3,Maribel Reyna,Rogers,45.36,104.33,47.63,106.59,258.55,Single-ply,SBD,F
Girls,47.85,4,Maria Luna,Waco University,46.72,97.52,45.36,88.45,231.33,Single-ply,SBD,F
Girls,47.85,5,Abby Parmer,Waco Midway,45.9,47.63,29.48,61.23,138.35,Single-ply,SBD,F
Girls,47.85,DQ,Daniella Duran,Waco Reicher Catholic,45.45,,,,,Single-ply,SBD,F
Girls,47.85,DQ,Liz Perkins,Moody,45.18,,,,,Single-ply,SBD,F
Girls,51.94,1,Shawnee Chavez,College Station,50.8,104.33,58.97,99.79,263.08,Single-ply,SBD,F
Girls,51.94,2,Destinee Batista,Belton,51.71,97.52,49.9,92.99,240.4,Single-ply,SBD,F
Girls,51.94,3,Bryanna Torres,Waco Connally,51.07,92.99,38.56,102.06,233.6,Single-ply,SBD,F
Girls,51.94,4,Daylon LeFever,Riesel,50.08,88.45,45.36,92.99,226.8,Single-ply,SBD,F
Girls,51.94,5,Stephanie Murrow,Rogers,51.26,81.65,40.82,99.79,222.26,Single-ply,SBD,F
Girls,51.94,6,Chloe Reinke,Bosqueville,51.44,72.57,36.29,81.65,190.51,Single-ply,SBD,F
Girls,51.94,7,Elisa Chutes,Waco La Vega,51.44,79.38,34.02,74.84,188.24,Single-ply,SBD,F
Girls,51.94,8,Darma Gutierrez,Belton,51.89,72.57,36.29,79.38,188.24,Single-ply,SBD,F
Girls,51.94,9,Audrey Ogle,Normangee,51.17,63.5,36.29,81.65,181.44,Single-ply,SBD,F
Girls,51.94,10,Grace Kershner,Alvarado,51.26,61.23,31.75,77.11,170.1,Single-ply,SBD,F
Girls,51.94,DQ,Presley Cowan,Bosqueville,49.9,77.11,,,,Single-ply,SBD,F
Girls,51.94,DQ,Grace Barkley,Rogers,51.53,,,,,Single-ply,SBD,F
Girls,51.94,DQ,Dariella Arrendondo,Waco University,48.99,,,,,Single-ply,SBD,F
Girls,51.94,DQ,Esmerelda Castellan,Waco University,50.98,,,,,Single-ply,SBD,F
Girls,56.02,1,Kalen Wootan,College Station,55.34,136.08,56.7,129.27,322.05,Single-ply,SBD,F
Girls,56.02,2,Alexandra Aycock,Riesel,55.52,131.54,61.23,108.86,301.64,Single-ply,SBD,F
Girls,56.02,3,Bella Weatherby,Alvarado,55.97,129.27,49.9,122.47,301.64,Single-ply,SBD,F
Girls,56.02,4,Chassie Fisher,Moody,53.8,122.47,52.16,115.67,290.3,Single-ply,SBD,F
Girls,56.02,5,Haley Newman,Waco Connally,54.43,99.79,47.63,97.52,244.94,Single-ply,SBD,F
Girls,56.02,6,Kayla Torres,Waco Connally,55.97,97.52,38.56,99.79,235.87,Single-ply,SBD,F
Girls,56.02,7,Laynie Grisham,Waco Connally,54.16,83.91,29.48,86.18,199.58,Single-ply,SBD,F
Girls,56.02,8,Elizabeth Pare,Belton,55.07,79.38,38.56,68.04,185.97,Single-ply,SBD,F
Girls,56.02,9,Lina Lopez,Waco Reicher Catholic,54.98,72.57,27.22,83.91,183.7,Single-ply,SBD,F
Girls,56.02,10,Cassie Perez,Riesel,54.43,61.23,40.82,68.04,170.1,Single-ply,SBD,F
Girls,56.02,DQ,Mallory Pennington,Normangee,54.88,65.77,,,,Single-ply,SBD,F
Girls,56.02,DQ,Diana Feria,Alvarado,54.16,,,,,Single-ply,SBD,F
Girls,56.02,DQ,Roselie Cruz,Bosqueville,54.34,88.45,54.43,,,Single-ply,SBD,F
Girls,60.1,1,Dana Young,Belton,58.69,127.01,74.84,138.35,340.19,Single-ply,SBD,F
Girls,60.1,2,Jayce Cummings,Moody,56.79,117.93,56.7,120.2,294.84,Single-ply,SBD,F
Girls,60.1,3,Brianna Shilling,Waco La Vega,57.7,113.4,49.9,124.74,288.03,Single-ply,SBD,F
Girls,60.1,4,Charlie Tumlinson,College Station,59.15,111.13,47.63,115.67,274.42,Single-ply,SBD,F
Girls,60.1,5,Emma Foster,Moody,59.15,97.52,47.63,95.25,240.4,Single-ply,SBD,F
Girls,60.1,6,Cassandra Harmon,Troy,60.1,79.38,40.82,77.11,197.31,Single-ply,SBD,F
Girls,60.1,DQ,Veronica Sanchez,Waco,58.79,133.81,,,,Single-ply,SBD,F
Girls,67.36,1,Alexandrea Nall,Waco Connally,65.23,154.22,63.5,154.22,371.95,Single-ply,SBD,F
Girls,67.36,2,Emoni Cooper,Waco Connally,60.6,136.08,68.04,129.27,333.39,Single-ply,SBD,F
Girls,67.36,3,Maria Castillo,College Station,66.41,149.69,56.7,120.2,326.59,Single-ply,SBD,F
Girls,67.36,4,Kirstyne Huggins,Moody,67.04,122.47,58.97,136.08,317.51,Single-ply,SBD,F
Girls,67.36,5,Nemy Arzola,Rogers,66.68,120.2,52.16,117.93,290.3,Single-ply,SBD,F
Girls,67.36,6,Afrin Momin,College Station,65.77,113.4,49.9,124.74,288.03,Single-ply,SBD,F
Girls,67.36,7,Kaci Donaldson,Lorena,63.87,115.67,45.36,113.4,274.42,Single-ply,SBD,F
Girls,67.36,8,Jessica Dorsett,Franklin,62.14,108.86,52.16,102.06,263.08,Single-ply,SBD,F
Girls,67.36,9,Marisa Granada,Waco Reicher Catholic,62.05,88.45,38.56,106.59,233.6,Single-ply,SBD,F
Girls,67.36,DQ,Rebecca Fajardo,Waco University,64.68,90.72,,,,Single-ply,SBD,F
Girls,67.36,DQ,Julianna Johnson,Bosqueville,65.14,63.5,,,,Single-ply,SBD,F
Girls,75.07,1,Julia McGinnis,College Station,74.75,149.69,68.04,147.42,365.14,Single-ply,SBD,F
Girls,75.07,2,Brittany Carter,Bosqueville,73.84,136.08,61.23,151.95,349.27,Single-ply,SBD,F
Girls,75.07,3,Emily Martinez,Waco Connally,74.84,142.88,68.04,138.35,349.27,Single-ply,SBD,F
Girls,75.07,4,KinniKinica Bundage,Hearne,73.75,136.08,54.43,156.49,347,Single-ply,SBD,F
Girls,75.07,5,Lydia Contella,Waco Reicher Catholic,73.03,115.67,52.16,113.4,281.23,Single-ply,SBD,F
Girls,75.07,6,Destinee Wilson,Normangee,68.95,117.93,40.82,115.67,274.42,Single-ply,SBD,F
Girls,75.07,7,Keelie Cheek,Belton,74.93,111.13,49.9,111.13,272.16,Single-ply,SBD,F
Girls,75.07,8,Juliana Flores,Waco Reicher Catholic,69.58,108.86,40.82,113.4,263.08,Single-ply,SBD,F
Girls,75.07,9,Alyssa Rice,Riesel,72.39,104.33,47.63,90.72,242.67,Single-ply,SBD,F
Girls,75.07,10,Miranda Hallford,Franklin,74.12,95.25,47.63,97.52,240.4,Single-ply,SBD,F
Girls,75.07,11,Hannah Manning,Waco Midway,68.67,83.91,47.63,95.25,226.8,Single-ply,SBD,F
Girls,75.07,12,Summer Howard,Bosqueville,72.57,79.38,40.82,90.72,210.92,Single-ply,SBD,F
Girls,75.07,13,Cassidy Halloway,Waco Midway,73.03,65.77,34.02,79.38,179.17,Single-ply,SBD,F
Girls,75.07,DQ,Hannah Byrd,Lorena,70.94,,,,,Single-ply,SBD,F
Girls,75.07,DQ,Wendy Flores,Alvarado,69.94,,,,,Single-ply,SBD,F
Girls,82.33,1,Alexis Davis,Jewett Leon,80.2,176.9,77.11,145.15,399.16,Single-ply,SBD,F
Girls,82.33,2,Allana Bettge,Waco Reicher Catholic,81.65,145.15,77.11,145.15,367.41,Single-ply,SBD,F
Girls,82.33,3,Tristan Gotreaux,Normangee,81.19,131.54,56.7,131.54,319.78,Single-ply,SBD,F
Girls,82.33,4,Tytiana Phillips,Waco La Vega,78.65,102.06,49.9,131.54,283.5,Single-ply,SBD,F
Girls,82.33,5,Isabelle Gutierrez,Belton,78.38,117.93,58.97,104.33,281.23,Single-ply,SBD,F
Girls,82.33,6,Aaliyah Petty,Waco Midway,82.1,117.93,56.7,106.59,281.23,Single-ply,SBD,F
Girls,82.33,7,Allure Cavazos,Waco Reicher Catholic,78.93,108.86,40.82,115.67,265.35,Single-ply,SBD,F
Girls,82.33,8,Grace Green,Belton,80.2,92.99,56.7,108.86,258.55,Single-ply,SBD,F
Girls,82.33,9,Kailey Hobson,Belton,81.74,102.06,49.9,104.33,256.28,Single-ply,SBD,F
Girls,82.33,10,Jade Valdez,Waco Midway,75.93,92.99,43.09,92.99,229.06,Single-ply,SBD,F
Girls,90.04,1,Beth Bounds,Moody,85.28,161.03,68.04,158.76,387.82,Single-ply,SBD,F
Girls,90.04,2,Rosie Narvaez,Rogers,86.27,151.95,74.84,106.59,333.39,Single-ply,SBD,F
Girls,90.04,3,Sydney Kianes,Belton,89.45,129.27,63.5,117.93,310.71,Single-ply,SBD,F
Girls,90.04,4,Alicia Goodridge,Belton,88.81,127.01,49.9,122.47,299.37,Single-ply,SBD,F
Girls,90.04,5,Estefana Whitmek,Meridian,88.54,117.93,56.7,117.93,292.57,Single-ply,SBD,F
Girls,90.04,6,Macy Gerry,Waco Midway,83.91,102.06,49.9,120.2,272.16,Single-ply,SBD,F
Girls,90.04,7,Victoria Riordan,Belton,86.18,108.86,56.7,104.33,269.89,Single-ply,SBD,F
Girls,90.04,8,Kamri Thomas,Hearne,87.09,102.06,40.82,97.52,240.4,Single-ply,SBD,F
Girls,90.04,9,ShauTavia Crenshaw,Waco La Vega,89.09,83.91,52.16,88.45,224.53,Single-ply,SBD,F
Girls,90.04,DQ,Maria Cavasos,Waco University,89.18,,,,,Single-ply,SBD,F
Girls,90.04,DQ,Yulissa Recio,Moody,89.09,,,,,Single-ply,SBD,F
Girls,100.02,1,Lacy LeBoeuf,Bosqueville,96.71,158.76,79.38,158.76,396.89,Single-ply,SBD,F
Girls,100.02,2,Ellie Hair,College Station,98.52,158.76,65.77,170.1,394.63,Single-ply,SBD,F
Girls,100.02,3,Maddison Perry,Moody,95.44,127.01,58.97,136.08,322.05,Single-ply,SBD,F
Girls,100.02,4,Maggie Conlon,Troy,98.7,113.4,56.7,99.79,269.89,Single-ply,SBD,F
Girls,100.02,5,Paige Trigleth,Riesel,94.26,99.79,52.16,97.52,249.48,Single-ply,SBD,F
Girls,100.02,6,Olivia Madison,Waco Midway,93.62,104.33,43.09,99.79,247.21,Single-ply,SBD,F
Girls,100.02,7,Betsaida Hernandez,Belton,93.35,102.06,40.82,99.79,242.67,Single-ply,SBD,F
Girls,100.02,DQ,Olivia Owens,Waco,98.61,113.4,,,,Single-ply,SBD,F
Girls,100.02+,1,Mikayla Cox,Franklin,118.21,138.35,65.77,133.81,337.93,Single-ply,SBD,F
Girls,100.02+,2,Kaylee Shilling,Waco La Vega,120.84,127.01,72.57,129.27,328.85,Single-ply,SBD,F
Girls,100.02+,3,McKaylen Drake,Rogers,110.13,142.88,68.04,113.4,324.32,Single-ply,SBD,F
Girls,100.02+,4,Kaylee Hausam,Belton,102.33,136.08,61.23,122.47,319.78,Single-ply,SBD,F
Girls,100.02+,5,Victoria Garcia,Belton,105.23,117.93,58.97,136.08,312.98,Single-ply,SBD,F
Girls,100.02+,6,Emily Weaver,Waco Midway,109.5,142.88,58.97,111.13,312.98,Single-ply,SBD,F
Girls,100.02+,7,Zaida Soto,Waco La Vega,101.33,117.93,70.31,113.4,301.64,Single-ply,SBD,F
Girls,100.02+,8,Taylor Willis,Troy,102.33,90.72,56.7,113.4,260.82,Single-ply,SBD,F
Girls,100.02+,9,Angela Ferrer,Belton,106.96,77.11,56.7,117.93,251.74,Single-ply,SBD,F
Girls,100.02+,10,Angel Puckett,Meridian,123.92,74.84,49.9,95.25,219.99,Single-ply,SBD,F
Girls,100.02+,DQ,Haley Morehead,Franklin,123.56,179.17,,,,Single-ply,SBD,F
Girls,100.02+,DQ,Beth Martin,Belton,112.4,,,,,Single-ply,SBD,F
Girls,100.02+,DQ,Deonshae Milliner,Moody,112.49,,,,,Single-ply,SBD,F
