Division,WeightClassKg,Place,Name,Team,BodyweightKg,Best3SquatKg,Best3BenchKg,Best3DeadliftKg,TotalKg,Equipment,Event,Sex
Boys,51.71,1,Angel Garcia,Edinburg Idea College Prep,50.8,170.1,104.33,172.37,446.79,Single-ply,SBD,M
Boys,51.71,2,Justin Hernandez,Weslaco East,50.8,147.42,83.91,181.44,412.77,Single-ply,SBD,M
Boys,51.71,3,Bryan Loera,Brownsville Pace,51.53,149.69,83.91,142.88,376.48,Single-ply,SBD,M
Boys,51.71,4,Chris Medina,Brownsville Hanna,51.62,133.81,74.84,156.49,365.14,Single-ply,SBD,M
Boys,51.71,5,John Ortega,Mercedes,46.72,127.01,79.38,145.15,351.53,Single-ply,SBD,M
Boys,51.71,6,Joey Rodriguez,Edinburg Idea College Prep,50.35,129.27,77.11,145.15,351.53,Single-ply,SBD,M
Boys,51.71,7,Fabian Garcia,Edinburg Idea College Prep,49.44,111.13,77.11,129.27,317.51,Single-ply,SBD,M
Boys,51.71,8,Eric Estrella,Brownsville Lopez,44.91,102.06,54.43,111.13,267.62,Single-ply,SBD,M
Boys,55.79,1,Marc Sedillo,San Benito,55.34,183.7,86.18,183.7,453.59,Single-ply,SBD,M
Boys,55.79,2,Eric Capistran,Brownsville Veterans Memorial,55.34,151.95,95.25,167.83,415.04,Single-ply,SBD,M
Boys,55.79,3,Tyrone Irizarry,Brownsville Lopez,54.88,133.81,86.18,174.63,394.63,Single-ply,SBD,M
Boys,55.79,4,Adrian Garcia,Edinburg Idea College Prep,55.34,158.76,86.18,142.88,387.82,Single-ply,SBD,M
Boys,55.79,5,Oscar Gonzalez,Brownsville Pace,54.88,142.88,86.18,133.81,362.87,Single-ply,SBD,M
Boys,55.79,6,Elijah Wheeler,Edinburg Idea College Prep,54.88,136.08,72.57,149.69,358.34,Single-ply,SBD,M
Boys,55.79,7,Aldo Salazar,Santa Rosa,53.98,120.2,68.04,131.54,319.78,Single-ply,SBD,M
Boys,55.79,DQ,Corbin Garza,Los Fresnos,55.79,167.83,,,,Single-ply,SBD,M
Boys,59.87,1,Joel Sanchez,Brownsville Veterans Memorial,59.42,208.65,106.59,217.72,532.97,Single-ply,SBD,M
Boys,59.87,2,Mark Ortega,Mercedes,57.15,165.56,97.52,161.03,424.11,Single-ply,SBD,M
Boys,59.87,3,Ray Martinez,Santa Rosa,56.7,131.54,88.45,156.49,376.48,Single-ply,SBD,M
Boys,59.87,DQ,Zeke Rocha,Rio Hondo,59.78,,,,,Single-ply,SBD,M
Boys,67.13,1,Felix Rizo,Brownsville Pace,65.23,244.94,136.08,226.8,607.81,Single-ply,SBD,M
Boys,67.13,2,Mike Chavez,Brownsville Hanna,66.68,229.06,115.67,206.38,551.11,Single-ply,SBD,M
Boys,67.13,3,Cristian Garcia,San Benito,63.5,190.51,102.06,190.51,483.08,Single-ply,SBD,M
Boys,67.13,4,Isaac Rodriguez,Rio Hondo,66,170.1,106.59,183.7,460.4,Single-ply,SBD,M
Boys,67.13,5,Jose Serna,Weslaco East,62.14,174.63,102.06,172.37,449.06,Single-ply,SBD,M
Boys,67.13,6,Jonathon Godinez,Brownsville Lopez,63.5,151.95,79.38,167.83,399.16,Single-ply,SBD,M
Boys,67.13,7,Adrian Guerrero,Brownsville Porter,66.32,142.88,83.91,161.03,387.82,Single-ply,SBD,M
Boys,67.13,8,Brandon Rodriguez,Edinburg Idea College Prep,66.68,129.27,72.57,136.08,337.93,Single-ply,SBD,M
Boys,67.13,DQ,Andrew Nevarez,Edinburg Idea College Prep,65.77,176.9,97.52,,,Single-ply,SBD,M
Boys,67.13,DQ,Tony Torres,San Benito,61.82,165.56,,,,Single-ply,SBD,M
Boys,74.84,1,Ricardo Miranda,Los Fresnos,73.94,233.6,136.08,238.14,607.81,Single-ply,SBD,M
Boys,74.84,2,Dominic Ramos,Rio Hondo,74.8,206.38,158.76,204.12,569.26,Single-ply,SBD,M
Boys,74.84,3,Cristian Maldonado,Los Fresnos,73.48,215.46,115.67,226.8,557.92,Single-ply,SBD,M
Boys,74.84,4,Jorge Cavazos,Mercedes,72.57,217.72,131.54,206.38,555.65,Single-ply,SBD,M
Boys,74.84,5,Christian Avila,Weslaco East,72.12,183.7,108.86,195.04,487.61,Single-ply,SBD,M
Boys,74.84,6,Carlos Sanchez,San Benito,74.84,172.37,122.47,183.7,478.54,Single-ply,SBD,M
Boys,74.84,7,Jesus Banuelos,Los Fresnos,70.31,174.63,95.25,206.38,476.27,Single-ply,SBD,M
Boys,74.84,8,David Abrego,Brownsville Hanna,69.81,163.29,117.93,183.7,464.93,Single-ply,SBD,M
Boys,74.84,9,Troy de la Garza,La Feria,73.44,161.03,108.86,195.04,464.93,Single-ply,SBD,M
Boys,74.84,10,Israel Lozano,Brownsville Rivera,74.84,183.7,83.91,188.24,455.86,Single-ply,SBD,M
Boys,74.84,11,Victor Coella,Brownsville Lopez,73.94,176.9,97.52,174.63,449.06,Single-ply,SBD,M
Boys,74.84,12,Jonathon Mendoza,Port Isabel,74.53,176.9,95.25,170.1,442.25,Single-ply,SBD,M
Boys,74.84,13,Jaime Garcia,Mercedes,73.03,156.49,102.06,174.63,433.18,Single-ply,SBD,M
Boys,74.84,14,Alexis Gomez,Brownsville Veterans Memorial,73.03,163.29,108.86,158.76,430.91,Single-ply,SBD,M
Boys,74.84,15,Rafael Cuellar,Brownsville Porter,70.94,142.88,102.06,174.63,419.57,Single-ply,SBD,M
Boys,74.84,16,Jacob Plattner,Port Isabel,72.21,142.88,83.91,154.22,381.02,Single-ply,SBD,M
Boys,74.84,17,Luis Palacios,Brownsville Porter,71.03,136.08,95.25,142.88,374.21,Single-ply,SBD,M
Boys,74.84,18,Abel Perez,Brownsville Rivera,73.48,136.08,79.38,156.49,371.95,Single-ply,SBD,M
Boys,74.84,19,Brandon Adame,Mercedes,70.67,142.88,70.31,149.69,362.87,Single-ply,SBD,M
Boys,74.84,20,Lupe Pecina,Santa Rosa,68.95,106.59,74.84,102.06,283.5,Single-ply,SBD,M
Boys,74.84,DQ,Ramon Gonzalez,Brownsville Rivera,73.03,,,,,Single-ply,SBD,M
Boys,74.84,DQ,Daniel Herrera,Brownsville Rivera,67.59,,,,,Single-ply,SBD,M
Boys,74.84,DQ,Emiliano Salazar,Brownsville Porter,70.94,174.63,,,,Single-ply,SBD,M
Boys,82.1,1,Imanol Ordonez,Weslaco East,81.65,219.99,142.88,260.82,623.69,Single-ply,SBD,M
Boys,82.1,2,Dagan Wise,Port Isabel,81.33,217.72,129.27,219.99,566.99,Single-ply,SBD,M
Boys,82.1,3,Jason Navarro,San Benito,75.75,213.19,120.2,204.12,537.51,Single-ply,SBD,M
Boys,82.1,4,Elian Gonzalez,Los Fresnos,78.93,204.12,117.93,210.92,532.97,Single-ply,SBD,M
Boys,82.1,5,Mathew Garza,Brownsville Rivera,81.65,199.58,97.52,208.65,505.76,Single-ply,SBD,M
Boys,82.1,6,Jose Huacuja,Brownsville St. Joseph Academy,79.38,158.76,117.93,215.46,492.15,Single-ply,SBD,M
Boys,82.1,7,Adrian Diaz,Brownsville Hanna,81.92,183.7,115.67,192.78,492.15,Single-ply,SBD,M
Boys,82.1,8,Nelson Mejia,Port Isabel,81.65,176.9,113.4,163.29,453.59,Single-ply,SBD,M
Boys,82.1,9,Irvin Castro,La Feria,80.1,165.56,115.67,147.42,428.64,Single-ply,SBD,M
Boys,82.1,10,Zach Williams,Brownsville Hanna,79.02,172.37,83.91,124.74,381.02,Single-ply,SBD,M
Boys,82.1,DQ,Daniel García,San Benito,77.56,183.7,122.47,,,Single-ply,SBD,M
Boys,89.81,1,Jonas Garza,Brownsville Pace,89.09,235.87,124.74,233.6,594.21,Single-ply,SBD,M
Boys,89.81,2,Sebastian Gonzalez,Los Fresnos,87.54,233.6,124.74,222.26,580.6,Single-ply,SBD,M
Boys,89.81,3,Chris Jimenez,Brownsville Lopez,88.9,215.46,133.81,195.04,544.31,Single-ply,SBD,M
Boys,89.81,4,Matt Vela,Weslaco East,84.82,192.78,120.2,226.8,539.77,Single-ply,SBD,M
Boys,89.81,5,Freddy Cardenas,Weslaco East,85.28,192.78,127.01,217.72,537.51,Single-ply,SBD,M
Boys,89.81,6,Nestor Ramirez,Brownsville Porter,89.45,206.38,106.59,188.24,501.22,Single-ply,SBD,M
Boys,89.81,7,Mark Anaya,Brownsville St. Joseph Academy,89.81,172.37,142.88,174.63,489.88,Single-ply,SBD,M
Boys,89.81,8,Kevin Garcia,Brownsville Lopez,88.9,183.7,90.72,174.63,449.06,Single-ply,SBD,M
Boys,89.81,9,Nathan Morales,La Feria,88.72,158.76,113.4,156.49,428.64,Single-ply,SBD,M
Boys,89.81,10,Eliodoro Hinojosa,Brownsville Porter,83.6,154.22,97.52,174.63,426.38,Single-ply,SBD,M
Boys,89.81,11,Jose Lugo,La Feria,89.27,149.69,108.86,163.29,421.84,Single-ply,SBD,M
Boys,89.81,12,Eric Rangel,La Feria,86.82,154.22,106.59,151.95,412.77,Single-ply,SBD,M
Boys,89.81,13,Rodrigo Miner,Brownsville St. Joseph Academy,88.45,122.47,97.52,167.83,387.82,Single-ply,SBD,M
Boys,89.81,DQ,Donavan Trevino,Brownsville Rivera,86.18,,,,,Single-ply,SBD,M
Boys,89.81,DQ,Noe Castillo,Brownsville Veterans Memorial,88,,,,,Single-ply,SBD,M
Boys,89.81,DQ,Matthew Ortiz,Los Fresnos,88.9,210.92,,,,Single-ply,SBD,M
Boys,99.79,1,Jair Ibarra,Brownsville Lopez,98.88,251.74,185.97,233.6,671.32,Single-ply,SBD,M
Boys,99.79,2,Fernando Martinez,Brownsville Hanna,98.52,256.28,161.03,208.65,625.96,Single-ply,SBD,M
Boys,99.79,3,Justin Flores,Rio Hondo,95.44,256.28,151.95,215.46,623.69,Single-ply,SBD,M
Boys,99.79,4,Arturo Alvarado,La Feria,98.57,233.6,156.49,217.72,607.81,Single-ply,SBD,M
Boys,99.79,5,Jake Martinez,Rio Hondo,97.34,233.6,158.76,213.19,605.55,Single-ply,SBD,M
Boys,99.79,6,Eleazar Paredes,Brownsville Lopez,99.34,219.99,142.88,226.8,589.67,Single-ply,SBD,M
Boys,99.79,7,Rey Salazar,Brownsville Veterans Memorial,91.81,224.53,147.42,213.19,585.13,Single-ply,SBD,M
Boys,99.79,8,Lane Thomae,Los Fresnos,95.25,222.26,131.54,219.99,573.79,Single-ply,SBD,M
Boys,99.79,9,Pablo Iracheta,Brownsville Pace,92.4,208.65,140.61,197.31,546.58,Single-ply,SBD,M
Boys,99.79,10,Daniel Valdez,Brownsville Porter,98.02,197.31,120.2,226.8,544.31,Single-ply,SBD,M
Boys,99.79,11,Freddy Lozano,La Feria,92.58,188.24,129.27,192.78,510.29,Single-ply,SBD,M
Boys,99.79,12,Neyfis Castellanos,Port Isabel,98.29,224.53,142.88,142.88,510.29,Single-ply,SBD,M
Boys,99.79,13,William Corkil,San Benito,92.53,192.78,111.13,188.24,492.15,Single-ply,SBD,M
Boys,99.79,14,Anthony Martinez,Rio Hondo,98.2,188.24,124.74,179.17,492.15,Single-ply,SBD,M
Boys,99.79,15,Joseph Suarez,Brownsville Porter,92.08,179.17,117.93,188.24,485.34,Single-ply,SBD,M
Boys,99.79,16,James Rodriguez,Los Fresnos,97.98,170.1,113.4,199.58,483.08,Single-ply,SBD,M
Boys,99.79,17,Chris Arredondo,Brownsville Hanna,99.47,174.63,117.93,154.22,446.79,Single-ply,SBD,M
Boys,99.79,18,George Garcia,La Feria,95.8,181.44,102.06,161.03,444.52,Single-ply,SBD,M
Boys,99.79,19,Felix Vargas,Weslaco East,97.52,172.37,117.93,149.69,439.98,Single-ply,SBD,M
Boys,99.79,20,Blake Fowkes,Brownsville St. Joseph Academy,98.11,124.74,72.57,142.88,340.19,Single-ply,SBD,M
Boys,99.79,DQ,Matt Cortinas,Brownsville Lopez,99.34,219.99,,,,Single-ply,SBD,M
Boys,109.77,1,Sergio Luna,Brownsville Hanna,109.45,226.8,133.81,188.24,548.85,Single-ply,SBD,M
Boys,109.77,2,JR Salinas,Mercedes,106.55,226.8,122.47,185.97,535.24,Single-ply,SBD,M
Boys,109.77,3,Adrian Salinas,Brownsville Hanna,108.95,195.04,104.33,215.46,514.83,Single-ply,SBD,M
Boys,109.77,4,Enrique Avila,Weslaco East,104.78,192.78,120.2,181.44,494.42,Single-ply,SBD,M
Boys,109.77,5,Joel Lopez,San Benito,107.5,204.12,108.86,174.63,487.61,Single-ply,SBD,M
Boys,109.77,DQ,Juan Payan,Brownsville Rivera,106.14,,,,,Single-ply,SBD,M
Boys,124.74,1,Justin Garza,Brownsville Rivera,121.11,326.59,158.76,265.35,750.7,Single-ply,SBD,M
Boys,124.74,2,Jacob Banda,Weslaco East,110.22,276.69,156.49,272.16,705.34,Single-ply,SBD,M
Boys,124.74,3,Troy Macias,Rio Hondo,124.1,260.82,165.56,251.74,678.12,Single-ply,SBD,M
Boys,124.74,4,Arturo Guevara,La Feria,113.49,249.48,158.76,249.48,657.71,Single-ply,SBD,M
Boys,124.74,5,Chris Vargas,San Benito,123.38,244.94,149.69,224.53,619.15,Single-ply,SBD,M
Boys,124.74,6,Gabriel Caram,Brownsville St. Joseph Academy,122.02,222.26,140.61,226.8,589.67,Single-ply,SBD,M
Boys,124.74,7,Christopher Atkinson,Rio Hondo,121.79,226.8,129.27,215.46,571.53,Single-ply,SBD,M
Boys,124.74,8,Adam Gonzalez,Brownsville Porter,120.97,217.72,133.81,201.85,553.38,Single-ply,SBD,M
Boys,124.74,9,Angel Pena,Brownsville Rivera,113.4,219.99,106.59,170.1,496.68,Single-ply,SBD,M
Boys,124.74,10,Anton Soliz,Weslaco East,122.92,174.63,127.01,,301.64,Single-ply,SB,M
Boys,124.74,DQ,Santos Troncoso,Brownsville Rivera,118.39,,,,,Single-ply,SB,M
Boys,124.74+,1,Julio Hernandez,Brownsville Pace,128.77,258.55,149.69,254.01,662.24,Single-ply,SBD,M
Boys,124.74+,2,Aubrey Elizondo,Mercedes,125.65,242.67,138.35,235.87,616.89,Single-ply,SBD,M
Boys,124.74+,3,Ben Flores,Rio Hondo,135.9,249.48,138.35,215.46,603.28,Single-ply,SBD,M
Boys,124.74+,4,Javier Garcia,Brownsville Porter,137.71,185.97,131.54,179.17,496.68,Single-ply,SBD,M
Boys,124.74+,5,Jesus Garcia,Brownsville Rivera,139.25,165.56,106.59,181.44,453.59,Single-ply,SBD,M
Boys,124.74+,6,David De La Torres,Brownsville Pace,127.82,142.88,102.06,138.35,383.29,Single-ply,SBD,M
Boys,124.74+,DQ,Rolando Zuniga,Rio Hondo,150.18,,,,,Single-ply,SBD,M
Boys,124.74+,DQ,Daniel Roque,Weslaco East,154.67,,,,,Single-ply,SBD,M
Boys,,NS,Bryan Lopez,San Benito,,,,,,Single-ply,SBD,M
Boys,,NS,Gaston Castellanos,Rio Hondo,,,,,,Single-ply,SBD,M
Boys,,NS,Jerry Jasso,Mercedes,,,,,,Single-ply,SBD,M
Boys,,NS,Eduardo Zapata,Los Fresnos,,,,,,Single-ply,SBD,M
Boys,,NS,Jorge Banda,Brownsville Porter,,,,,,Single-ply,SBD,M
Boys,,NS,David Belland,Edinburg Idea College Prep,,,,,,Single-ply,SBD,M
Boys,,NS,Ivan Tejada,La Feria,,,,,,Single-ply,SBD,M
