Division,WeightClassKg,Place,Name,Team,BodyweightKg,Best3SquatKg,Best3BenchKg,Best3DeadliftKg,TotalKg,Equipment,Event,Sex
Boys,51.71,1,Chantz Mickens,Palestine Westwood,51.71,111.13,63.5,115.67,290.3,Single-ply,SBD,M
Boys,51.71,2,Justin Massey,Arp,51.26,102.06,61.23,113.4,276.69,Single-ply,SBD,M
Boys,51.71,3,Will Cross,Huntington,50.98,83.91,54.43,124.74,263.08,Single-ply,SBD,M
Boys,51.71,4,Luke Trim,Elkhart,47.99,90.72,43.09,108.86,242.67,Single-ply,SBD,M
Boys,51.71,5,Nathan Upshaw,Rusk,39.46,83.91,34.02,83.91,201.85,Single-ply,SBD,M
Boys,51.71,DQ,Tristen Pratt,Texarkana Liberty-Eylau,45.81,,,,,Single-ply,SBD,M
Boys,55.79,1,Thomas Howard,Texarkana Liberty-Eylau,55.43,147.42,88.45,158.76,394.63,Single-ply,SBD,M
Boys,55.79,2,Bryan Thompson,Elkhart,55.79,145.15,86.18,154.22,385.55,Single-ply,SBD,M
Boys,55.79,3,Melvin Suell,Center,55.43,129.27,68.04,147.42,344.73,Single-ply,SBD,M
Boys,55.79,4,Logan Smith,Frankston,54.34,117.93,56.7,138.35,312.98,Single-ply,SBD,M
Boys,55.79,5,Bj Wafer,Huntington,53.89,81.65,72.57,111.13,265.35,Single-ply,SBD,M
Boys,67.13,1,Dalton Simonek,Bullard,59.96,147.42,88.45,167.83,403.7,Single-ply,SBD,M
Boys,59.87,2,Michael Murray,Palestine Westwood,59.78,158.76,72.57,163.29,394.63,Single-ply,SBD,M
Boys,67.13,3,Austin McRight,Rusk,60.1,149.69,86.18,149.69,385.55,Single-ply,SBD,M
Boys,59.87,4,Pedro Almaguer,Center,57.42,145.15,79.38,154.22,378.75,Single-ply,SBD,M
Boys,59.87,5,Theron Dingas,Palestine Westwood,59.06,136.08,74.84,163.29,374.21,Single-ply,SBD,M
Boys,67.13,6,Alec James,Bullard,60.06,131.54,72.57,149.69,353.8,Single-ply,SBD,M
Boys,59.87,7,Jason Williams,Huntington,56.7,70.31,52.16,104.33,226.8,Single-ply,SBD,M
Boys,59.87,8,Josh McClain,Cushing,57.61,83.91,52.16,90.72,226.8,Single-ply,SBD,M
Boys,59.87,9,Lane Williams,Huntington,58.15,72.57,52.16,102.06,226.8,Single-ply,SBD,M
Boys,59.87,DQ,Tate Molandez,Elkhart,59.6,120.2,,,,Single-ply,SBD,M
Boys,67.13,DQ,Taylor Finley,Elkhart,60.06,124.74,,,,Single-ply,SBD,M
Boys,74.84,1,Willie Willis,Huntington,67.22,272.16,158.76,188.24,619.15,Single-ply,SBD,M
Boys,67.13,2,Dedtrick Smith,Frankston,64.32,181.44,99.79,213.19,494.42,Single-ply,SBD,M
Boys,74.84,3,Ivan Alvarez,Diboll,67.36,133.81,106.59,174.63,415.04,Single-ply,SBD,M
Boys,67.13,4,De'Shun Brewer,Texarkana Liberty-Eylau,61.33,158.76,83.91,170.1,412.77,Single-ply,SBD,M
Boys,67.13,5,Adam Mangum,Texarkana Liberty-Eylau,66.95,145.15,86.18,170.1,401.43,Single-ply,SBD,M
Boys,74.84,6,Eric Ware,Carthage,67.22,136.08,92.99,165.56,394.63,Single-ply,SBD,M
Boys,67.13,7,Andrew Martinez,Diboll,61.14,131.54,88.45,149.69,369.68,Single-ply,SBD,M
Boys,67.13,8,Phillip Burns,Carthage,66.13,136.08,74.84,151.95,362.87,Single-ply,SBD,M
Boys,67.13,9,Colt Simmons,Cushing,62.87,108.86,70.31,136.08,315.25,Single-ply,SBD,M
Boys,67.13,10,Jergio Castillo,Diboll,64.32,99.79,74.84,131.54,306.17,Single-ply,SBD,M
Boys,67.13,11,Garret Anderson,Rusk,61.14,104.33,58.97,115.67,278.96,Single-ply,SBD,M
Boys,67.13,DQ,Chaston Bennett,Rusk,60.96,124.74,,,,Single-ply,SBD,M
Boys,67.13,DQ,Brandon Johnson,Palestine Westwood,66.13,129.27,,,,Single-ply,SBD,M
Boys,67.13,DQ,Josh Jones,Frankston,61.14,124.74,,,,Single-ply,SBD,M
Boys,67.13,DQ,Chris Fredrgill,Huntington,67.04,81.65,,,,Single-ply,SBD,M
Boys,74.84,1,Jeremy Small,Center,69.76,233.6,115.67,229.06,578.33,Single-ply,SBD,M
Boys,74.84,2,Terran Cooper,Texarkana Liberty-Eylau,70.49,213.19,147.42,217.72,578.33,Single-ply,SBD,M
Boys,74.84,3,Jacob Clark,Elkhart,74.39,197.31,102.06,197.31,496.68,Single-ply,SBD,M
Boys,74.84,4,David Patterson,Carthage,73.3,170.1,99.79,181.44,451.32,Single-ply,SBD,M
Boys,82.1,5,Adam Lawson,Elkhart,75.07,181.44,95.25,158.76,435.45,Single-ply,SBD,M
Boys,74.84,6,Justin Lovett,Center,67.68,133.81,106.59,181.44,421.84,Single-ply,SBD,M
Boys,74.84,7,Jason Haley,Texarkana Liberty-Eylau,74.3,179.17,83.91,158.76,421.84,Single-ply,SBD,M
Boys,74.84,8,Darrian Granger,Carthage,70.4,158.76,92.99,156.49,408.23,Single-ply,SBD,M
Boys,74.84,9,Ray Jackson,Cushing,74.84,158.76,102.06,147.42,408.23,Single-ply,SBD,M
Boys,74.84,10,Zack Shipley,Huntington,73.57,149.69,99.79,154.22,403.7,Single-ply,SBD,M
Boys,74.84,11,Houston Alexander,Bullard,72.03,136.08,95.25,165.56,396.89,Single-ply,SBD,M
Boys,74.84,12,Caleb Williams,Frankston,73.21,131.54,77.11,181.44,390.09,Single-ply,SBD,M
Boys,74.84,13,Ray Rosales,Rusk,72.21,145.15,86.18,154.22,385.55,Single-ply,SBD,M
Boys,74.84,14,Evarado Castillo,Diboll,68.58,136.08,70.31,142.88,349.27,Single-ply,SBD,M
Boys,74.84,15,Justin Rackley,Frankston,67.68,113.4,83.91,124.74,322.05,Single-ply,SBD,M
Boys,74.84,DQ,Chase Emerson,Rusk,71.58,108.86,72.57,,,Single-ply,SBD,M
Boys,89.81,1,Luke Carmichael,Palestine Westwood,82.28,181.44,106.59,215.46,503.49,Single-ply,SBD,M
Boys,82.1,2,Trent Tucker,Texarkana Liberty-Eylau,75.84,172.37,108.86,176.9,458.13,Single-ply,SBD,M
Boys,82.1,3,Seth Dykes,Huntington,79.2,158.76,106.59,172.37,437.72,Single-ply,SBD,M
Boys,82.1,4,Hunter Holland,Carthage,79.47,151.95,88.45,190.51,430.91,Single-ply,SBD,M
Boys,82.1,5,Clayton Moore,Carthage,75.57,151.95,97.52,179.17,428.64,Single-ply,SBD,M
Boys,82.1,6,Aaron Lawson,Center,77.11,138.35,86.18,120.2,344.73,Single-ply,SBD,M
Boys,82.1,7,Jessie Davis,Frankston,76.84,117.93,74.84,124.74,317.51,Single-ply,SBD,M
Boys,82.1,DQ,Vinny Cottingham,Bullard,78.47,172.37,,,,Single-ply,SBD,M
Boys,89.81,1,Chris Jeffus,Arp,82.55,224.53,140.61,213.19,578.33,Single-ply,SBD,M
Boys,89.81,2,Zach Howard,Arp,85.18,226.8,113.4,204.12,544.31,Single-ply,SBD,M
Boys,89.81,3,Michael McCune,Carthage,84.46,163.29,102.06,197.31,462.66,Single-ply,SBD,M
Boys,89.81,4,Nathan Sears,Center,83.64,151.95,108.86,165.56,426.38,Single-ply,SBD,M
Boys,89.81,5,Ty Tunstall,Cushing,89.54,147.42,99.79,154.22,401.43,Single-ply,SBD,M
Boys,89.81,6,Dillon Searcy,Bullard,83.73,136.08,92.99,170.1,399.16,Single-ply,SBD,M
Boys,89.81,7,Naylan Phelps,Bullard,85.28,149.69,86.18,158.76,394.63,Single-ply,SBD,M
Boys,89.81,8,Daniel Duran,Rusk,89.54,158.76,90.72,142.88,392.36,Single-ply,SBD,M
Boys,89.81,9,Tyler Warren,Diboll,84.91,120.2,79.38,142.88,342.46,Single-ply,SBD,M
Boys,89.81,10,James Ruiz,Rusk,85.73,115.67,77.11,129.27,322.05,Single-ply,SBD,M
Boys,99.79,1,Jacob Miller,Elkhart,98.88,254.01,156.49,244.94,655.44,Single-ply,SBD,M
Boys,99.79,2,Kevinski Pitts,Center,90.81,226.8,124.74,226.8,578.33,Single-ply,SBD,M
Boys,99.79,3,Kobi Dawn,Texarkana Liberty-Eylau,90.54,185.97,113.4,185.97,485.34,Single-ply,SBD,M
Boys,99.79,4,Rob Villanueva,Diboll,93.26,181.44,92.99,192.78,467.2,Single-ply,SBD,M
Boys,99.79,5,Trevor Rumbelow,Bullard,91.72,183.7,86.18,183.7,453.59,Single-ply,SBD,M
Boys,99.79,6,Shade Harris,Huntington,93.26,149.69,115.67,165.56,430.91,Single-ply,SBD,M
Boys,99.79,7,Dakota Hart,Carthage,95.25,154.22,99.79,170.1,424.11,Single-ply,SBD,M
Boys,99.79,8,Eduardo Miranda,Diboll,92.17,138.35,97.52,140.61,376.48,Single-ply,SBD,M
Boys,99.79,9,Michael Hernandez,Center,93.17,145.15,92.99,138.35,376.48,Single-ply,SBD,M
Boys,99.79,10,Colby Spencer,Cushing,97.34,140.61,88.45,136.08,365.14,Single-ply,SBD,M
Boys,99.79,11,Dakota Dezort,Cushing,94.89,124.74,79.38,140.61,344.73,Single-ply,SBD,M
Boys,109.77,1,Josh Jones,Huntington,102.97,165.56,117.93,192.78,476.27,Single-ply,SBD,M
Boys,109.77,2,Micah Stewart,Carthage,105.69,147.42,95.25,151.95,394.63,Single-ply,SBD,M
Boys,109.77,3,Michael Smith,Center,100.61,140.61,95.25,156.49,392.36,Single-ply,SBD,M
Boys,109.77,4,Jacob Slaughter,Huntington,105.51,142.88,79.38,170.1,392.36,Single-ply,SBD,M
Boys,109.77,5,Miguel Onate,Center,106.41,131.54,99.79,154.22,385.55,Single-ply,SBD,M
Boys,109.77,6,Chris Sneigoski,Huntington,100.61,142.88,83.91,154.22,381.02,Single-ply,SBD,M
Boys,109.77,7,Austin Richardson,Bullard,100.79,138.35,74.84,138.35,351.53,Single-ply,SBD,M
Boys,109.77,DQ,Jacob McKinney,Palestine Westwood,105.87,208.65,,,,Single-ply,SBD,M
Boys,124.74,1,Jared Blair,Rusk,111.95,190.51,127.01,185.97,503.49,Single-ply,SBD,M
Boys,124.74,2,Michael Provost,Cushing,121.74,158.76,90.72,181.44,430.91,Single-ply,SBD,M
Boys,124.74,3,John Webb,Palestine Westwood,114.58,170.1,92.99,154.22,417.3,Single-ply,SBD,M
Boys,124.74,4,Brandon White,Diboll,113.4,158.76,88.45,156.49,403.7,Single-ply,SBD,M
Boys,124.74,5,Dakota Haak,Huntington,111.13,113.4,92.99,142.88,349.27,Single-ply,SBD,M
Boys,124.74,DQ,Austin Huggins,Elkhart,123.1,181.44,,,,Single-ply,SBD,M
Boys,124.74+,1,Reggie Dickson,Rusk,137.17,306.17,149.69,231.33,687.19,Single-ply,SBD,M
Boys,124.74+,2,Marquan Edmond,Texarkana Liberty-Eylau,153.59,204.12,113.4,172.37,489.88,Single-ply,SBD,M
Boys,124.74+,3,Sidney Price,Texarkana Liberty-Eylau,160.75,181.44,142.88,165.56,489.88,Single-ply,SBD,M
Boys,124.74+,4,Charles Ray Jones,Huntington,134.44,167.83,111.13,192.78,471.74,Single-ply,SBD,M
Boys,124.74+,5,Taylor Sill,Diboll,137.26,183.7,120.2,161.03,464.93,Single-ply,SBD,M
Boys,124.74+,6,Yancy Bell,Elkhart,141.79,147.42,124.74,151.95,424.11,Single-ply,SBD,M
Boys,124.74+,7,Daren Franklin,Rusk,161.48,158.76,88.45,145.15,392.36,Single-ply,SBD,M
Boys,124.74+,DQ,Chad Moss,Elkhart,130.36,249.48,,,,Single-ply,SBD,M
