Division,WeightClassKg,Place,Name,Team,BodyweightKg,Best3SquatKg,Best3BenchKg,Best3DeadliftKg,TotalKg,Equipment,Event,Sex
Boys,51.71,1,Dennis Mema,Saginaw,47.17,74.84,43.09,102.06,219.99,Single-ply,SBD,M
Boys,55.79,1,Christian Youngblood,Aledo,54.43,104.33,58.97,124.74,288.03,Single-ply,SBD,M
Boys,55.79,2,Felipe Hernandez,Saginaw,55.34,92.99,68.04,113.4,274.42,Single-ply,SBD,M
Boys,59.87,1,Anthony Cuevas,Saginaw,56.25,129.27,95.25,145.15,369.68,Single-ply,SBD,M
Boys,59.87,2,Ezekiel Mitchell,Springtown,58.51,131.54,63.5,142.88,337.93,Single-ply,SBD,M
Boys,59.87,3,Drake York,Springtown,58.51,120.2,72.57,117.93,310.71,Single-ply,SBD,M
Boys,59.87,4,Tucker Plemmons,Aledo,57.61,81.65,49.9,102.06,233.6,Single-ply,SBD,M
Boys,67.13,1,Marquis Sanders,Saginaw,65.32,167.83,86.18,183.7,437.72,Single-ply,SBD,M
Boys,67.13,2,Maleek Tarver,Saginaw,66.68,167.83,102.06,151.95,421.84,Single-ply,SBD,M
Boys,67.13,3,Sawyer Wachel,Saginaw,62.6,158.76,79.38,149.69,387.82,Single-ply,SBD,M
Boys,67.13,4,Blake Sanders,Springtown,65.09,136.08,86.18,149.69,371.95,Single-ply,SBD,M
Boys,74.84,1,Lewis Blackwell,Saginaw,73.48,167.83,95.25,165.56,428.64,Single-ply,SBD,M
Boys,74.84,2,Evan Glesne,Springtown,70.31,158.76,90.72,167.83,417.3,Single-ply,SBD,M
Boys,74.84,3,Phillip Schneider,Springtown,68.49,163.29,95.25,145.15,403.7,Single-ply,SBD,M
Boys,74.84,4,Chanse Lee,Springtown,71.67,147.42,97.52,154.22,399.16,Single-ply,SBD,M
Boys,74.84,5,Chris Hammond,Saginaw,69.4,147.42,90.72,149.69,387.82,Single-ply,SBD,M
Boys,74.84,6,Reed Bertram,Aledo,72.57,136.08,99.79,122.47,358.34,Single-ply,SBD,M
Boys,82.1,1,Chance Richards,Saginaw,76.66,165.56,106.59,142.88,415.04,Single-ply,SBD,M
Boys,82.1,2,John Hoystradt,Saginaw,76.66,151.95,92.99,142.88,387.82,Single-ply,SBD,M
Boys,82.1,3,Matt Brunk,Saginaw,78.47,138.35,92.99,151.95,383.29,Single-ply,SBD,M
Boys,82.1,4,Chance Nelson,Springtown,79.83,149.69,81.65,142.88,374.21,Single-ply,SBD,M
Boys,82.1,5,Garrett Mauldin,Springtown,79.83,124.74,83.91,145.15,353.8,Single-ply,SBD,M
Boys,89.81,1,Juan Diaz,Saginaw,83.91,215.46,145.15,190.51,551.11,Single-ply,SBD,M
Boys,89.81,2,Stephan Smith,Saginaw,87.09,188.24,111.13,183.7,483.08,Single-ply,SBD,M
Boys,89.81,3,Tristan Williams,Aledo,87.72,181.44,127.01,174.63,483.08,Single-ply,SBD,M
Boys,89.81,4,Tanner Dennis,Aledo,88.45,151.95,117.93,165.56,435.45,Single-ply,SBD,M
Boys,89.81,5,Robert Dease,Springtown,86.5,161.03,83.91,158.76,403.7,Single-ply,SBD,M
Boys,99.79,1,Cale Hatfield,Saginaw,96.16,174.63,111.13,183.7,469.47,Single-ply,SBD,M
Boys,99.79,2,Jobani Chavez,Springtown,92.76,181.44,86.18,165.56,433.18,Single-ply,SBD,M
Boys,99.79,3,Jephthe Nkashama,Saginaw,90.26,151.95,90.72,136.08,378.75,Single-ply,SBD,M
Boys,99.79,DQ,Carter Bobo,Springtown,99.11,149.69,,149.69,,Single-ply,SBD,M
Boys,109.77,1,Quentin Wruble,Aledo,102.06,181.44,127.01,185.97,494.42,Single-ply,SBD,M
Boys,109.77,2,Eron Williams,Saginaw,104.78,158.76,124.74,174.63,458.13,Single-ply,SBD,M
Boys,109.77,3,Jordan Hernandez,Saginaw,106.14,149.69,106.59,170.1,426.38,Single-ply,SBD,M
Boys,124.74,1,Wylie Reinhardt,Saginaw,117.03,226.8,149.69,226.8,603.28,Single-ply,SBD,M
Boys,124.74,2,Andy Steed,Aledo,113.4,167.83,90.72,158.76,417.3,Single-ply,SBD,M
Boys,124.74+,1,Joe Rosas,Saginaw,141.07,260.82,174.63,204.12,639.57,Single-ply,SBD,M
Boys,124.74+,2,Corbin Bullington,Aledo,156.94,240.4,145.15,249.48,635.03,Single-ply,SBD,M
