Place,Sex,Name,Event,Division,WeightClassKg,Equipment,Team,State,BodyweightKg,Squat1Kg,Squat2Kg,Squat3Kg,Best3SquatKg,Bench1Kg,Bench2Kg,Bench3Kg,Best3BenchKg,Deadlift1Kg,Deadlift2Kg,Deadlift3Kg,Best3DeadliftKg,TotalKg,BirthYear
1,M,Dalton LaCoe,SBD,M-C,53,Single-ply,LC,PA,52.4,185,195,205,205,120,125,127.5,127.5,227.5,242.5,250,250,582.5,1995
2,M,Kenneth Johnson,SBD,M-C,53,Single-ply,W-Park,WI,52.6,135,147.5,162.5,162.5,82.5,87.5,-95,87.5,150,170,182.5,182.5,432.5,1997
3,M,Muhammad Shahid Kamran,SBD,M-C,53,Single-ply,USNA,MD,52.8,130,142.5,-145,142.5,82.5,92.5,97.5,97.5,150,157.5,162.5,162.5,402.5,1995
DQ,M,Connor Gruntz,SBD,M-C,53,Single-ply,LA Tech,LA,52.2,-135,-135,-135,,-70,77.5,-85,77.5,130,-135,-135,130,,1996
1,M,Logan Grimm,SBD,M-C,59,Single-ply,TAMU,TX,59,232.5,-240,-240,232.5,112.5,-117.5,117.5,117.5,215,222.5,-227.5,222.5,572.5,1997
2,M,Jess Rutledge,SBD,M-C,59,Single-ply,UTSA,TX,59,210,-225,-225,210,117.5,122.5,-127.5,122.5,202.5,-210,-210,202.5,535,1994
3,M,Hector Bustillos,SBD,M-C,59,Single-ply,UT,TX,58.2,177.5,187.5,-197.5,187.5,105,-112.5,-112.5,105,200,212.5,-242.5,212.5,505,1996
4,M,Tyler Simar,SBD,M-C,59,Single-ply,ULL,LA,58.4,172.5,-180,-185,172.5,122.5,127.5,132.5,132.5,190,-200,-202.5,190,495,1996
5,M,Arnold Delgadillo,SBD,M-C,59,Single-ply,TAMU,TX,58.8,-172.5,172.5,-182.5,172.5,-125,125,-137.5,125,175,185,-190,185,482.5,1997
6,M,Eric Hernandez,SBD,M-C,59,Single-ply,TAMU,TX,57.8,155,-165,165,165,95,100,107.5,107.5,177.5,185,-197.5,185,457.5,1996
DQ,M,Mark Barbosa,SBD,M-C,59,Single-ply,TAMU,TX,57.4,-170,-180,-180,,110,112.5,-115,112.5,180,-190,192.5,192.5,,1996
DQ,M,Isaias Gonzalez,SBD,M-C,59,Single-ply,UHD,TX,58.6,-185,-185,-185,,-132.5,132.5,-152.5,132.5,192.5,207.5,-212.5,207.5,,1994
1,M,Charles Okpoko,SBD,M-C,66,Single-ply,UT,TX,65.8,-285,285,-300,285,175,182.5,185,185,255,-257.5,-265,255,725,1995
2,M,Kenny Nguyen,SBD,M-C,66,Single-ply,UHD,TX,65.6,230,240,-245,240,220,-230,-230,220,220,-230,-230,220,680,1995
3,M,Blake Ricalde,SBD,M-C,66,Single-ply,LSU,LA,66,220,227.5,-235,227.5,130,140,145,145,210,220,227.5,227.5,600,1994
4,M,Vincent Moon,SBD,M-C,66,Single-ply,USNA,MD,65.8,205,-210,-210,205,-165,165,-172.5,165,-192.5,195,200,200,570,1994
5,M,Jeffry Book,SBD,M-C,66,Single-ply,URI,NJ,66,195,202.5,-210,202.5,160,-170,-170,160,197.5,-207.5,-210,197.5,560,1994
6,M,Jacob Keesee,SBD,M-C,66,Single-ply,T-McC,GA,65,192.5,-205,-205,192.5,127.5,-135,135,135,197.5,205,-212.5,205,532.5,1995
7,M,Brandon Canson,SBD,M-C,66,Single-ply,UT,TX,65.2,-177.5,177.5,187.5,187.5,112.5,-120,-120,112.5,-215,220,227.5,227.5,527.5,1995
8,M,Quinton Gabara,SBD,M-C,66,Single-ply,NU,MA,65.8,195,-205,205,205,130,-135,-135,130,180,192.5,-210,192.5,527.5,1997
9,M,Edward Su,SBD,M-C,66,Single-ply,UT,TX,65.6,-165,165,175,175,117.5,125,-130,125,205,212.5,-217.5,212.5,512.5,1995
10,M,Michael Cheung,SBD,M-C,66,Single-ply,NU,MA,65,195,-205,-205,195,107.5,112.5,120,120,160,175,190,190,505,1994
11,M,Nick Adams,SBD,M-C,66,Single-ply,ULL,LA,64,167.5,170,177.5,177.5,115,122.5,-125,122.5,187.5,195,-205,195,495,1995
12,M,Patrick Piedad,SBD,M-C,66,Single-ply,VMI,VA,65.6,165,-185,190,190,107.5,-115,115,115,170,185,-195,185,490,1994
1,M,Stephen Lehew,SBD,M-C,74,Single-ply,TAMU,TX,73.8,-275,275,280,280,200,207.5,212.5,212.5,285,300,315,315,807.5,1995
2,M,Angel Moreno,SBD,M-C,74,Single-ply,UTSA,TX,73.6,270,282.5,-290,282.5,185,192.5,195,195,235,245,-250,245,722.5,1996
3,M,Nicholas Anzlaone,SBD,M-C,74,Single-ply,LSU,LA,73.6,212.5,222.5,-232.5,222.5,130,140,145,145,212.5,225,-235,225,592.5,1994
4,M,Gustavo Maldonado,SBD,M-C,74,Single-ply,SHSU,TX,72.4,220,222.5,227.5,227.5,120,127.5,130,130,-227.5,227.5,230,230,587.5,1993
5,M,Alec DeLeon,SBD,M-C,74,Single-ply,UHD,TX,73.6,205,-227.5,227.5,227.5,140,147.5,152.5,152.5,207.5,-227.5,-232.5,207.5,587.5,1996
6,M,Kevin Cole,SBD,M-C,74,Single-ply,NU,MA,72.2,187.5,200,207.5,207.5,145,-150,150,150,205,217.5,222.5,222.5,580,1995
7,M,Zachary May,SBD,M-C,74,Single-ply,CC,IA,73.6,215,225,-227.5,225,-132.5,132.5,-140,132.5,207.5,222.5,-235,222.5,580,1994
8,M,Donald Baker,SBD,M-C,74,Single-ply,ASU,TX,73.2,205,-217.5,217.5,217.5,142.5,-155,155,155,205,-215,-215,205,577.5,1995
9,M,Connor Loskie,SBD,M-C,74,Single-ply,TAMU,TX,71.8,185,195,200,200,157.5,165,-175,165,192.5,202.5,-210,202.5,567.5,1994
10,M,Thomas Step,SBD,M-C,74,Single-ply,TAMU,OK,70.8,195,202.5,-215,202.5,105,115,127.5,127.5,207.5,217.5,227.5,227.5,557.5,1995
11,M,Colin Capparelle,SBD,M-C,74,Single-ply,URI,CT,73,185,190,195,195,140,145,147.5,147.5,185,200,215,215,557.5,1994
12,M,Roland Whitney,SBD,M-C,74,Single-ply,ULL,LA,71.8,192.5,197.5,202.5,202.5,147.5,152.5,-157.5,152.5,192.5,200,-205,200,555,1997
13,M,Jason Poling,SBD,M-C,74,Single-ply,VMI,VA,73.8,-212.5,212.5,-220,212.5,122.5,127.5,132.5,132.5,205,-212.5,-212.5,205,550,1995
14,M,Nicholas DeSantis,SBD,M-C,74,Single-ply,NU,MA,73.4,-205,205,215,215,105,115,-117.5,115,205,215,-227.5,215,545,1993
15,M,Michael Coppolino,SBD,M-C,74,Single-ply,VMI,NY,74,165,177.5,185,185,-105,-105,105,105,227.5,240,245,245,535,1994
16,M,Matthew Merry,SBD,M-C,74,Single-ply,UT,TX,69.6,165,185,-192.5,185,125,137.5,-150,137.5,185,,,185,507.5,1995
17,M,Mitch Sanchez,SBD,M-C,74,Single-ply,SHSU,TX,73.6,175,-185,-185,175,-115,115,-125,115,175,185,192.5,192.5,482.5,1994
DQ,M,Scott Reviere,SBD,M-C,74,Single-ply,ULL,LA,71,225,-230,237.5,237.5,137.5,142.5,147.5,147.5,-227.5,-227.5,-227.5,,,1996
DQ,M,Henry Hsu,SBD,M-C,74,Single-ply,NU,MA,72.8,242.5,250,255,255,-170,-170,-170,,245,260,-272.5,260,,1994
DQ,M,Jake Martinez,SBD,M-C,74,Single-ply,UTSA,TX,73,240,250,-255,250,160,167.5,-170,167.5,-230,-230,-230,,,1993
DQ,M,Kyle Duplantis,SBD,M-C,74,Single-ply,ULL,LA,73.2,180,187.5,-195,187.5,-137.5,-137.5,-137.5,,192.5,197.5,-202.5,197.5,,1996
DQ,M,Adrian Janowski,SBD,M-C,74,Single-ply,UT,TX,73.6,200,212.5,-222.5,212.5,135,145,-152.5,145,-207.5,-207.5,-207.5,,,1995
1,M,Taylor Raynard,SBD,M-C,83,Single-ply,UTSA,TX,82.5,307.5,-317.5,317.5,317.5,-185,185,,185,285,295,300,300,802.5,1997
2,M,Coy Jorden,SBD,M-C,83,Single-ply,UTSA,TX,81.5,295,-307.5,-307.5,295,140,190,195,195,280,290,-312.5,290,780,1996
3,M,Aaron Pomerantz,SBD,M-C,83,Single-ply,UT,TX,80.2,242.5,257.5,262.5,262.5,242.5,262.5,272.5,272.5,-220,220,235,235,770,1995
4,M,James Marcotte,SBD,M-C,83,Single-ply,URI,MA,82.5,-265,265,280,280,215,227.5,-235,227.5,235,245,-250,245,752.5,1991
5,M,Ian MacPherson,SBD,M-C,83,Single-ply,BC,MA,82.6,280,292.5,302.5,302.5,-190,190,195,195,235,255,-272.5,255,752.5,1994
6,M,Anthony White,SBD,M-C,83,Single-ply,USNA,MD,81.3,-255,255,265,265,205,215,225,225,237.5,252.5,-260,252.5,742.5,1992
7,M,Thomas Gottschalk,SBD,M-C,83,Single-ply,URI,CT,82.6,262.5,270,280,280,-195,195,-200,195,255,267.5,-275,267.5,742.5,1994
8,M,Jonathan Voltaire,SBD,M-C,83,Single-ply,TAMU,TX,82,267.5,275,282.5,282.5,157.5,165,172.5,172.5,280,-295,-295,280,735,1995
9,M,Khalid Schuler,SBD,M-C,83,Single-ply,UTSA,TX,82.7,277.5,-290,290,290,172.5,177.5,-182.5,177.5,265,-275,-275,265,732.5,1996
10,M,James Guillory,SBD,M-C,83,Single-ply,ULL,LA,81.5,247.5,252.5,-260,252.5,220,225,227.5,227.5,-240,240,-245,240,720,1994
11,M,Jeremiah Velasco,SBD,M-C,83,Single-ply,TAMU,TX,81.9,260,-267.5,270,270,170,175,-182.5,175,275,-277.5,-277.5,275,720,1995
12,M,Andrew Reiss,SBD,M-C,83,Single-ply,ULL,LA,82.2,240,250,260,260,207.5,215,220,220,235,-245,-245,235,715,1994
13,M,Yuuki Sato,SBD,M-C,83,Single-ply,NU,MA,81.6,245,255,265,265,170,175,182.5,182.5,240,250,-255,250,697.5,1994
14,M,Joseph Francisco,SBD,M-C,83,Single-ply,USNA,MD,82.3,255,-267.5,-272.5,255,160,172.5,-182.5,172.5,-250,250,267.5,267.5,695,1995
15,M,Clinton Kinley,SBD,M-C,83,Single-ply,LSU,LA,82,265,-270,270,270,182.5,-192.5,-192.5,182.5,240,-250,-250,240,692.5,1996
16,M,Joshua Williams,SBD,M-C,83,Single-ply,ASU,TX,81.6,252.5,-272.5,272.5,272.5,100,142.5,155,155,210,-227.5,227.5,227.5,655,1995
17,M,Joshua Bowen,SBD,M-C,83,Single-ply,VMI,VA,81.9,240,-257.5,-257.5,240,147.5,157.5,-170,157.5,232.5,242.5,-255,242.5,640,1994
18,M,Travis Theall,SBD,M-C,83,Single-ply,LSU,LA,81.4,220,230,247.5,247.5,140,150,-157.5,150,235,-247.5,-247.5,235,632.5,1995
19,M,John Goodyear,SBD,M-C,83,Single-ply,NU,NJ,81.3,202.5,207.5,217.5,217.5,157.5,165,175,175,210,222.5,235,235,627.5,1995
20,M,Adam Tuppen,SBD,M-C,83,Single-ply,UT,TX,81.6,215,230,-232.5,230,150,160,-165,160,215,227.5,-237.5,227.5,617.5,1994
21,M,Garrett Beard,SBD,M-C,83,Single-ply,USNA,MD,81.9,-202.5,202.5,215,215,165,-170,170,170,215,220,-227.5,220,605,1992
22,M,Diego Lozano,SBD,M-C,83,Single-ply,UT,TX,81.9,185,197.5,207.5,207.5,145,-152.5,152.5,152.5,230,240,-245,240,600,1993
23,M,Philip Bolton,SBD,M-C,83,Single-ply,ULL,LA,81.3,212.5,215,227.5,227.5,122.5,130,-132.5,130,227.5,-235,237.5,237.5,595,1995
24,M,Trent Wein,SBD,M-C,83,Single-ply,UT,TX,82.3,182.5,192.5,202.5,202.5,135,145,152.5,152.5,227.5,240,-250,240,595,1994
25,M,Joel Hunter,SBD,M-C,83,Single-ply,USNA,MD,81.1,-215,215,-222.5,215,145,155,157.5,157.5,192.5,207.5,210,210,582.5,1994
26,M,Kyle Brennan,SBD,M-C,83,Single-ply,SHSU,TX,81.8,215,225,-232.5,225,115,125,-135,125,215,-227.5,-227.5,215,565,1997
27,M,Brandon Canlas,SBD,M-C,83,Single-ply,USNA,MD,81.2,185,187.5,-202.5,187.5,145,150,152.5,152.5,210,220,-230,220,560,1993
28,M,Tristan Robles,SBD,M-C,83,Single-ply,TAMU,TX,79.1,182.5,195,200,200,137.5,145,-150,145,192.5,207.5,-210,207.5,552.5,1996
29,M,Daniel Reagan,SBD,M-C,83,Single-ply,URI,MA,81.4,225,-232.5,-232.5,225,85,-137.5,-142.5,85,220,230,-235,230,540,1994
30,M,Jamil Hinedi,SBD,M-C,83,Single-ply,TAMU,TX,81.5,170,185,-190,185,120,125,130,130,-190,190,200,200,515,1995
DQ,M,Austin Stephen,SBD,M-C,83,Single-ply,TAMU,TX,80.8,280,292.5,300,300,162.5,165,-170,165,-285,-290,-290,,,1995
DQ,M,James Faso,SBD,M-C,83,Single-ply,NU,NH,81.4,230,237.5,245,245,-140,-140,-140,,240,250,-265,250,,1992
DQ,M,Draven Collins,SBD,M-C,83,Single-ply,LA Tech,LA,81.7,-280,-280,-280,,175,-182.5,-182.5,175,215,-222.5,-222.5,215,,1997
DQ,M,Aaron Duran,SBD,M-C,83,Single-ply,UT,TX,82.2,-207.5,207.5,-212.5,207.5,-137.5,137.5,-142.5,137.5,-232.5,-232.5,-232.5,,,1996
DQ,M,Ethan Durham,SBD,M-C,83,Single-ply,USNA,MD,82.4,-242.5,247.5,-252.5,247.5,147.5,155,160,160,-235,-235,-235,,,1995
1,M,Abram Guerra,SBD,M-C,93,Single-ply,TAMU,TX,92.2,310,320,330,330,225,230,237.5,237.5,282.5,292.5,-302.5,292.5,860,1995
2,M,Michael Davis,SBD,M-C,93,Single-ply,UT,TX,92.6,305,320,-327.5,320,200,210,215,215,310,320,-327.5,320,855,1995
3,M,Ashton Rouska,SBD,M-C,93,Single-ply,UTSA,TX,85,-312.5,312.5,-317.5,312.5,205,-210,-210,205,300,310,-342.5,310,827.5,1997
4,M,Curtis Allen,SBD,M-C,93,Single-ply,USNA,MD,92.2,290,-305,-305,290,225,230,-235,230,280,287.5,295,295,815,1992
5,M,Thomas Reilly,SBD,M-C,93,Single-ply,NU,NH,91.6,-300,305,315,315,190,197.5,-205,197.5,-260,260,-295,260,772.5,1992
6,M,Alexander Harbeson,SBD,M-C,93,Single-ply,USNA,MD,92.4,267.5,-275,-280,267.5,182.5,195,207.5,207.5,260,270,-277.5,270,745,1992
7,M,Carter Burn,SBD,M-C,93,Single-ply,USNA,MD,91.6,235,245,252.5,252.5,152.5,165,-172.5,165,270,282.5,-292.5,282.5,700,1996
8,M,David Apotheker,SBD,M-C,93,Single-ply,BU,MA,88.8,235,245,-255,245,162.5,170,-182.5,170,262.5,275,282.5,282.5,697.5,1993
9,M,Raymond Chow,SBD,M-C,93,Single-ply,USNA,MD,91.6,240,-245,-245,240,197.5,-210,-210,197.5,245,255,-262.5,255,692.5,1994
10,M,Seth Watlington,SBD,M-C,93,Single-ply,USNA,MD,90.8,237.5,-247.5,-252.5,237.5,152.5,160,170,170,252.5,262.5,-275,262.5,670,1994
11,M,Tyler Logan,SBD,M-C,93,Single-ply,TAMU,TX,92.6,227.5,235,255,255,152.5,157.5,-172.5,157.5,252.5,-265,-272.5,252.5,665,1996
12,M,Chris Broussard,SBD,M-C,93,Single-ply,ULL,LA,90.6,-227.5,230,242.5,242.5,145,152.5,160,160,245,250,260,260,662.5,1996
13,M,Tevin Guillot,SBD,M-C,93,Single-ply,ULL,LA,92.2,227.5,-235,-240,227.5,150,155,162.5,162.5,230,245,252.5,252.5,642.5,1993
14,M,Alex Gordon,SBD,M-C,93,Single-ply,TAMU,TX,92.5,217.5,-222.5,-227.5,217.5,-157.5,157.5,-182.5,157.5,247.5,-267.5,267.5,267.5,642.5,1995
15,M,Benjamin Hogin,SBD,M-C,93,Single-ply,USNA,MD,91.6,215,225,-232.5,225,165,-175,175,175,225,240,-250,240,640,1996
16,M,Nick McCauley,SBD,M-C,93,Single-ply,NU,MA,84.4,-230,-230,240,240,130,137.5,145,145,-210,225,232.5,232.5,617.5,1995
17,M,Patrick Morgan,SBD,M-C,93,Single-ply,URI,MA,91,225,237.5,-242.5,237.5,-115,-115,115,115,235,247.5,-257.5,247.5,600,1994
18,M,Brandon Noble,SBD,M-C,93,Single-ply,LSU,LA,91,207.5,212.5,217.5,217.5,150,155,162.5,162.5,200,212.5,220,220,600,1995
19,M,Kyle Meurer,SBD,M-C,93,Single-ply,TAMU,TX,90.8,207.5,220,-230,220,125,137.5,-145,137.5,210,222.5,232.5,232.5,590,1996
20,M,Trevor Nathan,SBD,M-C,93,Single-ply,NU,NY,90.8,212.5,222.5,227.5,227.5,110,117.5,122.5,122.5,205,215,230,230,580,1994
21,M,Bryson Chanson,SBD,M-C,93,Single-ply,ULL,LA,92,202.5,210,220,220,127.5,-132.5,132.5,132.5,215,220,227.5,227.5,580,1995
22,M,Farhan Siddiqui,SBD,M-C,93,Single-ply,TAMU,TX,90.8,-205,205,217.5,217.5,110,115,117.5,117.5,235,-255,-255,235,570,1993
23,M,Zach Stout,SBD,M-C,93,Single-ply,ULL,LA,91,210,217.5,222.5,222.5,125,130,-135,130,207.5,215,-225,215,567.5,1995
24,M,Evan Foster,SBD,M-C,93,Single-ply,LSU,LA,92.8,242.5,-255,-255,242.5,85,,,85,217.5,225,-230,225,552.5,1996
DQ,M,Jordan Glenn,SBD,M-C,93,Single-ply,SHSU,TX,90.8,282.5,292.5,-297.5,292.5,-220,-220,-220,,,,,,,1993
DQ,M,Eric Johnson,SBD,M-C,93,Single-ply,VMI,VA,91,-297.5,-307.5,-325,,-197.5,,,,,,,,,1996
DQ,M,Leonidas Brooks,SBD,M-C,93,Single-ply,LA Tech,TX,92,-290,-295,-295,,-210,,,,,,,,,1995
DQ,M,August Woodruff,SBD,M-C,93,Single-ply,TAMU,TX,92.2,275,290,305,305,195,205,210,210,-252.5,-252.5,-252.5,,,1996
1,M,Mitchell Fountain,SBD,M-C,105,Single-ply,LSU,LA,103.6,335,355,-365,355,207.5,215,-227.5,215,317.5,337.5,-350.5,337.5,907.5,1995
2,M,Trey Ryder,SBD,M-C,105,Single-ply,ULL,LA,102.6,260,272.5,282.5,282.5,-202.5,202.5,210,210,260,275,-280,275,767.5,1996
3,M,Christian Baldoni,SBD,M-C,105,Single-ply,PSU,PA,93.7,-302.5,302.5,-312.5,302.5,192.5,197.5,-205,197.5,235,250,265,265,765,1993
4,M,Caleb Lamberth,SBD,M-C,105,Single-ply,UTSA,TX,101.4,292.5,300,-305,300,175,-185,-185,175,260,270,-292.5,270,745,1996
5,M,Logan Herrington,SBD,M-C,105,Single-ply,SHSU,TX,101.8,237.5,247.5,255,255,155,165,175,175,272.5,285,295,295,725,1994
6,M,Wesley Knox,SBD,M-C,105,Single-ply,NU,MA,103.6,260,267.5,272.5,272.5,175,182.5,-190,182.5,225,237.5,245,245,700,1995
7,M,Shawn Gardner,SBD,M-C,105,Single-ply,VMI,VA,102.5,257.5,-272.5,-272.5,257.5,167.5,-177.5,177.5,177.5,247.5,260,-267.5,260,695,1994
8,M,Jonathan Lwowski,SBD,M-C,105,Single-ply,UTSA,TX,95.1,245,255,-260,255,155,-160,160,160,270,277.5,-285,277.5,692.5,1994
9,M,Joseph Frengel,SBD,M-C,105,Single-ply,TEMP,TX,94,-240,240,-260,240,-165,165,-170,165,-240,240,-250,240,645,1997
10,M,Wyatt Fagan,SBD,M-C,105,Single-ply,VMI,VA,103.2,220,235,242.5,242.5,130,-137.5,-137.5,130,265,-272.5,-272.5,265,637.5,1994
11,M,John Bradshaw,SBD,M-C,105,Single-ply,PSU,PA,103.7,-240,-240,240,240,130,137.5,-145,137.5,-245,245,-257.5,245,622.5,1995
12,M,Kaleb Murray,SBD,M-C,105,Single-ply,ULL,LA,100.1,202.5,212.5,222.5,222.5,137.5,142.5,147.5,147.5,227.5,235,-237.5,235,605,1995
13,M,Josh Miller,SBD,M-C,105,Single-ply,SHSU,TX,104.7,215,-222.5,222.5,222.5,127.5,-222.5,,127.5,220,-225,-225,220,570,1995
DQ,M,Grant Senft,SBD,M-C,105,Single-ply,PSU,PA,103.7,-257.5,257.5,-262.5,257.5,-147.5,147.5,-152.5,147.5,-235,-235,-235,,,1995
DQ,M,Joseph Thibodaux,SBD,M-C,105,Single-ply,LA Tech,LA,103.7,-315,-315,320,320,-192.5,-195,-195,,245,255,265,265,,1997
1,M,Jesse Burttschell,SBD,M-C,120,Single-ply,TAMU,TX,119.2,340,355,365,365,265,275,282.5,282.5,307.5,320,327.5,327.5,975,1993
2,M,Chris Hughes #2,SBD,M-C,120,Single-ply,NU,MA,117.2,365,382.5,-390,382.5,212.5,222.5,-227.5,222.5,280,-300,-300,280,885,1993
3,M,Faithful Alabi,SBD,M-C,120,Single-ply,UTSA,TX,116.6,332.5,-345,345,345,-197.5,197.5,200,200,307.5,312.5,-340,312.5,857.5,1995
4,M,Matt Sohmer,SBD,M-C,120,Single-ply,SUNY,NY,116.2,345,365,-377.5,365,130,135,140,140,322.5,342.5,350,350,855,1993
5,M,Matt Hughes,SBD,M-C,120,Single-ply,NU,NH,110.9,325,-340,-340,325,200,-210,-210,200,295,-305,-307.5,295,820,1993
6,M,Dakotta Cooksy,SBD,M-C,120,Single-ply,SHSU,TX,109.7,287.5,295,317.5,317.5,187.5,195,202.5,202.5,275,287.5,-310,287.5,807.5,1995
7,M,David Verzwyvelt,SBD,M-C,120,Single-ply,LA Tech,LA,115.1,295,305,315,315,180,185,192.5,192.5,245,260,272.5,272.5,780,1996
8,M,Nathaniel Flores,SBD,M-C,120,Single-ply,SHSU,TX,111.4,255,262.5,280,280,175,187.5,192.5,192.5,232.5,242.5,252.5,252.5,725,1996
9,M,Connor Qualls,SBD,M-C,120,Single-ply,TAMU,TX,109.6,245,255,262.5,262.5,175,185,192.5,192.5,225,237.5,242.5,242.5,697.5,1995
10,M,Eric Jacques,SBD,M-C,120,Single-ply,NU,MA,109.2,245,252.5,257.5,257.5,160,-165,-165,160,-260,260,-285,260,677.5,1994
11,M,Peter Hoang,SBD,M-C,120,Single-ply,TAMU,TX,118.8,-247.5,247.5,265,265,165,175,182.5,182.5,215,225,-242.5,225,672.5,1993
12,M,Greg Ormiston,SBD,M-C,120,Single-ply,TAMU,TX,117.4,240,247.5,255,255,155,162.5,165,165,215,222.5,-250,222.5,642.5,1993
13,M,Malcolm Pringle,SBD,M-C,120,Single-ply,SHSU,TX,111.1,-215,215,227.5,227.5,147.5,157.5,167.5,167.5,215,227.5,240,240,635,1996
14,M,Isaac Valera,SBD,M-C,120,Single-ply,SHSU,TX,117.4,205,210,225,225,142.5,152.5,162.5,162.5,225,237.5,245,245,632.5,1993
DQ,M,Erik Golabek,SBD,M-C,120,Single-ply,PSU,PA,116.3,302.5,-315,317.5,317.5,-220,-227.5,-227.5,,232.5,252.5,-260,252.5,,1993
1,M,Tim Johnson,SBD,M-C,120+,Single-ply,LSU,LA,136.1,355,-365,365,365,230,-237.5,-237.5,230,325,-343.5,-343.5,325,920,1993
2,M,Donald Treglia,SBD,M-C,120+,Single-ply,LA Tech,LA,137.8,310,,,310,180,-237.5,-237.5,180,260,272.5,302.5,302.5,792.5,1996
3,M,Tyler Bergeron,SBD,M-C,120+,Single-ply,ULL,LA,160.3,277.5,287.5,-300,287.5,-197.5,197.5,205,205,242.5,250,-257.5,250,742.5,1993
4,M,Bronson Burks,SBD,M-C,120+,Single-ply,ASU,TX,133,290,305,-320,305,130,142.5,-145,142.5,265,280,292.5,292.5,740,1997
5,M,John Dumas,SBD,M-C,120+,Single-ply,ULL,LA,120.8,272.5,285,300,300,172.5,180,187.5,187.5,225,232.5,240,240,727.5,1991
6,M,Zachary Neuschaefer,SBD,M-C,120+,Single-ply,NU,MA,128.6,255,270,280,280,177.5,190,-200,190,210,225,-257.5,225,695,1992
7,M,Jose Alaniz,SBD,M-C,120+,Single-ply,SHSU,TX,137,225,232.5,240,240,152.5,170,182.5,182.5,205,212.5,220,220,642.5,1993
1,M,Brandon Sullivan,SBD,MR-C,53,Raw,PSU,PA,53,117.5,130,140,140,60,67.5,75,75,102.5,115,127.5,127.5,342.5,1996
1,M,Khemarintr Suwanchote,SBD,MR-C,59,Raw,UW-Tac,WA,58.4,100,125,,125,110,112.5,117.5,117.5,142.5,187.5,-200,187.5,430,1993
2,M,Roman Fronzaglia,SBD,MR-C,59,Raw,FIU,FL,58.6,115,122.5,-135,122.5,90,97.5,100,100,172.5,182.5,-192.5,182.5,405,1995
3,M,Patrick Shamma,SBD,MR-C,59,Raw,LSU,LA,58.8,112.5,122.5,130,130,-72.5,-77.5,77.5,77.5,152.5,165,170,170,377.5,1995
1,M,Alex McQuillen,SBD,MR-C,66,Raw,OSU,OH,66,200,207.5,-212.5,207.5,117.5,120,122.5,122.5,215,222.5,-227.5,222.5,552.5,1995
2,M,Noel Tuvera,SBD,MR-C,66,Raw,RUT,NJ,64.2,175,185,192.5,192.5,115,122.5,-127.5,122.5,195,215,-227.5,215,530,1996
3,M,Dallas Bey,SBD,MR-C,66,Raw,RUT,NJ,65.2,170,180,-185,180,137.5,-145,-145,137.5,182.5,192.5,-205,192.5,510,1995
4,M,Ben Winder,SBD,MR-C,66,Raw,FCGU,FL,66,155,170,175,175,122.5,-132.5,-132.5,122.5,185,195,-210,195,492.5,1995
5,M,Kevin Lam,SBD,MR-C,66,Raw,OSU,OH,63.1,137.5,-145,145,145,117.5,122.5,-127.5,122.5,182.5,187.5,195,195,462.5,1999
6,M,Promepetch Suwanchote,SBD,MR-C,66,Raw,UW-Tac,WA,64.2,137.5,147.5,-157.5,147.5,-95,95,100,100,182.5,190,197.5,197.5,445,1994
7,M,Jake Lopez,SBD,MR-C,66,Raw,FIU,FL,63.9,142.5,155,162.5,162.5,82.5,92.5,-95,92.5,175,187.5,-205,187.5,442.5,1991
8,M,Tyler Coleman,SBD,MR-C,66,Raw,OSU,OH,63.5,147.5,155,157.5,157.5,92.5,95,97.5,97.5,165,170,-175,170,425,1997
9,M,Taylor Yohe,SBD,MR-C,66,Raw,USNA,MD,65.2,137.5,145,152.5,152.5,92.5,97.5,-102.5,97.5,152.5,160,172.5,172.5,422.5,1995
10,M,Richard Lisi,SBD,MR-C,66,Raw,URI,RI,65,130,140,-147.5,140,105,110,-112.5,110,-155,157.5,165,165,415,1996
11,M,Carlos Velasquez,SBD,MR-C,66,Raw,FIU,FL,62.8,120,137.5,147.5,147.5,90,-102.5,-102.5,90,155,165,175,175,412.5,1993
12,M,Cameron Ysidron,SBD,MR-C,66,Raw,LSU,LA,65.8,-142.5,142.5,-152.5,142.5,85,-90,90,90,175,-180,180,180,412.5,1996
13,M,Gustavo Gonzalez,SBD,MR-C,66,Raw,UW-Tac,WA,64.8,130,137.5,-140,137.5,87.5,90,-92.5,90,-175,182.5,-187.5,182.5,410,1995
14,M,Jake Zerner,SBD,MR-C,66,Raw,UDel,NY,64.4,120,130,137.5,137.5,70,75,-80,75,165,180,187.5,187.5,400,1996
15,M,Yen Le,SBD,MR-C,66,Raw,UW-Tac,WA,65.6,132.5,137.5,142.5,142.5,82.5,85,-87.5,85,152.5,160,170,170,397.5,1995
16,M,Louis Levine,SBD,MR-C,66,Raw,UMD,MD,62.5,130,140,147.5,147.5,72.5,77.5,82.5,82.5,142.5,157.5,-167.5,157.5,387.5,1994
17,M,Coleman Moody,SBD,MR-C,66,Raw,USNA,MD,65.1,125,135,-140,135,75,80,-82.5,80,165,172.5,-180,172.5,387.5,1997
DQ,M,Matthew Alvarez,SBD,MR-C,66,Raw,UW-Tac,WA,64.4,-132.5,-142.5,-142.5,,90,92.5,-95,92.5,175,-182.5,182.5,182.5,,1994
DQ,M,William T. Armstrong,SBD,MR-C,66,Raw,FCGU,FL,65.9,142.5,-150,-150,142.5,-112.5,-117.5,-117.5,,157.5,162.5,-182.5,162.5,,1996
1,M,Peter Hoang,SBD,MR-C,74,Raw,RUT,NJ,73.7,207.5,217.5,-225,217.5,-167.5,167.5,-175,167.5,260,275,-282.5,275,660,1993
2,M,Andrew Sandoval,SBD,MR-C,74,Raw,UTSA,TX,71.8,190,205,-212.5,205,142.5,150,-155,150,230,237.5,247.5,247.5,602.5,1992
3,M,Kyle Coogan,SBD,MR-C,74,Raw,Fram,MA,72.4,182.5,-200,200,200,115,122.5,-132.5,122.5,250,267.5,-277.5,267.5,590,1994
4,M,Thomas Evans,SBD,MR-C,74,Raw,USMA,NY,73.8,182.5,195,-207.5,195,117.5,122.5,125,125,230,245,262.5,262.5,582.5,1991
5,M,Vincent Nguyen,SBD,MR-C,74,Raw,UDel,DE,73,195,-205,215,215,122.5,130,135,135,215,230,-245,230,580,1994
6,M,Austin Martin #1,SBD,MR-C,74,Raw,USMA,NY,73.6,175,187.5,197.5,197.5,122.5,132.5,135,135,225,240,-245,240,572.5,
7,M,Lee Maccarone,SBD,MR-C,74,Raw,Pitt,NY,74,192.5,202.5,-205,202.5,130,137.5,142.5,142.5,225,-240,-240,225,570,1994
8,M,Josh Davis,SBD,MR-C,74,Raw,OSU,OH,72.6,187.5,200,207.5,207.5,125,-130,130,130,-220,220,230,230,567.5,1996
9,M,James Landry,SBD,MR-C,74,Raw,FSU,FL,73.8,192.5,205,-210,205,115,122.5,130,130,220,232.5,-240,232.5,567.5,1992
10,M,Ryan Sanchez,SBD,MR-C,74,Raw,UTSA,TX,72.6,207.5,215,-222.5,215,112.5,-120,-120,112.5,227.5,237.5,-252.5,237.5,565,1996
11,M,Martin Brenner,SBD,MR-C,74,Raw,UCLA,CA,72.6,180,190,-195,190,107.5,115,120,120,217.5,230,240,240,550,1995
12,M,Fabien Ho Ching Ma,SBD,MR-C,74,Raw,Brown,RI,74,165,180,185,185,115,-125,-125,115,210,227.5,237.5,237.5,537.5,1995
13,M,Armando Rivera,SBD,MR-C,74,Raw,UH,TX,72.6,177.5,182.5,187.5,187.5,122.5,130,135,135,190,200,-210,200,522.5,1992
14,M,Charlie Shen de Leon,SBD,MR-C,74,Raw,URI,RI,73.8,167.5,180,185,185,-97.5,-100,100,100,220,235,-242.5,235,520,1990
15,M,James Wang,SBD,MR-C,74,Raw,UCLA,CA,71.6,182.5,195,200,200,90,95,97.5,97.5,192.5,-215,215,215,512.5,1990
16,M,Joshua Sampsell,SBD,MR-C,74,Raw,PSU,PA,73.4,167.5,177.5,187.5,187.5,107.5,115,-120,115,192.5,202.5,-210,202.5,505,1993
17,M,Alex Orozco,SBD,MR-C,74,Raw,UW-Tac,WA,73.8,175,187.5,-202.5,187.5,-112.5,117.5,-127.5,117.5,200,-215,-215,200,505,1992
18,M,Mark Blum,SBD,MR-C,74,Raw,OSU,OH,73.1,157.5,170,172.5,172.5,90,95,100,100,207.5,222.5,230,230,502.5,1995
19,M,Jory Heath,SBD,MR-C,74,Raw,USMA,NY,73.2,165,-172.5,-172.5,165,125,130,132.5,132.5,205,-210,-210,205,502.5,1993
20,M,Nico Tan,SBD,MR-C,74,Raw,USMA,NY,73,160,-170,170,170,110,112.5,-117.5,112.5,205,-212.5,212.5,212.5,495,1992
21,M,Anthony DiBlasi,SBD,MR-C,74,Raw,UMD,MD,73.6,157.5,165,175,175,115,120,-125,120,182.5,197.5,200,200,495,
22,M,Aded Yako,SBD,MR-C,74,Raw,Prin,NJ,70.4,142.5,157.5,167.5,167.5,102.5,112.5,120,120,185,205,-215,205,492.5,1994
23,M,Jeremy Rodriguez,SBD,MR-C,74,Raw,RUT,NJ,72.4,157.5,165,170,170,87.5,-95,95,95,200,215,227.5,227.5,492.5,1996
24,M,Adrian Janowski,SBD,MR-C,74,Raw,UT,TX,72.8,155,167.5,-172.5,167.5,112.5,117.5,-120,117.5,187.5,200,-210,200,485,1995
25,M,Christopher Natividad,SBD,MR-C,74,Raw,RUT,NJ,73.6,162.5,170,-175,170,110,117.5,-120,117.5,172.5,182.5,192.5,192.5,480,1994
26,M,Brian Yang,SBD,MR-C,74,Raw,Brown,RI,74,155,167.5,-175,167.5,117.5,122.5,-127.5,122.5,177.5,190,-200,190,480,1996
27,M,Robert Vidal,SBD,MR-C,74,Raw,UH,TX,72.8,160,165,-172.5,165,105,110,115,115,170,180,190,190,470,1996
28,M,Ryan O'Connell,SBD,MR-C,74,Raw,USMA,NY,72.2,145,152.5,157.5,157.5,120,-130,-130,120,185,190,-195,190,467.5,1997
29,M,Robert Bello,SBD,MR-C,74,Raw,FIU,FL,70.6,165,175,-182.5,175,110,-117.5,117.5,117.5,172.5,-185,-185,172.5,465,1994
30,M,Jakob Herlitz,SBD,MR-C,74,Raw,UMass,MA,74,150,162.5,170,170,-97.5,97.5,-105,97.5,165,177.5,187.5,187.5,455,1997
31,M,Andrew Koelln,SBD,MR-C,74,Raw,OSU,PA,71.9,130,137.5,-145,137.5,97.5,102.5,105,105,185,195,205,205,447.5,1996
32,M,Andrew Tabedzki,SBD,MR-C,74,Raw,RUT,NJ,72.6,132.5,142.5,150,150,90,100,-102.5,100,162.5,-172.5,-172.5,162.5,412.5,1997
33,M,Alex Perhac,SBD,MR-C,74,Raw,OSU,OH,73.5,125,132.5,-142.5,132.5,82.5,87.5,-92.5,87.5,170,182.5,-187.5,182.5,402.5,1991
1,M,Marcus Bell,SBD,MR-C,83,Raw,UMD,MD,81.4,227.5,245,255,255,142.5,152.5,155,155,227.5,250,-262.5,250,660,1995
2,M,Stephen Canovali,SBD,MR-C,83,Raw,Pitt,PA,81.2,-220,220,-232.5,220,135,140,-145,140,252.5,260,-272.5,260,620,1995
3,M,Josh Enmark,SBD,MR-C,83,Raw,OSU,OH,81.2,195,205,210,210,165,172.5,175,175,215,227.5,232.5,232.5,617.5,1991
4,M,Alexander Guendel,SBD,MR-C,83,Raw,EVaMed,VA,81.9,200,215,227.5,227.5,130,145,-150,145,215,232.5,245,245,617.5,1990
5,M,James Haworth,SBD,MR-C,83,Raw,USMA,NY,81.4,195,210,220,220,120,127.5,135,135,235,247.5,260,260,615,1995
6,M,Brian Evans,SBD,MR-C,83,Raw,OSU,OH,82.8,182.5,197.5,-210,197.5,132.5,140,-142.5,140,252.5,265,275,275,612.5,1989
7,M,John P. Torres,SBD,MR-C,83,Raw,FIU,FL,80.9,192.5,205,217.5,217.5,-137.5,142.5,-155,142.5,210,222.5,240,240,600,1992
8,M,Ruslan Bilyalov,SBD,MR-C,83,Raw,LSU,LA,81.8,182.5,192.5,205,205,135,145,150,150,230,240,-250,240,595,1994
9,M,Andrew Labutka,SBD,MR-C,83,Raw,Pitt,PA,80.8,210,225,-237.5,225,117.5,127.5,-135,127.5,220,235,-245,235,587.5,1995
10,M,Dominic Russo,SBD,MR-C,83,Raw,LSU,LA,82.4,210,215,222.5,222.5,130,137.5,-147.5,137.5,212.5,225,-235,225,585,1994
11,M,Michael DiBlasi,SBD,MR-C,83,Raw,UMD,MD,80.8,182.5,192.5,205,205,127.5,130,137.5,137.5,205,222.5,240,240,582.5,1993
12,M,Andrew Richard,SBD,MR-C,83,Raw,UMass,MA,81.9,205,-215,215,215,112.5,120,-127.5,120,212.5,227.5,235,235,570,1996
13,M,Tony Mathews,SBD,MR-C,83,Raw,IU,IN,79.3,197.5,210,-212.5,210,132.5,137.5,142.5,142.5,195,212.5,-225,212.5,565,1995
14,M,Henry Meng,SBD,MR-C,83,Raw,Prin,NJ,79.6,182.5,192.5,200,200,120,130,137.5,137.5,215,225,-230,225,562.5,1994
15,M,Dawit Girma,SBD,MR-C,83,Raw,UMD,MD,78.8,177.5,187.5,195,195,127.5,132.5,135,135,215,227.5,-240,227.5,557.5,1994
16,M,Henry Bolo,SBD,MR-C,83,Raw,BC,MA,82.2,172.5,185,192.5,192.5,107.5,-112.5,112.5,112.5,217.5,232.5,242.5,242.5,547.5,1993
17,M,Daniel Mefford,SBD,MR-C,83,Raw,OSU,OH,81.4,192.5,200,-205,200,120,125,-127.5,125,207.5,217.5,-230,217.5,542.5,1993
18,M,Omotoyosi Oyedeji,SBD,MR-C,83,Raw,USMA,NY,81.6,165,175,185,185,122.5,130,-137.5,130,197.5,210,225,225,540,1995
19,M,Michael Greenplate,SBD,MR-C,83,Raw,UDel,DE,79.8,187.5,197.5,-202.5,197.5,110,117.5,-122.5,117.5,210,220,-230,220,535,1995
20,M,Kyle Plavcan,SBD,MR-C,83,Raw,FCGU,FL,80.6,160,175,182.5,182.5,117.5,130,-135,130,205,-220,220,220,532.5,1995
21,M,Matthew LaButti,SBD,MR-C,83,Raw,URI,RI,81.2,170,182.5,195,195,107.5,112.5,-117.5,112.5,205,222.5,-235,222.5,530,1994
22,M,Israel Nunez-Santiago,SBD,MR-C,83,Raw,GIT,GA,81.2,165,175,-180,175,107.5,115,120,120,220,232.5,-245,232.5,527.5,1992
23,M,Dominic Glasson,SBD,MR-C,83,Raw,UMass,MA,78.6,182.5,197.5,202.5,202.5,-112.5,117.5,125,125,-195,-195,195,195,522.5,1997
24,M,Samuel Kopech,SBD,MR-C,83,Raw,URI,RI,81.5,182.5,-192.5,-192.5,182.5,120,125,-130,125,215,-227.5,-232.5,215,522.5,1996
25,M,Baxter Alves,SBD,MR-C,83,Raw,URI,RI,81.9,160,172.5,182.5,182.5,115,122.5,-125,122.5,200,215,-227.5,215,520,1996
26,M,Arnez Rodriguez,SBD,MR-C,83,Raw,UDel,NJ,81.1,160,167.5,175,175,120,127.5,-132.5,127.5,195,205,-220,205,507.5,1997
27,M,Eli Carlson,SBD,MR-C,83,Raw,USNA,MD,79.9,157.5,165,177.5,177.5,110,-117.5,122.5,122.5,192.5,205,-212.5,205,505,1996
28,M,Devin Lin,SBD,MR-C,83,Raw,DART,NH,79.3,162.5,172.5,-180,172.5,102.5,107.5,112.5,112.5,192.5,205,215,215,500,1994
29,M,Denny Tran,SBD,MR-C,83,Raw,UMass,MA,78.6,155,167.5,-177.5,167.5,97.5,105,110,110,192.5,205,217.5,217.5,495,1996
30,M,Timothy Logan Thibodeaux,SBD,MR-C,83,Raw,LSU,TX,78.4,145,152.5,-160,152.5,102.5,112.5,117.5,117.5,195,207.5,220,220,490,1997
31,M,Patrick Emmett,SBD,MR-C,83,Raw,Pitt,PA,81.4,170,-182.5,-185,170,112.5,117.5,-120,117.5,177.5,190,200,200,487.5,1993
32,M,Zach Rollins,SBD,MR-C,83,Raw,URI,RI,80.8,170,-190,-190,170,97.5,102.5,-107.5,102.5,-180,190,195,195,467.5,1997
33,M,Andre Chen,SBD,MR-C,83,Raw,DART,NH,80.5,-155,155,165,165,95,97.5,,97.5,182.5,192.5,-202.5,192.5,455,1994
34,M,Samuel Hagen,SBD,MR-C,83,Raw,Harvard,MA,80.2,150,160,-170,160,102.5,110,-120,110,-160,170,180,180,450,1996
35,M,Alan Hsieh,SBD,MR-C,83,Raw,BU,MA,80.9,145,157.5,162.5,162.5,90,95,97.5,97.5,165,185,187.5,187.5,447.5,1993
36,M,Jonathan Galinsky,SBD,MR-C,83,Raw,UMass,MA,81.4,137.5,147.5,155,155,90,97.5,102.5,102.5,-165,-182.5,182.5,182.5,440,1997
37,M,Sincere Banks,SBD,MR-C,83,Raw,FCGU,FL,81,127.5,135,145,145,87.5,-95,-95,87.5,180,-195,195,195,427.5,1969
DQ,M,Jon Chambers,SBD,MR-C,83,Raw,USMA,NY,81.7,202.5,-215,215,215,-137.5,-137.5,-137.5,,220,230,-235,230,,1995
1,M,Sean Moser,SBD,MR-C,93,Raw,OSU,OH,91.6,237.5,247.5,255,255,172.5,180,182.5,182.5,272.5,285,-295,285,722.5,1993
2,M,Christian Baldoni,SBD,MR-C,93,Raw,PSU,PA,92.2,232.5,245,255,255,147.5,157.5,167.5,167.5,232.5,247.5,262.5,262.5,685,1993
3,M,Vincent Victorero,SBD,MR-C,93,Raw,FIU,FL,90.2,227.5,242.5,-245,242.5,167.5,-177.5,-177.5,167.5,247.5,257.5,265,265,675,1993
4,M,Josh Brice,SBD,MR-C,93,Raw,LA Tech,LA,90,220,230,235,235,150,157.5,162.5,162.5,225,250,272.5,272.5,670,1995
5,M,Clay Barone,SBD,MR-C,93,Raw,USMA,NY,91.6,205,215,220,220,147.5,157.5,165,165,255,275,285,285,670,1992
6,M,Nic Steffl,SBD,MR-C,93,Raw,UNL,NE,92.2,225,237.5,245,245,130,137.5,-142.5,137.5,247.5,272.5,285,285,667.5,1994
7,M,Carlos Lucio,SBD,MR-C,93,Raw,SHSU,TX,92.8,247.5,-257.5,-257.5,247.5,157.5,165,-172.5,165,222.5,232.5,245,245,657.5,1995
8,M,Christian Matos,SBD,MR-C,93,Raw,SUNY,NY,91.8,207.5,215,227.5,227.5,137.5,145,-147.5,145,260,265,-270,265,637.5,1994
9,M,Christopher Serrao,SBD,MR-C,93,Raw,Pitt,PA,92.2,222.5,232.5,-237.5,232.5,135,142.5,-147.5,142.5,260,-267.5,-267.5,260,635,1995
10,M,Jackson Jennings,SBD,MR-C,93,Raw,MCKU,IL,91.6,-220,222.5,232.5,232.5,150,160,165,165,210,225,235,235,632.5,1995
11,M,Storm Mohn,SBD,MR-C,93,Raw,OSU,OH,91.4,225,232.5,235,235,140,147.5,157.5,157.5,225,237.5,-242.5,237.5,630,1995
12,M,Gage Bush,SBD,MR-C,93,Raw,VSU,GA,91.6,212.5,-222.5,222.5,222.5,155,162.5,165,165,235,-247.5,-247.5,235,622.5,1995
13,M,Joe Merli,SBD,MR-C,93,Raw,PSU,PA,86.4,200,210,220,220,150,157.5,160,160,220,230,240,240,620,1993
14,M,Cody Green,SBD,MR-C,93,Raw,LA Tech,LA,89.7,200,-215,-215,200,145,150,160,160,245,260,-272.5,260,620,1997
15,M,Dimitri Gianacakes,SBD,MR-C,93,Raw,UK,KY,91.6,225,235,-242.5,235,135,-140,-140,135,227.5,240,250,250,620,1993
16,M,Alex Vignone,SBD,MR-C,93,Raw,PSU,PA,90.8,222.5,-237.5,-237.5,222.5,130,135,140,140,232.5,245,255,255,617.5,1994
17,M,Christian Johnston,SBD,MR-C,93,Raw,USNA,MD,87.8,-200,200,212.5,212.5,140,147.5,152.5,152.5,235,242.5,247.5,247.5,612.5,1993
18,M,Justin Ainsworth,SBD,MR-C,93,Raw,LA Tech,LA,89.8,215,235,240,240,140,150,-157.5,150,220,-250,-252.5,220,610,1996
19,M,Austen Deppe,SBD,MR-C,93,Raw,USMA,NY,91.4,215,225,-235,225,152.5,-165,-165,152.5,-225,225,232.5,232.5,610,1993
20,M,Thomas Keogh,SBD,MR-C,93,Raw,PSU,NY,84,192.5,202.5,-210,202.5,140,147.5,-152.5,147.5,237.5,250,255,255,605,1994
21,M,David Kushner,SBD,MR-C,93,Raw,TEMP,PA,87.8,190,215,220,220,130,142.5,-147.5,142.5,207.5,235,237.5,237.5,600,1996
22,M,Austin Mauldin,SBD,MR-C,93,Raw,LSU,LA,89,202.5,210,217.5,217.5,110,115,-120,115,227.5,245,265,265,597.5,1996
23,M,Kelvin Caga,SBD,MR-C,93,Raw,USMA,NY,89.6,185,205,207.5,207.5,130,137.5,-145,137.5,247.5,-272.5,-272.5,247.5,592.5,1996
24,M,Benjamin Tribelli,SBD,MR-C,93,Raw,UMass,RI,88.8,-215,215,-227.5,215,145,152.5,155,155,207.5,215,-222.5,215,585,1996
25,M,Eric Du,SBD,MR-C,93,Raw,UCLA,CA,93,192.5,207.5,215,215,125,-135,135,135,207.5,230,-235,230,580,1992
26,M,Derrick Russo,SBD,MR-C,93,Raw,URI,CT,90.8,175,187.5,192.5,192.5,130,-140,-140,130,225,240,250,250,572.5,1994
27,M,Brendan Baugher,SBD,MR-C,93,Raw,OSU,OH,87.4,162.5,170,177.5,177.5,137.5,142.5,147.5,147.5,220,232.5,242.5,242.5,567.5,1995
28,M,Sam Laus,SBD,MR-C,93,Raw,OSU,OH,87.6,172.5,187.5,192.5,192.5,132.5,142.5,-145,142.5,207.5,222.5,230,230,565,1994
29,M,Connor O'Hanlon,SBD,MR-C,93,Raw,PSU,PA,91.6,192.5,202.5,-212.5,202.5,135,140,145,145,197.5,212.5,-227.5,212.5,560,1996
30,M,Joshua Doran,SBD,MR-C,93,Raw,PSU,PA,91.2,165,175,185,185,122.5,130,-135,130,215,230,240,240,555,1993
31,M,Matt Golden,SBD,MR-C,93,Raw,URI,MA,85.6,165,175,-185,175,137.5,142.5,-150,142.5,200,222.5,235,235,552.5,1996
32,M,Zach Myles,SBD,MR-C,93,Raw,OSU,OH,90.4,152.5,-157.5,160,160,112.5,120,-125,120,220,235,250,250,530,1995
33,M,Erik Manukyan,SBD,MR-C,93,Raw,UCLA,CA,92,-200,200,-207.5,200,125,-137.5,-137.5,125,205,-215,-215,205,530,1994
34,M,Christopher Hurst,SBD,MR-C,93,Raw,UH,TX,89,180,-187.5,-187.5,180,125,127.5,132.5,132.5,195,207.5,-212.5,207.5,520,1991
35,M,Joseph Abdin,SBD,MR-C,93,Raw,FIU,FL,87.3,135,145,152.5,152.5,140,150,-160,150,157.5,177.5,190,190,492.5,1997
36,M,Peter To,SBD,MR-C,93,Raw,URI,RI,92.2,155,-165,165,165,-120,-120,122.5,122.5,185,195,-200,195,482.5,1994
37,M,Kaleb Huckeba,SBD,MR-C,93,Raw,LSU,LA,93,140,147.5,152.5,152.5,102.5,107.5,-112.5,107.5,185,197.5,-207.5,197.5,457.5,1995
38,M,Jungbin Choi,SBD,MR-C,93,Raw,DART,NH,90.7,-150,150,-167.5,150,-105,107.5,-115,107.5,180,187.5,195,195,452.5,1994
39,M,Bradly Sodam,SB,MR-C,93,Raw,MCKU,IL,87.2,-92.5,92.5,,92.5,125,132.5,-137.5,132.5,,,,,225,1996
DQ,M,Jason Ellis,SBD,MR-C,93,Raw,FCGU,FL,86,-225,-225,-225,,132.5,140,,140,235,247.5,-255,247.5,,1995
DQ,M,Ariel Garcia,SBD,MR-C,93,Raw,UW-Tac,WA,91.3,-157.5,-157.5,-157.5,,110,120,-130,120,192.5,197.5,200,200,,1996
DQ,M,Max Grable,SBD,MR-C,93,Raw,UMD,MD,92.4,210,220,227.5,227.5,125,132.5,137.5,137.5,-240,-240,,,,1995
1,M,Morgan Willcox,SBD,MR-C,105,Raw,USMA,NY,101.8,260,272.5,-282.5,272.5,170,175,-180,175,272.5,282.5,-292.5,282.5,730,1996
2,M,Justin Byers,SBD,MR-C,105,Raw,USMA,NY,98.6,240,250,260,260,157.5,165,175,175,245,257.5,270,270,705,1996
3,M,Jacob Weiss,SBD,MR-C,105,Raw,USMA,NY,100.1,237.5,245,255,255,175,182.5,-190,182.5,240,247.5,252.5,252.5,690,1995
4,M,Steven Fritsch,SBD,MR-C,105,Raw,MCKU,IL,100.5,250,-265,-265,250,157.5,165,-170,165,262.5,270,-290,270,685,1994
5,M,Benjamin Rowles,SBD,MR-C,105,Raw,PSU,PA,100.5,225,242.5,257.5,257.5,162.5,170,177.5,177.5,225,247.5,-262.5,247.5,682.5,1996
6,M,Steven Kearney,SBD,MR-C,105,Raw,OSU,OH,104.4,242.5,-252.5,252.5,252.5,-162.5,162.5,-165,162.5,250,265,-272.5,265,680,1994
7,M,Luke Klimchuk,SBD,MR-C,105,Raw,SUNY,NY,102.5,230,235,240,240,157.5,167.5,-170,167.5,242.5,255,265,265,672.5,1995
8,M,Sean Kirchner,SBD,MR-C,105,Raw,USMA,MI,97.7,220,227.5,237.5,237.5,137.5,145,150,150,255,265,275,275,662.5,1997
9,M,Kevin Hejnas,SBD,MR-C,105,Raw,RUT,NJ,96.8,205,217.5,227.5,227.5,127.5,137.5,142.5,142.5,245,262.5,272.5,272.5,642.5,1994
10,M,Anthony Wolf,SBD,MR-C,105,Raw,W-Mad,WI,101.2,217.5,227.5,235,235,142.5,150,157.5,157.5,230,240,247.5,247.5,640,1995
11,M,Stephen Porada,SBD,MR-C,105,Raw,USMA,NY,100,220,230,-240,230,140,-147.5,-147.5,140,-265,265,-272.5,265,635,1997
12,M,Andrew Castillo,SBD,MR-C,105,Raw,UMass,MA,103.7,205,-217.5,-222.5,205,135,150,-160,150,-250,257.5,272.5,272.5,627.5,1991
13,M,Daniel Douglas,SBD,MR-C,105,Raw,MCPHS,MA,103,235,-255,-255,235,152.5,-162.5,165,165,225,-240,,225,625,1992
14,M,Matthew Bellantoni,SBD,MR-C,105,Raw,CCSU,CT,104.1,215,220,-230,220,142.5,150,-155,150,235,255,-272.5,255,625,1994
15,M,Douglas Pogacnik,SBD,MR-C,105,Raw,Pitt,PA,100.6,227.5,237.5,245,245,125,130,-135,130,237.5,247.5,-257.5,247.5,622.5,1994
16,M,Damian Perrotta,SBD,MR-C,105,Raw,URI,RI,104.1,200,215,222.5,222.5,142.5,150,157.5,157.5,225,240,-242.5,240,620,1995
17,M,Jack Palladino,SBD,MR-C,105,Raw,USMA,CA,94.4,205,212.5,222.5,222.5,137.5,142.5,-145,142.5,235,245,252.5,252.5,617.5,1995
18,M,Daniel Takacs,SBD,MR-C,105,Raw,MCKU,IL,100.4,197.5,215,-222.5,215,122.5,130,,130,215,222.5,252.5,252.5,597.5,1995
19,M,Cooper Lemoine,SBD,MR-C,105,Raw,LSU,LA,93.2,192.5,202.5,212.5,212.5,130,137.5,140,140,240,-250,-250,240,592.5,1995
20,M,Bryan Adames,SBD,MR-C,105,Raw,SUNY,NY,102.1,192.5,200,205,205,135,145,-152.5,145,217.5,230,237.5,237.5,587.5,1994
21,M,Brannon Evans,SBD,MR-C,105,Raw,TEMP,PA,102.9,192.5,-220,220,220,132.5,145,-150,145,212.5,-237.5,-237.5,212.5,577.5,1995
22,M,Daniel Wert,SBD,MR-C,105,Raw,URI,MA,98.5,170,182.5,192.5,192.5,125,137.5,-142.5,137.5,215,230,-245,230,560,1994
23,M,Blake Shaw,SBD,MR-C,105,Raw,LSU,IL,102.7,185,195,205,205,117.5,125,130,130,192.5,205,215,215,550,1996
24,M,Edward Wollack,SBD,MR-C,105,Raw,Prin,MD,93.1,142.5,152.5,165,165,-125,125,-132.5,125,215,232.5,245,245,535,1994
25,M,Michael Christensen,SBD,MR-C,105,Raw,UDel,MD,97.9,165,175,185,185,130,137.5,145,145,190,205,-217.5,205,535,1995
26,M,Teymur Zulf,SBD,MR-C,105,Raw,UMD,MD,101.5,187.5,195,205,205,92.5,100,-107.5,100,207.5,220,-227.5,220,525,1993
27,M,Nicholas Wawrykow,SBD,MR-C,105,Raw,Yale,CT,95.9,165,180,-190,180,100,110,115,115,165,180,-195,180,475,1995
DQ,M,William Goode,SBD,MR-C,105,Raw,UNT,TX,104,192.5,-210,210,210,142.5,-155,-155,142.5,-227.5,-227.5,-227.5,,,1995
1,M,Matt Sohmer,SBD,MR-C,120,Raw,SUNY,NY,117,342.5,-365,,342.5,-130,130,137.5,137.5,320,340,345,345,825,1993
2,M,Seth Kirchner,SBD,MR-C,120,Raw,USMA,NY,111.5,255,265,280,280,165,172.5,-180,172.5,265,280,290,290,742.5,1995
3,M,Gabriel Lianes,SBD,MR-C,120,Raw,FIU,FL,114.1,212.5,-222.5,230,230,-150,155,-160,155,272.5,287.5,-295,287.5,672.5,1993
4,M,Alex Burgess,SBD,MR-C,120,Raw,MUO,OH,108.8,215,232.5,240,240,142.5,150,155,155,220,237.5,-245,237.5,632.5,1994
5,M,Haakon Borstad,SBD,MR-C,120,Raw,OSU,OH,118.4,202.5,215,220,220,127.5,-132.5,132.5,132.5,255,270,280,280,632.5,1995
6,M,Ryan Hughes #3,SBD,MR-C,120,Raw,LA Tech,TX,115.8,205,217.5,-225,217.5,145,-152.5,152.5,152.5,245,260,-265,260,630,1997
7,M,Kaleb Tessema,SBD,MR-C,120,Raw,UDel,MD,110.9,195,207.5,217.5,217.5,155,-165,165,165,215,232.5,-247.5,232.5,615,1994
8,M,David Lee,SBD,MR-C,120,Raw,RUT,NJ,105.3,215,225,-230,225,130,-135,135,135,220,232.5,242.5,242.5,602.5,1996
9,M,Josh DeLeon,SBD,MR-C,120,Raw,UH,TX,112.3,185,200,205,205,107.5,115,117.5,117.5,247.5,257.5,267.5,267.5,590,1991
10,M,Chris Lato,SBD,MR-C,120,Raw,URI,CT,115.6,197.5,-210,215,215,140,-150,-150,140,220,227.5,235,235,590,1996
11,M,Lee Kantowski,SBD,MR-C,120,Raw,USMA,NY,109.8,-205,-205,205,205,145,152.5,-160,152.5,210,220,230,230,587.5,1995
12,M,David Schlieker,SBD,MR-C,120,Raw,MCKU,IL,117.5,185,,,185,135,-145,-145,135,255,257.5,-265,257.5,577.5,1996
13,M,Mackenzie Corbin,SBD,MR-C,120,Raw,DART,NH,105.6,187.5,202.5,-210,202.5,130,137.5,-142.5,137.5,232.5,-250,-250,232.5,572.5,1995
14,M,Gabriel Gutierrez,SBD,MR-C,120,Raw,UH,TX,107.6,-200,-200,200,200,120,130,-137.5,130,220,225,230,230,560,1993
15,M,Joe Ragan,SBD,MR-C,120,Raw,OSU,OH,106.1,192.5,205,-215,205,115,120,-125,120,207.5,217.5,227.5,227.5,552.5,1991
16,M,Matthew McDermitt,SBD,MR-C,120,Raw,UDel,DE,109.1,167.5,177.5,187.5,187.5,110,117.5,122.5,122.5,210,225,237.5,237.5,547.5,1990
1,M,Andrew Sellers,SBD,MR-C,120+,Raw,VSU,GA,147.8,-250,250,265,265,165,177.5,182.5,182.5,-285,285,300,300,747.5,1994
2,M,Michael Pietrowski,SBD,MR-C,120+,Raw,TEMP,PA,157.2,272.5,-295,295,295,165,175,185,185,225,250,-272.5,250,730,1994
3,M,Darryl Brooks,SBD,MR-C,120+,Raw,URI,RI,135.8,232.5,245,-260,245,142.5,-152.5,-160,142.5,247.5,260,-272.5,260,647.5,1995
4,M,Steve Carabitses,SBD,MR-C,120+,Raw,URI,MA,141.9,215,-227.5,227.5,227.5,-117.5,120,-130,120,-200,-200,200,200,547.5,1997
5,M,Emmanuel Lokolo,SBD,MR-C,120+,Raw,FIU,FL,156.2,-190,192.5,222.5,222.5,-122.5,-125,125,125,185,-205,-205,185,532.5,1991
G,M,Kane Garcia,SBD,MR-G,59,Raw,MCKU,IL,58.2,-170,170,180,180,-105,105,-117.5,105,220,-235,-235,220,505,1996
1,F,Lia Ranalli,SBD,F-C,43,Single-ply,PSU,PA,42.6,102.5,-112.5,112.5,112.5,45,50,-52.5,50,82.5,87.5,92.5,92.5,255,1994
1,F,Rosio Berumen,SBD,F-C,47,Single-ply,UTSA,TX,46.3,112.5,120,125,125,52.5,-57.5,-60,52.5,137.5,142.5,145,145,322.5,1997
2,F,Kyra Rodriguez,SBD,F-C,47,Single-ply,TAMU,TX,45.6,115,125,-132.5,125,52.5,57.5,-62.5,57.5,115,127.5,137.5,137.5,320,1997
3,F,Diane Chau,SBD,F-C,47,Single-ply,UT,TX,46.4,117.5,-125,-125,117.5,50,55,60,60,115,122.5,-135,122.5,300,1996
4,F,Jenica Flores,SBD,F-C,47,Single-ply,SHSU,TX,45.9,105,-115,115,115,42.5,47.5,50,50,117.5,-125,-125,117.5,282.5,1997
5,F,Yazmin Trujillo,SBD,F-C,47,Single-ply,UHD,TX,46.2,102.5,-107.5,107.5,107.5,57.5,-60,-60,57.5,102.5,107.5,115,115,280,1995
6,F,Emily Rodriguez,SBD,F-C,47,Single-ply,LA Tech,LA,46.1,107.5,-115,-115,107.5,42.5,50,-52.5,50,97.5,105,115,115,272.5,1997
7,F,Clarrissa Johnson,SBD,F-C,47,Single-ply,LA Tech,LA,46.6,105,-112.5,-112.5,105,47.5,52.5,-55,52.5,95,-102.5,107.5,107.5,265,1994
DQ,F,Sarah Cruz-Ortiz,SBD,F-C,47,Single-ply,PSU,PA,45.9,-115,-115,-115,,62.5,-65,,62.5,122.5,127.5,132.5,132.5,,1994
1,F,Gabrielle Hurley,SBD,F-C,52,Single-ply,UT,TX,50.6,140,152.5,160,160,75,80,85,85,132.5,-145,-145,132.5,377.5,1994
2,F,Andie Hernandez,SBD,F-C,52,Single-ply,UT,TX,51.1,-137.5,137.5,142.5,142.5,-82.5,82.5,85,85,130,135,137.5,137.5,365,1997
3,F,Alyson Galanga,SBD,F-C,52,Single-ply,UT,TX,51.9,122.5,130,-135,130,52.5,-62.5,65,65,142.5,152.5,167.5,167.5,362.5,1997
4,F,Kaylynn Beltran,SBD,F-C,52,Single-ply,TAMU,TX,50.6,130,142.5,-147.5,142.5,80,82.5,85,85,125,132.5,-135,132.5,360,1996
5,F,Jamie Broussard,SBD,F-C,52,Single-ply,ULL,LA,51.1,105,112.5,117.5,117.5,60,67.5,-72.5,67.5,102.5,110,120,120,305,1997
6,F,Casey Landry,SBD,F-C,52,Single-ply,NU,MA,51.6,115,122.5,-127.5,122.5,50,55,-57.5,55,115,122.5,-130,122.5,300,1993
7,F,Lena Liu,SBD,F-C,52,Single-ply,UT,TX,50,100,110,117.5,117.5,42.5,-47.5,-47.5,42.5,110,125,137.5,137.5,297.5,1996
8,F,Savannah Gray,SBD,F-C,52,Single-ply,LSU,LA,51.3,107.5,-115,115,115,50,55,57.5,57.5,110,117.5,-127.5,117.5,290,1995
9,F,Nicole Robichaux,SBD,F-C,52,Single-ply,ULL,LA,51.4,-97.5,97.5,-102.5,97.5,57.5,62.5,67.5,67.5,100,107.5,-115,107.5,272.5,1996
10,F,Salena Chiep,SBD,F-C,52,Single-ply,VMI,VA,50.4,90,100,105,105,45,50,-55,50,102.5,115,-122.5,115,270,1994
11,F,Moriah Moore,SBD,F-C,52,Single-ply,SHSU,TX,51.1,67.5,77.5,-82.5,77.5,40,45,47.5,47.5,95,105,110,110,235,1997
DQ,F,Yessi Altamirano,SBD,F-C,52,Single-ply,UT,TX,47.7,-122.5,,,,,,,,,,,,,1996
1,F,Kimmy Johnson,SBD,F-C,57,Single-ply,W-GB,WI,55.8,165,175,185,185,-107.5,-107.5,107.5,107.5,162.5,172.5,-182.5,172.5,465,1994
2,F,Jay'sun Moore,SBD,F-C,57,Single-ply,UT,TX,55.8,-130,135,-142.5,135,85,92.5,-97.5,92.5,155,162.5,-167.5,162.5,390,1996
3,F,Alexandra Ziepke,SBD,F-C,57,Single-ply,W-EC,WI,56.5,137.5,145,152.5,152.5,77.5,82.5,87.5,87.5,137.5,147.5,-157.5,147.5,387.5,1996
4,F,Caitlyn Buck,SBD,F-C,57,Single-ply,ASU,TX,56.9,140,-147.5,-147.5,140,75,-80,-80,75,150,162.5,-175,162.5,377.5,1994
5,F,Heather Wolfenden,SBD,F-C,57,Single-ply,URI,RI,56,140,147.5,-155,147.5,65,70,72.5,72.5,142.5,150,-165,150,370,1995
6,F,Kristina Torres,SBD,F-C,57,Single-ply,UT,TX,56.5,130,-140,-140,130,82.5,87.5,90,90,140,-145,145,145,365,1993
7,F,Carmen Reiss,SBD,F-C,57,Single-ply,ULL,LA,55.6,130,135,-140,135,77.5,82.5,-85,82.5,127.5,135,-140,135,352.5,1996
8,F,Shelby Gray,SBD,F-C,57,Single-ply,TAMU,TX,56.9,132.5,-142.5,-142.5,132.5,-70,70,-75,70,132.5,147.5,-152.5,147.5,350,1996
9,F,Renee Frohnert,SBD,F-C,57,Single-ply,PSU,PA,56.6,-142.5,142.5,147.5,147.5,70,72.5,75,75,117.5,122.5,-127.5,122.5,345,1993
10,F,Keara Hickey,SBD,F-C,57,Single-ply,PSU,NY,56,130,-135,-135,130,60,62.5,-65,62.5,127.5,132.5,-137.5,132.5,325,1994
11,F,Courtney Halsell,SBD,F-C,57,Single-ply,ULL,LA,56.4,100,105,110,110,65,-67.5,67.5,67.5,117.5,-122.5,-122.5,117.5,295,1996
12,F,Megan Kupser,SBD,F-C,57,Single-ply,FCGU,FL,56.3,120,127.5,,127.5,62.5,-65,,62.5,100,-115,-115,100,290,1995
13,F,Charmaine Solis,SBD,F-C,57,Single-ply,USNA,MD,53.1,107.5,-112.5,115,115,47.5,-52.5,55,55,105,110,117.5,117.5,287.5,1995
14,F,Cristi Johnson,SBD,F-C,57,Single-ply,SHSU,TX,55.7,75,90,105,105,42.5,50,-55,50,105,117.5,122.5,122.5,277.5,1996
15,F,Natalie Carroll,SBD,F-C,57,Single-ply,VMI,VA,55.7,97.5,-107.5,-107.5,97.5,-57.5,-60,60,60,95,107.5,-117.5,107.5,265,1994
DQ,F,Juliana Gamble,SBD,F-C,57,Single-ply,UTSA,TX,53,-120,-120,-125,,-52.5,-52.5,-52.5,,115,117.5,-127.5,117.5,,1997
DQ,F,Krystyna Fullwood,SBD,F-C,57,Single-ply,LA Tech,LA,55.6,-107.5,-107.5,-107.5,,45,52.5,-60,52.5,100,115,120,120,,1996
DQ,F,Erika Peralta,SBD,F-C,57,Single-ply,UTSA,TX,55.7,-130,-137.5,-137.5,,-65,65,-70,65,107.5,112.5,-117.5,112.5,,1996
1,F,Jordan Green,SBD,F-C,63,Single-ply,NU,MA,60.3,180,-182.5,-182.5,180,110,-115,-115,110,167.5,175,-185,175,465,1993
2,F,Giovanna Ortega,SBD,F-C,63,Single-ply,UTSA,TX,61.1,187.5,-195,-195,187.5,97.5,-102.5,102.5,102.5,160,172.5,-185,172.5,462.5,1994
3,F,Sophia Veiras,SBD,F-C,63,Single-ply,NU,MA,61.9,180,187.5,-192.5,187.5,102.5,-110,-110,102.5,160,170,-180,170,460,1991
4,F,Danielle Ross,SBD,F-C,63,Single-ply,UTSA,TX,62,-165,-165,165,165,115,120,-122.5,120,142.5,147.5,-160,147.5,432.5,1995
5,F,Alyssa Gaitan,SBD,F-C,63,Single-ply,ASU,TX,61.6,155,162.5,170,170,85,92.5,95,95,165,-177.5,-177.5,165,430,1995
6,F,Marisa Lara,SBD,F-C,63,Single-ply,PSU,PA,62.9,-160,170,-175,170,92.5,97.5,103.5,103.5,-142.5,152.5,-162.5,152.5,426,1994
7,F,Samantha LaCoe,SBD,F-C,63,Single-ply,LC,PA,62.5,155,-165,165,165,-80,80,-85,80,145,160,165,165,410,1991
8,F,Gabriella Grant,SBD,F-C,63,Single-ply,UT,TX,62.3,140,150,-160,150,100,-110,-110,100,142.5,150,-155,150,400,1994
9,F,Jalyn Holt,SBD,F-C,63,Single-ply,UT,TX,62.5,-160,160,-165,160,-70,70,-75,70,160,-165,-177.5,160,390,1993
10,F,Sara Pelletier,SBD,F-C,63,Single-ply,PSU,CA,61.2,-160,160,165,165,70,-72.5,-72.5,70,137.5,142.5,-147.5,142.5,377.5,1994
11,F,Jasmine Ruiz,SBD,F-C,63,Single-ply,UHD,TX,61.5,-145,145,-155,145,87.5,-92.5,-92.5,87.5,125,-140,-140,125,357.5,1997
12,F,Abbigail Garza,SBD,F-C,63,Single-ply,UT,TX,62.3,137.5,-142.5,-142.5,137.5,72.5,77.5,82.5,82.5,125,135,-147.5,135,355,1997
13,F,Kaitlyn Mulkey,SBD,F-C,63,Single-ply,TAMU,TX,60.5,132.5,-137.5,137.5,137.5,65,67.5,-70,67.5,135,140,147.5,147.5,352.5,1995
14,F,Jessie Mouton,SBD,F-C,63,Single-ply,ULL,LA,60.5,120,125,-127.5,125,70,-75,-75,70,137.5,-145,-145,137.5,332.5,1993
15,F,Danielle Vasquez,SBD,F-C,63,Single-ply,SHSU,TX,59.3,110,120,-125,120,55,62.5,-67.5,62.5,112.5,122.5,-135,122.5,305,1996
16,F,Amy Reyes,SBD,F-C,63,Single-ply,TAMU,TX,61.5,-112.5,112.5,-127.5,112.5,60,-67.5,-67.5,60,115,122.5,130,130,302.5,1995
17,F,Kali Mendez,SBD,F-C,63,Single-ply,ASU,TX,62.4,102.5,107.5,112.5,112.5,52.5,57.5,62.5,62.5,110,115,125,125,300,1996
18,F,Sharmin Mahmud,SBD,F-C,63,Single-ply,NU,NY,62.5,105,112.5,117.5,117.5,-60,60,62.5,62.5,85,92.5,100,100,280,1996
19,F,Virginia Villani,SBD,F-C,63,Single-ply,VMI,VA,61.8,85,97.5,-122.5,97.5,47.5,-52.5,-55,47.5,107.5,120,-125,120,265,1996
20,F,Lyndsay Rathbun,SBD,F-C,63,Single-ply,PSU,PA,61.8,97.5,102.5,110,110,37.5,40,42.5,42.5,92.5,102.5,-112.5,102.5,255,1993
21,F,Rachael McFarland,SBD,F-C,63,Single-ply,SHSU,TX,62.4,82.5,87.5,-92.5,87.5,47.5,-57.5,-57.5,47.5,95,-102.5,-102.5,95,230,1995
DQ,F,Breanna Johnson,SBD,F-C,63,Single-ply,FCGU,FL,60.8,120,-125,125,125,-105,-105,-105,,,,,,,1996
DQ,F,Lydia Chon,SBD,F-C,63,Single-ply,LSU,LA,61.9,-162.5,-162.5,-162.5,,65,67.5,70,70,140,150,-155,150,,1996
DQ,F,Destiny Turner,SBD,F-C,63,Single-ply,TAMU,TX,62.3,120,125,-130,125,-50,-55,60,60,-135,-135,-135,,,1996
DQ,F,Richelle George,SBD,F-C,63,Single-ply,ULL,LA,62.4,-122.5,-125,-130,,87.5,95,100,100,122.5,-130,-130,122.5,,1994
DQ,F,Abigail Clapp,SBD,F-C,63,Single-ply,NU,MA,62.5,130,145,-152.5,145,-75,-75,-75,,125,132.5,140,140,,1997
1,F,Kelsey McCarthy,SBD,F-C,72,Single-ply,NU,MA,68.3,200,-212.5,217.5,217.5,112.5,120,-125.5,120,187.5,195.5,-205.5,195.5,533,1992
2,F,Carley Miller,SBD,F-C,72,Single-ply,RCTC,MN,71.9,192.5,-202.5,207.5,207.5,-100,100,-105,100,185,190,192.5,192.5,500,1996
3,F,Dominique McGaha,SBD,F-C,72,Single-ply,UT,TX,70.8,177.5,185,190,190,90,97.5,105,105,-187.5,197.5,-205,197.5,492.5,1994
4,F,Skyler Briggs,SBD,F-C,72,Single-ply,USNA,MD,69.7,165,170,-172.5,170,117.5,122.5,-130,122.5,167.5,175,182.5,182.5,475,1995
5,F,Talia Ramirez,SBD,F-C,72,Single-ply,SHSU,TX,71.2,187.5,-197.5,197.5,197.5,80,85,-87.5,85,172.5,-180,-180,172.5,455,1995
6,F,Hannah Malcomb,SBD,F-C,72,Single-ply,TAMU,TX,69.9,-180,180,187.5,187.5,92.5,97.5,-102.5,97.5,162.5,-170,-175,162.5,447.5,1992
7,F,Nicole Maalouf,SBD,F-C,72,Single-ply,NU,MA,71.1,165,-175,-175,165,107.5,112.5,117.5,117.5,145,152.5,-160,152.5,435,1994
8,F,Kate Driscoll,SBD,F-C,72,Single-ply,NU,NJ,71.1,160,170,-180,170,87.5,90,-92.5,90,142.5,152.5,162.5,162.5,422.5,1994
9,F,Cassandra Czarn,SBD,F-C,72,Single-ply,URI,RI,71.5,155,165,-170,165,110,115,-120,115,130,140,-145,140,420,1994
10,F,Shelby David,SBD,F-C,72,Single-ply,ULL,LA,69.7,147.5,152.5,160,160,95,100,-102.5,100,145,155,-160,155,415,1996
11,F,Maria Toledo,SBD,F-C,72,Single-ply,SHSU,TX,70.9,150,157.5,165,165,-82.5,82.5,92.5,92.5,145,152.5,-157.5,152.5,410,1993
12,F,Danielle Burton,SBD,F-C,72,Single-ply,NU,MA,67.3,155,-160,162.5,162.5,85,-90,-90,85,150,157.5,-167.5,157.5,405,1992
13,F,Hana Shuck,SBD,F-C,72,Single-ply,NU,MA,70.6,-160,160,170,170,-82.5,82.5,87.5,87.5,130,140,145,145,402.5,1995
14,F,Marissa Gentle,SBD,F-C,72,Single-ply,PSU,PA,71.5,-157.5,157.5,-165,157.5,95,100,-105,100,130,-140,-140,130,387.5,1995
15,F,Genesis Frazar,SBD,F-C,72,Single-ply,TAMU,TX,70,142.5,147.5,150,150,-70,70,-75,70,142.5,147.5,155,155,375,1995
16,F,Catherine Robertson,SBD,F-C,72,Single-ply,UT,TX,68.7,135,145,157.5,157.5,62.5,70,-82.5,70,122.5,135,137.5,137.5,365,1995
17,F,Kiana Majors,SBD,F-C,72,Single-ply,UT,TX,68.3,122.5,135,140,140,57.5,65,70,70,140,150,-157.5,150,360,1996
18,F,Delaine Rodick,SBD,F-C,72,Single-ply,LA Tech,LA,69.1,-140,140,-142.5,140,-67.5,70,-77.5,70,125,-130,-142.5,125,335,1997
19,F,Mackenzie Harrmann,SBD,F-C,72,Single-ply,VMI,VA,70.2,130,-142.5,-142.5,130,-80,-80,80,80,110,120,125,125,335,1994
20,F,Sarah Use,SBD,F-C,72,Single-ply,ULL,LA,65,120,125,127.5,127.5,77.5,85,-90,85,115,-122.5,-122.5,115,327.5,1994
21,F,Allison Tran,SBD,F-C,72,Single-ply,NU,MA,71.2,115,122.5,-127.5,122.5,50,55,-60,55,130,140,150,150,327.5,1995
22,F,Karnee Berejiklian,SBD,F-C,72,Single-ply,NU,MA,69.5,112.5,120,-130,120,67.5,72.5,-75,72.5,117.5,125,130,130,322.5,1996
23,F,Emily Etnyre,SBD,F-C,72,Single-ply,UT,TX,68.7,102.5,112.5,125,125,57.5,62.5,-67.5,62.5,112.5,122.5,132.5,132.5,320,1995
24,F,Caitlyn Casten,SBD,F-C,72,Single-ply,VMI,FL,69.7,117.5,-132.5,-132.5,117.5,60,-70,-70,60,-120,130,-145,130,307.5,1996
1,F,Claire McKenzie,SBD,F-C,84,Single-ply,UT,TX,83,190,202.5,212.5,212.5,120,125,-130,125,180,187.5,192.5,192.5,530,1994
2,F,Sarah Davis,SBD,F-C,84,Single-ply,TAMU,FL,83,-190,190,,190,127.5,-135,-135,127.5,187.5,195,-215,195,512.5,1995
3,F,Kyndall Foust,SBD,F-C,84,Single-ply,TAMU,TX,83,195,200,,200,102.5,-107.5,107.5,107.5,185,-192.5,-192.5,185,492.5,1997
4,F,Dakota Young,SBD,F-C,84,Single-ply,UTSA,TX,73.6,197.5,-202.5,-202.5,197.5,102.5,107.5,-112.5,107.5,185,-187.5,-187.5,185,490,1996
5,F,Zena Esquivel,SBD,F-C,84,Single-ply,UTSA,TX,82,180,187.5,190,190,-102.5,102.5,110,110,157.5,162.5,170,170,470,1997
6,F,Brittney Barksdale,SBD,F-C,84,Single-ply,ASU,TX,80.4,-165,165,172.5,172.5,75,82.5,-90,82.5,160,172.5,182.5,182.5,437.5,1996
7,F,Destiny Kliebert,SBD,F-C,84,Single-ply,ULL,LA,79.6,147.5,155,157.5,157.5,100,105,-110,105,155,162.5,165,165,427.5,1995
8,F,Ashley Gicas,SBD,F-C,84,Single-ply,LSU,LA,75.6,150,160,-165,160,105,112.5,-120,112.5,132.5,-145,147.5,147.5,420,1995
9,F,Ashley Vasquez,SBD,F-C,84,Single-ply,SHSU,TX,78.4,140,150,157.5,157.5,80,85,90,90,157.5,170,-180,170,417.5,1994
10,F,Danielle Kent,SBD,F-C,84,Single-ply,UTSA,TX,78.4,-160,160,167.5,167.5,80,85,-92.5,85,150,157.5,162.5,162.5,415,1996
11,F,Courtney Byrne,SBD,F-C,84,Single-ply,UT,TX,76.4,142.5,152.5,160,160,77.5,-85,87.5,87.5,125,137.5,145,145,392.5,1995
12,F,Lisa Li,SBD,F-C,84,Single-ply,NU,MA,79,140,-150,-150,140,72.5,75,-77.5,75,137.5,147.5,155,155,370,1996
13,F,Magdiel Alvarez,SBD,F-C,84,Single-ply,UTSA,TX,81.6,165,180,-185,180,52.5,-82.5,-82.5,52.5,122.5,130,135,135,367.5,1996
14,F,Rhiannon Howard,SBD,F-C,84,Single-ply,ASU,TX,80.8,132.5,140,150,150,60,65,70,70,127.5,135,142.5,142.5,362.5,1996
15,F,Emily Fisher,SBD,F-C,84,Single-ply,LSU,LA,76.2,-135,135,140,140,52.5,60,62.5,62.5,140,150,157.5,157.5,360,1995
16,F,Stephanie Abaraca,SBD,F-C,84,Single-ply,SHSU,TX,81.4,92.5,102.5,112.5,112.5,-55,55,62.5,62.5,92.5,102.5,115,115,290,1993
DQ,F,Maeve Bell,SBD,F-C,84,Single-ply,NU,MA,82.2,-130,-132.5,-132.5,,72.5,77.5,-80,77.5,107.5,117.5,122.5,122.5,,1995
DQ,F,Monet Bland,SBD,F-C,84,Single-ply,NU,MA,83.4,-230,-230,-230,,102.5,110,-115,110,210,220,-227.5,220,,1991
1,F,Viviana Flores,SBD,F-C,84+,Single-ply,TAMU,TX,121.8,250,-262.5,-262.5,250,115,127.5,130,130,150,165,-182.5,165,545,1996
2,F,Jasmine Jones,SBD,F-C,84+,Single-ply,SHSU,TX,104.4,192.5,202.5,210,210,97.5,102.5,-110,102.5,-185,185,195,195,507.5,1997
3,F,Drew Rath,SBD,F-C,84+,Single-ply,SHSU,TX,151.2,175,192.5,195,195,105,115,125,125,150,160,165,165,485,1995
4,F,Binglei Zhou,SBD,F-C,84+,Single-ply,NU,MA,97.8,170,-182.5,-187.5,170,60,90,95,95,180,195,-220,195,460,1994
5,F,Amber Blankemeyer,SBD,F-C,84+,Single-ply,UHD,TX,116.2,-180,180,190,190,100,-110,-110,100,165,-170,-170,165,455,1995
6,F,Jessena Luna,SBD,F-C,84+,Single-ply,TAMU,TX,101.4,-142.5,147.5,155,155,92.5,97.5,102.5,102.5,-142.5,142.5,150,150,407.5,1997
7,F,Alexandra Howard,SBD,F-C,84+,Single-ply,SHSU,TX,90.2,140,150,160,160,55,65,67.5,67.5,150,165,175,175,402.5,1997
8,F,Cassandra Soto,SBD,F-C,84+,Single-ply,SHSU,TX,109.4,142.5,150,-157.5,150,92.5,97.5,-100,97.5,142.5,155,-162.5,155,402.5,1997
DQ,F,Moriah Buckwalter,SBD,F-C,84+,Single-ply,NU,MA,97,-175,175,185,185,-100,-100,-100,,130,140,-155,140,,1995
DQ,F,Jaelynn Clark,SBD,F-C,84+,Single-ply,UTSA,TX,114,-235,-235,-240,,77.5,-82.5,,77.5,185,-187.5,-187.5,185,,1996
1,F,Brittany Basco,SBD,FR-C,43,Raw,LSU,LA,42.4,62.5,-70,-70,62.5,40,45,-47.5,45,100,107.5,112.5,112.5,220,1995
2,F,Lia Ranalli,SBD,FR-C,43,Raw,PSU,PA,42.6,67.5,75,-80,75,37.5,40,42.5,42.5,90,97.5,102.5,102.5,220,1994
3,F,Sandra Tran,SBD,FR-C,43,Raw,MSUD,CO,38.8,77.5,-82.5,-82.5,77.5,32.5,35,37.5,37.5,97.5,-100,-100,97.5,212.5,1995
1,F,Nicole Yu,SBD,FR-C,47,Raw,RUT,NJ,47,105,110,-112.5,110,42.5,47.5,-50,47.5,-130,-132.5,132.5,132.5,290,1994
2,F,Emily Ho,SBD,FR-C,47,Raw,RUT,NJ,47,97.5,105,110,110,47.5,50,52.5,52.5,107.5,112.5,-120,112.5,275,1995
3,F,Caroline Lasala,SBD,FR-C,47,Raw,LSU,LA,45.6,37.5,42.5,47.5,47.5,27.5,32.5,35,35,67.5,75,80,80,162.5,1996
1,F,Ashley Will,SBD,FR-C,52,Raw,BU,MA,51.8,102.5,107.5,112.5,112.5,45,50,52.5,52.5,112.5,117.5,122.5,122.5,287.5,1994
2,F,Contessa Lai,SBD,FR-C,52,Raw,RUT,NJ,52,90,95,-102.5,95,-47.5,52.5,55,55,127.5,137.5,-142.5,137.5,287.5,1994
3,F,Kimberly Acosta,SBD,FR-C,52,Raw,FIU,FL,51.2,85,90,95,95,50,-55,-55,50,115,122.5,132.5,132.5,277.5,1993
4,F,Taylor Ulery,SBD,FR-C,52,Raw,Pitt,PA,51.8,92.5,102.5,-107.5,102.5,55,-60,60,60,87.5,102.5,110,110,272.5,1994
5,F,Jessica Solis,SBD,FR-C,52,Raw,UH,TX,51.4,77.5,-82.5,82.5,82.5,45,50,52.5,52.5,92.5,100,105,105,240,1993
6,F,Casey Landry,SBD,FR-C,52,Raw,NU,MA,51.8,80,-87.5,-95,80,40,42.5,45,45,107.5,-110,-117.5,107.5,232.5,1993
7,F,Alaine Johnston,SBD,FR-C,52,Raw,OSU,OH,52,-65,65,-70,65,32.5,-35,-35,32.5,70,77.5,-80,77.5,175,1997
1,F,Emily Liebert,SBD,FR-C,57,Raw,NU,MA,55.5,125,130,137.5,137.5,82.5,87.5,-91,87.5,130,140,145.5,145.5,370.5,1992
2,F,Mary Clark,SBD,FR-C,57,Raw,UCLA,CA,56,102.5,105,110,110,67.5,72.5,-75,72.5,130,140,145,145,327.5,1994
3,F,Maria Blazek,SBD,FR-C,57,Raw,OSU,OH,55.9,110,117.5,-125,117.5,65,67.5,70,70,122.5,127.5,137.5,137.5,325,1993
4,F,Shaina Coss,SBD,FR-C,57,Raw,USMA,NY,56.3,112.5,-115,115,115,70,72.5,75,75,125,-130,130,130,320,1991
5,F,Bianca Thomas,SBD,FR-C,57,Raw,WSU,MA,57,92.5,102.5,110,110,52.5,60,-67.5,60,110,122.5,137.5,137.5,307.5,1995
6,F,Rui Tanimura,SBD,FR-C,57,Raw,Pitt,MA,55.7,102.5,115,-117.5,115,47.5,50,-52.5,50,120,125,-132.5,125,290,1996
7,F,Briannah Plasse,SBD,FR-C,57,Raw,URI,RI,54.6,-85,90,92.5,92.5,47.5,52.5,55,55,125,137.5,-142.5,137.5,285,1997
8,F,Jana Powars,SBD,FR-C,57,Raw,PSU,PA,55.7,87.5,92.5,97.5,97.5,52.5,55,57.5,57.5,112.5,-125,-125,112.5,267.5,1994
9,F,Angelica Garcia,SBD,FR-C,57,Raw,PSU,CA,57,85,92.5,-97.5,92.5,50,52.5,55,55,115,-125,-125,115,262.5,1995
10,F,Kaitlyn Fratus,SBD,FR-C,57,Raw,URI,RI,56.6,-90,95,-102.5,95,40,45,47.5,47.5,107.5,115,-117.5,115,257.5,1993
11,F,Emireth Gonzalez,SBD,FR-C,57,Raw,RUT,NJ,53.9,-85,92.5,-97.5,92.5,47.5,50,52.5,52.5,95,100,105,105,250,1994
12,F,Jennifer Ramirez,SBD,FR-C,57,Raw,UTSA,TX,56.4,-75,75,85,85,37.5,45,-47.5,45,102.5,112.5,117.5,117.5,247.5,1997
13,F,Janine Schuette,SBD,FR-C,57,Raw,OSU,OH,56.3,80,-87.5,-87.5,80,45,47.5,50,50,105,115,-117.5,115,245,1969
14,F,Capri Vita,SBD,FR-C,57,Raw,MCKU,IL,56.5,-80,80,85,85,37.5,40,-45,40,105,115,-122.5,115,240,1996
15,F,Frances McCurry,SBD,FR-C,57,Raw,USMA,NY,55.4,67.5,-72.5,75,75,47.5,-50,-50,47.5,-82.5,85,-95,85,207.5,1996
16,F,Nicole Moise,SBD,FR-C,57,Raw,LSU,LA,56.2,-77.5,77.5,-85,77.5,40,45,-47.5,45,-80,80,-87.5,80,202.5,1996
17,F,Melissa Ho,SBD,FR-C,57,Raw,NU,MA,56.4,70,72.5,75,75,37.5,42.5,-45,42.5,75,82.5,-95,82.5,200,1994
DQ,F,Kerry Stevens,SBD,FR-C,57,Raw,OSU,OH,53.8,-77.5,-77.5,-77.5,,45,47.5,-52.5,47.5,102.5,-107.5,-110,102.5,,1997
DQ,F,Maily Ly,SBD,FR-C,57,Raw,UW-Tac,WA,55.7,-65,-72.5,-72.5,,25,30,-32.5,30,70,80,92.5,92.5,,1995
1,F,Jenny Tu,SBD,FR-C,63,Raw,UCB,CA,62.5,147.5,155,-160,155,80,85,-90,85,152.5,-157.5,157.5,157.5,397.5,1991
2,F,Leandria Ates,SBD,FR-C,63,Raw,FIU,FL,62.6,112.5,120,130,130,67.5,-75,75,75,155,165,-177.5,165,370,1993
3,F,Sophia Veiras,SBD,FR-C,63,Raw,NU,MA,62.2,130,137.5,-147.5,137.5,65,70,-75,70,140,-147.5,147.5,147.5,355,1991
4,F,Elaine Perreault,SBD,FR-C,63,Raw,UA-H,AL,61.8,122.5,132.5,-137.5,132.5,60,62.5,65,65,137.5,145,152.5,152.5,350,1992
5,F,Alexandra Pong,SBD,FR-C,63,Raw,Pitt,PA,62.3,102.5,105,112.5,112.5,62.5,67.5,70,70,130,142.5,-147.5,142.5,325,1996
6,F,Helen Ramsay,SBD,FR-C,63,Raw,NU,MA,63,117.5,125,130,130,60,65,-67.5,65,115,125,-137.5,125,320,1993
7,F,Hope McAfee,SBD,FR-C,63,Raw,UNT,TX,61.6,115,130,-137.5,130,-52.5,52.5,-60,52.5,125,-140,-140,125,307.5,1995
8,F,Natalia Cabanillas,SBD,FR-C,63,Raw,FIU,FL,57.9,100,-112.5,-112.5,100,-55,57.5,60,60,112.5,137.5,145,145,305,1991
9,F,Nicolle Tamparong,SBD,FR-C,63,Raw,UH,TX,61.4,-95,95,105,105,45,50,-55,50,-135,135,142.5,142.5,297.5,1991
10,F,Amanda Canellas,SBD,FR-C,63,Raw,FIU,FL,62.1,87.5,92.5,-97.5,92.5,-70,72.5,-77.5,72.5,120,122.5,125,125,290,1994
11,F,Alexis Gray,SBD,FR-C,63,Raw,LA Tech,TX,62,75,90,100,100,42.5,55,-65,55,95,102.5,115,115,270,1995
12,F,Neale Snyder,SBD,FR-C,63,Raw,OSU,OH,63,80,82.5,87.5,87.5,52.5,57.5,60,60,112.5,117.5,120,120,267.5,1994
13,F,Nicole Barros,SBD,FR-C,63,Raw,PSU,NY,59.6,82.5,90,95,95,47.5,50,-52.5,50,107.5,112.5,117.5,117.5,262.5,1995
14,F,Aislinn Curry,SBD,FR-C,63,Raw,URI,RI,59,97.5,102.5,-110,102.5,42.5,-45,45,45,110,-120,-120,110,257.5,1997
15,F,Annette Yoon,SBD,FR-C,63,Raw,USMA,NY,61.6,70,82.5,-92.5,82.5,55,62.5,65,65,-85,90,105,105,252.5,1996
16,F,Maddasyn Manfull,SBD,FR-C,63,Raw,UMD,WV,61.4,82.5,-87.5,92.5,92.5,50,55,-60,55,87.5,95,102.5,102.5,250,1994
17,F,Alexandra Mackenzie,SBD,FR-C,63,Raw,URI,RI,62.2,72.5,80,-82.5,80,45,47.5,50,50,92.5,100,107.5,107.5,237.5,1996
18,F,Kathryn Moser,SBD,FR-C,63,Raw,Cedar,OH,62.2,-70,75,82.5,82.5,37.5,42.5,-47.5,42.5,85,92.5,100,100,225,1995
19,F,Brianna Schneider,SBD,FR-C,63,Raw,OSU,OH,61.9,70,-75,-80,70,40,42.5,45,45,87.5,97.5,105,105,220,1995
20,F,Kelly Wetmore,SBD,FR-C,63,Raw,URI,CT,62.8,70,75,80,80,37.5,40,-45,40,82.5,92.5,100,100,220,1996
1,F,Diana Hernandez-Avalos,SBD,FR-C,72,Raw,Hum St,CA,72,167.5,175,180,180,82.5,87.5,90,90,167.5,175,-180,175,445,1994
2,F,Kelsey McCarthy,SBD,FR-C,72,Raw,NU,MA,68.4,130,142.5,-152.5,142.5,65,70,75,75,150,-165,172.5,172.5,390,1992
3,F,Hannah Kleman,SBD,FR-C,72,Raw,OSU,OH,67.9,-122.5,122.5,127.5,127.5,77.5,80,-82.5,80,167.5,177.5,-182.5,177.5,385,1994
4,F,Lindsey Raker,SBD,FR-C,72,Raw,MCKU,IN,71.3,127.5,-132.5,-132.5,127.5,77.5,-82.5,-82.5,77.5,-167.5,-177.5,177.5,177.5,382.5,1995
5,F,Camille Hamilton,SBD,FR-C,72,Raw,LSU,TX,70.4,127.5,137.5,142.5,142.5,55,62.5,-65,62.5,140,152.5,160,160,365,1997
6,F,Camiesha Jackson,SBD,FR-C,72,Raw,USMA,NY,68.1,105,112.5,122.5,122.5,62.5,67.5,75,75,130,-150,165,165,362.5,1994
7,F,Meghan Bowling,SBD,FR-C,72,Raw,LA Tech,TX,71,-125,-125,125,125,72.5,80,85,85,130,140,-150,140,350,1997
8,F,Jessica Moore,SBD,FR-C,72,Raw,UMD,MD,69.3,112.5,122.5,-130,122.5,67.5,70,72.5,72.5,132.5,142.5,150,150,345,1997
9,F,Maranda Ratcliff,SBD,FR-C,72,Raw,USNA,MD,72,-115,115,-122.5,115,77.5,-82.5,-82.5,77.5,145,152.5,-160,152.5,345,1995
10,F,Emily Chang,SBD,FR-C,72,Raw,Prin,MA,64,120,-130,130,130,62.5,65,-67.5,65,142.5,147.5,-152.5,147.5,342.5,1994
11,F,Katie Salerni,SBD,FR-C,72,Raw,USNA,MD,71.2,110,-117.5,-122.5,110,-75,77.5,-85,77.5,132.5,140,147.5,147.5,335,1996
12,F,Mackenzie Garner,SBD,FR-C,72,Raw,USMA,NY,69.2,100,107.5,120,120,62.5,70,80,80,105,117.5,132.5,132.5,332.5,1996
13,F,Sydney Shade,SBD,FR-C,72,Raw,UMD,PA,68.2,112.5,117.5,125,125,65,67.5,70,70,117.5,125,132.5,132.5,327.5,1996
14,F,Emily Tumpa,SBD,FR-C,72,Raw,Pitt,PA,70.6,105,110,-117.5,110,-70,70,75,75,127.5,135,140,140,325,1995
15,F,Alyssa Leder,SBD,FR-C,72,Raw,LA Tech,LA,71.1,100,107.5,115,115,55,65,72.5,72.5,105,122.5,135,135,322.5,1993
16,F,Jannifer Ho,SBD,FR-C,72,Raw,BU,MA,65.6,102.5,110,-115,110,60,67.5,-70,67.5,125,137.5,-140,137.5,315,1994
17,F,Melissa Letellier,SBD,FR-C,72,Raw,FIU,FL,72,125,130,-135,130,47.5,52.5,57.5,57.5,115,122.5,-127.5,122.5,310,1993
18,F,Kelli Hingerton,SBD,FR-C,72,Raw,URI,NY,65.1,-100,-100,100,100,55,57.5,-60,57.5,137.5,150,-160,150,307.5,1994
19,F,Natasha Bitar,SBD,FR-C,72,Raw,UMass,MA,66.4,100,-105,105,105,60,65,-67.5,65,112.5,122.5,135,135,305,1996
20,F,Blaise Paulo,SBD,FR-C,72,Raw,USMA,NY,69.7,100,105,110,110,62.5,65,67.5,67.5,107.5,117.5,127.5,127.5,305,1996
21,F,Allison McPherson,SBD,FR-C,72,Raw,WC,RI,70.1,82.5,95,105,105,37.5,50,-52.5,50,120,132.5,145,145,300,1997
22,F,Sarah Gourley,SBD,FR-C,72,Raw,PSU,PA,71.7,105,110,-115,110,47.5,50,52.5,52.5,122.5,132.5,137.5,137.5,300,1996
23,F,Keilani-Lyn Rudderham,SBD,FR-C,72,Raw,URI,RI,67.4,97.5,-102.5,-105,97.5,47.5,50,-52.5,50,135,150,-160,150,297.5,1994
24,F,Corbin Mauro,SBD,FR-C,72,Raw,OSU,OH,71.1,90,97.5,102.5,102.5,55,57.5,-62.5,57.5,112.5,120,125,125,285,1994
25,F,Stephanie Kung,SBD,FR-C,72,Raw,UH,TX,70.3,80,85,95,95,45,50,52.5,52.5,117.5,-130,130,130,277.5,1994
26,F,Casey Baron,SBD,FR-C,72,Raw,URI,MA,65.1,102.5,107.5,-112.5,107.5,47.5,52.5,-55,52.5,115,-125,-125,115,275,1997
27,F,Lindsey Shaw,SBD,FR-C,72,Raw,OSU,OH,71.6,90,100,-105,100,50,52.5,-57.5,52.5,105,112.5,122.5,122.5,275,1993
28,F,Marisa Lightenberg,SBD,FR-C,72,Raw,URI,NJ,66.2,92.5,100,-105,100,57.5,62.5,-67.5,62.5,97.5,110,-120,110,272.5,1996
29,F,Miranda Garcia,SBD,FR-C,72,Raw,UTSA,TX,63.6,95,102.5,105,105,-40,40,-55,40,100,112.5,120,120,265,1997
30,F,Coralie Phanord,SBD,FR-C,72,Raw,DART,NH,70.2,-87.5,87.5,95,95,42.5,45,47.5,47.5,95,107.5,115,115,257.5,1994
31,F,Celeste Taniguchi,SBD,FR-C,72,Raw,USMA,NY,65.5,70,72.5,77.5,77.5,50,52.5,55,55,107.5,112.5,120,120,252.5,1996
32,F,Jessica Johnson,SBD,FR-C,72,Raw,UTSA,TX,70.3,72.5,80,85,85,45,50,-55,50,95,102.5,110,110,245,1997
33,F,Antonia Balboni,SBD,FR-C,72,Raw,URI,CT,69.8,85,-90,92.5,92.5,35,40,-45,40,85,92.5,110,110,242.5,1996
34,F,Shannon Jacob,SBD,FR-C,72,Raw,PSU,PA,69.8,75,80,85,85,52.5,55,-57.5,55,90,95,100,100,240,1997
35,F,Marissa Reuther,SBD,FR-C,72,Raw,PSU,PA,66.4,72.5,80,-87.5,80,40,42.5,45,45,95,102.5,110,110,235,1996
36,F,Mary Catherine Innace,SBD,FR-C,72,Raw,RUT,NJ,70,25,,,25,80,-85,-85,80,25,,,25,130,1995
DQ,F,Danielle Peck,SBD,FR-C,72,Raw,USMA,NY,65.8,97.5,-102.5,-102.5,97.5,-70,-70,-70,,115,122.5,127.5,127.5,,1995
1,F,Monet Bland,SBD,FR-C,84,Raw,NU,MA,82.8,150,-160,-160,150,80,-85,85,85,185,-195,-195,185,420,1991
2,F,Alexandria Benboe,SBD,FR-C,84,Raw,LSU,FL,75.6,107.5,117.5,127.5,127.5,70,80,-85,80,175,187.5,-195,187.5,395,1997
3,F,Maria Rojas,SBD,FR-C,84,Raw,PSU,PA,75.6,110,117.5,122.5,122.5,72.5,-77.5,-77.5,72.5,142.5,155,162.5,162.5,357.5,1997
4,F,Kelly Yates,SBD,FR-C,84,Raw,LSU,LA,80.4,110,120,-125,120,60,65,-67.5,65,147.5,155,160,160,345,1993
5,F,Ashley DeShetler,SBD,FR-C,84,Raw,OSU,OH,73,117.5,122.5,127.5,127.5,60,-62.5,-62.5,60,142.5,147.5,155,155,342.5,1995
6,F,Carla Newman,SBD,FR-C,84,Raw,PSU,PA,80.4,107.5,115,122.5,122.5,52.5,55,57.5,57.5,142.5,152.5,157.5,157.5,337.5,1995
7,F,Teagan Schwab,SBD,FR-C,84,Raw,MCKU,IL,77,-115,115,122.5,122.5,57.5,62.5,-70,62.5,137.5,150,-160,150,335,1996
8,F,Sarah Ferrell,SBD,FR-C,84,Raw,UMD,MD,82,102.5,107.5,115,115,55,60,65,65,140,150,-155,150,330,1994
9,F,Allison Neu,SBD,FR-C,84,Raw,OSU,OH,74.4,90,100,102.5,102.5,50,-55,-55,50,130,140,147.5,147.5,300,1995
10,F,Janelle Haire,SBD,FR-C,84,Raw,URI,RI,77.8,97.5,105,-112.5,105,45,50,55,55,102.5,115,125,125,285,1993
11,F,Megan Hower,SBD,FR-C,84,Raw,PSU,PA,76.6,87.5,-95,95,95,47.5,50,52.5,52.5,115,125,135,135,282.5,1996
12,F,Yessica Uribe,SBD,FR-C,84,Raw,FIU,FL,72.2,82.5,87.5,92.5,92.5,40,45,-52.5,45,105,112.5,117.5,117.5,255,1990
13,F,Casey Carr,SBD,FR-C,84,Raw,PSU,PA,78.6,-90,90,95,95,47.5,50,-52.5,50,97.5,107.5,-117.5,107.5,252.5,1996
14,F,Rachel Hido,SBD,FR-C,84,Raw,PSU,PA,78.4,77.5,-85,-87.5,77.5,42.5,45,-47.5,45,115,117.5,125,125,247.5,1992
15,F,Elizabeth Sledzinski,SBD,FR-C,84,Raw,PSU,PA,77.2,85,-90,-90,85,47.5,-50,-50,47.5,100,107.5,-117.5,107.5,240,1995
1,F,Binglei Zhou,SBD,FR-C,84+,Raw,NU,MA,98,165,-170,175,175,60,67.5,-72.5,67.5,180,195,210.5,210.5,453,1994
2,F,Shatara Warner,SBD,FR-C,84+,Raw,LSU,LA,139.4,-117.5,117.5,130,130,77.5,85,-87.5,85,150,165,180,180,395,1993
3,F,Anna Gailius,SBD,FR-C,84+,Raw,MCKU,IL,96,125,130,137.5,137.5,85,92.5,-95,92.5,152.5,162.5,-172.5,162.5,392.5,1995
4,F,Danielle Lewis,SBD,FR-C,84+,Raw,RUT,NJ,111.6,125,130,137.5,137.5,-77.5,-77.5,77.5,77.5,157.5,167.5,-177.5,167.5,382.5,1993
5,F,Raven Nichols,SBD,FR-C,84+,Raw,LSU,LA,153.8,145,-155,155,155,72.5,77.5,82.5,82.5,130,142.5,-152.5,142.5,380,1996
6,F,Meredith O'Brien,SBD,FR-C,84+,Raw,MCKU,IL,107.6,120,127.5,132.5,132.5,50,55,-57.5,55,127.5,137.5,-150,137.5,325,1996
7,F,Jennifer Nance,SBD,FR-C,84+,Raw,TEMP,PA,84.8,100,107.5,115,115,50,55,60,60,102.5,117.5,130,130,305,1997
8,F,Teiana Bennett,SBD,FR-C,84+,Raw,PSU,NY,88,102.5,110,115,115,47.5,50,52.5,52.5,112.5,120,125,125,292.5,1994
9,F,Judith Jessen,SBD,FR-C,84+,Raw,UAA,AK,96,85,90,97.5,97.5,47.5,52.5,57.5,57.5,107.5,115,125,125,280,1992
10,F,Georgina Snyder,SBD,FR-C,84+,Raw,PSU,PA,103,95,100,-105,100,45,47.5,50,50,87.5,97.5,105,105,255,1996
DQ,M,Collin Larkin,SBD,MR-C,83,Raw,URI,CT,78.5,-185,-192.5,-205,,-102.5,-110,-110,,-200,-200,-215,,,1994
DQ,M,Bryson Randall,SBD,MR-C,93,Raw,USMA,NY,92.6,-242.5,-255,-262.5,,-150,-165,-170,,-265,-280,-290,,,1994
