Division,WeightClassKg,Place,Name,Team,BodyweightKg,Best3SquatKg,Best3BenchKg,Best3DeadliftKg,TotalKg,Equipment,Event,Sex
Boys,55.79,1,Lucas Glew,Beeville Jones,51.8,142.88,70.31,122.47,335.66,Single-ply,SBD,M
Boys,51.71,2,Thomas Soto,Corpus Christi Calallen,49.62,120.2,61.23,145.15,326.59,Single-ply,SBD,M
Boys,51.71,3,Bryan Priddy,Skidmore-Tynan,48.72,92.99,65.77,117.93,276.69,Single-ply,SBD,M
Boys,51.71,4,Sawyer Yandell,Devine,51.62,99.79,54.43,106.59,260.82,Single-ply,SBD,M
Boys,59.87,1,Aaron Gonzales,Mathis,55.97,154.22,79.38,167.83,401.43,Single-ply,SBD,M
Boys,55.79,2,Andrew Garlin,Skidmore-Tynan,55.79,127.01,83.91,133.81,344.73,Single-ply,SBD,M
Boys,55.79,3,Robert Seward,Corpus Christi Calallen,54.25,99.79,68.04,131.54,299.37,Single-ply,SBD,M
Boys,55.79,4,Heard Ben,Corpus Christi Calallen,52.16,99.79,61.23,124.74,285.76,Single-ply,SBD,M
Boys,55.79,5,Sebastian Hernandez,Skidmore-Tynan,54.34,106.59,56.7,102.06,265.35,Single-ply,SBD,M
Boys,55.79,6,Victor Vera,Kingsville King,53.16,61.23,47.63,83.91,192.78,Single-ply,SBD,M
Boys,67.13,1,Raymond Lopez,Taft,60.1,183.7,106.59,201.85,492.15,Single-ply,SBD,M
Boys,59.87,2,Ryan Montgomery,Devine,59.78,158.76,90.72,163.29,412.77,Single-ply,SBD,M
Boys,59.87,3,Marquis Barrolle,Ingleside,58.24,158.76,90.72,133.81,383.29,Single-ply,SBD,M
Boys,59.87,4,Ryan Johnson,Port Lavaca Calhoun,57.52,122.47,70.31,129.27,322.05,Single-ply,SBD,M
Boys,59.87,5,Matt Sanchez,Kingsville King,56.97,102.06,65.77,115.67,283.5,Single-ply,SBD,M
Boys,67.13,1,Dalton Torres,Beeville Jones,63.78,208.65,111.13,183.7,503.49,Single-ply,SBD,M
Boys,67.13,2,Phong Tran,Rockport-Fulton,65.41,183.7,106.59,195.04,485.34,Single-ply,SBD,M
Boys,67.13,3,Darrell DuBose,Devine,66.95,165.56,97.52,181.44,444.52,Single-ply,SBD,M
Boys,67.13,4,Jared Reilly,Corpus Christi Calallen,66.41,163.29,86.18,181.44,430.91,Single-ply,SBD,M
Boys,67.13,5,Benji Gomez,Beeville Jones,66.13,165.56,95.25,158.76,419.57,Single-ply,SBD,M
Boys,67.13,6,Jacob Adame,Ingleside,64.41,145.15,97.52,140.61,383.29,Single-ply,SBD,M
Boys,74.84,7,Drew Ortiz,Port Lavaca Calhoun,67.31,138.35,83.91,133.81,356.07,Single-ply,SBD,M
Boys,67.13,DQ,Bj Ripyla,Kingsville King,65.41,163.29,,,,Single-ply,SBD,M
Boys,74.84,1,Jermiah Puentes,Beeville Jones,72.85,206.38,115.67,210.92,532.97,Single-ply,SBD,M
Boys,74.84,2,Javi Rojas,Kingsville King,73.75,185.97,108.86,217.72,512.56,Single-ply,SBD,M
Boys,74.84,3,Nick Fisher,Rockport-Fulton,74.84,192.78,92.99,204.12,489.88,Single-ply,SBD,M
Boys,74.84,4,Nathan Hawthorne,Port Lavaca Calhoun,73.03,181.44,111.13,158.76,451.32,Single-ply,SBD,M
Boys,74.84,5,Jordan Boone,Kingsville King,71.4,151.95,108.86,181.44,442.25,Single-ply,SBD,M
Boys,74.84,6,Christian Stiles,Corpus Christi Calallen,67.77,158.76,90.72,176.9,426.38,Single-ply,SBD,M
Boys,74.84,7,Raymond Gonzales,Beeville Jones,71.76,149.69,65.77,154.22,369.68,Single-ply,SBD,M
Boys,74.84,8,JD White,Skidmore-Tynan,69.31,124.74,79.38,142.88,347,Single-ply,SBD,M
Boys,74.84,DQ,Alex Gonzales,Skidmore-Tynan,70.76,233.6,106.59,,,Single-ply,SBD,M
Boys,74.84,DQ,Ray Arispe,Devine,72.85,204.12,,,,Single-ply,SBD,M
Boys,82.1,1,Raydell Perez,Ingleside,80.1,219.99,165.56,226.8,612.35,Single-ply,SBD,M
Boys,82.1,2,Genaro Trevino,Beeville Jones,81.37,242.67,158.76,206.38,607.81,Single-ply,SBD,M
Boys,82.1,3,Trevor Hardin,Mathis,81.1,235.87,113.4,231.33,580.6,Single-ply,SBD,M
Boys,82.1,4,Fabian Gonzales,Kingsville King,78.02,188.24,113.4,188.24,489.88,Single-ply,SBD,M
Boys,82.1,5,David Carvajal,George West,81.83,163.29,92.99,176.9,433.18,Single-ply,SBD,M
Boys,82.1,6,Trayce Shugart,Ingleside,77.66,136.08,136.08,158.76,430.91,Single-ply,SBD,M
Boys,82.1,7,Victor Ta,Port Lavaca Calhoun,77.11,158.76,68.04,147.42,374.21,Single-ply,SBD,M
Boys,89.81,1,Allan Grove,Ingleside,89.36,233.6,142.88,229.06,605.55,Single-ply,SBD,M
Boys,89.81,2,Lazaro Smith,Beeville Jones,89.54,251.74,131.54,222.26,605.55,Single-ply,SBD,M
Boys,89.81,3,Jose Sauceda,Port Lavaca Calhoun,84.1,217.72,147.42,204.12,569.26,Single-ply,SBD,M
Boys,89.81,4,Enrique Olachia,Port Lavaca Calhoun,86.27,222.26,127.01,210.92,560.19,Single-ply,SBD,M
Boys,99.79,5,Justin DeLeon,Mathis,89.9,188.24,83.91,197.31,469.47,Single-ply,SBD,M
Boys,89.81,6,Joseph Villarreal,Kingsville King,84.91,176.9,102.06,174.63,453.59,Single-ply,SBD,M
Boys,89.81,7,Thomas Olvalle,Port Lavaca Calhoun,86.91,167.83,90.72,158.76,417.3,Single-ply,SBD,M
Boys,89.81,8,Weston Carroll,Beeville Jones,84.01,154.22,99.79,149.69,403.7,Single-ply,SBD,M
Boys,89.81,DQ,Korey Ochoa,Devine,83.1,,,,,Single-ply,SBD,M
Boys,89.81,DQ,Josh Chrisman,Rockport-Fulton,82.74,,,,,Single-ply,SBD,M
Boys,99.79,1,Nathan Westbrook,Kingsville King,98.43,242.67,165.56,226.8,635.03,Single-ply,SBD,M
Boys,99.79,2,Jarred Longerot,Mathis,99.34,235.87,104.33,226.8,566.99,Single-ply,SBD,M
Boys,99.79,3,Zane Sanchez,Devine,92.8,181.44,117.93,190.51,489.88,Single-ply,SBD,M
Boys,99.79,4,Micheal Wiser,Corpus Christi Calallen,96.52,147.42,108.86,195.04,451.32,Single-ply,SBD,M
Boys,99.79,5,Joseph Moore,George West,92.99,156.49,120.2,170.1,446.79,Single-ply,SBD,M
Boys,99.79,6,Jesse Gomez,Kingsville King,93.71,151.95,106.59,174.63,433.18,Single-ply,SBD,M
Boys,99.79,7,Nick Trevino,Kingsville King,96.52,145.15,97.52,181.44,424.11,Single-ply,SBD,M
Boys,99.79,8,Eric Viafranco,Mathis,94.8,167.83,79.38,158.76,405.97,Single-ply,SBD,M
Boys,99.79,9,Bryan Clesser,George West,92.53,145.15,97.52,154.22,396.89,Single-ply,SBD,M
Boys,99.79,DQ,Eric Carroll,Rockport-Fulton,97.7,,,,,Single-ply,SBD,M
Boys,109.77,1,Aaron Liserio,Mathis,108.95,258.55,113.4,204.12,576.06,Single-ply,SBD,M
Boys,109.77,2,Steven Chapa,Kingsville King,108.77,219.99,120.2,174.63,514.83,Single-ply,SBD,M
Boys,109.77,3,Jacob Moreno,Mathis,104.24,204.12,99.79,192.78,496.68,Single-ply,SBD,M
Boys,109.77,4,Andrew Salazar,Devine,105.78,179.17,117.93,181.44,478.54,Single-ply,SBD,M
Boys,109.77,5,Joseph Avitia,Ingleside,101.33,195.04,117.93,163.29,476.27,Single-ply,SBD,M
Boys,109.77,6,Luke Briscoe,Devine,108.05,167.83,122.47,183.7,474,Single-ply,SBD,M
Boys,109.77,7,Robert Botello,Corpus Christi Calallen,104.33,161.03,106.59,181.44,449.06,Single-ply,SBD,M
Boys,109.77,8,Patrick Rodriguez,Devine,102.24,158.76,106.59,163.29,428.64,Single-ply,SBD,M
Boys,109.77,9,Matt Ferrall,Rockport-Fulton,106.23,174.63,102.06,145.15,421.84,Single-ply,SBD,M
Boys,109.77,10,Jesse Romero,Rockport-Fulton,104.87,174.63,83.91,156.49,415.04,Single-ply,SBD,M
Boys,124.74,1,Jose Molina,Skidmore-Tynan,114.94,233.6,136.08,199.58,569.26,Single-ply,SBD,M
Boys,124.74,2,Sean Pittman,Devine,116.48,165.56,120.2,170.1,455.86,Single-ply,SBD,M
Boys,124.74,3,Dj Carlson,Devine,122.2,181.44,106.59,165.56,453.59,Single-ply,SBD,M
Boys,124.74+,1,Matt Jones,Ingleside,129.18,265.35,174.63,240.4,680.39,Single-ply,SBD,M
Boys,124.74+,2,Miguel Estrada,Rockport-Fulton,133.63,226.8,158.76,244.94,630.49,Single-ply,SBD,M
Boys,124.74+,3,Matt Hernandez,Skidmore-Tynan,136.44,215.46,188.24,215.46,619.15,Single-ply,SBD,M
Boys,124.74+,4,Kaleb Tichkausky,Three Rivers,125.65,229.06,151.95,215.46,596.47,Single-ply,SBD,M
Boys,124.74+,5,Dylan Strickland,Corpus Christi Calallen,133.17,233.6,129.27,201.85,564.72,Single-ply,SBD,M
Boys,124.74+,6,Adam Aleman,Beeville Jones,146.69,229.06,131.54,195.04,555.65,Single-ply,SBD,M
Boys,124.74+,7,Josh Moreno,Mathis,127.91,231.33,113.4,185.97,530.7,Single-ply,SBD,M
Boys,124.74+,8,Steven Rodriguez,Corpus Christi Calallen,134.35,217.72,124.74,176.9,519.36,Single-ply,SBD,M
Boys,124.74+,9,Ryan Gutierrez,Rockport-Fulton,131.81,181.44,113.4,161.03,455.86,Single-ply,SBD,M
Boys,124.74+,DQ,Andrew Williams,Rockport-Fulton,150.59,235.87,136.08,,,Single-ply,SBD,M
Boys,124.74+,DQ,Steven Flanigan,Ingleside,130.18,265.35,,,,Single-ply,SBD,M
Boys,124.74+,DQ,Ruben DelBosque,Mathis,143.24,260.82,,,,Single-ply,SBD,M
Junior Varsity,51.71,1,Blake McCain,Corpus Christi Calallen,51.44,97.52,52.16,99.79,249.48,Single-ply,SBD,M
Junior Varsity,59.87,1,Michael Casarez,Three Rivers,55.88,142.88,65.77,158.76,367.41,Single-ply,SBD,M
Junior Varsity,55.79,2,Byron Davidson,Corpus Christi Calallen,53.34,92.99,49.9,120.2,263.08,Single-ply,SBD,M
Junior Varsity,55.79,3,Brian Ruiz,Corpus Christi Calallen,55.07,88.45,45.36,111.13,244.94,Single-ply,SBD,M
Junior Varsity,59.87,1,Patrick Torres,Ingleside,59.87,61.23,61.23,102.06,224.53,Single-ply,SBD,M
Junior Varsity,67.13,1,Russell Hinojosa,Beeville Jones,65.95,140.61,83.91,127.01,351.53,Single-ply,SBD,M
Junior Varsity,67.13,2,Austin Castillo,Corpus Christi Calallen,66.59,115.67,79.38,149.69,344.73,Single-ply,SBD,M
Junior Varsity,67.13,DQ,Dillion Torres,Beeville Jones,63.5,140.61,,,,Single-ply,SBD,M
Junior Varsity,67.13,DQ,Skyler Shugart,Ingleside,65.68,,,,,Single-ply,SBD,M
Junior Varsity,74.84,1,Christian Diaz,Ingleside,74.3,170.1,90.72,167.83,428.64,Single-ply,SBD,M
Junior Varsity,74.84,2,Joey Jasso,Rockport-Fulton,68.95,172.37,86.18,158.76,417.3,Single-ply,SBD,M
Junior Varsity,74.84,3,Aj Ipock,Beeville Jones,73.39,120.2,61.23,111.13,292.57,Single-ply,SBD,M
Junior Varsity,82.1,1,Alex Tanguma,Corpus Christi Calallen,82.1,181.44,124.74,190.51,496.68,Single-ply,SBD,M
Junior Varsity,82.1,2,Jacob Muniz,Three Rivers,78.2,183.7,97.52,192.78,474,Single-ply,SBD,M
Junior Varsity,82.1,3,Andrew Reyes,Rockport-Fulton,81.19,179.17,106.59,181.44,467.2,Single-ply,SBD,M
Junior Varsity,82.1,4,Danny Snodgrass,Ingleside,81.19,170.1,124.74,158.76,453.59,Single-ply,SBD,M
Junior Varsity,89.81,1,Jonathan Chavana,Port Lavaca Calhoun,85.73,163.29,88.45,149.69,401.43,Single-ply,SBD,M
Junior Varsity,89.81,2,Jared Davenport,Rockport-Fulton,89.63,104.33,70.31,131.54,306.17,Single-ply,SBD,M
Junior Varsity,89.81,3,Javier Reynega,Corpus Christi Calallen,89.09,90.72,54.43,113.4,258.55,Single-ply,SBD,M
Junior Varsity,89.81,DQ,Aric Gamez,Beeville Jones,83.37,174.63,,,,Single-ply,SBD,M
Junior Varsity,99.79,1,Truman Jenkins,Rockport-Fulton,95.71,156.49,90.72,158.76,405.97,Single-ply,SBD,M
Junior Varsity,99.79,2,Daniel Diaz,Three Rivers,90.63,163.29,92.99,147.42,403.7,Single-ply,SBD,M
Junior Varsity,99.79,3,Coursey Floyd,Rockport-Fulton,91.44,102.06,70.31,113.4,285.76,Single-ply,SBD,M
Junior Varsity,109.77,1,Brodie Ruiz,Three Rivers,109.59,165.56,90.72,158.76,415.04,Single-ply,SBD,M
Junior Varsity,109.77,2,Cordell Echols,Ingleside,103.33,163.29,102.06,147.42,412.77,Single-ply,SBD,M
Junior Varsity,109.77,3,Nick Jamison,Rockport-Fulton,100.7,113.4,106.59,167.83,387.82,Single-ply,SBD,M
Junior Varsity,109.77,4,Donald Chapman,Rockport-Fulton,100.88,138.35,86.18,147.42,371.95,Single-ply,SBD,M
Junior Varsity,124.74,1,Eric Soliz,Rockport-Fulton,114.49,156.49,86.18,165.56,408.23,Single-ply,SBD,M
Junior Varsity,124.74,2,Landry Newport,Three Rivers,123.92,154.22,77.11,165.56,396.89,Single-ply,SBD,M
Junior Varsity,124.74+,1,Christian Zuniga,Rockport-Fulton,127.73,174.63,99.79,165.56,439.98,Single-ply,SBD,M
