Division,WeightClassKg,Place,Name,Team,BodyweightKg,Best3SquatKg,Best3BenchKg,Best3DeadliftKg,TotalKg,Equipment,Event,Sex
Boys,51.71,1,Viator Gomez,Mertzon Irion County,50.67,158.76,79.38,138.35,376.48,Single-ply,SBD,M
Boys,55.79,2,Bernardo Cruz,Eldorado,51.94,117.93,65.77,129.27,312.98,Single-ply,SBD,M
Boys,51.71,3,Henry Ramos,Sonora,49.99,111.13,56.7,113.4,281.23,Single-ply,SBD,M
Boys,55.79,1,Sean Gonzales,Ballinger,55.79,163.29,88.45,154.22,405.97,Single-ply,SBD,M
Boys,55.79,2,Jonathan Michaels,Tuscola Jim Ned,54.88,140.61,88.45,140.61,369.68,Single-ply,SBD,M
Boys,59.87,3,Ben Lantrip,Tuscola Jim Ned,56.02,122.47,65.77,154.22,342.46,Single-ply,SBD,M
Boys,55.79,4,Isaac Perez,Brady,52.34,117.93,61.23,111.13,290.3,Single-ply,SBD,M
Boys,55.79,5,Angel Sandoval,Brady,52.34,111.13,47.63,131.54,290.3,Single-ply,SBD,M
Boys,55.79,DQ,Michael Hosch,McCamey,52.8,,,,,Single-ply,SBD,M
Boys,67.13,1,Javier Garcia,Eldorado,60.1,156.49,81.65,158.76,396.89,Single-ply,SBD,M
Boys,59.87,2,Christian Alexander,Tuscola Jim Ned,58.92,149.69,83.91,154.22,387.82,Single-ply,SBD,M
Boys,67.13,3,Glenn Crowder,Iraan,60.06,147.42,72.57,158.76,378.75,Single-ply,SBD,M
Boys,59.87,4,Dillon Daniel,Forsan,57.74,115.67,72.57,149.69,337.93,Single-ply,SBD,M
Boys,59.87,5,Anthony Jones,San Angelo Grape Creek,59.56,131.54,74.84,124.74,331.12,Single-ply,SBD,M
Boys,59.87,6,Nathan Browning,Sweetwater,56.06,97.52,72.57,104.33,274.42,Single-ply,SBD,M
Boys,67.13,1,John Jurado,Ozona,64.77,215.46,104.33,183.7,503.49,Single-ply,SBD,M
Boys,74.84,2,Austin Ramirez,Iraan,67.36,188.24,95.25,204.12,487.61,Single-ply,SBD,M
Boys,67.13,3,Clayten Crabb,Ballinger,66.81,181.44,108.86,183.7,474,Single-ply,SBD,M
Boys,67.13,4,Mario Manquero,Garden City,64,176.9,102.06,188.24,467.2,Single-ply,SBD,M
Boys,67.13,5,Oscar Narvaez,Mertzon Irion County,64.95,188.24,95.25,170.1,453.59,Single-ply,SBD,M
Boys,67.13,6,Ismael Ramirez,Garden City,66.32,163.29,99.79,174.63,437.72,Single-ply,SBD,M
Boys,74.84,7,Matthew Fisher,Tuscola Jim Ned,67.31,154.22,99.79,163.29,417.3,Single-ply,SBD,M
Boys,67.13,8,Peyton Polston,Tuscola Jim Ned,65.05,145.15,99.79,163.29,408.23,Single-ply,SBD,M
Boys,67.13,9,Raymond Parsons,San Angelo Grape Creek,67.13,140.61,81.65,156.49,378.75,Single-ply,SBD,M
Boys,67.13,10,Blaze Yeater,Forsan,60.33,138.35,70.31,142.88,351.53,Single-ply,SBD,M
Boys,67.13,11,Travis Ballard,Forsan,62.14,115.67,68.04,136.08,319.78,Single-ply,SBD,M
Boys,67.13,DQ,Victor Castro,Eldorado,62.37,,,,,Single-ply,SBD,M
Boys,67.13,DQ,Adrian Pena,Ballinger,65.77,165.56,,,,Single-ply,SBD,M
Boys,74.84,1,Willie Collins,Ballinger,72.62,217.72,136.08,204.12,557.92,Single-ply,SBD,M
Boys,74.84,2,Sean Schaefer,Ballinger,71.8,226.8,108.86,210.92,546.58,Single-ply,SBD,M
Boys,74.84,3,Luke Parker,Christoval,74.25,226.8,108.86,201.85,537.51,Single-ply,SBD,M
Boys,74.84,4,Austin Grantham,Forsan,74.57,167.83,115.67,199.58,483.08,Single-ply,SBD,M
Boys,74.84,5,Joseph Rees,Tuscola Jim Ned,74.62,156.49,86.18,192.78,435.45,Single-ply,SBD,M
Boys,74.84,6,Kelly Kennedy,San Angelo Grape Creek,69.22,131.54,79.38,156.49,367.41,Single-ply,SBD,M
Boys,74.84,7,Ashton Voight,Forsan,70.22,142.88,83.91,140.61,367.41,Single-ply,SBD,M
Boys,74.84,8,Jacob Mettlen,Eldorado,74.57,102.06,77.11,161.03,340.19,Single-ply,SBD,M
Boys,82.1,1,Rikkie Ruschenberg,San Angelo Grape Creek,79.51,263.08,122.47,213.19,598.74,Single-ply,SBD,M
Boys,82.1,2,Steven Kirk,Ballinger,78.2,219.99,122.47,199.58,542.04,Single-ply,SBD,M
Boys,89.81,3,Aliq DeLeon,McCamey,82.28,204.12,113.4,195.04,512.56,Single-ply,SBD,M
Boys,82.1,4,Kevin O'Dell,San Angelo Grape Creek,79.51,181.44,106.59,185.97,474,Single-ply,SBD,M
Boys,82.1,5,Chris Amador,Mertzon Irion County,81.6,185.97,97.52,163.29,446.79,Single-ply,SBD,M
Boys,89.81,6,Trace Hariman,Eldorado,82.28,174.63,99.79,140.61,415.04,Single-ply,SBD,M
Boys,89.81,7,Jorge Salais,Garden City,82.28,149.69,72.57,167.83,390.09,Single-ply,SBD,M
Boys,82.1,8,Tristan Onofre,Iraan,79.79,142.88,72.57,136.08,351.53,Single-ply,SBD,M
Boys,82.1,9,Hunter Maynard,McCamey,77.16,124.74,72.57,136.08,333.39,Single-ply,SBD,M
Boys,89.81,1,John Cuellar,Ballinger,89.36,256.28,161.03,235.87,653.17,Single-ply,SBD,M
Boys,89.81,2,Josh Neri,Mertzon Irion County,84.78,206.38,136.08,215.46,557.92,Single-ply,SBD,M
Boys,89.81,3,Daniel King,Ballinger,89.77,210.92,120.2,226.8,557.92,Single-ply,SBD,M
Boys,89.81,4,Pecos Silva,Christoval,89.04,208.65,124.74,199.58,532.97,Single-ply,SBD,M
Boys,89.81,5,Devonte Evetts,Brady,88.04,179.17,124.74,219.99,523.9,Single-ply,SBD,M
Boys,89.81,6,Fabian Gomez,Eldorado,83.91,206.38,120.2,195.04,521.63,Single-ply,SBD,M
Boys,89.81,7,Daniel Lombrana,Ozona,83.78,199.58,92.99,206.38,498.95,Single-ply,SBD,M
Boys,89.81,8,Dylan Jimenez,Sweetwater,87.68,190.51,102.06,199.58,492.15,Single-ply,SBD,M
Boys,89.81,9,Raymond Delgado,Sweetwater,89.49,154.22,95.25,172.37,421.84,Single-ply,SBD,M
Boys,89.81,10,Alvin Watson,Iraan,89.45,149.69,81.65,172.37,403.7,Single-ply,SBD,M
Boys,89.81,DQ,Zach Garcia,Sweetwater,84.05,165.56,,,,Single-ply,SBD,M
Boys,99.79,1,Auggie Woodruff,Ballinger,97.34,317.51,204.12,249.48,771.11,Single-ply,SBD,M
Boys,99.79,2,Alex Perez,San Angelo Grape Creek,97.07,244.94,124.74,213.19,582.87,Single-ply,SBD,M
Boys,99.79,3,Matt Garcia,Mertzon Irion County,97.61,226.8,156.49,197.31,580.6,Single-ply,SBD,M
Boys,99.79,4,Cj Camarillo,Brady,90.76,206.38,113.4,165.56,485.34,Single-ply,SBD,M
Boys,99.79,5,Travis Carter,Iraan,92.94,149.69,65.77,147.42,362.87,Single-ply,SBD,M
Boys,109.77,1,Wade Pierce,Iraan,101.47,226.8,147.42,238.14,612.35,Single-ply,SBD,M
Boys,109.77,2,Adrian Hernandez,San Angelo Grape Creek,106.32,260.82,136.08,208.65,605.55,Single-ply,SBD,M
Boys,109.77,3,Angel DeLuna,Sonora,107.32,240.4,120.2,199.58,560.19,Single-ply,SBD,M
Boys,124.74,4,Hl James,Christoval,109.91,235.87,106.59,217.72,560.19,Single-ply,SBD,M
Boys,109.77,5,Cory Mendez,Sweetwater,103.37,213.19,102.06,217.72,532.97,Single-ply,SBD,M
Boys,109.77,6,Devin Kimmey,Mertzon Irion County,106.05,172.37,106.59,156.49,435.45,Single-ply,SBD,M
Boys,124.74,1,Antonio Perez,San Angelo Grape Creek,118.21,249.48,183.7,217.72,650.91,Single-ply,SBD,M
Boys,124.74,2,Jacob Daniels,Ballinger,116.17,258.55,163.29,210.92,632.76,Single-ply,SBD,M
Boys,124.74,3,Dustin Hodges,Brady,121.7,238.14,136.08,201.85,576.06,Single-ply,SBD,M
Boys,124.74,4,Zack Taylor,Ozona,117.07,226.8,124.74,181.44,532.97,Single-ply,SBD,M
Boys,124.74,5,Robert Vance,San Angelo Grape Creek,110.4,161.03,97.52,124.74,383.29,Single-ply,SBD,M
Boys,124.74,DQ,Aaron Enriquez,Garden City,113.62,197.31,117.93,,,Single-ply,SBD,M
Boys,124.74+,1,Kelton Bales,Iraan,125.37,278.96,136.08,224.53,639.57,Single-ply,SBD,M
Boys,124.74+,DQ,Robert McKee,McCamey,125.1,188.24,102.06,,,Single-ply,SBD,M
Boys,124.74+,DQ,Andrew Davis,Sweetwater,126.73,192.78,117.93,,,Single-ply,SBD,M
Boys,,NS,Alberto Rodriquez,Ozona,,,,,,Single-ply,SBD,M
Boys,,NS,Robert Reyes,Iraan,,,,,,Single-ply,SBD,M
Boys,,NS,Connor Steel,Forsan,,,,,,Single-ply,SBD,M
Boys,,NS,Jaye Ashmore,McCamey,,,,,,Single-ply,SBD,M
Boys,,NS,Jonathon Keene,McCamey,,,,,,Single-ply,SBD,M
Boys,,NS,Juan McKee,McCamey,,,,,,Single-ply,SBD,M
Boys,,NS,Adrian Rodriquez,McCamey,,,,,,Single-ply,SBD,M
Boys,,NS,Gabriel Rodriquez,McCamey,,,,,,Single-ply,SBD,M
Boys,,NS,Michael DeLeon,McCamey,,,,,,Single-ply,SBD,M
Boys,,NS,Shay Smith,McCamey,,,,,,Single-ply,SBD,M
Boys,,NS,Christopher Mims,Forsan,,,,,,Single-ply,SBD,M
Boys,,NS,Steven Davis,Forsan,,,,,,Single-ply,SBD,M
Boys,,NS,Brent Glasco,Forsan,,,,,,Single-ply,SBD,M
Boys,,NS,Ausden Medrano,Forsan,,,,,,Single-ply,SBD,M
Boys,,NS,Taylor Morin,Forsan,,,,,,Single-ply,SBD,M
Boys,,NS,Dorian Jimenez,Brady,,,,,,Single-ply,SBD,M
Boys,,NS,Jose Leon,Brady,,,,,,Single-ply,SBD,M
