Name,BirthYear,WeightClassKg,BodyweightKg,Country,Best3SquatKg,Best3BenchKg,Best3DeadliftKg,TotalKg,Sex,Division,Event,Equipment,Place
Kari Ojalehto,1948,52,51.6,Finland,197.5,107.5,185,490,M,Open,SBD,Single-ply,1
John Clay,1964,52,50.5,UK,170,102.5,190,462.5,M,Open,SBD,Single-ply,2
John Maxwell,1964,52,50.5,UK,170,82.5,195,447.5,M,Open,SBD,Single-ply,3
Johann Mandl,1949,52,51.9,Austria,147.5,72.5,175,395,M,Open,SBD,Single-ply,4
Joachim Mödl,1966,52,51.5,Germany,150,77.5,165,392.5,M,Open,SBD,Single-ply,5
Yrjö Haatanen,1933,56,55.9,Finland,180,115,220,515,M,Open,SBD,Single-ply,1
Bernd Doellen,1960,56,55.6,Germany,182.5,132.5,185,500,M,Open,SBD,Single-ply,2
Bernard Vincent,1957,56,55.6,France,175,97.5,212.5,485,M,Open,SBD,Single-ply,3
Gerard McNamara,1963,56,56,Ireland,,,,,M,Open,SBD,Single-ply,DQ
Gerard Tromp,1959,60,59.8,Netherlands,235,137.5,220,592.5,M,Open,SBD,Single-ply,1
Lucien DeFaria,1942,60,60,France,190,125,267.5,582.5,M,Open,SBD,Single-ply,2
Clint Lewis,1958,60,59.9,UK,210,140,225,575,M,Open,SBD,Single-ply,3
Arto Kallioniemi,1957,60,59.4,Finland,212.5,120,232.5,565,M,Open,SBD,Single-ply,4
Peter Lux,1960,60,59.8,Germany,205,145,205,555,M,Open,SBD,Single-ply,5
Herrmann Nurse,1948,60,59.4,UK,212.5,117.5,215,545,M,Open,SBD,Single-ply,6
Jan-Tore Bredalen,1963,60,60,Norway,207.5,115,212.5,535,M,Open,SBD,Single-ply,7
Ronny Celis,1956,60,58.5,Belgium,205,107.5,210,522.5,M,Open,SBD,Single-ply,8
Tom Warby,1952,60,59.9,Ireland,190,105,192.5,487.5,M,Open,SBD,Single-ply,9
Eddy Pengelly,1949,67.5,66.8,UK,247.5,152.5,265,665,M,Open,SBD,Single-ply,1
Stefan Nentis,1960,67.5,67.4,Sweden,245,150,257.5,652.5,M,Open,SBD,Single-ply,2
Steinar Fredheim,1964,67.5,67.4,Norway,235,142.5,255,632.5,M,Open,SBD,Single-ply,3
Tuomo Kesälahti,1957,67.5,67.5,Finland,215,152.5,252.5,620,M,Open,SBD,Single-ply,4
Maurice O'Connor,1953,67.5,67.3,Ireland,220,130,260,610,M,Open,SBD,Single-ply,5
Jarmo Virtanen,1963,75,74.9,Finland,295,175,330.5,800,M,Open,SBD,Single-ply,1
Mike Duffy,1951,75,74.9,UK,265,167.5,295,727.5,M,Open,SBD,Single-ply,2
Hannu Malinen,1955,75,74.8,Finland,250,160,310,720,M,Open,SBD,Single-ply,3
Roberto Brasile,1956,75,74.2,Italy,265,155,297.5,717.5,M,Open,SBD,Single-ply,4
Eduardo Cruz Rubio,1953,75,74.8,Spain,270,145,280,695,M,Open,SBD,Single-ply,5
Kare Lundgbrn,1949,75,74.6,Sweden,260,157.5,252.5,670,M,Open,SBD,Single-ply,6
Norwin Martina,1953,75,74.6,Netherlands,250,152.5,265,667.5,M,Open,SBD,Single-ply,7
Frédéric Buttigieg,1964,75,74.5,France,250,150,265,665,M,Open,SBD,Single-ply,8
Harry van der Brandt,1946,75,74.2,Netherlands,245,140,270,655,M,Open,SBD,Single-ply,9
Eduard Ziaja,1958,75,74.4,Germany,262.5,135,255,652.5,M,Open,SBD,Single-ply,10
Franci Mezzanotte,1963,75,70.3,Belgium,245,127.5,275,647.5,M,Open,SBD,Single-ply,11
Tormod Andersen,1956,75,74.9,Norway,250,145,250,645,M,Open,SBD,Single-ply,12
Desmond Scott,1941,75,74.9,Ireland,200,100,240,540,M,Open,SBD,Single-ply,13
Antonio Glez,1957,75,73.5,Spain,200,,,,M,Open,SBD,Single-ply,DQ
Alfred Elend,1962,75,75,Austria,,,,,M,Open,SBD,Single-ply,DQ
Eric Coppin,1960,82.5,82,Belgium,300,170,340,810,M,Open,SBD,Single-ply,1
Thomas Ward,1960,82.5,82.5,Ireland,290,172.5,287.5,750,M,Open,SBD,Single-ply,2
Ove Hansen,1959,82.5,81.1,Norway,260,190,280,730,M,Open,SBD,Single-ply,3
Janus Schneider,1951,82.5,82.3,Netherlands,255,197.5,270,722.5,M,Open,SBD,Single-ply,4
Sven Eric Person,1963,82.5,82.3,Sweden,270,150,270,690,M,Open,SBD,Single-ply,5
Ad Schenkels,1954,82.5,81.5,Netherlands,250,150,275,675,M,Open,SBD,Single-ply,6
Gay Devrient,1962,82.5,81.3,Belgium,260,140,260,660,M,Open,SBD,Single-ply,7
Malachy McClelland,,82.5,81.7,Ireland,240,120,260,620,M,Open,SBD,Single-ply,8
Lucio D Recas,1962,82.5,81,Spain,215,135,250,600,M,Open,SBD,Single-ply,9
Gianni Pacchioli,1962,82.5,81.9,Luxembourg,,,,,M,Open,SBD,Single-ply,DQ
Juha Hyttinen,1964,90,89.6,Finland,315,190,310,815,M,Open,SBD,Single-ply,1
Kenneth Mattsson,1954,90,89.6,Sweden,310,195,302.5,807.5,M,Open,SBD,Single-ply,2
Dave Caldwell,1948,90,89.1,UK,317.5,202.5,285,805,M,Open,SBD,Single-ply,3
Zlatko Radojkovic,1960,90,89.7,Sweden,290,177.5,280,747.5,M,Open,SBD,Single-ply,4
Fran Van Puffelen,1942,90,89.2,Netherlands,295,120,275,690,M,Open,SBD,Single-ply,5
Jari Taetinen,1953,90,88.7,Finland,287.5,,,,M,Open,SBD,Single-ply,DQ
Flavio Domenici,1954,90,89.1,Italy,,,,,M,Open,SBD,Single-ply,DQ
George McAfee,1955,90,89.5,Ireland,240,,,,M,Open,SBD,Single-ply,DQ
Tony Stevens,1949,100,99.9,UK,350,215,345,910,M,Open,SBD,Single-ply,1
Jonny Melander,1953,100,99.9,Sweden,335,195,340,870,M,Open,SBD,Single-ply,2
Hugo de Grauwe,1954,100,99.6,Belgium,320,190,320,830,M,Open,SBD,Single-ply,3
Guy Deleu,1953,100,98.3,Belgium,300,200,300,800,M,Open,SBD,Single-ply,4
Max Losan,1958,100,98.8,France,300,195,295,790,M,Open,SBD,Single-ply,5
Tormod Ericsen,1964,100,99.1,Norway,290,182.5,315,787.5,M,Open,SBD,Single-ply,6
Gerry O'Grady,1961,100,98.5,Ireland,300,175,300,775,M,Open,SBD,Single-ply,7
Henny Hijman,1961,100,99.6,Netherlands,290,175,300,765,M,Open,SBD,Single-ply,8
Leopold Krendl,1957,100,98.3,Austria,312.5,150,295,757.5,M,Open,SBD,Single-ply,9
Wim Nolles,1963,100,99.8,Netherlands,287.5,165,300,752.5,M,Open,SBD,Single-ply,10
Julio Lopez Leon,1956,100,97,Spain,220,,,,M,Open,SBD,Single-ply,DQ
John Neighbour,1954,110,109.5,UK,360,230,332.5,922.5,M,Open,SBD,Single-ply,1
Bjoer Kristiansen,1960,110,106.5,Norway,320,187.5,367.5,875,M,Open,SBD,Single-ply,2
Samuli Kivi,1948,110,109.4,Sweden,320,215,325,860,M,Open,SBD,Single-ply,3
Rupert Moerth,1951,110,107.2,Austria,295,175,332.5,802.5,M,Open,SBD,Single-ply,4
Thierry Zemis,1961,110,106.1,France,320,195,285,800,M,Open,SBD,Single-ply,5
Rauno Rinne,1952,110,100.4,Finland,,,,,M,Open,SBD,Single-ply,DQ
Lars Norén,1961,125,124.4,Sweden,360,225,387.5,972.5,M,Open,SBD,Single-ply,1
Sean Spillane,1959,125,119.5,UK,355,220,330,905,M,Open,SBD,Single-ply,2
Soeren Oldenborg,1955,125,113.7,Denmark,332.5,230,327.5,890,M,Open,SBD,Single-ply,3
Raidar Steen,1944,125,110.3,Norway,290,207.5,297.5,795,M,Open,SBD,Single-ply,4
Rob van der Tak,1956,125,114.2,Netherlands,300,200,292.5,792.5,M,Open,SBD,Single-ply,5
Ynve Gustavsson,1959,125+,137.2,Sweden,335,230,322.5,887.5,M,Open,SBD,Single-ply,1
Kyosti Vilm,1960,125+,125.4,Finland,350,220,315,885,M,Open,SBD,Single-ply,2
Gerhard Duprie,1937,125+,131.4,Netherlands,335,217.5,315,867.5,M,Open,SBD,Single-ply,3
Tomy Olsen,1958,125+,133.7,Norway,300,220,295,815,M,Open,SBD,Single-ply,4
Manfred Poschenrieder,1956,125+,125.1,Germany,300,165,330,795,M,Open,SBD,Single-ply,5
Enrique Soriano-Mora,1956,125+,138.8,Spain,260,170,287.5,717.5,M,Open,SBD,Single-ply,6
