Name,Sex,Division,WeightClassKg,Best3SquatKg,Best3BenchKg,Best3DeadliftKg,TotalKg,Place,Event,Equipment
Shannon Jacobson,M,Juniors,82.5,200,105,225,530,1,SBD,Single-ply
Steve Pearson,M,Open,90,220,140,220,580,1,SBD,Single-ply
Sergei Mitnovetski,M,Open,90,180,125,220,525,2,SBD,Single-ply
Max O'Toole,M,Masters 2,110,187.5,125,235,547.5,1,SBD,Single-ply
Adam Pinkand,M,Juniors,125+,230,140,275,645,1,SBD,Single-ply
