Division,WeightClassKg,Place,Name,Team,BodyweightKg,Best3SquatKg,Best3BenchKg,Best3DeadliftKg,TotalKg,Equipment,Event,Sex
Boys,51.71,1,Josh Nowlin,San Antonio East Central,49.17,140.61,77.11,138.35,356.07,Single-ply,SBD,M
Boys,51.71,2,Paul Arocha,Devine,50.89,136.08,83.91,136.08,356.07,Single-ply,SBD,M
Boys,51.71,3,Sid Alcoser,Somerset,51.71,145.15,58.97,140.61,344.73,Single-ply,SBD,M
Boys,55.79,4,John Dominguez,Somerset,51.89,131.54,68.04,142.88,342.46,Single-ply,SBD,M
Boys,51.71,5,Jeremiah Jimenez,Lytle,49.8,127.01,63.5,147.42,337.93,Single-ply,SBD,M
Boys,51.71,6,Angel Gomez,Comal Canyon,51.07,127.01,74.84,136.08,337.93,Single-ply,SBD,M
Boys,51.71,7,Jesus Gomez,Somerset,51.53,120.2,74.84,133.81,328.85,Single-ply,SBD,M
Boys,51.71,8,Joel Rodriguez,Castroville Medina Valley,51.53,113.4,83.91,129.27,326.59,Single-ply,SBD,M
Boys,51.71,9,Mark Livesay,Floresville,47.26,108.86,52.16,,161.03,Single-ply,SB,M
Boys,51.71,DQ,Richie Vela,Bloomington,51.71,,,,,Single-ply,SB,M
Boys,59.87,1,John Guillen,Lytle,55.97,163.29,106.59,165.56,435.45,Single-ply,SBD,M
Boys,55.79,2,Sawyer Yandell,Devine,53.43,154.22,72.57,140.61,367.41,Single-ply,SBD,M
Boys,55.79,3,Julio Ramirez,Comal Canyon,54.16,142.88,65.77,138.35,347,Single-ply,SBD,M
Boys,55.79,4,Josh Barrera,Lytle,53.8,104.33,56.7,127.01,288.03,Single-ply,SBD,M
Boys,55.79,5,Xavier Huerta,Lytle,53.61,104.33,52.16,113.4,269.89,Single-ply,SBD,M
Boys,55.79,6,Ramon Vasquez,San Antonio Memorial,53.89,88.45,38.56,106.59,233.6,Single-ply,SBD,M
Boys,55.79,DQ,Justin Arteaga,Comal Canyon,55.79,,,,,Single-ply,SBD,M
Boys,55.79,DQ,Ronald Sanchez,Poteet,55.79,,,,,Single-ply,SBD,M
Boys,59.87,1,Caleb Gale,Somerset,58.51,185.97,99.79,197.31,483.08,Single-ply,SBD,M
Boys,59.87,2,Leonard Garza,Poteet,58.69,190.51,113.4,174.63,478.54,Single-ply,SBD,M
Boys,67.13,3,Marc Campos,San Antonio East Central,60.06,185.97,90.72,163.29,439.98,Single-ply,SBD,M
Boys,59.87,4,Benito Flores,San Antonio Southside,59.51,158.76,92.99,156.49,408.23,Single-ply,SBD,M
Boys,59.87,5,Elvis Benitez,San Antonio East Central,58.06,147.42,104.33,154.22,405.97,Single-ply,SBD,M
Boys,67.13,6,Allan Patty,San Antonio East Central,59.92,142.88,65.77,136.08,344.73,Single-ply,SBD,M
Boys,59.87,7,Mark Salinas,Castroville Medina Valley,59.42,115.67,61.23,133.81,310.71,Single-ply,SBD,M
Boys,59.87,8,Jose Flores,San Antonio Kennedy,57.15,102.06,72.57,133.81,308.44,Single-ply,SBD,M
Boys,59.87,DQ,Michael Davis,San Antonio East Central,59.87,,,,,Single-ply,SBD,M
Boys,59.87,DQ,Victor Chinton,Pearsall,59.87,,,,,Single-ply,SBD,M
Boys,67.13,1,Ozzy Varela,Somerset,66.5,208.65,108.86,204.12,521.63,Single-ply,SBD,M
Boys,67.13,2,Thomas Garza,San Antonio East Central,63.32,181.44,120.2,161.03,462.66,Single-ply,SBD,M
Boys,67.13,3,Miguel Abrego,Floresville,65.77,161.03,106.59,181.44,449.06,Single-ply,SBD,M
Boys,67.13,4,Trevor Horvath,Castroville Medina Valley,64.41,136.08,102.06,149.69,387.82,Single-ply,SBD,M
Boys,67.13,5,Taylor Carrillo,Lytle,65.86,142.88,86.18,158.76,387.82,Single-ply,SBD,M
Boys,67.13,6,Austin Gonzales,San Antonio Southside,66,136.08,97.52,142.88,376.48,Single-ply,SBD,M
Boys,67.13,7,Dylan Aguinaga,Lytle,66.95,122.47,77.11,140.61,340.19,Single-ply,SBD,M
Boys,67.13,8,Ezekiel Cortez,Castroville Medina Valley,60.51,117.93,68.04,145.15,331.12,Single-ply,SBD,M
Boys,67.13,9,Jj Aguinaga,Lytle,65.59,111.13,58.97,129.27,299.37,Single-ply,SBD,M
Boys,67.13,10,Joe Bustos,San Antonio East Central,65.5,136.08,83.91,,219.99,Single-ply,SB,M
Boys,67.13,DQ,Joseph Rios,San Antonio Kennedy,67.13,,,,,Single-ply,SB,M
Boys,67.13,DQ,Rey Martinez,Pearsall,67.13,,,,,Single-ply,SB,M
Boys,67.13,DQ,Matt Ritch,San Antonio East Central,67.13,,,,,Single-ply,SB,M
Boys,74.84,1,Lonnie Overturf,Comal Canyon,70.4,206.38,149.69,224.53,580.6,Single-ply,SBD,M
Boys,74.84,2,Jacob Ritch,San Antonio East Central,74.8,217.72,149.69,206.38,573.79,Single-ply,SBD,M
Boys,74.84,3,Pedro Molina,Somerset,74.3,204.12,117.93,238.14,560.19,Single-ply,SBD,M
Boys,74.84,4,Darrell DuBose,Devine,71.21,204.12,111.13,199.58,514.83,Single-ply,SBD,M
Boys,74.84,5,Gilbert Perez,Floresville,74.84,208.65,102.06,204.12,514.83,Single-ply,SBD,M
Boys,74.84,6,David Clay,San Antonio East Central,74.84,199.58,104.33,195.04,498.95,Single-ply,SBD,M
Boys,74.84,7,Mario Munoz,Center Point,74.39,206.38,106.59,174.63,487.61,Single-ply,SBD,M
Boys,74.84,8,Jose Guzman,Bloomington,74.21,161.03,102.06,199.58,462.66,Single-ply,SBD,M
Boys,74.84,9,Jon Ventura,Pearsall,73.21,154.22,115.67,188.24,458.13,Single-ply,SBD,M
Boys,74.84,10,Omar Guadarrama,San Antonio Southside,74.03,170.1,102.06,165.56,437.72,Single-ply,SBD,M
Boys,82.1,11,Daniel Ramirez,San Antonio Kennedy,74.93,151.95,99.79,158.76,410.5,Single-ply,SBD,M
Boys,74.84,12,Isaac Douglas,San Antonio Kennedy,69.4,145.15,77.11,142.88,365.14,Single-ply,SBD,M
Boys,74.84,13,Mark Gonzalez,San Antonio Memorial,72.94,136.08,65.77,161.03,362.87,Single-ply,SBD,M
Boys,74.84,14,Christopher Vinton,Pearsall,72.21,133.81,81.65,145.15,360.61,Single-ply,SBD,M
Boys,74.84,15,Abel DeLoera,Lytle,73.48,147.42,77.11,136.08,360.61,Single-ply,SBD,M
Boys,74.84,16,Jeremy Del Toro,San Antonio Kennedy,68.04,122.47,79.38,138.35,340.19,Single-ply,SBD,M
Boys,74.84,17,Ryan Schulmeier,San Antonio Southside,74.12,129.27,61.23,136.08,326.59,Single-ply,SBD,M
Boys,82.1,1,Dillion Brunet,Center Point,79.47,222.26,120.2,208.65,551.11,Single-ply,SBD,M
Boys,82.1,2,Rueben Hinojosa,Lytle,81.28,204.12,108.86,233.6,546.58,Single-ply,SBD,M
Boys,82.1,3,Justin Quesada,Somerset,80.83,206.38,131.54,181.44,519.36,Single-ply,SBD,M
Boys,82.1,4,Jacob Gonzales,San Antonio East Central,77.02,213.19,106.59,181.44,501.22,Single-ply,SBD,M
Boys,82.1,5,Miguel Pérez,Lytle,82.01,183.7,106.59,195.04,485.34,Single-ply,SBD,M
Boys,82.1,6,Hector Martinez,San Antonio Kennedy,79.74,151.95,95.25,163.29,410.5,Single-ply,SBD,M
Boys,89.81,7,Joey Mendez,San Antonio Memorial,82.19,170.1,65.77,158.76,394.63,Single-ply,SBD,M
Boys,82.1,8,Devon Pinon,Bloomington,78.11,170.1,92.99,124.74,387.82,Single-ply,SBD,M
Boys,82.1,9,Joseph Sadler,Devine,76.48,208.65,111.13,,319.78,Single-ply,SB,M
Boys,82.1,10,Richard Pena,San Antonio Southside,80.74,247.21,,,247.21,Single-ply,S,M
Boys,82.1,DQ,Casey Barton,Comal Canyon,82.1,,,,,Single-ply,S,M
Boys,82.1,DQ,Justin Strainer,Comal Canyon,82.1,,,,,Single-ply,S,M
Boys,89.81,1,Jeffrey Moreno,Comal Canyon,88.18,267.62,156.49,267.62,691.73,Single-ply,SBD,M
Boys,89.81,2,Alex Elizondo,Pearsall,82.64,258.55,154.22,231.33,644.1,Single-ply,SBD,M
Boys,89.81,3,Santos Dominguez,San Antonio East Central,87.45,249.48,124.74,244.94,619.15,Single-ply,SBD,M
Boys,89.81,4,Henry Vasquez,San Antonio East Central,88.68,249.48,122.47,206.38,578.33,Single-ply,SBD,M
Boys,89.81,5,Esteban Ferdin,Lytle,86.18,226.8,117.93,195.04,539.77,Single-ply,SBD,M
Boys,89.81,6,Jj Elias,Somerset,83.55,192.78,115.67,219.99,528.44,Single-ply,SBD,M
Boys,89.81,7,Josh Falcon,San Antonio East Central,84.37,197.31,120.2,197.31,514.83,Single-ply,SBD,M
Boys,89.81,8,Adolph Lopez,San Antonio Southside,85.91,185.97,124.74,199.58,510.29,Single-ply,SBD,M
Boys,89.81,9,Carlos Carrillo,Lytle,88.18,197.31,117.93,195.04,510.29,Single-ply,SBD,M
Boys,89.81,10,Jacob Rivera,San Antonio Southside,87.36,181.44,83.91,192.78,458.13,Single-ply,SBD,M
Boys,89.81,11,Chris Cabrera,Bloomington,85.09,179.17,104.33,170.1,453.59,Single-ply,SBD,M
Boys,89.81,12,Roland DeLeon,San Antonio Kennedy,83.1,156.49,108.86,183.7,449.06,Single-ply,SBD,M
Boys,89.81,13,Rudy Pena,San Antonio Kennedy,89.81,174.63,86.18,181.44,442.25,Single-ply,SBD,M
Boys,89.81,14,Josh Garza,San Antonio East Central,88.36,170.1,117.93,151.95,439.98,Single-ply,SBD,M
Boys,89.81,15,Emilio Valadez,San Antonio Kennedy,83.28,170.1,79.38,188.24,437.72,Single-ply,SBD,M
Boys,89.81,16,Kyle Wehe,Castroville Medina Valley,83.73,149.69,88.45,172.37,410.5,Single-ply,SBD,M
Boys,89.81,17,Pete Perez,San Antonio Memorial,83.91,138.35,102.06,147.42,387.82,Single-ply,SBD,M
Boys,89.81,18,Jonathon Castillo,San Antonio Kennedy,83.28,111.13,88.45,136.08,335.66,Single-ply,SBD,M
Boys,89.81,19,Paulino Bosquez,San Antonio Kennedy,88.63,74.84,45.36,104.33,224.53,Single-ply,SBD,M
Boys,89.81,20,Dominic Potter,Lytle,84.64,61.23,52.16,102.06,215.46,Single-ply,SBD,M
Boys,89.81,DQ,Logan Garza,Castroville Medina Valley,89.81,,,,,Single-ply,SBD,M
Boys,99.79,1,Isaiah Vasquez,Pearsall,97.25,254.01,140.61,258.55,653.17,Single-ply,SBD,M
Boys,99.79,2,Chris McCumber,San Antonio East Central,98.66,258.55,140.61,222.26,621.42,Single-ply,SBD,M
Boys,99.79,3,Zane Sanchez,Devine,98.43,240.4,145.15,226.8,612.35,Single-ply,SBD,M
Boys,109.77,4,MacNeal Price,San Antonio East Central,100.02,249.48,127.01,226.8,603.28,Single-ply,SBD,M
Boys,99.79,5,Juan DeLeon,San Antonio Southside,99.16,233.6,124.74,233.6,591.94,Single-ply,SBD,M
Boys,99.79,6,Joe Hernandez,San Antonio East Central,92.71,240.4,133.81,199.58,573.79,Single-ply,SBD,M
Boys,99.79,7,Jeremy Chamberlain,San Antonio East Central,95.57,208.65,113.4,188.24,510.29,Single-ply,SBD,M
Boys,99.79,8,Jesus Hernandez,San Antonio Memorial,97.43,213.19,108.86,163.29,485.34,Single-ply,SBD,M
Boys,99.79,9,Juan Landa,Castroville Medina Valley,93.89,172.37,99.79,158.76,430.91,Single-ply,SBD,M
Boys,99.79,10,Max Aguayo,Bloomington,93.17,174.63,92.99,149.69,417.3,Single-ply,SBD,M
Boys,99.79,11,Fred Carrasco,San Antonio Kennedy,95.35,142.88,92.99,158.76,394.63,Single-ply,SBD,M
Boys,99.79,12,Cristobal Martinez,Pearsall,97.52,142.88,74.84,158.76,376.48,Single-ply,SBD,M
Boys,109.77,13,David Nieto,Pearsall,99.97,145.15,74.84,147.42,367.41,Single-ply,SBD,M
Boys,99.79,14,Christian Avila,San Antonio Southside,95.35,192.78,,,192.78,Single-ply,S,M
Boys,99.79,DQ,Mark Cerda,Somerset,99.79,,,,,Single-ply,S,M
Boys,99.79,DQ,Vinny Flores,Comal Canyon,99.79,,,,,Single-ply,S,M
Boys,109.77,1,Salvador Marines,Somerset,107.59,328.85,147.42,272.16,748.43,Single-ply,SBD,M
Boys,124.74,2,Robert Huitron,San Antonio Southside,109.95,278.96,151.95,215.46,646.37,Single-ply,SBD,M
Boys,109.77,3,Ben Neuman,Hondo,107.5,272.16,149.69,217.72,639.57,Single-ply,SBD,M
Boys,109.77,4,Eddie Lopez,San Antonio East Central,105.05,258.55,147.42,226.8,632.76,Single-ply,SBD,M
Boys,109.77,5,Kevin Garcia,Poteet,106.23,260.82,131.54,226.8,619.15,Single-ply,SBD,M
Boys,109.77,6,Patrick Rodriguez,Devine,106.96,240.4,149.69,213.19,603.28,Single-ply,SBD,M
Boys,109.77,7,Ricardo Aleman,San Antonio Memorial,108.86,240.4,151.95,204.12,596.47,Single-ply,SBD,M
Boys,109.77,8,Danny DeLeon,San Antonio East Central,106.87,213.19,108.86,172.37,494.42,Single-ply,SBD,M
Boys,124.74,9,Alex Trevino,San Antonio Southside,109.95,192.78,99.79,181.44,474,Single-ply,SBD,M
Boys,109.77,10,Gilbert Garza,San Antonio Southside,101.42,154.22,79.38,158.76,392.36,Single-ply,SBD,M
Boys,109.77,11,Duke Aguirre,San Antonio Kennedy,107.32,127.01,90.72,151.95,369.68,Single-ply,SBD,M
Boys,109.77,12,Joe Cantu,Lytle,104.51,226.8,111.13,,337.93,Single-ply,SB,M
Boys,109.77,13,Gus Palacios,San Antonio Kennedy,106.41,188.24,,,188.24,Single-ply,S,M
Boys,109.77,DQ,Gary La Rue,San Antonio Kennedy,109.77,,,,,Single-ply,S,M
Boys,124.74,1,Alfred Godines,Somerset,122.02,272.16,181.44,226.8,680.39,Single-ply,SBD,M
Boys,124.74,2,Stevie Balderrama,Devine,122.11,263.08,145.15,235.87,644.1,Single-ply,SBD,M
Boys,124.74,3,Justin Rosas,Floresville,117.93,249.48,147.42,235.87,632.76,Single-ply,SBD,M
Boys,124.74,4,Dj Carlson,Devine,124.47,272.16,136.08,204.12,612.35,Single-ply,SBD,M
Boys,124.74,5,Justin Real,Comal Canyon,110.13,226.8,131.54,217.72,576.06,Single-ply,SBD,M
Boys,124.74,6,Benny Ximenez,Floresville,112.85,240.4,136.08,192.78,569.26,Single-ply,SBD,M
Boys,124.74,7,Juan Chavez,San Antonio East Central,111.42,249.48,131.54,183.7,564.72,Single-ply,SBD,M
Boys,124.74,8,Jon Macat,Lytle,116.21,210.92,120.2,217.72,548.85,Single-ply,SBD,M
Boys,124.74,9,Gabrel Garza,Somerset,121.65,235.87,131.54,174.63,542.04,Single-ply,SBD,M
Boys,124.74,10,Ronnie Lucio,Poteet,117.84,231.33,102.06,181.44,514.83,Single-ply,SBD,M
Boys,124.74,11,Colton Bragg,Lytle,117.12,181.44,122.47,208.65,512.56,Single-ply,SBD,M
Boys,124.74,12,Dylan Neal,Pearsall,110.22,156.49,102.06,145.15,403.7,Single-ply,SBD,M
Boys,124.74,13,Joseph Shamblem,Lytle,121.2,145.15,77.11,156.49,378.75,Single-ply,SBD,M
Boys,124.74,DQ,Chris Trujillo,Center Point,124.74,,,,,Single-ply,SBD,M
Boys,124.74,DQ,Will Cavanaugh,Comal Canyon,124.74,,,,,Single-ply,SBD,M
Boys,124.74+,1,Tyler Seiler,Pearsall,151.41,240.4,197.31,240.4,678.12,Single-ply,SBD,M
Boys,124.74+,2,Mark Alarcon,San Antonio East Central,132.9,278.96,156.49,235.87,671.32,Single-ply,SBD,M
Boys,124.74+,3,Joel Corona,Lytle,145.88,242.67,113.4,258.55,614.62,Single-ply,SBD,M
Boys,124.74+,4,Guy LaRue,San Antonio Kennedy,156.04,247.21,124.74,242.67,614.62,Single-ply,SBD,M
Boys,124.74+,5,Joe Aguero,Somerset,129.73,263.08,127.01,188.24,578.33,Single-ply,SBD,M
Boys,124.74+,6,Jacob Smith,Comal Canyon,127.01,229.06,133.81,192.78,555.65,Single-ply,SBD,M
Boys,124.74+,7,Trent Rhodes,Center Point,127.55,233.6,131.54,190.51,555.65,Single-ply,SBD,M
Boys,124.74+,8,Nick O'Bryant,Castroville Medina Valley,126.19,217.72,122.47,190.51,530.7,Single-ply,SBD,M
Boys,124.74+,9,Jonathan Saldana,Floresville,141.07,310.71,163.29,,474,Single-ply,SB,M
Boys,124.74+,DQ,Carlos Mora,San Antonio East Central,136.08,,,,,Single-ply,SB,M
Boys,,NS,Anthony Medrano,Pearsall,,,,,,Single-ply,SB,M
