Event,Sex,Name,State,BodyweightKg,WeightClassKg,Division,Best3SquatKg,Best3BenchKg,Bench4Kg,Best3DeadliftKg,TotalKg,Equipment,Place
SBD,M,Thomas Papolis,ON,90.8,93,Sub-Juniors,200,127.5,,205,532.5,Raw,1
SBD,M,Jack Cardiff,ON,88.4,93,Sub-Juniors,175,107.5,,192.5,475,Raw,2
SBD,F,Erika Frost,ON,74,84,Sub-Juniors,115,50,,122.5,287.5,Raw,1
SBD,M,Jeret Jordan,ON,80.4,83,Sub-Juniors,170,117.5,,190,477.5,Raw,1
SBD,M,Hiroki Tsoi,ON,64.4,66,Sub-Juniors,155,97.5,,165,417.5,Raw,1
SBD,F,Emma Dyck,ON,61.5,63,Sub-Juniors,82.5,47.5,,107.5,237.5,Raw,1
SBD,M,Jonathan Kardash,QU,58,59,Sub-Juniors,140,92.5,,60,292.5,Raw,1
SBD,F,Marie-Li Dion,QU,55.9,57,Sub-Juniors,105,65.5,,128,298.5,Raw,1
SBD,M,Stefan Rufo,ON,112.1,120,Sub-Juniors,245,50,,230,525,Raw,1
SBD,M,Eric Horky,ON,104.1,105,Sub-Juniors,132.5,92.5,,200,425,Raw,1
SBD,M,Yann Tremblay,QU,91.5,93,Open,250,170,,252.5,672.5,Raw,2
SBD,M,Vincent Pelletier,QU,91.7,93,Open,215,142.5,,237.5,595,Raw,6
SBD,M,Taro Yamashita,ON,89.7,93,Open,227.5,147.5,,290,665,Raw,3
SBD,M,Sébastien Blais,QU,90.8,93,Open,227.5,150,,235,612.5,Raw,4
SBD,M,Quentin Weber,QU,92.1,93,Open,245,150,,270,,Raw,DD
SBD,M,Jeremy Tsui,ON,92.3,93,Open,220,157.5,,227.5,605,Raw,5
SBD,M,Hugo Laliberté,QU,87.9,93,Open,217.5,125,,220,562.5,Raw,7
SBD,M,François Gagné,QU,92.1,93,Open,250,167.5,,257.5,,Raw,DD
SBD,F,Samantha Pigeon,ON,107.6,84+,Open,140,75,,170,385,Raw,1
SBD,F,Lisa Polkosnik,QU,109.3,84+,Open,122.5,67.5,,145,335,Raw,2
SBD,F,Émilie Morin,QU,104.7,84+,Open,177.5,65,,192.5,435,Raw,1
SBD,F,Amanda Skillings,ON,83.6,84,Open,137.5,75,,157.5,370,Raw,1
SBD,M,Samuel Laverrière,QU,74.9,83,Open,75,75,,75,225,Raw,5
SBD,M,Maxime Soucy,QU,81.9,83,Open,202.5,142.5,,255,600,Raw,2
SBD,M,Jonathan Simard,QU,82.2,83,Open,260,187.5,,265,712.5,Raw,1
SBD,M,Jonathan Dupuis,QU,82,83,Open,195,152.5,,240,587.5,Raw,3
SBD,M,Alan Chan,ON,80.4,83,Open,215,145,,210,570,Raw,4
SBD,M,Gabriel Theriault,ON,72.2,74,Open,207.5,115,,225,547.5,Raw,3
SBD,M,Brice Bourdeau,QU,73.8,74,Open,190,130,,237.5,557.5,Raw,1
SBD,M,Alexandre Lalonde,QU,72.8,74,Open,197.5,110,,210,517.5,Raw,4
SBD,M,Aaron Sun,ON,72.4,74,Open,190,130,,235,555,Raw,2
SBD,F,Valérie Lemay,QU,69.1,72,Open,147.5,85,,170,402.5,Raw,2
SBD,F,Myrtle Jurado,ON,69.2,72,Open,115,72.5,,137.5,325,Raw,6
SBD,F,Milena Battista,QU,68.5,72,Open,130,65,,142.5,337.5,Raw,4
SBD,F,Melissa Hernandez,QU,70,72,Open,155,80,,185,420,Raw,1
SBD,F,Megan Clumpus,ON,70.1,72,Open,120,67.5,,145,332.5,Raw,5
SBD,F,Lydia North,ON,70.8,72,Open,110,82.5,,160,352.5,Raw,3
SBD,M,Leng Tang,ON,65,66,Open,177.5,140,,197.5,515,Raw,1
SBD,F,Shawna Clark,ON,62.4,63,Open,110,52.5,,142.5,305,Raw,6
SBD,F,Lucia Guerrero,ON,61.4,63,Open,112.5,65,,132.5,310,Raw,4
SBD,F,Leah Mamane,QU,59.8,63,Open,137.5,85,,160,382.5,Raw,1
SBD,F,Emily Morgan,QU,59.7,63,Open,120,70,,130,320,Raw,2
SBD,F,Brittany Byrd,ON,62.3,63,Open,110,70,,125,305,Raw,5
SBD,F,Bianca Cruz,ON,61.9,63,Open,125,60,,135,320,Raw,3
SBD,F,Rachel Plamondon,QU,55.9,57,Open,102.5,55,,132.5,290,Raw,3
SBD,F,Paige Kearney,ON,56.5,57,Open,102.5,57.5,,120,280,Raw,5
SBD,F,Lydia Gagnon,QU,56,57,Open,117.5,65,,105,287.5,Raw,4
SBD,F,Jessica Benedetto,QU,56.5,57,Open,147.5,102.5,104,182.5,432.5,Raw,1
SBD,F,Hannah Doan,ON,55.6,57,Open,97.5,50,,110,257.5,Raw,6
SBD,F,Alexandra Rochford,ON,53.8,57,Open,110,57.5,,137.5,305,Raw,2
SBD,M,Stephane Guy,QU,135.7,120+,Open,275,182.5,,295,752.5,Raw,1
SBD,M,Maxime D-Savard,QU,131,120+,Open,275,185,,285,745,Raw,2
SBD,M,Jonathan Bedard,ON,115.3,120,Open,255,165,,255,675,Raw,1
SBD,M,Zach Morrow,ON,104.6,105,Open,227.5,140,,240,607.5,Raw,5
SBD,M,Samuel Turcotte,QU,102.9,105,Open,237.5,175,,255,667.5,Raw,3
SBD,M,Pierre-Éric Brunet,QU,102.2,105,Open,280,157.5,,265,702.5,Raw,1
SBD,M,Julien Mercier,QU,102.1,105,Open,245,170,,260,675,Raw,2
SBD,M,Janot Lévesque,QU,102.4,105,Open,210,152.5,,242.5,605,Raw,6
SBD,M,Guillaume Arseneau,QU,102.9,105,Open,202.5,140,,245,587.5,Raw,7
SBD,M,Daniel Costanzo,ON,103.2,105,Open,205,127.5,,217.5,550,Raw,8
SBD,M,Carl J-Shaw,QU,97,105,Open,237.5,157.5,,265,660,Raw,4
SBD,M,Robert Caron,ON,73.1,74,Masters 4,77.5,70,,100,247.5,Raw,1
SBD,M,David Leach,ON,79.9,83,Masters 3,140,85,,180,405,Raw,1
SBD,M,Bernard Vachon,QU,73.3,74,Masters 3,202.5,87.5,,220,510,Raw,1
SBD,M,Ron Kilpatrick,ON,90.9,93,Masters 2,195,90,,210,495,Raw,2
SBD,M,Claude Dallaire,QU,92.1,93,Masters 2,212.5,132.5,,260,605,Raw,1
SBD,F,Donna Radik,ON,50.4,52,Masters 2,65,37.5,,85,187.5,Raw,1
SBD,M,Harold Veilleux,QU,105.6,120,Masters 2,260,157.5,,257.5,675,Raw,1
SBD,M,Al Rodriguez,ON,91,93,Masters 1,212.5,117.5,,222.5,552.5,Raw,1
SBD,F,Stephanie Blackmore,ON,92.1,84+,Masters 1,140,70,,165,375,Raw,1
SBD,M,Kevin Steiger,ON,80.1,83,Masters 1,165,105,,250,520,Raw,1
SBD,F,Tracy Wise,ON,70.3,72,Masters 1,105,62.5,,130,297.5,Raw,1
SBD,F,Debbie Peever,ON,66.5,72,Masters 1,85,57.5,,92.5,235,Raw,2
SBD,M,Jean-Sébastien Rhéaume,QU,65.6,66,Masters 1,205.5,130,,235,570.5,Raw,1
SBD,M,Peter Michaud,QU,112.2,120,Masters 1,227.5,140,,240,607.5,Raw,2
SBD,M,Andrew Bennett,ON,118,120,Masters 1,230,150,,270,650,Raw,1
SBD,M,Jeff Dawson,ON,103,105,Masters 1,235,175,,272.5,682.5,Raw,1
SBD,M,Nick Longo,ON,91.7,93,Juniors,240,145,,287.5,672.5,Raw,1
SBD,M,Matthew Shapiera,ON,86.9,93,Juniors,197.5,117.5,,232.5,547.5,Raw,3
SBD,M,Jacob Bender,ON,91.8,93,Juniors,185,115,,240,540,Raw,4
SBD,M,Isaiah Hoyte,ON,90.8,93,Juniors,225,162.5,,270,657.5,Raw,2
SBD,M,Alex Petrou,ON,85.7,93,Juniors,200,115,,210,525,Raw,5
SBD,F,Rebecca Garand,QU,84.6,84+,Juniors,142.5,80,,185,407.5,Raw,1
SBD,F,Marie-Pier Simard,QU,80.1,84,Juniors,115,65,,125,305,Raw,1
SBD,M,Max Toulouse,ON,81.6,83,Juniors,170,107.5,,227.5,505,Raw,6
SBD,M,Justin Paulo,ON,80.7,83,Juniors,190,100,,200,490,Raw,7
SBD,M,Jonathan Nuguid,QU,81.3,83,Juniors,175,107.5,,227.5,510,Raw,5
SBD,M,Jackie Liang,ON,81.3,83,Juniors,175,115,,227.5,517.5,Raw,4
SBD,M,Félix Gagnon,QU,81.5,83,Juniors,207.5,140,,242.5,590,Raw,2
SBD,M,Andy Nguyen,QU,81.5,83,Juniors,200,115,,215,530,Raw,3
SBD,M,Andy Boka,ON,81,83,Juniors,200,165,,235,600,Raw,1
SBD,M,Sharif El-Kady,ON,73.9,74,Juniors,230,160,,272.5,662.5,Raw,1
SBD,M,Robert Pham,ON,73.7,74,Juniors,182.5,115,,255,552.5,Raw,3
SBD,M,Philippe Llena-Naud,QU,71.9,74,Juniors,167.5,125,,227.5,520,Raw,4
SBD,M,Mark Tobias,ON,70.5,74,Juniors,220,112.5,,237.5,570,Raw,2
SBD,M,Malhar Patil,ON,73.7,74,Juniors,100,65,,100,265,Raw,5
SBD,F,Mikayla J-Large,QU,67.7,72,Juniors,125,87.5,,142.5,355,Raw,1
SBD,F,Martina Heinelt,ON,68.3,72,Juniors,115,62.5,,137.5,315,Raw,2
SBD,F,Bailey Laforest,ON,70.9,72,Juniors,120,62.5,,127.5,310,Raw,3
SBD,F,Anne Dorward,QU,70.6,72,Juniors,102.5,52.5,,125,280,Raw,4
SBD,F,Roselle Mary S Lucero,ON,61.3,63,Juniors,125,57.5,,142.5,325,Raw,4
SBD,F,Mary Fani,ON,61.3,63,Juniors,147.5,75,,142.5,365,Raw,1
SBD,F,Madeline Stewart,ON,60.4,63,Juniors,82.5,55,,112.5,250,Raw,6
SBD,F,Lorraine Yeung,ON,61.7,63,Juniors,125,60,,157.5,342.5,Raw,2
SBD,F,Laurie M-Gagnon,QU,62.6,63,Juniors,107.5,47.5,,115,270,Raw,5
SBD,F,Amélie Labrie,QU,62.6,63,Juniors,130,62.5,,145,337.5,Raw,3
SBD,M,Jeffrey Polasz,ON,56.7,59,Juniors,142.5,100,,172.5,415,Raw,1
SBD,M,Daniel Cheslo,ON,58.9,59,Juniors,122.5,102.5,,140,365,Raw,2
SBD,F,Sophie Démoré,ON,54.6,57,Juniors,110,55,,130,295,Raw,3
SBD,F,Sabrina Trudel,QU,56.9,57,Juniors,115,57.5,,125,297.5,Raw,1
SBD,F,Neeki Motabar,ON,52.8,57,Juniors,107.5,60,,127.5,295,Raw,2
SBD,F,Caroline Acoca,QU,56.7,57,Juniors,107.5,57.5,,120,285,Raw,4
SBD,M,John Pineda,ON,51.8,53,Juniors,145,100,,192.5,437.5,Raw,1
SBD,F,Tiffany Sengsourigna,ON,50.8,52,Juniors,122.5,65,,145,332.5,Raw,1
SBD,F,Mila Ghorayeb,QU,51,52,Juniors,97.5,55,,107.5,260,Raw,4
SBD,F,Leah Will,ON,52,52,Juniors,92.5,50,,120,262.5,Raw,3
SBD,F,Isabel Ungar,ON,51,52,Juniors,115,62.5,,132.5,310,Raw,2
SBD,M,Ty Scratch,ON,140.2,120+,Juniors,335,207.5,,325,867.5,Raw,1
SBD,M,Joshua Janzen,ON,111.9,120,Juniors,225,150,,272.5,647.5,Raw,1
SBD,M,Cameron Desjardins,ON,118.3,120,Juniors,217.5,122.5,,220,560,Raw,2
SBD,M,Shawn Brooks #1,ON,98.2,105,Juniors,205,127.5,,240,572.5,Raw,5
SBD,M,Marc-A Gosselin,QU,100.7,105,Juniors,180,162.5,,75,417.5,Raw,6
SBD,M,Gabriel-A Gosselin,QU,102.7,105,Juniors,262.5,200.5,,240,703,Raw,2
SBD,M,Fady Mitry,QU,104.7,105,Juniors,212.5,175,,240,627.5,Raw,4
SBD,M,Cordelle Collins,ON,103.1,105,Juniors,250,170,,285,705,Raw,1
SBD,M,Christopher Juman,ON,101.3,105,Juniors,220,142.5,,265,627.5,Raw,3
B,M,Daniel Ferreira,ON,59.1,66,Sub-Juniors,,85,,,85,Raw,1
B,M,Olivier Robert,QU,81.4,83,Open,,155,,,155,Raw,1
B,M,Michel Lebrun,QU,115.7,120,Open,,205,,,205,Raw,1
B,M,Rick Shanahan,ON,63.2,66,Masters 2,,85,,,85,Raw,1
B,M,John Lefuel,QU,82.7,83,Masters 1,,125,,,125,Raw,1
B,M,Dave Powell,QU,92.3,93,Juniors,,170,,,170,Raw,1
B,M,Sebastian Marendola,ON,109,120,Juniors,,145,,,145,Raw,1
