Division,WeightClassKg,Place,Name,Team,BodyweightKg,Best3SquatKg,Best3BenchKg,Best3DeadliftKg,TotalKg,Equipment,Event,Sex
Boys,55.79,1,Eddie Taylor,La Porte,51.8,117.93,70.31,129.27,317.51,Single-ply,SBD,M
Boys,55.79,2,Brandon Robles,Van Vleck,51.89,127.01,49.9,124.74,301.64,Single-ply,SBD,M
Boys,51.71,3,Noah Courvelle,Shepherd,50.08,120.2,58.97,111.13,290.3,Single-ply,SBD,M
Boys,55.79,1,Blake Gamez,La Porte,54.16,147.42,92.99,158.76,399.16,Single-ply,SBD,M
Boys,55.79,2,Herquin Chable,Channelview,52.71,129.27,70.31,151.95,351.53,Single-ply,SBD,M
Boys,55.79,3,Chase Watson,Shepherd,55.16,133.81,68.04,122.47,324.32,Single-ply,SBD,M
Boys,55.79,4,Zach Palmer,Van Vleck,55.7,124.74,63.5,129.27,317.51,Single-ply,SBD,M
Boys,55.79,5,Michael Middaugh,Van Vleck,54.79,120.2,61.23,127.01,308.44,Single-ply,SBD,M
Boys,55.79,6,Pedro Gonzalez,Galena Park,52.98,106.59,68.04,102.06,276.69,Single-ply,SBD,M
Boys,55.79,7,Leo Gonzalez,Galena Park,52.8,97.52,61.23,102.06,260.82,Single-ply,SBD,M
Boys,55.79,DQ,Taylor Riley,La Porte,55.34,142.88,,,,Single-ply,SBD,M
Boys,59.87,1,Tyler Katz,Shepherd,58.88,165.56,113.4,161.03,439.98,Single-ply,SBD,M
Boys,67.13,2,Javier Vela,Shepherd,60.06,151.95,86.18,158.76,396.89,Single-ply,SBD,M
Boys,67.13,3,Alberto Pineda,Dayton,60.01,136.08,77.11,147.42,360.61,Single-ply,SBD,M
Boys,67.13,1,William Williams,Channelview,61.6,170.1,79.38,165.56,415.04,Single-ply,SBD,M
Boys,74.84,2,Chance Price,New Caney Porter,67.31,142.88,83.91,170.1,396.89,Single-ply,SBD,M
Boys,67.13,3,Levi Hurley,Corrigan-Camden,66.41,147.42,77.11,149.69,374.21,Single-ply,SBD,M
Boys,67.13,DQ,Trent Taylor,Shepherd,62.14,151.95,83.91,,,Single-ply,SBD,M
Boys,67.13,DQ,Michael Parker,Hitchcock,66.59,,,,,Single-ply,SBD,M
Boys,67.13,DQ,Eleazar Pena,Hitchcock,66.95,,,,,Single-ply,SBD,M
Boys,74.84,1,Daniel Douglas,Dayton,74.57,192.78,122.47,226.8,542.04,Single-ply,SBD,M
Boys,74.84,2,Dustin West,Shepherd,72.03,219.99,102.06,215.46,537.51,Single-ply,SBD,M
Boys,74.84,DQ,Marcel Foster,Dayton,74.07,,,,,Single-ply,SBD,M
Boys,74.84,4,David Broussare,Channelview,70.67,204.12,113.4,183.7,501.22,Single-ply,SBD,M
Boys,74.84,5,Kevin Henderson,Shepherd,69.58,181.44,104.33,192.78,478.54,Single-ply,SBD,M
Boys,74.84,6,Keandre Rose,Dayton,68.67,183.7,104.33,185.97,474,Single-ply,SBD,M
Boys,74.84,7,LaKendrick Moore,Corrigan-Camden,74.39,197.31,88.45,176.9,462.66,Single-ply,SBD,M
Boys,74.84,8,Armando Cuevas,New Caney Porter,74.39,156.49,106.59,170.1,433.18,Single-ply,SBD,M
Boys,74.84,9,Alex Semler,New Caney Porter,74.75,170.1,88.45,170.1,428.64,Single-ply,SBD,M
Boys,74.84,10,Tim Clay,New Caney Porter,71.76,154.22,102.06,158.76,415.04,Single-ply,SBD,M
Boys,74.84,11,Thomas Casper,Corrigan-Camden,68.58,142.88,68.04,127.01,337.93,Single-ply,SBD,M
Boys,74.84,12,Chris Reyes,Corrigan-Camden,70.4,104.33,54.43,142.88,301.64,Single-ply,SBD,M
Boys,74.84,DQ,Kameron Harris,Channelview,74.62,,,,,Single-ply,SBD,M
Boys,74.84,DQ,Lane Pfeiffer,La Porte,74.48,,,,,Single-ply,SBD,M
Boys,82.1,1,Brandon McBride,Dayton,81.01,226.8,127.01,210.92,564.72,Single-ply,SBD,M
Boys,82.1,2,Sheldrick Long,Dayton,80.01,192.78,113.4,222.26,528.44,Single-ply,SBD,M
Boys,82.1,3,Aj Box,Shepherd,75.75,199.58,154.22,172.37,526.17,Single-ply,SBD,M
Boys,82.1,4,Logan Holt,Hitchcock,82.1,197.31,108.86,188.24,494.42,Single-ply,SBD,M
Boys,82.1,5,Zachery Bowen,La Porte,82.1,199.58,111.13,174.63,485.34,Single-ply,SBD,M
Boys,82.1,6,Dj Marshall,Dayton,81.01,174.63,92.99,199.58,467.2,Single-ply,SBD,M
Boys,82.1,DQ,Darren Cain,Channelview,80.74,,,,,Single-ply,SBD,M
Boys,82.1,DQ,Chris Jefferson,Channelview,79.83,,,,,Single-ply,SBD,M
Boys,82.1,DQ,Davente Holt-Watson,Channelview,76.38,142.88,99.79,,,Single-ply,SBD,M
Boys,82.1,DQ,Matthew Richardson,Hitchcock,79.38,,,,,Single-ply,SBD,M
Boys,89.81,DQ,Dylan Blun,Mont Belvieu Barbers Hill,82.28,276.69,,,,Single-ply,SBD,M
Boys,89.81,1,Tj Combs,Hitchcock,83.64,219.99,129.27,217.72,566.99,Single-ply,SBD,M
Boys,89.81,2,John Moye,Shepherd,85.46,181.44,124.74,197.31,503.49,Single-ply,SBD,M
Boys,89.81,3,Colby Clark,Shepherd,84.01,197.31,124.74,176.9,498.95,Single-ply,SBD,M
Boys,89.81,4,Cody Bradford,Shepherd,88.27,204.12,111.13,170.1,485.34,Single-ply,SBD,M
Boys,89.81,5,Daniel Molina,Galena Park,86.45,183.7,106.59,188.24,478.54,Single-ply,SBD,M
Boys,89.81,6,Chance Rogers,Dayton,85.82,170.1,102.06,174.63,446.79,Single-ply,SBD,M
Boys,89.81,7,Brent Smith,Hitchcock,89.09,158.76,88.45,165.56,412.77,Single-ply,SBD,M
Boys,89.81,DQ,James Jacobs,La Porte,88.99,,,,,Single-ply,SBD,M
Boys,89.81,DQ,Jalen Hurts,Channelview,84.64,231.33,117.93,,,Single-ply,SBD,M
Boys,89.81,DQ,Dante Woods,Willis,88.27,,,,,Single-ply,SBD,M
Boys,99.79,1,Dustin Hoeffler,New Caney Porter,95.44,272.16,147.42,249.48,669.05,Single-ply,SBD,M
Boys,109.77,2,Carlos Alvarez,Hitchcock,100.02,242.67,154.22,192.78,589.67,Single-ply,SBD,M
Boys,99.79,3,Cedric Green,Shepherd,92.99,204.12,122.47,197.31,523.9,Single-ply,SBD,M
Boys,99.79,4,Zack Kapalski,Dayton,97.61,195.04,117.93,188.24,501.22,Single-ply,SBD,M
Boys,99.79,5,Kevin Stephens,Shepherd,93.98,145.15,102.06,213.19,460.4,Single-ply,SBD,M
Boys,99.79,6,Landyn Harrison,Galena Park,93.71,165.56,102.06,181.44,449.06,Single-ply,SBD,M
Boys,99.79,7,Tzaah Vashingten,La Porte,98.16,145.15,104.33,181.44,430.91,Single-ply,SBD,M
Boys,99.79,8,Angel Zarate,Galena Park,93.98,170.1,111.13,138.35,419.57,Single-ply,SBD,M
Boys,99.79,9,Augustin Duran,Galena Park,91.53,113.4,90.72,151.95,356.07,Single-ply,SBD,M
Boys,99.79,10,Byrd Purvis,Corrigan-Camden,91.26,113.4,61.23,99.79,274.42,Single-ply,SBD,M
Boys,99.79,DQ,Jaron Dykstra,La Porte,99.25,,,,,Single-ply,SBD,M
Boys,109.77,1,Dakota Bailey,Shepherd,100.15,229.06,136.08,224.53,589.67,Single-ply,SBD,M
Boys,109.77,2,Christian Rodriguez,Willis,108.14,238.14,127.01,208.65,573.79,Single-ply,SBD,M
Boys,109.77,3,Trent Frost,Van Vleck,100.61,170.1,102.06,181.44,453.59,Single-ply,SBD,M
Boys,109.77,DQ,Claytor Calhoun,La Porte,107.95,,,,,Single-ply,SBD,M
Boys,124.74,1,Jacoby Callahan,New Caney Porter,116.66,294.84,158.76,240.4,694,Single-ply,SBD,M
Boys,124.74,2,Cody Carter,Dayton,118.39,249.48,138.35,226.8,614.62,Single-ply,SBD,M
Boys,124.74,3,Joe Ogrodowicz,Willis,117.48,260.82,124.74,208.65,594.21,Single-ply,SBD,M
Boys,124.74,4,Markel Bright,La Porte,119.75,204.12,147.42,226.8,578.33,Single-ply,SBD,M
Boys,124.74,5,Victor Sanchez,Hitchcock,123.1,213.19,120.2,199.58,532.97,Single-ply,SBD,M
Boys,124.74,6,Sebastian Pecina,Corrigan-Camden,116.03,192.78,108.86,215.46,517.1,Single-ply,SBD,M
Boys,124.74,7,Kendall Henry,Galena Park,119.66,183.7,108.86,188.24,480.81,Single-ply,SBD,M
Boys,124.74+,1,Terrance Manning,Dayton,136.53,231.33,140.61,190.51,562.45,Single-ply,SBD,M
Boys,124.74+,2,Paul Suttle,Corrigan-Camden,127.91,215.46,122.47,201.85,539.77,Single-ply,SBD,M
Boys,124.74+,3,Joel Wamget,Van Vleck,142.7,222.26,120.2,181.44,523.9,Single-ply,SBD,M
Boys,124.74+,4,Miguel Cruz,Galena Park,130.18,199.58,102.06,188.24,489.88,Single-ply,SBD,M
Boys,124.74+,5,Roberto Rivera,Galena Park,162.48,192.78,111.13,181.44,485.34,Single-ply,SBD,M
Boys,124.74+,DQ,Stephen Mendiola,Channelview,127.91,,,,,Single-ply,SBD,M
Boys,124.74+,DQ,Louis Atilano,La Porte,127.01,,,,,Single-ply,SBD,M
Boys,124.74+,DQ,Casey Cress,Willis,133.54,199.58,122.47,,,Single-ply,SBD,M
Boys,,NS,Anthone Angel,Galena Park,,,,,,Single-ply,SBD,M
Boys,,NS,Chris Guzman,Galena Park,,,,,,Single-ply,SBD,M
