Division,WeightClassKg,Place,Name,Team,BodyweightKg,Best3SquatKg,Best3BenchKg,Best3DeadliftKg,TotalKg,Equipment,Event,Sex
Boys,51.71,1,Dylan Elkins,Needville,51.17,158.76,104.33,149.69,412.77,Single-ply,SBD,M
Boys,55.79,2,Kz Smith,Coldspring-Oakhurst,51.94,117.93,68.04,149.69,335.66,Single-ply,SBD,M
Boys,51.71,3,Joseph Kelley,Cleveland,50.85,113.4,65.77,124.74,303.91,Single-ply,SBD,M
Boys,55.79,4,Corey Frazier,Jasper,51.8,99.79,61.23,136.08,297.1,Single-ply,SBD,M
Boys,51.71,5,Ricardo Villafana,Splendora,49.53,106.59,65.77,113.4,285.76,Single-ply,SBD,M
Boys,51.71,6,Tyler Guy,Hamshire-Fannett,51.62,106.59,54.43,120.2,281.23,Single-ply,SBD,M
Boys,51.71,7,Karson Childress,Buna,50.98,106.59,54.43,106.59,267.62,Single-ply,SBD,M
Boys,51.71,8,Aaron Hale,Hamshire-Fannett,50.26,106.59,52.16,104.33,263.08,Single-ply,SBD,M
Boys,51.71,9,Alan Cripps,Buna,44.81,88.45,63.5,106.59,258.55,Single-ply,SBD,M
Boys,51.71,DQ,Austin Williams,Cleveland Tarkington,51.35,120.2,,,,Single-ply,SBD,M
Boys,59.87,1,Jacob Ryder,Needville,56.02,154.22,90.72,165.56,410.5,Single-ply,SBD,M
Boys,55.79,2,Tucker Stout,Bridge City,55.79,136.08,90.72,161.03,387.82,Single-ply,SBD,M
Boys,55.79,3,Garrett Kelso,Splendora,55.16,151.95,74.84,158.76,385.55,Single-ply,SBD,M
Boys,55.79,4,Jacob Trahan,Bridge City,53.98,147.42,68.04,142.88,358.34,Single-ply,SBD,M
Boys,59.87,5,Trent Taylor,Shepherd,55.88,133.81,70.31,138.35,342.46,Single-ply,SBD,M
Boys,55.79,6,Kevin Sanders,Sour Lake Hardin-Jefferson,54.61,127.01,58.97,136.08,322.05,Single-ply,SBD,M
Boys,55.79,7,Javier Vela,Shepherd,55.61,117.93,65.77,136.08,319.78,Single-ply,SBD,M
Boys,55.79,8,Pyno Poul,Shepherd,54.52,106.59,70.31,127.01,303.91,Single-ply,SBD,M
Boys,59.87,9,Kyle McClendon,Cleveland,56.02,122.47,54.43,124.74,301.64,Single-ply,SBD,M
Boys,55.79,10,Kody Quibodeaux,Shepherd,54.88,104.33,70.31,124.74,299.37,Single-ply,SBD,M
Boys,59.87,1,Taylor Kibodeaux,Buna,59.51,233.6,117.93,183.7,535.24,Single-ply,SBD,M
Boys,59.87,2,Reagan Ficken,Orangefield,58.42,154.22,90.72,167.83,412.77,Single-ply,SBD,M
Boys,59.87,3,Isaac Cervantes,Needville,59.15,140.61,72.57,183.7,396.89,Single-ply,SBD,M
Boys,59.87,4,Lucas Erickson,Splendora,59.06,138.35,97.52,158.76,394.63,Single-ply,SBD,M
Boys,67.13,5,Dre Cooper,Coldspring-Oakhurst,60.1,151.95,79.38,154.22,385.55,Single-ply,SBD,M
Boys,59.87,6,Harley Hnatek,Splendora,57.15,131.54,86.18,156.49,374.21,Single-ply,SBD,M
Boys,59.87,NS,Vaydon Abrego,Bridge City,,,,,,Single-ply,SBD,M
Boys,59.87,DQ,Charles Dickerson,Huffman Hargrave,58.69,,,,,Single-ply,SBD,M
Boys,59.87,NS,Daniel Langlois,Huffman Hargrave,,,,,,Single-ply,SBD,M
Boys,59.87,DQ,Tyler Squier,Cleveland Tarkington,58.06,124.74,,,,Single-ply,SBD,M
Boys,67.13,1,Deroddrick Hadnot,Jasper,63.87,204.12,117.93,208.65,530.7,Single-ply,SBD,M
Boys,67.13,2,Nate Jones,Shepherd,64.68,188.24,102.06,183.7,474,Single-ply,SBD,M
Boys,67.13,3,Sergio Olvera,Needville,62.87,170.1,106.59,185.97,462.66,Single-ply,SBD,M
Boys,74.84,4,Tavioun Fillyaw,Jasper,67.31,158.76,97.52,174.63,430.91,Single-ply,SBD,M
Boys,67.13,5,Alonzo Simmons,Jasper,65.59,163.29,90.72,167.83,421.84,Single-ply,SBD,M
Boys,67.13,6,Cesar Marroquin,Huffman Hargrave,65.77,167.83,92.99,151.95,412.77,Single-ply,SBD,M
Boys,67.13,7,Skylar Mallard,Coldspring-Oakhurst,64.32,136.08,79.38,174.63,390.09,Single-ply,SBD,M
Boys,67.13,8,Chris Jolley,Hamshire-Fannett,61.05,149.69,79.38,154.22,383.29,Single-ply,SBD,M
Boys,67.13,NS,Develon Starr,Needville,,,,,,Single-ply,SBD,M
Boys,67.13,DQ,Chris Eason,Splendora,66.13,154.22,,,,Single-ply,SBD,M
Boys,82.1,1,Luis Guzman,Cleveland,75.02,219.99,129.27,219.99,569.26,Single-ply,SBD,M
Boys,74.84,2,Josh Courvelle,Shepherd,67.77,170.1,111.13,192.78,474,Single-ply,SBD,M
Boys,74.84,3,Anthony Lamb,Splendora,74.75,170.1,92.99,197.31,460.4,Single-ply,SBD,M
Boys,74.84,4,Andrew Austin,Hamshire-Fannett,69.13,176.9,102.06,174.63,453.59,Single-ply,SBD,M
Boys,74.84,5,Jesse Canell,Stafford,68.9,156.49,117.93,163.29,437.72,Single-ply,SBD,M
Boys,74.84,6,Tanner Jones,Sour Lake Hardin-Jefferson,71.76,154.22,99.79,181.44,435.45,Single-ply,SBD,M
Boys,74.84,NS,Johnny Rodgers,Silsbee,,,,,,Single-ply,SBD,M
Boys,74.84,DQ,Hernan Diaz,Cleveland,73.21,,,,,Single-ply,SBD,M
Boys,74.84,DQ,Colby Trahan,Bridge City,72.67,,,,,Single-ply,SBD,M
Boys,74.84,DQ,Doughton Reeves,Buna,69.31,,,,,Single-ply,SBD,M
Boys,82.1,1,Arthur Maxwell,Shepherd,78.65,256.28,145.15,231.33,632.76,Single-ply,SBD,M
Boys,82.1,2,Bradley Arnold,Buna,81.1,208.65,161.03,215.46,585.13,Single-ply,SBD,M
Boys,82.1,3,Ian Putman,Orangefield,82.01,226.8,136.08,215.46,578.33,Single-ply,SBD,M
Boys,89.81,4,Markeith Cauley,Jasper,82.33,208.65,142.88,215.46,566.99,Single-ply,SBD,M
Boys,89.81,5,Myles Ash,Shepherd,82.28,197.31,131.54,213.19,542.04,Single-ply,SBD,M
Boys,82.1,6,Aj Box,Shepherd,76.48,206.38,142.88,174.63,523.9,Single-ply,SBD,M
Boys,82.1,NS,Roderick Harper,Silsbee,,,,,,Single-ply,SBD,M
Boys,82.1,NS,Ryan Kirkendall,Silsbee,,,,,,Single-ply,SBD,M
Boys,82.1,DQ,Garrett Floyd,Sour Lake Hardin-Jefferson,79.02,,,,,Single-ply,SBD,M
Boys,82.1,DQ,Tre Cooper,Coldspring-Oakhurst,77.38,233.6,,,,Single-ply,SBD,M
Boys,89.81,1,Ty Tamplin,Buna,87.63,233.6,142.88,244.94,621.42,Single-ply,SBD,M
Boys,89.81,2,Luis Escobedo,Needville,88.45,240.4,151.95,226.8,619.15,Single-ply,SBD,M
Boys,89.81,3,Jovito Mendez,Needville,87.54,235.87,138.35,206.38,580.6,Single-ply,SBD,M
Boys,89.81,4,Blake Whitton,Cleveland,87.45,217.72,149.69,199.58,566.99,Single-ply,SBD,M
Boys,89.81,5,Gage Dryden,Cleveland Tarkington,88.36,176.9,127.01,217.72,521.63,Single-ply,SBD,M
Boys,89.81,6,Casen Carter,Hamshire-Fannett,86.18,197.31,117.93,199.58,514.83,Single-ply,SBD,M
Boys,89.81,7,Tyler Barlow,Coldspring-Oakhurst,85.91,163.29,108.86,226.8,498.95,Single-ply,SBD,M
Boys,89.81,NS,Floyd Spearman,Silsbee,,,,,,Single-ply,SBD,M
Boys,89.81,NS,Jhayllien Monette,West Orange-Stark,,,,,,Single-ply,SBD,M
Boys,89.81,DQ,Joe Lynch,West Orange-Stark,86.91,224.53,147.42,217.72,,Single-ply,SBD,M
Boys,99.79,1,Shawn Jones,Jasper,97.25,258.55,151.95,249.48,659.98,Single-ply,SBD,M
Boys,99.79,2,Terrance Cuney,Jasper,97.07,263.08,163.29,226.8,653.17,Single-ply,SBD,M
Boys,99.79,3,Marco Flores,Stafford,94.21,233.6,136.08,222.26,591.94,Single-ply,SBD,M
Boys,99.79,4,Zach Cole,Bridge City,98.16,249.48,138.35,201.85,589.67,Single-ply,SBD,M
Boys,99.79,5,Zac Adams,Splendora,92.53,208.65,122.47,226.8,557.92,Single-ply,SBD,M
Boys,99.79,6,Bryan Lopez,Orangefield,97.52,226.8,108.86,204.12,539.77,Single-ply,SBD,M
Boys,99.79,7,Anderson Adams,Coldspring-Oakhurst,90.36,197.31,129.27,183.7,510.29,Single-ply,SBD,M
Boys,99.79,8,Lee McNair,Sour Lake Hardin-Jefferson,90.99,195.04,90.72,219.99,505.76,Single-ply,SBD,M
Boys,99.79,9,Dillon Dowdell,Cleveland Tarkington,96.71,199.58,108.86,197.31,505.76,Single-ply,SBD,M
Boys,99.79,10,Philip Holden,Shepherd,93.08,185.97,108.86,204.12,498.95,Single-ply,SBD,M
Boys,99.79,NS,Jordan Sam,Hamshire-Fannett,,,,,,Single-ply,SBD,M
Boys,109.77,1,DeAnthony Cuney,Jasper,101.15,235.87,181.44,222.26,639.57,Single-ply,SBD,M
Boys,109.77,2,Kevin Houston,Jasper,104.69,231.33,154.22,226.8,612.35,Single-ply,SBD,M
Boys,109.77,3,Anthony Orr-Wade,Jasper,107.05,217.72,142.88,233.6,594.21,Single-ply,SBD,M
Boys,109.77,4,Nick Goza,Needville,100.24,217.72,136.08,226.8,580.6,Single-ply,SBD,M
Boys,109.77,5,Luis Cruz,Shepherd,109.32,238.14,117.93,217.72,573.79,Single-ply,SBD,M
Boys,109.77,6,Nick Rhame,Buna,100.7,222.26,145.15,204.12,571.53,Single-ply,SBD,M
Boys,109.77,7,Jerrod Watkins,Orangefield,105.05,235.87,136.08,185.97,557.92,Single-ply,SBD,M
Boys,109.77,8,Perry Stevens,Liberty,104.78,204.12,122.47,226.8,553.38,Single-ply,SBD,M
Boys,109.77,9,Brady Barbay,Coldspring-Oakhurst,107.14,204.12,108.86,204.12,517.1,Single-ply,SBD,M
Boys,109.77,DQ,Trevor Daniels,Huffman Hargrave,106.59,,,,,Single-ply,SBD,M
Boys,124.74,1,Dalton Ford,Buna,117.93,294.84,181.44,290.3,766.57,Single-ply,SBD,M
Boys,124.74,2,Nolan Walker,Coldspring-Oakhurst,122.29,238.14,154.22,254.01,646.37,Single-ply,SBD,M
Boys,124.74,3,Josh Sterling,Liberty,123.1,263.08,136.08,235.87,635.03,Single-ply,SBD,M
Boys,124.74,4,Von Cross,Coldspring-Oakhurst,112.94,226.8,127.01,238.14,591.94,Single-ply,SBD,M
Boys,124.74,5,Ashton Limbrick,Jasper,121.02,215.46,142.88,226.8,585.13,Single-ply,SBD,M
Boys,124.74,6,Jonathan Swint,Coldspring-Oakhurst,113.31,215.46,145.15,215.46,576.06,Single-ply,SBD,M
Boys,124.74,7,Terrell Cuney,Jasper,113.94,204.12,104.33,240.4,548.85,Single-ply,SBD,M
Boys,124.74,8,Jared Brottem,Sour Lake Hardin-Jefferson,121.11,222.26,106.59,195.04,523.9,Single-ply,SBD,M
Boys,124.74,DQ,JR Olade,Hamshire-Fannett,115.03,197.31,102.06,,,Single-ply,SBD,M
Boys,124.74,DQ,Greg Dunham,Coldspring-Oakhurst,121.29,249.48,147.42,,,Single-ply,SBD,M
Boys,124.74+,1,Omar Tebo,Liberty,142.7,290.3,163.29,274.42,728.02,Single-ply,SBD,M
Boys,124.74+,2,Garrett Jarrell,Buna,147.51,272.16,158.76,256.28,687.19,Single-ply,SBD,M
Boys,124.74+,3,Peter Gloston,Sour Lake Hardin-Jefferson,140.52,233.6,138.35,206.38,578.33,Single-ply,SBD,M
Boys,124.74+,4,Tommy Jones,Buna,141.43,151.95,115.67,167.83,435.45,Single-ply,SBD,M
Boys,124.74+,NS,Seth Adams,Silsbee,,,,,,Single-ply,SBD,M
Boys,124.74+,NS,Patrick Hudson,Silsbee,,,,,,Single-ply,SBD,M
Boys,124.74+,NS,Richard Wright,West Orange-Stark,,,,,,Single-ply,SBD,M
