Division,WeightClassKg,Place,Name,Team,BodyweightKg,Best3SquatKg,Best3BenchKg,Best3DeadliftKg,TotalKg,Equipment,Event,Sex
Boys,51.71,1,Paul Arocha,Devine,51.53,145.15,90.72,151.95,387.82,Single-ply,SBD,M
Boys,51.71,2,Angel Bermudez,Poteet,49.8,138.35,88.45,142.88,369.68,Single-ply,SBD,M
Boys,51.71,3,Devin Medina,Kenedy,51.35,140.61,77.11,142.88,360.61,Single-ply,SBD,M
Boys,51.71,4,Oziel Padilla,Natalia,51.26,136.08,65.77,129.27,331.12,Single-ply,SBD,M
Boys,51.71,5,Isaiah Lucio,Pearsall,50.26,113.4,79.38,124.74,317.51,Single-ply,SBD,M
Boys,51.71,6,Rigo Franco,Poth,51.71,120.2,74.84,117.93,312.98,Single-ply,SBD,M
Boys,51.71,7,Justin Gutierrez,Crystal City,51.07,111.13,61.23,131.54,303.91,Single-ply,SBD,M
Boys,55.79,8,Carlos Ocampo,Natalia,51.8,111.13,56.7,124.74,292.57,Single-ply,SBD,M
Boys,51.71,9,Ruben Mendez,Castroville Medina Valley,50.26,74.84,43.09,97.52,215.46,Single-ply,SBD,M
Boys,51.71,DQ,Edward Devora,Castroville Medina Valley,50.35,106.59,,,,Single-ply,SBD,M
Boys,51.71,DQ,Alan Terrazas,Devine,45.81,,,,,Single-ply,SBD,M
Boys,55.79,1,Ricky Guerra,Poteet,54.7,172.37,117.93,190.51,480.81,Single-ply,SBD,M
Boys,55.79,2,Matthew Medrano,Pearsall,55.79,151.95,68.04,163.29,383.29,Single-ply,SBD,M
Boys,55.79,3,Jermaine Mendiola,Somerset,54.16,154.22,77.11,149.69,381.02,Single-ply,SBD,M
Boys,59.87,4,Randy Mancha,Crystal City,55.88,142.88,74.84,151.95,369.68,Single-ply,SBD,M
Boys,55.79,5,Dimas Tenorio,Crystal City,52.34,129.27,74.84,151.95,356.07,Single-ply,SBD,M
Boys,55.79,6,Parth Patel,Kenedy,55.52,124.74,83.91,147.42,356.07,Single-ply,SBD,M
Boys,59.87,7,Chaz Graham,Lytle,55.88,124.74,72.57,158.76,356.07,Single-ply,SBD,M
Boys,55.79,8,Jm Elizondo,Pearsall,54.79,131.54,77.11,145.15,353.8,Single-ply,SBD,M
Boys,55.79,9,Javier Flores,Crystal City,54.88,129.27,90.72,129.27,349.27,Single-ply,SBD,M
Boys,55.79,10,Victor Monsevias,Kenedy,55.61,122.47,68.04,149.69,340.19,Single-ply,SBD,M
Boys,55.79,11,Raul Cruz,Carrizo Springs,55.61,122.47,72.57,142.88,337.93,Single-ply,SBD,M
Boys,59.87,12,Zach Harding,Castroville Medina Valley,55.97,124.74,61.23,136.08,322.05,Single-ply,SBD,M
Boys,59.87,13,Kevin Sendejo,Crystal City,55.97,120.2,68.04,122.47,310.71,Single-ply,SBD,M
Boys,55.79,14,Carlitos Garcia,Uvalde,55.16,102.06,54.43,99.79,256.28,Single-ply,SBD,M
Boys,59.87,1,Sawyer Yandell,Devine,59.33,217.72,106.59,219.99,544.31,Single-ply,SBD,M
Boys,59.87,2,Rudy Martinez,Carrizo Springs,59.42,181.44,92.99,188.24,462.66,Single-ply,SBD,M
Boys,59.87,3,Landon Camacho,Pleasanton,59.87,161.03,102.06,147.42,410.5,Single-ply,SBD,M
Boys,59.87,4,Rene Rodriguez,Pearsall,58.97,131.54,86.18,170.1,387.82,Single-ply,SBD,M
Boys,59.87,5,Jacob Hinojosa,Kenedy,59.24,136.08,81.65,151.95,369.68,Single-ply,SBD,M
Boys,59.87,6,Luis Martinez,Pearsall,59.06,138.35,83.91,136.08,358.34,Single-ply,SBD,M
Boys,59.87,7,Robert Rendon,Crystal City,56.34,129.27,70.31,138.35,337.93,Single-ply,SBD,M
Boys,59.87,8,Fernando Albino,San Antonio Cole,59.78,129.27,72.57,136.08,337.93,Single-ply,SBD,M
Boys,59.87,9,Sebastian Estrada,Somerset,56.43,122.47,65.77,140.61,328.85,Single-ply,SBD,M
Boys,59.87,10,Andres Rodriguez,Castroville Medina Valley,58.6,115.67,70.31,136.08,322.05,Single-ply,SBD,M
Boys,59.87,11,Jesse Balderas,San Antonio Cole,59.87,117.93,70.31,133.81,322.05,Single-ply,SBD,M
Boys,59.87,12,Daniel Alvarado,Natalia,57.79,113.4,54.43,131.54,299.37,Single-ply,SBD,M
Boys,59.87,13,Daniel Cardenas,Uvalde,59.6,102.06,74.84,108.86,285.76,Single-ply,SBD,M
Boys,59.87,14,Auston Garza,Somerset,56.79,70.31,54.43,136.08,260.82,Single-ply,SBD,M
Boys,74.84,1,Josh Ramos,Somerset,67.22,226.8,90.72,188.24,505.76,Single-ply,SBD,M
Boys,67.13,2,Jess Rutledge,Carrizo Springs,63.05,188.24,106.59,190.51,485.34,Single-ply,SBD,M
Boys,67.13,3,Raul Garcia,Carrizo Springs,67.13,190.51,81.65,201.85,474,Single-ply,SBD,M
Boys,67.13,4,Chris Augilar,San Antonio Memorial,62.32,167.83,99.79,199.58,467.2,Single-ply,SBD,M
Boys,67.13,5,Ozzy Gonzalez,Somerset,66.77,188.24,86.18,183.7,458.13,Single-ply,SBD,M
Boys,67.13,6,Andrew Esquivel,Carrizo Springs,65.32,167.83,97.52,188.24,453.59,Single-ply,SBD,M
Boys,67.13,7,Tyler Gould,Pleasanton,66.41,183.7,97.52,165.56,446.79,Single-ply,SBD,M
Boys,67.13,8,Joe Guerrero,Devine,60.42,154.22,81.65,163.29,399.16,Single-ply,SBD,M
Boys,67.13,9,Craig Jacobs,Center Point,65.41,158.76,92.99,145.15,396.89,Single-ply,SBD,M
Boys,67.13,10,Juan Medina,Floresville,67.04,149.69,88.45,151.95,390.09,Single-ply,SBD,M
Boys,67.13,11,Preston Taggs,Floresville,65.95,145.15,83.91,149.69,378.75,Single-ply,SBD,M
Boys,67.13,12,Jj Aguinaga,Lytle,65.68,140.61,74.84,161.03,376.48,Single-ply,SBD,M
Boys,67.13,13,Walker Starnes,Bandera,64.23,131.54,86.18,154.22,371.95,Single-ply,SBD,M
Boys,67.13,14,Chris Cherry,Center Point,66.59,145.15,83.91,142.88,371.95,Single-ply,SBD,M
Boys,67.13,15,Joseph Soria,Lytle,63.96,140.61,83.91,145.15,369.68,Single-ply,SBD,M
Boys,67.13,16,Erik Villarreal,Natalia,66.95,138.35,65.77,161.03,365.14,Single-ply,SBD,M
Boys,67.13,17,Eduardo Medrano,Uvalde,61.23,142.88,70.31,149.69,362.87,Single-ply,SBD,M
Boys,67.13,18,Robert Perez,Uvalde,60.6,117.93,81.65,158.76,358.34,Single-ply,SBD,M
Boys,67.13,19,Jadran Ramirez,Kenedy,64.32,124.74,81.65,149.69,356.07,Single-ply,SBD,M
Boys,67.13,20,Mardio Lattimore,San Antonio Cole,66.86,131.54,61.23,163.29,356.07,Single-ply,SBD,M
Boys,67.13,21,Aaron Realme,Pearsall,63.32,129.27,79.38,133.81,342.46,Single-ply,SBD,M
Boys,67.13,22,Lee Marklund,San Antonio Cole,64.77,113.4,68.04,154.22,335.66,Single-ply,SBD,M
Boys,67.13,23,James Martinez,Castroville Medina Valley,66.22,92.99,79.38,142.88,315.25,Single-ply,SBD,M
Boys,67.13,24,Daniel Trevino,Uvalde,61.14,99.79,65.77,136.08,301.64,Single-ply,SBD,M
Boys,74.84,25,Josh Kelly,San Antonio Cole,67.22,90.72,52.16,102.06,244.94,Single-ply,SBD,M
Boys,67.13,DQ,Xavier Huerta,Lytle,63.68,122.47,70.31,,,Single-ply,SBD,M
Boys,74.84,1,John Valdez,Somerset,73.66,222.26,131.54,195.04,548.85,Single-ply,SBD,M
Boys,74.84,2,Craig Wells,San Antonio Brooks Academy,73.48,192.78,117.93,210.92,521.63,Single-ply,SBD,M
Boys,74.84,3,David Puente,Crystal City,74.39,185.97,115.67,195.04,496.68,Single-ply,SBD,M
Boys,74.84,4,John Santos,Lytle,74.39,195.04,97.52,181.44,474,Single-ply,SBD,M
Boys,74.84,5,Steven Sartuche,Devine,74.84,163.29,108.86,190.51,462.66,Single-ply,SBD,M
Boys,82.1,6,Demitri Molina,Somerset,74.93,174.63,95.25,183.7,453.59,Single-ply,SBD,M
Boys,74.84,7,Nathan Medrano,Lytle,68.04,181.44,104.33,165.56,451.32,Single-ply,SBD,M
Boys,74.84,8,Zeke Hinojosa,Pearsall,74.39,167.83,90.72,181.44,439.98,Single-ply,SBD,M
Boys,74.84,9,Diego Hernandez,Lytle,70.85,163.29,104.33,170.1,437.72,Single-ply,SBD,M
Boys,74.84,10,Steven Nicholson,Natalia,73.21,181.44,70.31,185.97,437.72,Single-ply,SBD,M
Boys,74.84,11,Papito Monreal,Natalia,73.57,161.03,86.18,176.9,424.11,Single-ply,SBD,M
Boys,74.84,12,Leroy Torres,Castroville Medina Valley,71.21,154.22,99.79,165.56,419.57,Single-ply,SBD,M
Boys,74.84,13,Jacob Kelly,San Antonio Cole,72.21,147.42,88.45,170.1,405.97,Single-ply,SBD,M
Boys,74.84,14,Jerren Scott,San Antonio Cole,71.94,142.88,88.45,165.56,396.89,Single-ply,SBD,M
Boys,74.84,15,José Fernández,San Antonio Brooks Academy,74.39,156.49,83.91,154.22,394.63,Single-ply,SBD,M
Boys,74.84,16,N'Miah Davis,Bandera,73.94,142.88,83.91,165.56,392.36,Single-ply,SBD,M
Boys,74.84,17,Stefen Villanueva,Floresville,72.39,133.81,97.52,156.49,387.82,Single-ply,SBD,M
Boys,74.84,18,Daniel Martin,Center Point,69.4,145.15,81.65,158.76,385.55,Single-ply,SBD,M
Boys,74.84,19,Bradley Mankin,Carrizo Springs,74.84,124.74,83.91,167.83,376.48,Single-ply,SBD,M
Boys,74.84,20,Ray Riojas,Carrizo Springs,69.4,129.27,81.65,154.22,365.14,Single-ply,SBD,M
Boys,74.84,21,Jesse Rodriguez,Carrizo Springs,70.31,136.08,74.84,147.42,358.34,Single-ply,SBD,M
Boys,74.84,22,Andy Joslin,Floresville,69.4,145.15,70.31,138.35,353.8,Single-ply,SBD,M
Boys,74.84,23,Joseph Quintanilla,Floresville,70.03,136.08,88.45,129.27,353.8,Single-ply,SBD,M
Boys,82.1,24,Robert Rodriguez,Castroville Medina Valley,75.07,113.4,74.84,142.88,331.12,Single-ply,SBD,M
Boys,74.84,25,Alex Parades,Natalia,67.59,138.35,54.43,129.27,322.05,Single-ply,SBD,M
Boys,82.1,26,Oscar de Luna,San Antonio Memorial,74.93,129.27,61.23,127.01,317.51,Single-ply,SBD,M
Boys,74.84,27,Nathan Salazar,Somerset,73.84,81.65,72.57,124.74,278.96,Single-ply,SBD,M
Boys,82.1,1,Pedro Molina,Somerset,79.56,244.94,136.08,254.01,635.03,Single-ply,SBD,M
Boys,82.1,2,Thomas Trevino,Pleasanton,81.28,219.99,124.74,217.72,562.45,Single-ply,SBD,M
Boys,82.1,3,Christopher Vinton,Pearsall,78.65,219.99,136.08,199.58,555.65,Single-ply,SBD,M
Boys,82.1,4,Michael Chavez,Devine,82.1,222.26,142.88,181.44,546.58,Single-ply,SBD,M
Boys,82.1,5,Jamison Smolka,Poth,76.11,199.58,124.74,185.97,510.29,Single-ply,SBD,M
Boys,82.1,6,AJ Camacho,Hondo,79.92,204.12,111.13,183.7,498.95,Single-ply,SBD,M
Boys,82.1,7,Orlando Medrano,Lytle,78.47,181.44,117.93,185.97,485.34,Single-ply,SBD,M
Boys,82.1,8,Hakim James,San Antonio Cole,76.2,170.1,92.99,210.92,474,Single-ply,SBD,M
Boys,82.1,9,Landon Ventura,Bandera,81.37,190.51,111.13,158.76,460.4,Single-ply,SBD,M
Boys,82.1,10,Thomas Rodriguez,Somerset,79.47,179.17,86.18,181.44,446.79,Single-ply,SBD,M
Boys,82.1,11,Lemeul Ramirez,Center Point,76.02,176.9,102.06,158.76,437.72,Single-ply,SBD,M
Boys,82.1,12,Rigo Hernandez,Uvalde,80.2,167.83,88.45,172.37,428.64,Single-ply,SBD,M
Boys,82.1,13,Josh Guerra,Castroville Medina Valley,80.92,142.88,95.25,183.7,421.84,Single-ply,SBD,M
Boys,82.1,14,Victor Perez,Pleasanton,80.65,142.88,104.33,154.22,401.43,Single-ply,SBD,M
Boys,82.1,15,Zach Reeves,San Antonio Cole,80.74,142.88,97.52,156.49,396.89,Single-ply,SBD,M
Boys,82.1,16,Albert Romo,Castroville Medina Valley,79.11,142.88,95.25,138.35,376.48,Single-ply,SBD,M
Boys,82.1,17,Xzavier Reyes,Poteet,79.02,138.35,81.65,147.42,367.41,Single-ply,SBD,M
Boys,89.81,18,Mark Sustaita,Castroville Medina Valley,82.33,129.27,65.77,158.76,353.8,Single-ply,SBD,M
Boys,82.1,19,Phillip Aguero,Somerset,75.75,90.72,45.36,111.13,247.21,Single-ply,SBD,M
Boys,82.1,DQ,Joe Rodriguez,Bandera,80.1,142.88,,,,Single-ply,SBD,M
Boys,82.1,DQ,Jaco Kinney,Bandera,79.83,,,,,Single-ply,SBD,M
Boys,82.1,DQ,Hunter Peterson,Castroville Medina Valley,81.28,,,,,Single-ply,SBD,M
Boys,82.1,DQ,Matt Chapa,Center Point,75.3,,,,,Single-ply,SBD,M
Boys,82.1,DQ,Dylan Aguinaga,Lytle,78.93,,,,,Single-ply,SBD,M
Boys,89.81,1,Jon Ventura,Pearsall,86.82,226.8,127.01,249.48,603.28,Single-ply,SBD,M
Boys,89.81,2,Chris Toenes,Bandera,89.09,210.92,129.27,217.72,557.92,Single-ply,SBD,M
Boys,89.81,3,Silverio Trejo,Pearsall,84.19,201.85,115.67,213.19,530.7,Single-ply,SBD,M
Boys,89.81,4,Matthew Zavala,Poth,89.27,215.46,138.35,174.63,528.44,Single-ply,SBD,M
Boys,89.81,5,Ben Guthrie,Center Point,83.01,226.8,124.74,172.37,523.9,Single-ply,SBD,M
Boys,89.81,6,David Bernal,Pleasanton,88.72,222.26,115.67,181.44,519.36,Single-ply,SBD,M
Boys,89.81,7,Justin Laque,Castroville Medina Valley,85.37,176.9,127.01,208.65,512.56,Single-ply,SBD,M
Boys,89.81,8,Juan Perez,Lytle,85.18,172.37,102.06,192.78,467.2,Single-ply,SBD,M
Boys,89.81,9,Andrew Garcia,Pleasanton,89.09,163.29,92.99,181.44,437.72,Single-ply,SBD,M
Boys,89.81,10,Nick Calderone,San Antonio Cole,84.64,158.76,111.13,163.29,433.18,Single-ply,SBD,M
Boys,89.81,11,Joshua Cuevas,Pearsall,86.09,165.56,86.18,181.44,433.18,Single-ply,SBD,M
Boys,89.81,12,Calvin Martinez,Carrizo Springs,84.91,163.29,95.25,165.56,424.11,Single-ply,SBD,M
Boys,89.81,13,Derrick Garcia,Uvalde,84.55,142.88,97.52,163.29,403.7,Single-ply,SBD,M
Boys,89.81,14,Michael DeLeon,Somerset,87.18,90.72,54.43,108.86,254.01,Single-ply,SBD,M
Boys,89.81,DQ,Nick Andreas,Bandera,86.91,,,,,Single-ply,SBD,M
Boys,89.81,DQ,Justin Quesada,Somerset,87.72,,,,,Single-ply,SBD,M
Boys,89.81,DQ,Isaac Robles #3,Castroville Medina Valley,84.19,,,,,Single-ply,SBD,M
Boys,89.81,DQ,Dallin Hack,Lytle,83.1,172.37,,,,Single-ply,SBD,M
Boys,99.79,1,Carlos Carrillo,Lytle,94.71,247.21,145.15,235.87,628.23,Single-ply,SBD,M
Boys,99.79,2,Kolby Janek,Poth,98.61,233.6,154.22,217.72,605.55,Single-ply,SBD,M
Boys,99.79,3,Izzy Hay,Bandera,99.43,199.58,179.17,210.92,589.67,Single-ply,SBD,M
Boys,99.79,4,Joey Mendez,San Antonio Memorial,96.89,240.4,115.67,204.12,560.19,Single-ply,SBD,M
Boys,99.79,5,Julian Valodino,Bandera,96.71,192.78,124.74,192.78,510.29,Single-ply,SBD,M
Boys,99.79,6,Joey Sanchez,Somerset,96.89,204.12,108.86,190.51,503.49,Single-ply,SBD,M
Boys,99.79,7,Abraham Cantu,Pearsall,96.34,190.51,90.72,183.7,464.93,Single-ply,SBD,M
Boys,99.79,8,Thomas Duran,San Antonio Brooks Academy,91.81,136.08,90.72,176.9,403.7,Single-ply,SBD,M
Boys,109.77,9,Dustyn Hawes,Castroville Medina Valley,100.02,136.08,104.33,142.88,383.29,Single-ply,SBD,M
Boys,109.77,10,Abraham Mayo,San Antonio Cole,99.88,122.47,92.99,156.49,371.95,Single-ply,SBD,M
Boys,99.79,11,Antonio Ramirez,Crystal City,90.45,131.54,65.77,115.67,312.98,Single-ply,SBD,M
Boys,99.79,12,Ermilio Escamilla,Natalia,94.8,90.72,52.16,102.06,244.94,Single-ply,SBD,M
Boys,99.79,DQ,Bryce Sandoval,Poteet,98.07,204.12,,,,Single-ply,SBD,M
Boys,99.79,DQ,Christian Silvas,Crystal City,95.62,167.83,,,,Single-ply,SBD,M
Boys,99.79,DQ,Juan Landa,Castroville Medina Valley,99.34,224.53,131.54,,,Single-ply,SBD,M
Boys,99.79,DQ,Jesus Piliado,Somerset,93.26,,,,,Single-ply,SBD,M
Boys,109.77,1,Sal Marines,Somerset,104.96,340.19,142.88,294.84,777.91,Single-ply,SBD,M
Boys,109.77,2,Benny Ximenez,Floresville,109.23,272.16,156.49,233.6,662.24,Single-ply,SBD,M
Boys,109.77,3,Leo Perez,Devine,104.33,278.96,156.49,215.46,650.91,Single-ply,SBD,M
Boys,109.77,4,Justin Lomas,Crystal City,100.79,272.16,142.88,226.8,641.83,Single-ply,SBD,M
Boys,109.77,5,Pat Rodriguez,Devine,107.32,254.01,149.69,222.26,625.96,Single-ply,SBD,M
Boys,109.77,6,Mark Cerda,Somerset,108.5,233.6,131.54,235.87,601.01,Single-ply,SBD,M
Boys,109.77,7,Darren Garcia,Crystal City,106.68,238.14,136.08,219.99,594.21,Single-ply,SBD,M
Boys,109.77,8,Chris Trujillo,Center Point,105.78,231.33,140.61,215.46,587.4,Single-ply,SBD,M
Boys,109.77,9,Jacob Ybarra,Somerset,107.5,226.8,140.61,183.7,551.11,Single-ply,SBD,M
Boys,124.74,10,Austin Banks-Wilson,Castroville Medina Valley,110,188.24,108.86,206.38,503.49,Single-ply,SBD,M
Boys,109.77,11,Manny Leija,Pleasanton,101.51,195.04,117.93,185.97,498.95,Single-ply,SBD,M
Boys,109.77,12,Martin Mendez,San Antonio Memorial,101.79,185.97,102.06,195.04,483.08,Single-ply,SBD,M
Boys,109.77,13,Jose Coronado,San Antonio Memorial,106.5,131.54,74.84,131.54,337.93,Single-ply,SBD,M
Boys,109.77,14,Jonah Masters,San Antonio Cole,107.86,136.08,65.77,136.08,337.93,Single-ply,SBD,M
Boys,109.77,DQ,Joe Tovar,Somerset,107.68,158.76,,,,Single-ply,SBD,M
Boys,109.77,DQ,Elijah Rejino,Devine,104.69,208.65,136.08,,,Single-ply,SBD,M
Boys,124.74,1,Zach Monreal,Devine,120.84,263.08,165.56,249.48,678.12,Single-ply,SBD,M
Boys,124.74,2,Adrian Contreras,Poteet,116.57,249.48,124.74,226.8,601.01,Single-ply,SBD,M
Boys,124.74,3,Michael Garza,Crystal City,119.39,247.21,124.74,185.97,557.92,Single-ply,SBD,M
Boys,124.74,4,Cody Peterson,Pleasanton,113.58,226.8,113.4,204.12,544.31,Single-ply,SBD,M
Boys,124.74,5,Bj Frieda,Somerset,112.31,226.8,129.27,183.7,539.77,Single-ply,SBD,M
Boys,124.74,6,Andre Hernandez,Natalia,121.74,208.65,108.86,204.12,521.63,Single-ply,SBD,M
Boys,124.74,7,Bj Carranza,Uvalde,114.67,204.12,106.59,190.51,501.22,Single-ply,SBD,M
Boys,124.74,8,Jonathan Ramirez,Lytle,111.4,192.78,106.59,195.04,494.42,Single-ply,SBD,M
Boys,124.74+,9,Travis Vickery,Kenedy,124.83,183.7,117.93,192.78,494.42,Single-ply,SBD,M
Boys,124.74,10,Juan Ramirez,Carrizo Springs,118.3,154.22,131.54,195.04,480.81,Single-ply,SBD,M
Boys,124.74,11,Ray Navarro,Natalia,122.02,201.85,74.84,188.24,464.93,Single-ply,SBD,M
Boys,124.74,12,Jon Lara,Natalia,115.85,188.24,86.18,167.83,442.25,Single-ply,SBD,M
Boys,124.74,13,Zach Torres,Somerset,120.75,174.63,108.86,158.76,442.25,Single-ply,SBD,M
Boys,124.74,14,Andres Garces,San Antonio Memorial,113.31,154.22,102.06,167.83,424.11,Single-ply,SBD,M
Boys,124.74,15,Jonathan Rubio,Uvalde,111.31,156.49,79.38,179.17,415.04,Single-ply,SBD,M
Boys,124.74,16,Daniel Ramirez,Somerset,116.12,158.76,102.06,154.22,415.04,Single-ply,SBD,M
Boys,124.74,17,Jonathan Stouflett,Bandera,117.57,147.42,90.72,158.76,396.89,Single-ply,SBD,M
Boys,124.74,18,Deven Stelzig,Castroville Medina Valley,123.29,136.08,81.65,136.08,353.8,Single-ply,SBD,M
Boys,124.74,19,Javier De Leon,Somerset,123.74,124.74,70.31,124.74,319.78,Single-ply,SBD,M
Boys,124.74,DQ,Gill Torres,San Antonio Memorial,110.86,,,,,Single-ply,SBD,M
Boys,124.74,DQ,Eddie Rodriguez,San Antonio Memorial,114.76,278.96,,,,Single-ply,SBD,M
Boys,124.74,DQ,Refugio Faz,Somerset,115.3,181.44,,,,Single-ply,SBD,M
Boys,124.74,DQ,Tino Torres,Carrizo Springs,116.21,,,,,Single-ply,SBD,M
Boys,124.74,DQ,Johnathon Ricks,Pleasanton,117.57,,,,,Single-ply,SBD,M
Boys,124.74,DQ,Josh Jennings,San Antonio Cole,116.39,210.92,,,,Single-ply,SBD,M
Boys,124.74+,1,Michael Reyes,Natalia,147.15,294.84,158.76,249.48,703.07,Single-ply,SBD,M
Boys,124.74+,2,Nick O'Bryant,Castroville Medina Valley,133.36,290.3,154.22,249.48,694,Single-ply,SBD,M
Boys,124.74+,3,Gabriel Garza,Somerset,125.83,263.08,163.29,208.65,635.03,Single-ply,SBD,M
Boys,124.74+,4,Drew Kirkpatrick,Uvalde,134.81,249.48,181.44,204.12,635.03,Single-ply,SBD,M
Boys,124.74+,5,James Cooksey,Kenedy,128.91,213.19,106.59,217.72,537.51,Single-ply,SBD,M
Boys,124.74+,6,Mario Chavez,Carrizo Springs,165.11,181.44,86.18,190.51,458.13,Single-ply,SBD,M
Boys,124.74+,7,Paul Esparza,San Antonio Brooks Academy,128.46,145.15,97.52,185.97,428.64,Single-ply,SBD,M
Boys,124.74+,DQ,Ronnie Lucio,Poteet,127.91,,,,,Single-ply,SBD,M
Boys,124.74+,DQ,Peter Hernandez,Pearsall,129.82,,,,,Single-ply,SBD,M
Boys,124.74+,DQ,Charest Inman,Castroville Medina Valley,154.04,,,,,Single-ply,SBD,M
Boys,124.74+,DQ,Garrett Neuman,Castroville Medina Valley,147.96,208.65,,,,Single-ply,SBD,M
Boys,124.74+,DQ,Cody Martin,Center Point,133.08,,,,,Single-ply,SBD,M
Boys,124.74+,DQ,Michael Romero,Somerset,140.25,,,,,Single-ply,SBD,M
Boys,124.74+,DQ,Jay Sandoval,San Antonio Memorial,149.23,,,,,Single-ply,SBD,M
Boys,124.74+,DQ,Christian Soria,Somerset,138.53,,,,,Single-ply,SBD,M
Boys,124.74+,DQ,Chris Cobb,Somerset,128.28,,,,,Single-ply,SBD,M
Boys,124.74+,DQ,Andy Valladolid,Somerset,137.26,,,,,Single-ply,SBD,M
Boys,,NS,Alex Hewgley,Castroville Medina Valley,,,,,,Single-ply,SBD,M
Boys,,NS,Troy Cole,Castroville Medina Valley,,,,,,Single-ply,SBD,M
Boys,,NS,Brandon Rincon,Castroville Medina Valley,,,,,,Single-ply,SBD,M
Boys,,NS,Steven Juarez,Castroville Medina Valley,,,,,,Single-ply,SBD,M
