Division,WeightClassKg,Place,Name,Team,BodyweightKg,Best3SquatKg,Best3BenchKg,Best3DeadliftKg,TotalKg,Equipment,Event,Sex
Girls,44.23,1,Xochitl Gamez,Edinburg Vela,43.64,133.81,65.77,120.2,319.78,Single-ply,SBD,F
Girls,44.23,2,Arely Ortega,Edinburg Quest College Prep,43.18,111.13,58.97,113.4,283.5,Single-ply,SBD,F
Girls,44.23,3,Yadira Maldonado,Los Fresnos,43.73,117.93,43.09,120.2,281.23,Single-ply,SBD,F
Girls,44.23,4,Erika Diaz,La Joya Palmview,42.64,102.06,56.7,104.33,263.08,Single-ply,SBD,F
Girls,44.23,5,Alysse Hernandez,La Joya Palmview,43.45,86.18,47.63,99.79,233.6,Single-ply,SBD,F
Girls,44.23,6,Leila Berrones,Weslaco,43.18,95.25,43.09,90.72,229.06,Single-ply,SBD,F
Girls,44.23,7,Roxanne Cantu,Donna,43.82,102.06,34.02,90.72,226.8,Single-ply,SBD,F
Girls,44.23,8,Nelly Gutierrez,Donna,44.18,90.72,,92.99,183.7,Single-ply,SD,F
Girls,44.23,9,Angelina Zuniga,San Benito,38.37,63.5,31.75,63.5,158.76,Single-ply,SBD,F
Girls,44.23,DQ,Valery Cano,Edinburg Idea College Prep,43,129.27,61.23,,,Single-ply,SBD,F
Girls,47.85,1,Kayla Alvardo,Los Fresnos,47.72,106.59,56.7,115.67,278.96,Single-ply,SBD,F
Girls,47.85,2,Yaritza Ortiz,La Joya Palmview,47.85,104.33,54.43,111.13,269.89,Single-ply,SBD,F
Girls,47.85,3,Michelle Salaya,Weslaco,46.63,106.59,54.43,106.59,267.62,Single-ply,SBD,F
Girls,47.85,4,Debahni Garza,Edinburg,47.85,102.06,56.7,108.86,267.62,Single-ply,SBD,F
Girls,47.85,5,Paulina Melendez,Los Fresnos,46.45,99.79,49.9,102.06,251.74,Single-ply,SBD,F
Girls,47.85,6,Clarissa Rivera,La Feria,47.08,92.99,36.29,97.52,226.8,Single-ply,SBD,F
Girls,47.85,7,Deisy Herrera,Monte Alto,47.63,81.65,40.82,104.33,226.8,Single-ply,SBD,F
Girls,47.85,8,Victoria Fuentes,Rio Grande City,47.54,83.91,47.63,88.45,219.99,Single-ply,SBD,F
Girls,47.85,DQ,Destiny Gonzalez,Weslaco,46.54,81.65,31.75,90.72,,Single-ply,SBD,F
Girls,47.85,DQ,Jaqueline Pena,Edinburg Idea College Prep,47.36,,,,,Single-ply,SBD,F
Girls,51.94,1,Ashley Tijerina,Mission Sharyland,51.07,151.95,61.23,142.88,356.07,Single-ply,SBD,F
Girls,51.94,2,Daisy Hernandez,Weslaco,50.98,136.08,72.57,138.35,347,Single-ply,SBD,F
Girls,51.94,3,Viviana Lopez,Port Isabel,50.98,136.08,63.5,129.27,328.85,Single-ply,SBD,F
Girls,51.94,4,Melani Davila,San Benito,51.8,97.52,54.43,122.47,274.42,Single-ply,SBD,F
Girls,51.94,5,Danyel Leal,Los Fresnos,51.44,99.79,47.63,122.47,269.89,Single-ply,SBD,F
Girls,51.94,6,DeAndra Canales,Rio Grande City,51.94,99.79,47.63,111.13,258.55,Single-ply,SBD,F
Girls,51.94,7,Mitz Juarez,Donna,49.8,97.52,47.63,81.65,226.8,Single-ply,SBD,F
Girls,51.94,8,Gloria Fuentes,Rio Grande City,50.35,79.38,45.36,88.45,213.19,Single-ply,SBD,F
Girls,51.94,9,Chastity Venecia,McAllen IDEA College Prep,49.35,70.31,29.48,90.72,190.51,Single-ply,SBD,F
Girls,51.94,DQ,Katrina Martinez,Weslaco,51.89,52.16,24.95,74.84,,Single-ply,SBD,F
Girls,51.94,DQ,Xenia Martinez,Edinburg Vela,49.08,,,,,Single-ply,SBD,F
Girls,51.94,DQ,Alyssa Ortega,Edinburg Vela,50.8,61.23,,,,Single-ply,SBD,F
Girls,51.94,DQ,Nani Morales,Edinburg Vela,50.26,92.99,43.09,,,Single-ply,SBD,F
Girls,51.94,DQ,Alyzza Ortiz,Edinburg Quest College Prep,51.07,,,,,Single-ply,SBD,F
Girls,56.02,1,Donna Mondragon,La Joya Palmview,55.61,158.76,81.65,142.88,383.29,Single-ply,SBD,F
Girls,56.02,2,Briana Flores,Edinburg Economedes,56.02,131.54,70.31,117.93,319.78,Single-ply,SBD,F
Girls,56.02,3,Vanessa Puig,Los Fresnos,55.43,131.54,61.23,122.47,315.25,Single-ply,SBD,F
Girls,56.02,4,Gianna Rivas,Weslaco,54.07,127.01,63.5,122.47,312.98,Single-ply,SBD,F
Girls,56.02,5,Kat Ruiz,Los Fresnos,53.89,122.47,56.7,131.54,310.71,Single-ply,SBD,F
Girls,56.02,6,Alexandria Garcia,Los Fresnos,54.98,131.54,52.16,122.47,306.17,Single-ply,SBD,F
Girls,56.02,7,Bryanna Marroquin,Edinburg North,56.02,122.47,68.04,111.13,301.64,Single-ply,SBD,F
Girls,56.02,8,Sabrina Trevino,San Benito,55.52,127.01,61.23,106.59,294.84,Single-ply,SBD,F
Girls,56.02,9,Mariana Zarate,Mission Sharyland,55.16,113.4,54.43,117.93,285.76,Single-ply,SBD,F
Girls,56.02,10,Carla Perez,Edinburg Economedes,55.52,111.13,56.7,117.93,285.76,Single-ply,SBD,F
Girls,56.02,11,Jackie Perez,Port Isabel,54.52,108.86,49.9,122.47,281.23,Single-ply,SBD,F
Girls,56.02,12,Brenda Gazca,Rio Grande City,54.88,104.33,47.63,120.2,272.16,Single-ply,SBD,F
Girls,56.02,13,Angela Sandoval,Donna,54.98,113.4,40.82,111.13,265.35,Single-ply,SBD,F
Girls,56.02,14,Taeecija Vickmark,Edinburg Quest College Prep,55.25,102.06,58.97,102.06,263.08,Single-ply,SBD,F
Girls,56.02,15,Lindsey Gutierrez,La Villa,55.88,106.59,43.09,92.99,242.67,Single-ply,SBD,F
Girls,56.02,16,EmmaLee Lopez,Raymondville,53.16,88.45,38.56,111.13,238.14,Single-ply,SBD,F
Girls,56.02,17,Alexa Munoz,La Joya Palmview,55.97,81.65,47.63,90.72,219.99,Single-ply,SBD,F
Girls,56.02,DQ,Star Aguilar,Weslaco,54.98,108.86,49.9,104.33,,Single-ply,SBD,F
Girls,56.02,DQ,Emily Silva,Weslaco,54.88,90.72,40.82,102.06,,Single-ply,SBD,F
Girls,60.1,1,Brianda Resendez,Mission Sharyland,56.15,183.7,97.52,154.22,435.45,Single-ply,SBD,F
Girls,60.1,2,Hanna Castillo,Los Fresnos,58.97,131.54,79.38,147.42,358.34,Single-ply,SBD,F
Girls,60.1,3,Ennette Diaz,La Joya Palmview,58.97,133.81,79.38,127.01,340.19,Single-ply,SBD,F
Girls,60.1,4,Lilian Lara,Weslaco,59.06,138.35,61.23,138.35,337.93,Single-ply,SBD,F
Girls,60.1,5,Isis Sandiford,Edinburg Idea College Prep,59.42,138.35,65.77,131.54,335.66,Single-ply,SBD,F
Girls,60.1,6,Gisselle Cabrera,Edinburg Economedes,60.06,136.08,72.57,120.2,328.85,Single-ply,SBD,F
Girls,60.1,7,Kimberly Gonzalez,Edinburg,59.15,129.27,68.04,129.27,326.59,Single-ply,SBD,F
Girls,60.1,8,Ayanna Rangel,Monte Alto,57.88,124.74,56.7,133.81,315.25,Single-ply,SBD,F
Girls,60.1,9,Valerie Soto,San Benito,59.15,127.01,61.23,111.13,299.37,Single-ply,SBD,F
Girls,60.1,10,Rubi Suarez,Edinburg,59.6,111.13,52.16,108.86,272.16,Single-ply,SBD,F
Girls,60.1,11,Ashley Garcia,Rio Grande City,59.51,92.99,52.16,106.59,251.74,Single-ply,SBD,F
Girls,60.1,12,Keana Hovey,La Joya Palmview,58.24,97.52,54.43,86.18,238.14,Single-ply,SBD,F
Girls,60.1,13,Jessica Rivera,Edinburg North,58.51,70.31,47.63,92.99,210.92,Single-ply,SBD,F
Girls,60.1,14,Kateyln Nava,Edinburg Vela,58.69,88.45,43.09,77.11,208.65,Single-ply,SBD,F
Girls,60.1,DQ,Brianna Ybarra,Weslaco,59.33,88.45,43.09,77.11,,Single-ply,SBD,F
Girls,60.1,DQ,Mia Garcia,Weslaco,59.87,97.52,36.29,92.99,,Single-ply,SBD,F
Girls,60.1,DQ,Ruth Avila,Edinburg Quest College Prep,59.15,,,,,Single-ply,SBD,F
Girls,60.1,DQ,Mayra Yanez,San Benito,60.1,,,,,Single-ply,SBD,F
Girls,60.1,DQ,Chonema Martinez,Edinburg Vela,59.51,92.99,,,,Single-ply,SBD,F
Girls,60.1,DQ,Julie Benitez,Edinburg Vela,59.51,90.72,47.63,,,Single-ply,SBD,F
Girls,67.36,1,Deeandra Flores,Edinburg North,65.14,165.56,90.72,158.76,415.04,Single-ply,SBD,F
Girls,67.36,2,Sarah Morillion,Los Fresnos,66.77,145.15,63.5,124.74,333.39,Single-ply,SBD,F
Girls,67.36,3,Briany Pena,La Joya Palmview,65.77,133.81,58.97,129.27,322.05,Single-ply,SBD,F
Girls,67.36,4,Kassandra Mendiola,La Joya Palmview,67.36,117.93,56.7,136.08,310.71,Single-ply,SBD,F
Girls,67.36,5,Silvia Gonzalez,Port Isabel,66.95,104.33,61.23,115.67,281.23,Single-ply,SBD,F
Girls,67.36,6,Audrey Garza,Monte Alto,65.59,124.74,47.63,102.06,274.42,Single-ply,SBD,F
Girls,67.36,7,Pamela Torres,La Villa,65.68,111.13,47.63,106.59,265.35,Single-ply,SBD,F
Girls,67.36,8,Vanessa Garcia,Donna,66.41,120.2,43.09,95.25,258.55,Single-ply,SBD,F
Girls,67.36,9,Jacky Flores,Rio Grande City,66.5,97.52,45.36,97.52,240.4,Single-ply,SBD,F
Girls,67.36,10,Valerie Guzman,McAllen IDEA College Prep,66.77,43.09,27.22,65.77,136.08,Single-ply,SBD,F
Girls,67.36,DQ,Edie Montalvo,Weslaco,66.22,136.08,56.7,129.27,,Single-ply,SBD,F
Girls,67.36,DQ,Rubi Garcia,Weslaco,66.22,104.33,63.5,113.4,,Single-ply,SBD,F
Girls,67.36,DQ,Jordyn Torres,Weslaco,65.77,133.81,,,,Single-ply,SBD,F
Girls,67.36,DQ,Julissa Juarez,Mission Sharyland,65.59,127.01,52.16,,,Single-ply,SBD,F
Girls,67.36,DQ,Madelyn Galvan,Port Isabel,66.86,140.61,,,,Single-ply,SBD,F
Girls,67.36,DQ,Michelle Ramirez,Edinburg North,66.77,108.86,,,,Single-ply,SBD,F
Girls,75.07,1,Jenither Gallegos,San Benito,71.4,151.95,74.84,127.01,353.8,Single-ply,SBD,F
Girls,75.07,2,Dehlila Cantu,Edinburg Vela,73.75,149.69,70.31,127.01,347,Single-ply,SBD,F
Girls,75.07,3,Blanca Reyna,Edinburg Economedes,70.85,124.74,58.97,149.69,333.39,Single-ply,SBD,F
Girls,75.07,4,Bianca Cardenas,Weslaco,71.58,136.08,61.23,133.81,331.12,Single-ply,SBD,F
Girls,75.07,5,Victoria Alejandre,La Feria,73.48,140.61,49.9,120.2,310.71,Single-ply,SBD,F
Girls,75.07,6,Valerie Varela,San Benito,73.94,124.74,45.36,129.27,299.37,Single-ply,SBD,F
Girls,75.07,7,Yvette Solis,Donna,74.84,122.47,52.16,113.4,288.03,Single-ply,SBD,F
Girls,75.07,8,Brianna Flores,Rio Grande City,69.67,117.93,61.23,102.06,281.23,Single-ply,SBD,F
Girls,75.07,9,Irma Ozuna,Edinburg Vela,69.94,117.93,52.16,106.59,276.69,Single-ply,SBD,F
Girls,75.07,10,Stephanie Reyes,La Feria,73.84,113.4,52.16,104.33,269.89,Single-ply,SBD,F
Girls,75.07,11,Valeria Estrada,Edinburg North,73.66,79.38,52.16,102.06,233.6,Single-ply,SBD,F
Girls,75.07,DQ,Hillary Santillanes,Edinburg Economedes,73.39,124.74,,,,Single-ply,SBD,F
Girls,75.07,DQ,Jennifer Perez,Edinburg Economedes,73.12,188.24,92.99,,,Single-ply,SBD,F
Girls,75.07,DQ,Anastacia Galvan,Los Fresnos,74.93,156.49,61.23,,,Single-ply,SBD,F
Girls,75.07,DQ,Carla Bocanegra,Raymondville,74.03,,,,,Single-ply,SBD,F
Girls,75.07,DQ,Natalia Marinov,Port Isabel,71.3,97.52,47.63,,,Single-ply,SBD,F
Girls,75.07,DQ,Gabriela Mercado,Mission Sharyland,73.48,138.35,,,,Single-ply,SBD,F
Girls,75.07,DQ,Sydney Frausto,La Feria,73.03,,,,,Single-ply,SBD,F
Girls,75.07,DQ,Sindy Garcia,Edinburg Idea College Prep,68.76,,,,,Single-ply,SBD,F
Girls,82.33,1,Natalie Monjaras,Weslaco,81.56,176.9,115.67,138.35,430.91,Single-ply,SBD,F
Girls,82.33,2,Sophia Coronado,Edinburg,80.29,149.69,83.91,136.08,369.68,Single-ply,SBD,F
Girls,82.33,3,Destiny Perez,Edinburg,81.56,163.29,95.25,108.86,367.41,Single-ply,SBD,F
Girls,82.33,4,Samantha Gonzalez,Edinburg Idea College Prep,81.83,158.76,70.31,138.35,367.41,Single-ply,SBD,F
Girls,82.33,5,Kayla Cox,Edinburg North,80.38,140.61,83.91,131.54,356.07,Single-ply,SBD,F
Girls,82.33,6,Sasha Garcia,Edinburg Quest College Prep,81.74,140.61,63.5,142.88,347,Single-ply,SBD,F
Girls,82.33,7,Sabrena Rosales,Edinburg Economedes,78.11,124.74,77.11,136.08,337.93,Single-ply,SBD,F
Girls,82.33,8,Brianna Fuentes,Weslaco,79.2,140.61,72.57,122.47,335.66,Single-ply,SBD,F
Girls,82.33,9,Diony Villanueva,Edinburg Economedes,77.11,136.08,65.77,129.27,331.12,Single-ply,SBD,F
Girls,82.33,10,Leslie Garcia,Edinburg Economedes,79.92,136.08,74.84,120.2,331.12,Single-ply,SBD,F
Girls,82.33,11,Gabby Featherston,Edinburg,76.84,127.01,63.5,124.74,315.25,Single-ply,SBD,F
Girls,82.33,12,Taylor Weldon,Edinburg Economedes,79.56,117.93,72.57,124.74,315.25,Single-ply,SBD,F
Girls,82.33,13,Trinity Guzman,Edinburg North,80.29,113.4,72.57,122.47,308.44,Single-ply,SBD,F
Girls,82.33,14,Brianna Lozano,Edinburg Quest College Prep,80.65,117.93,68.04,113.4,299.37,Single-ply,SBD,F
Girls,82.33,15,Angelina Lopez,La Feria,81.65,124.74,56.7,117.93,299.37,Single-ply,SBD,F
Girls,82.33,16,Melisa Lucio,La Feria,81.47,79.38,45.36,81.65,206.38,Single-ply,SBD,F
Girls,82.33,17,Jackie Alvarado,McAllen IDEA College Prep,76.38,61.23,36.29,88.45,185.97,Single-ply,SBD,F
Girls,82.33,DQ,Paula Alvarez,Weslaco,80.65,154.22,,117.93,,Single-ply,SBD,F
Girls,82.33,DQ,Marina Hernandez,Weslaco,78.47,142.88,65.77,136.08,,Single-ply,SBD,F
Girls,82.33,DQ,Katrina Mendez,Mission Sharyland,81.83,183.7,104.33,,,Single-ply,SBD,F
Girls,82.33,DQ,Watkins Virginia,Edinburg Vela,80.56,,,,,Single-ply,SBD,F
Girls,82.33,DQ,Destiney Hernandez,Edinburg North,80.2,97.52,58.97,,,Single-ply,SBD,F
Girls,82.33,DQ,Brittnay Garza,Donna,80.65,163.29,70.31,,,Single-ply,SBD,F
Girls,82.33,DQ,Jacky Ybarra,Edinburg Idea College Prep,78.56,,,,,Single-ply,SBD,F
Girls,90.04,1,Arianna Guerra,Donna,87.18,204.12,86.18,170.1,460.4,Single-ply,SBD,F
Girls,90.04,2,Mickey Castaneda,Los Fresnos,85.18,185.97,79.38,154.22,419.57,Single-ply,SBD,F
Girls,90.04,3,Arlyssa Ybarra,Donna,87,179.17,74.84,142.88,396.89,Single-ply,SBD,F
Girls,90.04,4,Alexandra Hall,Edinburg Quest College Prep,88.09,165.56,90.72,136.08,392.36,Single-ply,SBD,F
Girls,90.04,5,Megan Ayala,San Benito,89.72,170.1,74.84,140.61,385.55,Single-ply,SBD,F
Girls,90.04,6,Linda Rodriguez,Weslaco,89.99,154.22,65.77,133.81,353.8,Single-ply,SBD,F
Girls,90.04,7,Dalila Araguz,San Benito,89.99,156.49,68.04,127.01,351.53,Single-ply,SBD,F
Girls,90.04,8,Mikaela Snyder,Port Isabel,87.72,140.61,54.43,136.08,331.12,Single-ply,SBD,F
Girls,90.04,9,Nira Hinojosa,La Joya Palmview,84.46,124.74,61.23,133.81,319.78,Single-ply,SBD,F
Girls,90.04,10,Emma Hess,Edinburg Vela,84.37,124.74,79.38,113.4,317.51,Single-ply,SBD,F
Girls,90.04,11,Gabriella Alejandre,La Feria,83.01,133.81,49.9,113.4,297.1,Single-ply,SBD,F
Girls,90.04,12,Sherlyn Pena,La Joya Palmview,87.63,102.06,61.23,115.67,278.96,Single-ply,SBD,F
Girls,90.04,13,Isabel Passero,McAllen IDEA College Prep,90.04,83.91,43.09,102.06,229.06,Single-ply,SBD,F
Girls,90.04,DQ,Adriana Cavazos,Weslaco,89.45,156.49,61.23,131.54,,Single-ply,SBD,F
Girls,90.04,DQ,Caroline Hernandez,San Benito,88.72,,,,,Single-ply,SBD,F
Girls,100.02,1,Juana Bolanos,Edinburg Economedes,97.89,192.78,102.06,138.35,433.18,Single-ply,SBD,F
Girls,100.02,2,Jewelyanna Rivera,La Villa,95.8,149.69,102.06,122.47,374.21,Single-ply,SBD,F
Girls,100.02,3,Analissa Longoria,Weslaco,96.25,154.22,63.5,136.08,353.8,Single-ply,SBD,F
Girls,100.02,4,Marissa Peacock,Edinburg North,92.53,117.93,68.04,115.67,301.64,Single-ply,SBD,F
Girls,100.02,DQ,Tereza Valdez,Monte Alto,92.08,,,,,Single-ply,SBD,F
Girls,117.71,1,Roxanne Martinez,Donna,110.31,242.67,97.52,145.15,485.34,Single-ply,SBD,F
Girls,117.71,2,Brianna Larraga,Edinburg,109.41,167.83,108.86,133.81,410.5,Single-ply,SBD,F
Girls,117.71,3,Marissa Hernandez,San Benito,116.57,149.69,65.77,127.01,342.46,Single-ply,SBD,F
Girls,117.71,4,Laura Gonzalez,Edinburg North,116.03,120.2,70.31,120.2,310.71,Single-ply,SBD,F
Girls,117.71,DQ,Clarissa Perez,Weslaco,107.41,106.59,49.9,104.33,,Single-ply,SBD,F
Girls,117.71,DQ,Grace Lopez,Weslaco,101.42,,,,,Single-ply,SBD,F
Girls,117.71,DQ,Desiree Martinez,Raymondville,104.78,163.29,,,,Single-ply,SBD,F
Girls,117.71,DQ,Karla Salinas,Edinburg Vela,107.14,167.83,77.11,,,Single-ply,SBD,F
Girls,117.71,DQ,Melanie Morales,Edinburg Idea College Prep,111.13,226.8,,,,Single-ply,SBD,F
Girls,117.71+,1,Denise Gonzalez,Weslaco,125.46,136.08,45.36,154.22,335.66,Single-ply,SBD,F
Girls,117.71+,DQ,Leslie Mobtelongo,Weslaco,119.02,127.01,54.43,120.2,,Single-ply,SBD,F
