Division,WeightClassKg,Place,Name,Team,BodyweightKg,Best3SquatKg,Best3BenchKg,Best3DeadliftKg,TotalKg,Equipment,Event,Sex
Boys,51.71,1,Jose Sanchez,Gilmer,50.35,145.15,83.91,149.69,378.75,Single-ply,SBD,M
Boys,51.71,2,Davious Murrelle,Greenville,48.53,142.88,72.57,142.88,358.34,Single-ply,SBD,M
Boys,51.71,3,Jaden Brown,Paris North Lamar,51.71,106.59,65.77,151.95,324.32,Single-ply,SBD,M
Boys,51.71,4,Raul Cantu,Tyler,50.35,113.4,65.77,124.74,303.91,Single-ply,SBD,M
Boys,51.71,5,Hunter Eitel,Gilmer,51.71,102.06,54.43,142.88,299.37,Single-ply,SBD,M
Boys,51.71,6,Alan Landazuri,Quinlan Ford,50.35,92.99,72.57,113.4,278.96,Single-ply,SBD,M
Boys,51.71,7,Corbin Strain,Pattonville Prairiland,51.71,102.06,63.5,106.59,272.16,Single-ply,SBD,M
Boys,51.71,8,Mason Lejune,Lindale,49.44,97.52,49.9,115.67,263.08,Single-ply,SBD,M
Boys,51.71,9,Steven Cantu,Brownsboro,48.99,90.72,43.09,102.06,235.87,Single-ply,SBD,M
Boys,51.71,10,Carson Johnson,Paris,46.72,81.65,49.9,92.99,224.53,Single-ply,SBD,M
Boys,51.71,11,Roman Colsten,Commerce,41.28,83.91,43.09,90.72,217.72,Single-ply,SBD,M
Boys,51.71,12,Austin McCain,Sulphur Springs,39.01,61.23,36.29,70.31,167.83,Single-ply,SBD,M
Boys,55.79,1,Carter Winegeart,Tyler Lee,55.34,147.42,79.38,154.22,381.02,Single-ply,SBD,M
Boys,55.79,2,Dayce Drennan,Winnsboro,52.62,133.81,81.65,142.88,358.34,Single-ply,SBD,M
Boys,55.79,3,Alex Rodriguez,Sulphur Springs,54.43,136.08,65.77,145.15,347,Single-ply,SBD,M
Boys,55.79,4,Deuntre Adamson,Paris,53.98,129.27,72.57,138.35,340.19,Single-ply,SBD,M
Boys,55.79,5,Bryan Rodriguez,Greenville,53.52,145.15,61.23,124.74,331.12,Single-ply,SBD,M
Boys,55.79,DQ,Cody Maxie,Atlanta,54.43,,,,,Single-ply,SBD,M
Boys,55.79,DQ,Preston Booker,Honey Grove,54.43,,,,,Single-ply,SBD,M
Boys,55.79,DQ,Bryan Morris,Quitman,55.79,106.59,,,,Single-ply,SBD,M
Boys,59.87,1,Cristian Contreras,Greenville,58.97,183.7,102.06,181.44,467.2,Single-ply,SBD,M
Boys,59.87,2,Keiotti Bray,Paris,59.87,165.56,113.4,161.03,439.98,Single-ply,SBD,M
Boys,59.87,3,Daniel Landaverde,Mount Pleasant,58.06,154.22,83.91,181.44,419.57,Single-ply,SBD,M
Boys,59.87,4,Greg Page,Prosper,58.97,158.76,90.72,156.49,405.97,Single-ply,SBD,M
Boys,59.87,5,Jaidon Garrick,Lindale,58.51,140.61,79.38,165.56,385.55,Single-ply,SBD,M
Boys,59.87,6,Josh Hathorn,Melissa,56.7,138.35,86.18,158.76,383.29,Single-ply,SBD,M
Boys,59.87,7,Perry Simpson,Melissa,59.42,142.88,74.84,142.88,360.61,Single-ply,SBD,M
Boys,59.87,8,Caleb Ashley,Paris Chisum,59.42,122.47,90.72,136.08,349.27,Single-ply,SBD,M
Boys,59.87,9,Carl Shehane,Quinlan Ford,57.15,140.61,68.04,131.54,340.19,Single-ply,SBD,M
Boys,59.87,10,Jesus Barrientos,Brownsboro,57.15,111.13,74.84,142.88,328.85,Single-ply,SBD,M
Boys,59.87,11,Jabier Bocanegra,Gilmer,58.97,106.59,68.04,129.27,303.91,Single-ply,SBD,M
Boys,59.87,12,Jayden Smith,Melissa,59.87,124.74,56.7,108.86,290.3,Single-ply,SBD,M
Boys,59.87,13,Joel Ibarra,Paris Chisum,57.15,102.06,65.77,120.2,288.03,Single-ply,SBD,M
Boys,59.87,14,Kole Barrentine,Pattonville Prairiland,57.15,92.99,68.04,124.74,285.76,Single-ply,SBD,M
Boys,59.87,15,Abel Moreno,Pattonville Prairiland,59.42,106.59,56.7,122.47,285.76,Single-ply,SBD,M
Boys,59.87,DQ,Aaron Nelson,Honey Grove,58.06,,,,,Single-ply,SBD,M
Boys,67.13,1,Gage Dollins,Paris Chisum,64.41,197.31,120.2,197.31,514.83,Single-ply,SBD,M
Boys,67.13,2,Christian Garcia,Emory Rains,66.22,183.7,92.99,199.58,476.27,Single-ply,SBD,M
Boys,67.13,3,Garrett Davis,Quinlan Ford,65.77,197.31,102.06,174.63,474,Single-ply,SBD,M
Boys,67.13,4,Wesley Gage,Paris,60.78,161.03,97.52,176.9,435.45,Single-ply,SBD,M
Boys,67.13,5,Damiyon Dugan,Sulphur Springs,62.6,158.76,95.25,181.44,435.45,Single-ply,SBD,M
Boys,67.13,6,TeVarri Graves,Tyler,65.77,172.37,90.72,172.37,435.45,Single-ply,SBD,M
Boys,67.13,7,Andy Eddins,Sulphur Springs,67.13,163.29,88.45,181.44,433.18,Single-ply,SBD,M
Boys,67.13,8,Omar Villegas,Melissa,63.5,165.56,99.79,165.56,430.91,Single-ply,SBD,M
Boys,67.13,9,Jamichael Turman,Tyler Lee,67.13,170.1,99.79,158.76,428.64,Single-ply,SBD,M
Boys,67.13,10,Jaden Taylor,Lindale,61.23,161.03,88.45,176.9,426.38,Single-ply,SBD,M
Boys,67.13,11,Joe'ell Morales,Sulphur Springs,62.6,161.03,90.72,172.37,424.11,Single-ply,SBD,M
Boys,67.13,12,Jesse Carrillo,Sulphur Springs,63.96,158.76,92.99,167.83,419.57,Single-ply,SBD,M
Boys,67.13,13,Harley Sanders,Brownsboro,65.32,165.56,102.06,147.42,415.04,Single-ply,SBD,M
Boys,67.13,14,Colton Danna,Pattonville Prairiland,67.13,136.08,115.67,161.03,412.77,Single-ply,SBD,M
Boys,67.13,15,Justyn Simmons,Honey Grove,61.23,136.08,90.72,172.37,399.16,Single-ply,SBD,M
Boys,67.13,16,Austin Caldwell,Wills Point,60.78,142.88,88.45,161.03,392.36,Single-ply,SBD,M
Boys,67.13,17,Dalton Johnson,Atlanta,62.6,158.76,79.38,154.22,392.36,Single-ply,SBD,M
Boys,67.13,18,Chance Massaro,Brownsboro,62.14,151.95,90.72,142.88,385.55,Single-ply,SBD,M
Boys,67.13,19,Jesus Mendez,Emory Rains,66.22,147.42,74.84,163.29,385.55,Single-ply,SBD,M
Boys,67.13,20,Jackson Haines,Prosper,65.32,149.69,88.45,145.15,383.29,Single-ply,SBD,M
Boys,67.13,21,River Chaney,Quitman,66.22,145.15,83.91,142.88,371.95,Single-ply,SBD,M
Boys,67.13,22,Nolan Knisley,Wills Point,67.13,136.08,79.38,154.22,369.68,Single-ply,SBD,M
Boys,67.13,23,Kerrighan Smith,Commerce,61.23,145.15,90.72,131.54,367.41,Single-ply,SBD,M
Boys,67.13,24,Josh Packard,New Boston,64.41,129.27,86.18,147.42,362.87,Single-ply,SBD,M
Boys,67.13,25,Fisher Bass,Lindale,63.96,133.81,70.31,156.49,360.61,Single-ply,SBD,M
Boys,67.13,26,Bryce Gregory,Tyler Lee,66.22,127.01,79.38,147.42,353.8,Single-ply,SBD,M
Boys,67.13,27,Zeb Garrett,Paris North Lamar,66.22,111.13,70.31,167.83,349.27,Single-ply,SBD,M
Boys,67.13,28,Jordan Billions,Prosper,66.22,120.2,77.11,147.42,344.73,Single-ply,SBD,M
Boys,67.13,29,Aaron Carrillo,Quinlan Ford,64.86,108.86,83.91,149.69,342.46,Single-ply,SBD,M
Boys,67.13,30,John Carraway,Wills Point,67.13,131.54,70.31,138.35,340.19,Single-ply,SBD,M
Boys,67.13,31,Dylan Castillo,Brownsboro,63.96,113.4,68.04,156.49,337.93,Single-ply,SBD,M
Boys,67.13,32,Logan McCurley,Brownsboro,65.32,124.74,70.31,142.88,337.93,Single-ply,SBD,M
Boys,67.13,33,Jett Jones,Gilmer,62.6,131.54,74.84,129.27,335.66,Single-ply,SBD,M
Boys,67.13,34,Jamar Arceneaux,Tyler Lee,64.41,124.74,65.77,142.88,333.39,Single-ply,SBD,M
Boys,67.13,35,Tj Nickerson,Paris,66.68,136.08,72.57,124.74,333.39,Single-ply,SBD,M
Boys,67.13,36,Montrel McCarty,Paris,67.13,120.2,81.65,127.01,328.85,Single-ply,SBD,M
Boys,67.13,37,Zachariah Jefferson,Atlanta,66.68,124.74,68.04,129.27,322.05,Single-ply,SBD,M
Boys,67.13,38,Tramaine Rollerson,Paris,67.13,113.4,72.57,127.01,312.98,Single-ply,SBD,M
Boys,67.13,39,Kyd Cole,Winnsboro,63.96,113.4,65.77,115.67,294.84,Single-ply,SBD,M
Boys,67.13,40,Kanon Tangson,Paris Chisum,60.33,106.59,56.7,120.2,283.5,Single-ply,SBD,M
Boys,67.13,41,Camden Fuller,Sulphur Springs,64.86,104.33,61.23,113.4,278.96,Single-ply,SBD,M
Boys,67.13,42,Thomas Steward,Atlanta,61.23,102.06,65.77,108.86,276.69,Single-ply,SBD,M
Boys,67.13,43,Silvan Castillo,Quitman,64.41,102.06,49.9,124.74,276.69,Single-ply,SBD,M
Boys,67.13,44,Oscar Miskell,Quinlan Ford,62.6,92.99,43.09,102.06,238.14,Single-ply,SBD,M
Boys,67.13,DQ,Brian Wilson,Paris Chisum,66.68,,,,,Single-ply,SBD,M
Boys,67.13,DQ,Haydan Keller,Sulphur Springs,63.5,136.08,,,,Single-ply,SBD,M
Boys,67.13,DQ,Alejandro Vasquez,Greenville,60.78,142.88,,,,Single-ply,SBD,M
Boys,74.84,1,Andrew Magedson,Greenville,72.12,235.87,120.2,229.06,585.13,Single-ply,SBD,M
Boys,74.84,2,Carson Bridges,Sulphur Springs,71.67,192.78,99.79,204.12,496.68,Single-ply,SBD,M
Boys,74.84,3,Austin Dodd,Sulphur Springs,73.94,183.7,104.33,192.78,480.81,Single-ply,SBD,M
Boys,74.84,4,Austin Wilkison,Honey Grove,74.84,190.51,106.59,172.37,469.47,Single-ply,SBD,M
Boys,74.84,5,Sean Collins,Gilmer,68.04,197.31,95.25,174.63,467.2,Single-ply,SBD,M
Boys,74.84,6,Caden Davis,Sulphur Springs,74.84,147.42,111.13,181.44,439.98,Single-ply,SBD,M
Boys,74.84,7,Luke Wellman,Brownsboro,71.67,161.03,97.52,156.49,415.04,Single-ply,SBD,M
Boys,74.84,8,Jason Baker,Melissa,70.76,163.29,77.11,154.22,394.63,Single-ply,SBD,M
Boys,74.84,9,Jacob Yordy,Gilmer Union Hill,73.03,149.69,74.84,170.1,394.63,Single-ply,SBD,M
Boys,74.84,10,Colby Coley,Quitman,68.49,136.08,92.99,163.29,392.36,Single-ply,SBD,M
Boys,74.84,11,Daniel Benitez,Lindale,70.31,147.42,79.38,161.03,387.82,Single-ply,SBD,M
Boys,74.84,12,Lee Rowdem,Prosper,72.57,151.95,90.72,142.88,385.55,Single-ply,SBD,M
Boys,74.84,13,Marcos Molina,Brownsboro,73.94,142.88,81.65,161.03,385.55,Single-ply,SBD,M
Boys,74.84,14,Christian Ifuku,Winnsboro,70.31,154.22,86.18,140.61,381.02,Single-ply,SBD,M
Boys,74.84,15,Cameron Cox,Gilmer,73.03,145.15,86.18,147.42,378.75,Single-ply,SBD,M
Boys,74.84,16,Chance Mapps,Melissa,71.67,136.08,92.99,145.15,374.21,Single-ply,SBD,M
Boys,74.84,17,Logan Smith,New Boston,68.95,124.74,88.45,158.76,371.95,Single-ply,SBD,M
Boys,74.84,18,Kenny Campbell,Honey Grove,71.67,136.08,79.38,156.49,371.95,Single-ply,SBD,M
Boys,74.84,19,Dre Dillard,Paris,68.49,136.08,70.31,136.08,342.46,Single-ply,SBD,M
Boys,74.84,20,Quay Porter,Paris,68.95,120.2,70.31,151.95,342.46,Single-ply,SBD,M
Boys,74.84,21,Logan Minick,Winnsboro,69.4,124.74,79.38,136.08,340.19,Single-ply,SBD,M
Boys,74.84,22,Omar Ramirez,Mount Pleasant,72.12,122.47,83.91,129.27,335.66,Single-ply,SBD,M
Boys,74.84,23,Xzayveian Basham,Commerce,68.49,117.93,72.57,142.88,333.39,Single-ply,SBD,M
Boys,74.84,24,Kobe McAdoo,Winnsboro,69.85,117.93,74.84,136.08,328.85,Single-ply,SBD,M
Boys,74.84,25,Taylor Vandergriff,Brownsboro,71.21,113.4,52.16,151.95,317.51,Single-ply,SBD,M
Boys,74.84,26,Rusty Luker,Quinlan Ford,70.31,95.25,79.38,108.86,283.5,Single-ply,SBD,M
Boys,74.84,27,Gage Brewer,Wills Point,71.21,92.99,56.7,115.67,265.35,Single-ply,SBD,M
Boys,74.84,28,Keri Garner,Winnsboro,73.03,83.91,49.9,90.72,224.53,Single-ply,SBD,M
Boys,74.84,DQ,Ryan Carrillo,Sulphur Springs,69.4,151.95,,,,Single-ply,SBD,M
Boys,82.1,1,Jaxon Hevron,Paris North Lamar,81.19,238.14,138.35,233.6,610.08,Single-ply,SBD,M
Boys,82.1,2,Niko Flores,Lindale,82.1,226.8,108.86,231.33,566.99,Single-ply,SBD,M
Boys,82.1,3,Vincent Morales,Sulphur Springs,80.74,204.12,129.27,219.99,553.38,Single-ply,SBD,M
Boys,82.1,4,Lester Turner,Greenville,80.74,208.65,106.59,215.46,530.7,Single-ply,SBD,M
Boys,82.1,5,Bobby Possey,Brownsboro,76.66,208.65,108.86,210.92,528.44,Single-ply,SBD,M
Boys,82.1,6,Clayton Mosley,Atlanta,79.38,199.58,124.74,204.12,528.44,Single-ply,SBD,M
Boys,82.1,7,Dakota Grant,Simms Bowie,78.93,179.17,108.86,226.8,514.83,Single-ply,SBD,M
Boys,82.1,8,Josh Hull,Wills Point,80.74,170.1,133.81,210.92,514.83,Single-ply,SBD,M
Boys,82.1,9,Samual Martinez,Greenville,80.29,206.38,111.13,179.17,496.68,Single-ply,SBD,M
Boys,82.1,10,Trace Smith,Pattonville Prairiland,76.2,163.29,120.2,206.38,489.88,Single-ply,SBD,M
Boys,82.1,11,George Greenway,Sulphur Springs,78.02,192.78,108.86,185.97,487.61,Single-ply,SBD,M
Boys,82.1,12,Bear Soriano,Lindale,81.19,176.9,97.52,183.7,458.13,Single-ply,SBD,M
Boys,82.1,13,Landry Tyson,Sulphur Springs,78.02,170.1,102.06,170.1,442.25,Single-ply,SBD,M
Boys,82.1,14,Noah Springer,Tyler Lee,82.1,167.83,102.06,172.37,442.25,Single-ply,SBD,M
Boys,82.1,15,Terique Anderson,Lindale,77.56,172.37,79.38,181.44,433.18,Single-ply,SBD,M
Boys,82.1,16,Colton Gable,Emory Rains,80.29,174.63,92.99,161.03,428.64,Single-ply,SBD,M
Boys,82.1,17,Cabe Parham,Prosper,81.19,147.42,122.47,156.49,426.38,Single-ply,SBD,M
Boys,82.1,18,Marzavin Riles,Texarkana Liberty-Eylau,81.19,142.88,97.52,183.7,424.11,Single-ply,SBD,M
Boys,82.1,19,Shane Douglas,Pattonville Prairiland,75.75,165.56,74.84,174.63,415.04,Single-ply,SBD,M
Boys,82.1,20,Christian Tristian,Brownsboro,75.75,161.03,81.65,165.56,408.23,Single-ply,SBD,M
Boys,82.1,21,Dylan Perkins,New Boston,79.38,142.88,92.99,170.1,405.97,Single-ply,SBD,M
Boys,82.1,22,Jordan Husketh,Tyler Lee,82.1,151.95,83.91,163.29,399.16,Single-ply,SBD,M
Boys,82.1,23,Jorge López,Quinlan Ford,80.29,136.08,92.99,165.56,394.63,Single-ply,SBD,M
Boys,82.1,24,Jayvin Rodriguez,Melissa,79.83,142.88,104.33,142.88,390.09,Single-ply,SBD,M
Boys,82.1,25,Drake Wooten,Honey Grove,78.93,154.22,81.65,149.69,385.55,Single-ply,SBD,M
Boys,82.1,26,James Hinch,Emory Rains,78.02,161.03,97.52,124.74,383.29,Single-ply,SBD,M
Boys,82.1,27,Braylon Brown,Melissa,75.3,149.69,83.91,131.54,365.14,Single-ply,SBD,M
Boys,82.1,28,Trent Ortega,Paris Chisum,79.83,136.08,81.65,147.42,365.14,Single-ply,SBD,M
Boys,82.1,29,Ethan Arrington,Winnsboro,79.83,127.01,83.91,129.27,340.19,Single-ply,SBD,M
Boys,82.1,30,Trevor Gillian,Paris Chisum,78.47,113.4,79.38,138.35,331.12,Single-ply,SBD,M
Boys,82.1,31,Brayden Miller,Quitman,79.38,117.93,70.31,136.08,324.32,Single-ply,SBD,M
Boys,82.1,32,Mario Rodriguez,Mount Pleasant,79.83,115.67,61.23,140.61,317.51,Single-ply,SBD,M
Boys,82.1,33,Conderus Shears,Texarkana Liberty-Eylau,79.83,102.06,83.91,124.74,310.71,Single-ply,SBD,M
Boys,82.1,34,Sam McCarty,Quitman,79.38,113.4,65.77,117.93,297.1,Single-ply,SBD,M
Boys,82.1,35,Dustin Cotten,Winnsboro,81.19,95.25,65.77,136.08,297.1,Single-ply,SBD,M
Boys,82.1,DQ,Jared McLean,Tyler Lee,78.93,185.97,,,,Single-ply,SBD,M
Boys,89.81,1,David Bledsoe,Lindale,88,238.14,133.81,251.74,623.69,Single-ply,SBD,M
Boys,89.81,2,Hunter Moore,Paris North Lamar,89.81,235.87,136.08,235.87,607.81,Single-ply,SBD,M
Boys,89.81,3,Isaiah Askew,Commerce,83.46,217.72,111.13,215.46,544.31,Single-ply,SBD,M
Boys,89.81,4,Tucker Moman,Greenville,86.64,204.12,108.86,215.46,528.44,Single-ply,SBD,M
Boys,89.81,5,Ethan Thorton,Lindale,88.9,213.19,108.86,206.38,528.44,Single-ply,SBD,M
Boys,89.81,6,Juan Soto,Mount Pleasant,89.81,188.24,117.93,206.38,512.56,Single-ply,SBD,M
Boys,89.81,7,Casey Breece,Honey Grove,89.81,201.85,104.33,199.58,505.76,Single-ply,SBD,M
Boys,89.81,8,Joe Lewis,Prosper,87.09,181.44,124.74,183.7,489.88,Single-ply,SBD,M
Boys,89.81,9,Nick Gregory,Lindale,86.18,161.03,104.33,174.63,439.98,Single-ply,SBD,M
Boys,89.81,10,Jonathan Woods,Mount Pleasant,83.91,167.83,104.33,156.49,428.64,Single-ply,SBD,M
Boys,89.81,11,Darrell Bush,Gilmer,86.18,158.76,108.86,161.03,428.64,Single-ply,SBD,M
Boys,89.81,12,Demetry Hunter,Texarkana Liberty-Eylau,88.45,142.88,102.06,163.29,408.23,Single-ply,SBD,M
Boys,89.81,13,Jordan Russell,Paris,88.9,154.22,88.45,151.95,394.63,Single-ply,SBD,M
Boys,89.81,14,Andrew Dunn,Quitman,83.01,142.88,92.99,147.42,383.29,Single-ply,SBD,M
Boys,89.81,15,José Cortés,Pattonville Prairiland,86.64,142.88,102.06,136.08,381.02,Single-ply,SBD,M
Boys,89.81,16,Gerald Webster,Texarkana Liberty-Eylau,85.28,92.99,102.06,174.63,369.68,Single-ply,SBD,M
Boys,89.81,17,Omarhi Davis,Commerce,86.18,142.88,65.77,149.69,358.34,Single-ply,SBD,M
Boys,89.81,18,Ryder Stanberry,Quinlan Ford,89.81,127.01,92.99,136.08,356.07,Single-ply,SBD,M
Boys,89.81,19,Hunter Goodson,Sulphur Springs,86.64,106.59,74.84,142.88,324.32,Single-ply,SBD,M
Boys,89.81,20,Cameron Farmer,Brownsboro,89.81,113.4,58.97,127.01,299.37,Single-ply,SBD,M
Boys,89.81,DQ,Jordan Montalever,Emory Rains,89.36,156.49,,,,Single-ply,SBD,M
Boys,89.81,DQ,Wesley Estes,Paris Chisum,89.81,111.13,,,,Single-ply,SBD,M
Boys,99.79,1,Ty McDaniel,Lindale,97.98,276.69,145.15,265.35,687.19,Single-ply,SBD,M
Boys,99.79,2,Santiago Castillo,Lindale,91.17,199.58,117.93,217.72,535.24,Single-ply,SBD,M
Boys,99.79,3,Tyrell Jones,Tyler,97.07,183.7,138.35,199.58,521.63,Single-ply,SBD,M
Boys,99.79,4,Jon Paye,Gilmer,95.25,190.51,122.47,206.38,519.36,Single-ply,SBD,M
Boys,99.79,5,Jonah Flores,Lindale,98.43,201.85,102.06,199.58,503.49,Single-ply,SBD,M
Boys,99.79,6,Larry Green,Prosper,95.71,181.44,136.08,183.7,501.22,Single-ply,SBD,M
Boys,99.79,7,Christian Hartsfield,Tyler,95.71,183.7,111.13,204.12,498.95,Single-ply,SBD,M
Boys,99.79,8,John Bunch-Stiles,Quinlan Ford,99.79,181.44,124.74,190.51,496.68,Single-ply,SBD,M
Boys,99.79,9,Juan Martinez,Wills Point,99.79,188.24,97.52,195.04,480.81,Single-ply,SBD,M
Boys,99.79,10,Edher Oviedo,Mount Pleasant,92.99,174.63,102.06,195.04,471.74,Single-ply,SBD,M
Boys,99.79,11,Jordan Alvarez,Atlanta,94.35,179.17,108.86,181.44,469.47,Single-ply,SBD,M
Boys,99.79,12,Bladen Collom,Gilmer,96.62,181.44,92.99,185.97,460.4,Single-ply,SBD,M
Boys,99.79,13,Jay Bell,Paris,91.17,188.24,106.59,163.29,458.13,Single-ply,SBD,M
Boys,99.79,14,Caleb Kroese,Melissa,92.08,181.44,92.99,183.7,458.13,Single-ply,SBD,M
Boys,99.79,15,Cade Fant,New Boston,97.07,172.37,99.79,181.44,453.59,Single-ply,SBD,M
Boys,99.79,16,David Gamez,Honey Grove,95.25,163.29,97.52,181.44,442.25,Single-ply,SBD,M
Boys,99.79,17,Carter Renfro,Paris North Lamar,99.79,163.29,88.45,174.63,426.38,Single-ply,SBD,M
Boys,99.79,18,Jared Cowgill,Atlanta,99.79,154.22,102.06,165.56,421.84,Single-ply,SBD,M
Boys,99.79,19,Chris Clavel,Mount Pleasant,91.63,154.22,95.25,165.56,415.04,Single-ply,SBD,M
Boys,99.79,20,Jacob Hernandez,Sulphur Springs,97.07,181.44,79.38,154.22,415.04,Single-ply,SBD,M
Boys,99.79,21,Dawson Jones,Gilmer,92.53,151.95,92.99,161.03,405.97,Single-ply,SBD,M
Boys,99.79,22,Zac Baggett,Lindale,99.34,163.29,79.38,161.03,403.7,Single-ply,SBD,M
Boys,99.79,23,Lakken Stuart,Texarkana Liberty-Eylau,90.72,124.74,102.06,161.03,387.82,Single-ply,SBD,M
Boys,99.79,24,Steven Jonaitis,Sulphur Springs,92.53,138.35,83.91,158.76,381.02,Single-ply,SBD,M
Boys,99.79,25,Chandler Leo,Sulphur Springs,97.52,147.42,77.11,142.88,367.41,Single-ply,SBD,M
Boys,99.79,26,Blake Mays,Mount Pleasant,96.16,129.27,90.72,136.08,356.07,Single-ply,SBD,M
Boys,99.79,27,Zack Wilkie,Melissa,97.07,149.69,77.11,117.93,344.73,Single-ply,SBD,M
Boys,99.79,28,Caden Melton,New Boston,94.35,108.86,68.04,117.93,294.84,Single-ply,SBD,M
Boys,99.79,DQ,Cameron Norwood,Honey Grove,91.63,149.69,,,,Single-ply,SBD,M
Boys,99.79,DQ,Roberto Vasquez,Honey Grove,92.99,176.9,,,,Single-ply,SBD,M
Boys,99.79,DQ,Matt Marshall,Wills Point,93.89,,,,,Single-ply,SBD,M
Boys,109.77,1,Colton Bergt,Texarkana Liberty-Eylau,104.78,242.67,136.08,256.28,635.03,Single-ply,SBD,M
Boys,109.77,2,D'Idrec Dugan,Sulphur Springs,106.14,226.8,142.88,265.35,635.03,Single-ply,SBD,M
Boys,109.77,3,Tyler Watts,Simms Bowie,108.41,249.48,142.88,235.87,628.23,Single-ply,SBD,M
Boys,109.77,4,Rico Simon,Greenville,107.05,265.35,136.08,215.46,616.89,Single-ply,SBD,M
Boys,109.77,5,Tony Cortez,Greenville,104.33,244.94,140.61,215.46,601.01,Single-ply,SBD,M
Boys,109.77,6,Stancio Battles,New Boston,102.06,215.46,129.27,231.33,576.06,Single-ply,SBD,M
Boys,109.77,7,Jordan Gable,Emory Rains,103.87,240.4,111.13,201.85,553.38,Single-ply,SBD,M
Boys,109.77,8,George Lias,Mount Pleasant,103.87,226.8,115.67,208.65,551.11,Single-ply,SBD,M
Boys,109.77,9,James Sandifer,Lindale,101.6,213.19,108.86,217.72,539.77,Single-ply,SBD,M
Boys,109.77,10,William Cotton,Quinlan Ford,101.15,197.31,102.06,206.38,505.76,Single-ply,SBD,M
Boys,109.77,11,Jashon Pogue,Mount Pleasant,108.86,172.37,111.13,215.46,498.95,Single-ply,SBD,M
Boys,109.77,12,Jessie Hamelinck,Lindale,108.86,195.04,99.79,201.85,496.68,Single-ply,SBD,M
Boys,109.77,13,Joel Guerrero,Mount Pleasant,101.6,213.19,108.86,170.1,492.15,Single-ply,SBD,M
Boys,109.77,14,Quin Dangerfield,Paris,107.5,174.63,127.01,188.24,489.88,Single-ply,SBD,M
Boys,109.77,15,Tyrell King,Atlanta,101.6,185.97,111.13,174.63,471.74,Single-ply,SBD,M
Boys,109.77,16,Aaron Hill,New Boston,107.05,181.44,102.06,183.7,467.2,Single-ply,SBD,M
Boys,109.77,17,Drew Ezell,Gilmer,102.97,195.04,97.52,172.37,464.93,Single-ply,SBD,M
Boys,109.77,18,Jacob Moses,Gilmer,106.59,172.37,106.59,181.44,460.4,Single-ply,SBD,M
Boys,109.77,19,Anthony Peak,Commerce,108.41,183.7,102.06,156.49,442.25,Single-ply,SBD,M
Boys,109.77,20,Alexis Morales,Mount Pleasant,102.97,145.15,90.72,161.03,396.89,Single-ply,SBD,M
Boys,109.77,21,Chris Cole,Brownsboro,107.95,165.56,81.65,142.88,390.09,Single-ply,SBD,M
Boys,109.77,22,Jordan Gilberg,Gilmer,104.33,136.08,95.25,154.22,385.55,Single-ply,SBD,M
Boys,109.77,23,Jayston Jones,Commerce,107.05,142.88,92.99,142.88,378.75,Single-ply,SBD,M
Boys,109.77,24,Trustin Jones,Texarkana Liberty-Eylau,102.06,129.27,83.91,163.29,376.48,Single-ply,SBD,M
Boys,109.77,25,Jacob Humphrey,Atlanta,109.32,142.88,65.77,158.76,367.41,Single-ply,SBD,M
Boys,109.77,26,Chase Dillard,Paris Chisum,109.77,136.08,68.04,145.15,349.27,Single-ply,SBD,M
Boys,109.77,27,Reginald Woodside,Texarkana Liberty-Eylau,104.78,102.06,74.84,154.22,331.12,Single-ply,SBD,M
Boys,109.77,28,Logan Hawkins,Paris Chisum,106.59,102.06,83.91,133.81,319.78,Single-ply,SBD,M
Boys,109.77,29,Jason Pineda,Quinlan Ford,102.06,113.4,72.57,129.27,315.25,Single-ply,SBD,M
Boys,109.77,30,Dakota Roberts,Winnsboro,105.23,97.52,61.23,104.33,263.08,Single-ply,SBD,M
Boys,124.74,1,Ian Blanch,Sulphur Springs,110.68,272.16,147.42,240.4,659.98,Single-ply,SBD,M
Boys,124.74,2,Matt Edwards,Lindale,120.66,244.94,147.42,235.87,628.23,Single-ply,SBD,M
Boys,124.74,3,Carson Shaffer,Prosper,124.28,219.99,183.7,210.92,614.62,Single-ply,SBD,M
Boys,124.74,4,Beaux Limmer,Tyler Lee,116.12,213.19,156.49,219.99,589.67,Single-ply,SBD,M
Boys,124.74,5,Cason Cheney,Lindale,124.28,238.14,127.01,210.92,576.06,Single-ply,SBD,M
Boys,124.74,6,Samuel Meneses,Tyler,124.28,244.94,122.47,204.12,571.53,Single-ply,SBD,M
Boys,124.74,7,Jesus Olivo,Sulphur Springs,123.38,242.67,117.93,204.12,564.72,Single-ply,SBD,M
Boys,124.74,8,Jace Phillips #1,Lindale,113.85,219.99,115.67,204.12,539.77,Single-ply,SBD,M
Boys,124.74,9,Grant Newton,Winnsboro,116.57,229.06,136.08,170.1,535.24,Single-ply,SBD,M
Boys,124.74,10,Matthew Bryant,Quinlan Ford,111.58,226.8,111.13,190.51,528.44,Single-ply,SBD,M
Boys,124.74,11,Victor Sanchez,New Boston,111.13,204.12,124.74,192.78,521.63,Single-ply,SBD,M
Boys,124.74,12,Nate Kuehn,Tyler Lee,120.66,199.58,113.4,199.58,512.56,Single-ply,SBD,M
Boys,124.74,13,Kevin Castillo,Quinlan Ford,110.22,188.24,115.67,206.38,510.29,Single-ply,SBD,M
Boys,124.74,14,Kutter Walker,Simms Bowie,112.49,195.04,111.13,195.04,501.22,Single-ply,SBD,M
Boys,124.74,15,Victor Esparza,Honey Grove,114.31,201.85,106.59,188.24,496.68,Single-ply,SBD,M
Boys,124.74,16,Spencer Ayers,Brownsboro,121.11,190.51,111.13,183.7,485.34,Single-ply,SBD,M
Boys,124.74,17,Carson Stokes,Tyler Lee,119.29,204.12,102.06,176.9,483.08,Single-ply,SBD,M
Boys,124.74,18,Ivan Elizando,Mount Pleasant,113.4,181.44,99.79,197.31,478.54,Single-ply,SBD,M
Boys,124.74,19,Austin Terry,Gilmer,124.74,181.44,102.06,190.51,474,Single-ply,SBD,M
Boys,124.74,20,Jacob Gonzales,Wills Point,112.49,192.78,92.99,181.44,467.2,Single-ply,SBD,M
Boys,124.74,21,Francisco Martinez,Atlanta,110.22,167.83,102.06,188.24,458.13,Single-ply,SBD,M
Boys,124.74,22,Wyatt Green,Brownsboro,117.03,183.7,99.79,163.29,446.79,Single-ply,SBD,M
Boys,124.74,23,Whitt Rogers,Simms Bowie,117.03,183.7,97.52,158.76,439.98,Single-ply,SBD,M
Boys,124.74,24,Jakob Majors,Prosper,122.02,183.7,97.52,156.49,437.72,Single-ply,SBD,M
Boys,124.74,25,Josh Gamble,Texarkana Liberty-Eylau,110.68,142.88,115.67,124.74,383.29,Single-ply,SBD,M
Boys,124.74,26,Daymian Diaz,Tyler,112.04,151.95,77.11,145.15,374.21,Single-ply,SBD,M
Boys,124.74,27,Alex Medina,Sulphur Springs,111.13,215.46,102.06,,317.51,Single-ply,SB,M
Boys,124.74,28,Luke Hohenberger,Paris North Lamar,112.94,111.13,70.31,124.74,306.17,Single-ply,SBD,M
Boys,124.74,DQ,Quinton Williams,Prosper,122.92,136.08,,,,Single-ply,SBD,M
Boys,124.74,DQ,Connor Green,Texarkana Liberty-Eylau,117.48,208.65,,,,Single-ply,SBD,M
Boys,124.74+,1,Logan DeGarso,Greenville,146.96,283.5,145.15,208.65,637.3,Single-ply,SBD,M
Boys,124.74+,2,Devon King,Gilmer,140.16,244.94,145.15,244.94,635.03,Single-ply,SBD,M
Boys,124.74+,3,Lucas Stephenson,Simms Bowie,129.73,249.48,133.81,235.87,619.15,Single-ply,SBD,M
Boys,124.74+,4,Joey Haley,Paris North Lamar,125.19,215.46,140.61,244.94,601.01,Single-ply,SBD,M
Boys,124.74+,5,Blake Olivares,Gilmer,130.18,235.87,129.27,215.46,580.6,Single-ply,SBD,M
Boys,124.74+,6,Matthew Davis,Lindale,168.74,238.14,117.93,215.46,571.53,Single-ply,SBD,M
Boys,124.74+,7,John McCurdy,Winnsboro,136.98,226.8,154.22,188.24,569.26,Single-ply,SBD,M
Boys,124.74+,8,Brian Blackwell,Melissa,130.18,199.58,108.86,183.7,492.15,Single-ply,SBD,M
Boys,124.74+,9,Chandler Williams,Honey Grove,142.88,190.51,99.79,195.04,485.34,Single-ply,SBD,M
Boys,124.74+,10,Blake Denson,Mount Pleasant,127.46,181.44,102.06,195.04,478.54,Single-ply,SBD,M
Boys,124.74+,11,Matao Jacinto,Quinlan Ford,169.64,181.44,111.13,181.44,474,Single-ply,SBD,M
Boys,124.74+,12,Joshua McClaskey,Tyler Lee,139.71,183.7,106.59,172.37,462.66,Single-ply,SBD,M
Boys,124.74+,13,Riley Miner,Paris North Lamar,135.17,156.49,111.13,188.24,455.86,Single-ply,SBD,M
Boys,124.74+,14,Jaelin Williams,Texarkana Liberty-Eylau,170.1,190.51,92.99,158.76,442.25,Single-ply,SBD,M
Boys,124.74+,15,Luke Sandifer,Lindale,128.37,154.22,90.72,172.37,417.3,Single-ply,SBD,M
Boys,124.74+,16,Cody Rutherford,New Boston,131.09,142.88,92.99,181.44,417.3,Single-ply,SBD,M
Boys,124.74+,17,Alfredo Olaride,Sulphur Springs,143.34,149.69,74.84,174.63,399.16,Single-ply,SBD,M
Boys,124.74+,18,Bodee Robinson,Paris North Lamar,134.26,83.91,83.91,158.76,326.59,Single-ply,SBD,M
Boys,124.74+,19,Garrick Felsberg,Paris North Lamar,127.01,104.33,81.65,,185.97,Single-ply,SB,M
