Division,WeightClassKg,Place,Name,Team,BodyweightKg,Best3SquatKg,Best3BenchKg,Best3DeadliftKg,TotalKg,Equipment,Event,Sex
Boys,51.71,1,Bryan Cunningham,Port Neches-Groves,50.8,106.59,52.16,113.4,272.16,Single-ply,SBD,M
Boys,55.79,1,Tristan Douget,Port Neches-Groves,54.43,106.59,61.23,102.06,269.89,Single-ply,SBD,M
Boys,59.87,1,James Scott,Beaumont Central,59.87,127.01,70.31,124.74,322.05,Single-ply,SBD,M
Boys,59.87,2,Dominigue Johnson,Beaumont Central,56.25,111.13,61.23,113.4,285.76,Single-ply,SBD,M
Boys,67.13,3,Kaid Scroggs,Port Neches-Groves,60.06,97.52,56.7,111.13,265.35,Single-ply,SBD,M
Boys,67.13,1,D McHenry,Beaumont Central,64.41,142.88,83.91,129.27,356.07,Single-ply,SBD,M
Boys,67.13,2,Jacob Smith,Port Neches-Groves,67.13,124.74,86.18,106.59,317.51,Single-ply,SBD,M
Boys,67.13,3,Jordan Hargrave,Port Neches-Groves,64.86,113.4,74.84,120.2,308.44,Single-ply,SBD,M
Boys,67.13,4,Harold Redo,Beaumont Central,65.77,104.33,56.7,127.01,288.03,Single-ply,SBD,M
Boys,74.84,1,Ian Stoute,Lumberton,73.48,185.97,127.01,199.58,512.56,Single-ply,SBD,M
Boys,74.84,2,Taylor Millican,Lumberton,74.66,154.22,113.4,172.37,439.98,Single-ply,SBD,M
Boys,74.84,3,Rodney Kinchen,Port Arthur Memorial,74.39,142.88,111.13,163.29,417.3,Single-ply,SBD,M
Boys,74.84,4,Taylor Miller,Lumberton,71.94,142.88,104.33,149.69,396.89,Single-ply,SBD,M
Boys,74.84,DQ,Blane Hoffpauir,Lumberton,69.85,,,,,Single-ply,SBD,M
Boys,74.84,DQ,Kaid Guilbeaux,Port Neches-Groves,68.95,,,,,Single-ply,SBD,M
Boys,82.1,1,Ben Ramirez,Port Neches-Groves,80.29,174.63,102.06,165.56,442.25,Single-ply,SBD,M
Boys,82.1,2,Davian Smith,Beaumont Central,81.19,165.56,124.74,142.88,433.18,Single-ply,SBD,M
Boys,82.1,3,Brant Halfin,Port Neches-Groves,80.74,170.1,97.52,163.29,430.91,Single-ply,SBD,M
Boys,82.1,DQ,Reginald Allison,Beaumont Central,76.66,113.4,,,,Single-ply,SBD,M
Boys,89.81,1,Khaylon Johnson,Port Arthur Memorial,85.73,142.88,145.15,167.83,455.86,Single-ply,SBD,M
Boys,89.81,2,Trayce Gray,Lumberton,83.46,163.29,104.33,170.1,437.72,Single-ply,SBD,M
Boys,89.81,DQ,Zach Griffin,Beaumont Central,89.81,,,,,Single-ply,SBD,M
Boys,99.79,1,Selch Fontenot,Port Arthur Memorial,97.98,192.78,142.88,197.31,532.97,Single-ply,SBD,M
Boys,99.79,2,Dante Louilotte,Port Arthur Memorial,94.35,172.37,113.4,204.12,489.88,Single-ply,SBD,M
Boys,99.79,3,Zach Kellas,Lumberton,92.99,172.37,102.06,181.44,455.86,Single-ply,SBD,M
Boys,99.79,4,Justin Knight,Lumberton,94.35,158.76,108.86,170.1,437.72,Single-ply,SBD,M
Boys,99.79,5,Terry Oliver,Port Arthur Memorial,95.71,136.08,113.4,172.37,421.84,Single-ply,SBD,M
Boys,109.77,6,Casey Williams,Port Arthur Memorial,99.97,149.69,104.33,163.29,417.3,Single-ply,SBD,M
Boys,109.77,7,Khaleb Fobish,Port Arthur Memorial,99.97,142.88,104.33,167.83,415.04,Single-ply,SBD,M
Boys,99.79,8,Aj Parker,Beaumont Central,92.53,124.74,111.13,154.22,390.09,Single-ply,SBD,M
Boys,109.77,1,Nick Valentine,Port Neches-Groves,107.95,197.31,113.4,179.17,489.88,Single-ply,SBD,M
Boys,109.77,2,Jaron Johnson,Port Arthur Memorial,101.15,142.88,102.06,183.7,428.64,Single-ply,SBD,M
Boys,109.77,3,Daniel Gillis,Beaumont Central,107.05,122.47,113.4,149.69,385.55,Single-ply,SBD,M
Boys,109.77,DQ,Louis Brown,Beaumont Central,102.06,181.44,,,,Single-ply,SBD,M
Boys,124.74,1,Tyler Moran,Port Neches-Groves,116.12,215.46,165.56,197.31,578.33,Single-ply,SBD,M
Boys,124.74,2,Kaden Brown,Lumberton,117.21,172.37,113.4,172.37,458.13,Single-ply,SBD,M
Boys,124.74,3,Jayvon Wright,Port Arthur Memorial,112.49,170.1,102.06,181.44,453.59,Single-ply,SBD,M
Boys,124.74,4,Lloyd Allums,Beaumont Central,111.13,127.01,115.67,174.63,417.3,Single-ply,SBD,M
Boys,124.74,DQ,Brandon Jackson,Port Arthur Memorial,112.49,142.88,,,,Single-ply,SBD,M
Boys,124.74+,1,Chris Mangini,Port Neches-Groves,131.54,238.14,147.42,238.14,623.69,Single-ply,SBD,M
Boys,124.74+,2,Chase Flores,Lumberton,136.98,192.78,129.27,208.65,530.7,Single-ply,SBD,M
Boys,124.74+,3,Vernon Samuels,Port Arthur Memorial,144.7,183.7,136.08,208.65,528.44,Single-ply,SBD,M
Boys,124.74+,4,Mikael Cisneros,Lumberton,139.71,188.24,124.74,190.51,503.49,Single-ply,SBD,M
Boys,124.74+,5,Michael Helms,Lumberton,137.89,183.7,97.52,183.7,464.93,Single-ply,SBD,M
Boys,124.74+,6,Brandon Artis,Port Arthur Memorial,136.08,147.42,102.06,158.76,408.23,Single-ply,SBD,M
Boys,124.74+,DQ,Jeremiah Washington,Port Arthur Memorial,127.01,,,,,Single-ply,SBD,M
