Name,Sex,Division,BirthDate,Age,WeightClassKg,BodyweightKg,Country,Squat1Kg,Squat2Kg,Squat3Kg,Best3SquatKg,Squat4Kg,Bench1Kg,Bench2Kg,Bench3Kg,Best3BenchKg,Bench4Kg,Deadlift1Kg,Deadlift2Kg,Deadlift3Kg,Best3DeadliftKg,Deadlift4Kg,TotalKg,Tested,Event,Equipment,Place
Elena Bondarchuk,F,Open,1980-06-18,38,56,55.8,Russia,85,90,95,95,,50,-55,-55,50,,102.5,107.5,112.5,112.5,,257.5,No,SBD,Raw,1
Nika Velial,F,Open,1992-11-25,26,60,59.4,Russia,95,105,115,115,,-85,85,-92.5,85,,120,132.5,142.5,142.5,,342.5,No,SBD,Raw,1
Magdalena Malcherek,F,Juniors 20-23,1998-04-24,20,67.5,63.7,Poland,-130,130,-135,130,,65,72.5,-80,72.5,,140,150,157.5,157.5,,360,No,SBD,Raw,1
Mariya Petryakova,F,Open,1984-08-26,34,67.5,67.5,Russia,80,85,87.5,87.5,,45,-50,50,50,,110,120,122.5,122.5,,260,No,SBD,Raw,1
Victoriya Doga,F,Open,1982-09-04,36,75,74.9,Russia,132.5,140,147.5,147.5,,100,106,-110,106,,177.5,192.5,-197.5,192.5,,446,No,SBD,Raw,1
Sergey Markevich,M,Open,1982-03-31,36,82.5,77.3,Russia,-130,130,-150,130,,95,-102.5,-102.5,95,,150,-160,-160,150,,375,No,SBD,Raw,1
Anton Rusalenko,M,Open,1987-10-22,31,100,93.7,Russia,220,235,-242.5,235,,162.5,172.5,177.5,177.5,,265,285,300,300,,712.5,No,SBD,Raw,1
Ilya Kotov,M,Open,1992-07-21,26,100,97.4,Russia,235,-245,-245,235,,155,160,-165,160,,250,262.5,270,270,,665,No,SBD,Raw,2
Kirill Osherov,M,Open,1990-01-27,28,100,97.1,Russia,-220,-220,-220,,,-140,,,,,-230,,,,,,No,SBD,Raw,DQ
Dmitriy Grinev,M,Masters 40-44,1977-05-16,41,100,99,Russia,210,230,-240,230,,160,165,170,170,,260,-275,-275,260,,660,No,SBD,Raw,1
Mikhail Khorev,M,Open,1980-03-19,38,110,105.7,Russia,240,-250,250,250,,160,170,-175,170,,-290,-290,290,290,,710,No,SBD,Raw,1
Nikita Shilkin,M,Open,1991-07-15,27,110,107.8,Russia,210,220,-225,220,,185,192.5,197.5,197.5,,210,220,230,230,,647.5,No,SBD,Raw,2
Sagar Gurve,M,Juniors 20-23,1996-01-04,22,60,57.8,India,160,180,185,185,200,90,100,102.5,102.5,-105,180,195,200,200,,487.5,No,SBD,Wraps,1
Nikita Plushunov,M,Open,1994-05-12,24,82.5,80.8,Russia,220,235,245,245,,140,155,-162.5,155,,200,215,222.5,222.5,,622.5,No,SBD,Wraps,1
Sergey Dolgushin,M,Open,1992-07-23,26,82.5,80.2,Russia,185,200,212.5,212.5,,130,142.5,-150,142.5,,200,217.5,225,225,,580,No,SBD,Wraps,2
Rajat Dalal,M,Juniors 20-23,1996-01-12,22,90,87.1,India,250,-265,270,270,,140,-150,-150,140,,290,302.5,-317.5,302.5,,712.5,No,SBD,Wraps,1
Abdul Popalzay,M,Open,1993-04-11,25,90,87.7,Russia,180,190,200,200,,110,125,-135,125,,-210,230,250,250,,575,No,SBD,Wraps,1
Alexandr Gyurdzhdi,M,Masters 40-44,1974-07-12,44,90,89.4,Russia,-180,-200,-200,,,-140,,,,,-210,,,,,,No,SBD,Wraps,DQ
Mohammed Azamatulla,M,Open,1977-11-23,41,100,98.7,India,225,237.5,,237.5,,140,-150,155,155,,200,,,200,,592.5,No,SBD,Wraps,1
Mohammed Azamatulla,M,Masters 40-44,1977-11-23,41,100,98.7,India,225,237.5,,237.5,,140,-150,155,155,,200,,,200,,592.5,No,SBD,Wraps,1
Andrey Gerun,M,Masters 45-49,1971-02-02,47,100,96.9,Russia,160,180,195,195,,115,-125,125,125,,190,210,220,220,,540,No,SBD,Wraps,1
Yanek Martin,M,Open,1986-04-14,32,110,110,Russia,275,290,300,300,,180,190,195,195,,260,280,-290,280,,775,No,SBD,Wraps,1
Dmitriy Zaplavskiy,M,Open,1984-09-17,34,125,112.3,Russia,255,-265,-270,255,,-160,167.5,-172.5,167.5,,260,267.5,272.5,272.5,,695,No,SBD,Wraps,1
Shivanand Raghavendra,M,Open,1980-11-15,38,140,126.7,India,295,-310,310,310,,140,-150,150,150,,290,-300,,290,,750,No,SBD,Wraps,1
Khosrow Rostami,M,Open,1979-08-07,39,67.5,67.4,Iran,130,150,180,180,,100,120,137.5,137.5,,130,160,185,185,,502.5,No,SBD,Single-ply,1
Oleg Pivovarov,M,Open,1963-03-18,55,110,108.8,Russia,240,260,-280,260,,205,212.5,-220,212.5,,230,250,,250,,722.5,No,SBD,Single-ply,1
Oleg Pivovarov,M,Masters 55-59,1963-03-18,55,110,108.8,Russia,240,260,-280,260,,205,212.5,-220,212.5,,230,250,,250,,722.5,No,SBD,Single-ply,1
Bhavna Shah,F,Open,1976-05-16,42,44,42.7,India,,,,,,25,27.5,30,30,32.5,,,,,,30,No,B,Raw,1
Bhavna Shah,F,Masters 40-44,1976-05-16,42,44,42.7,India,,,,,,25,27.5,30,30,32.5,,,,,,30,No,B,Raw,1
Olga Bachmaga,F,Open,1985-09-23,33,52,50.7,Russia,,,,,,65,70,-75,70,,,,,,,70,No,B,Raw,1
Koralewska Halas,F,Open,1987-06-10,31,60,59.9,Poland,,,,,,122.5,127.5,130,130,-131,,,,,,130,No,B,Raw,1
Dmitriy Lelyuk,M,Teen 13-15,2003-01-28,15,48,44.6,Russia,,,,,,-40,45,50,50,,,,,,,50,No,B,Raw,1
Luchian Peledutse,M,Teen 13-15,2004-08-16,14,60,57.3,Russia,,,,,,50,55,57.5,57.5,,,,,,,57.5,No,B,Raw,1
Mostafa Poursalehifathabadi,M,Juniors 20-23,1997-09-16,21,67.5,66.5,Iran,,,,,,70,80,100,100,,,,,,,100,No,B,Raw,1
Daniel Rusu,M,Teen 13-15,2003-09-03,15,75,69.3,Russia,,,,,,-70,70,75,75,,,,,,,75,No,B,Raw,1
Vladimir Berdnikov,M,Open,1987-02-25,31,75,74.3,Russia,,,,,,145,-155,-160,145,,,,,,,145,No,B,Raw,1
Aleksey Klushin,M,Open,1981-04-03,37,75,73.2,Russia,,,,,,130,135,-140,135,,,,,,,135,No,B,Raw,2
Aleksandr Sidorkin,M,Open,1986-11-10,32,75,73.6,Russia,,,,,,110,-120,-120,110,,,,,,,110,No,B,Raw,3
Maksim Visotskiy,M,Open,1987-05-26,31,82.5,82.2,Russia,,,,,,-120,125,-130,125,,,,,,,125,No,B,Raw,1
Nikita Kashkin,M,Juniors 20-23,1995-02-21,23,90,88.7,Russia,,,,,,160,170,-180,170,,,,,,,170,No,B,Raw,1
Ilya Snegkov,M,Open,1989-12-06,29,90,90,Russia,,,,,,200,-205,-205,200,,,,,,,200,No,B,Raw,1
Roman Odnovol,M,Masters 40-44,1977-07-21,41,90,88.3,Russia,,,,,,170,180,-187.5,180,,,,,,,180,No,B,Raw,1
Asaf Akhmedov,M,Masters 50-54,1965-07-23,53,90,84.6,Russia,,,,,,130,135,-140,135,,,,,,,135,No,B,Raw,1
Denis Lazarev,M,Teen 13-15,2003-09-02,15,100,97.7,Russia,,,,,,75,-80,80,80,,,,,,,80,No,B,Raw,1
Vyacheslav Komarov,M,Open,1992-11-11,26,100,98.7,Russia,,,,,,190,200,-205,200,,,,,,,200,No,B,Raw,1
Yuriy Zhoglo,M,Open,1990-04-29,28,100,98.6,Russia,,,,,,-170,170,-185,170,,,,,,,170,No,B,Raw,2
Anton Belov,M,Open,1985-03-24,33,100,97.8,Russia,,,,,,-210,,,,,,,,,,,No,B,Raw,DQ
Alexander Trifonov,M,Masters 40-44,1976-12-04,42,100,98.9,Russia,,,,,,180,190,195,195,,,,,,,195,No,B,Raw,1
Sergey Titkov,M,Masters 45-49,1973-09-22,45,100,94.7,Russia,,,,,,140,-147.5,-147.5,140,,,,,,,140,No,B,Raw,1
Natig Aliev,M,Masters 50-54,1964-02-07,54,100,96.5,Russia,,,,,,180,195,-205,195,,,,,,,195,No,B,Raw,1
Aleksandr Petrov,M,Masters 55-59,1960-07-17,58,100,97.3,Russia,,,,,,180,185,190,190,,,,,,,190,No,B,Raw,1
Aleksandr Kiryanov,M,Open,1975-04-15,43,110,107.8,Russia,,,,,,235,240,-245,240,,,,,,,240,No,B,Raw,1
Bakhtiyar Abdulayev,M,Open,1981-07-24,37,110,109,Azerbaijan,,,,,,205,210,-215,210,,,,,,,210,No,B,Raw,2
Artem Pechnykov,M,Open,1988-03-16,30,110,108.2,Russia,,,,,,190,195,197.5,197.5,,,,,,,197.5,No,B,Raw,3
Alexey Denisyuk,M,Open,1987-04-04,31,110,104.4,Russia,,,,,,-170,-170,,,,,,,,,,No,B,Raw,DQ
Andrey Zaykin,M,Open,1984-01-21,34,110,107.7,Russia,,,,,,-110,,,,,,,,,,,No,B,Raw,DQ
Maksim Ovechkin,M,Masters 40-44,1976-05-02,42,110,108.1,Russia,,,,,,195,-200,-200,195,,,,,,,195,No,B,Raw,1
Andrey Ilyin,M,Masters 40-44,1976-06-28,42,110,107,Russia,,,,,,165,172.5,180,180,,,,,,,180,No,B,Raw,2
Andrei Kabantseff,M,Masters 40-44,1976-11-20,42,110,104.7,Estonia,,,,,,145,162.5,-172.5,162.5,,,,,,,162.5,No,B,Raw,3
Sam Faezirazi,M,Masters 45-49,1971-08-22,47,110,107.4,Iran,,,,,,140,147.5,150,150,,,,,,,150,No,B,Raw,1
Alexey Azartsov,M,Masters 45-49,1973-02-03,45,110,106.7,Russia,,,,,,110,-120,-120,110,,,,,,,110,No,B,Raw,2
Iakov Berman,M,Open,1972-06-22,46,125,111,Israel,,,,,,180,190,-200,190,,,,,,,190,No,B,Raw,1
Iakov Berman,M,Masters 45-49,1972-06-22,46,125,111,Israel,,,,,,180,,,180,,,,,,,180,No,B,Raw,1
Alexey Shishov,M,Masters 45-49,1973-03-21,45,125,122.3,Russia,,,,,,150,,,150,,,,,,,150,No,B,Raw,2
Petr Bogomaz,M,Masters 60-64,1957-05-24,61,125,122,Russia,,,,,,155,160,-165,160,,,,,,,160,No,B,Raw,1
Sergey Mironov,M,Masters 45-49,1973-07-09,45,140,129.5,Russia,,,,,,200,210,-215,210,,,,,,,210,No,B,Raw,1
Denis Akimov,M,Open,1988-07-28,30,82.5,81.2,Russia,,,,,,160,-170,-175,160,,,,,,,160,No,B,Single-ply,1
Petr Klevanniy,M,Open,1980-11-11,38,90,88.9,Russia,,,,,,-190,-190,-190,,,,,,,,,No,B,Single-ply,DQ
Aleksandr Anfarovich,M,Masters 55-59,1961-12-03,57,90,82.7,Russia,,,,,,115,-120,120,120,,,,,,,120,No,B,Single-ply,1
Konstantin Kravtsov,M,Open,1982-10-26,36,100,97.8,Russia,,,,,,220,225,-230,225,,,,,,,225,No,B,Single-ply,1
Sergey Starodubskiy,M,Masters 40-44,1977-12-20,,125,122.4,Russia,,,,,,260,275,287.5,287.5,,,,,,,287.5,No,B,Multi-ply,1
Bhavna Shah,F,Open,1976-05-16,42,44,42.7,India,,,,,,,,,,,60,65,67.5,67.5,,67.5,No,D,Raw,1
Bhavna Shah,F,Masters 40-44,1976-05-16,42,44,42.7,India,,,,,,,,,,,60,65,67.5,67.5,,67.5,No,D,Raw,1
Bhanu Majiziya,F,Open,1990-12-01,28,56,54.6,India,,,,,,,,,,,-140,150,-155,150,,150,No,D,Raw,1
Viktoriya Ablaeva,F,Open,1983-05-08,35,75,72.2,Russia,,,,,,,,,,,215,-230,-230,215,,215,No,D,Raw,1
Ekaterina Popova,F,Open,1979-07-07,39,82.5,78.1,Russia,,,,,,,,,,,135,145,155,155,,155,No,D,Raw,1
Aaniya Ahmed,F,Juniors 20-23,1995-04-12,23,90,85.6,India,,,,,,,,,,,130,140,145,145,,145,No,D,Raw,1
Sagar Gurve,M,Juniors 20-23,1996-01-04,22,60,57.8,India,,,,,,,,,,,180,195,200,200,,200,No,D,Raw,1
Mostafa Poursalehifathabadi,M,Juniors 20-23,1997-09-16,21,67.5,66.5,Iran,,,,,,,,,,,170,185,190,190,,190,No,D,Raw,1
Maksim Sukhobok,M,Masters 50-54,1965-01-01,53,67.5,64.8,Russia,,,,,,,,,,,205,212.5,217.5,217.5,,217.5,No,D,Raw,1
Varad Patil,M,Open,1988-06-06,30,75,74,India,,,,,,,,,,,215,230,-240,230,,230,No,D,Raw,1
Evgeniy Sellyahov,M,Juniors 20-23,1996-08-26,22,82.5,81.3,Russia,,,,,,,,,,,245,255,262.5,262.5,,262.5,No,D,Raw,1
Pavel Zubkov,M,Open,1985-12-22,,82.5,81.2,Russia,,,,,,,,,,,260,280,-290,280,,280,No,D,Raw,1
Pavel Amelchenkov,M,Open,1984-02-24,34,82.5,80.6,Russia,,,,,,,,,,,-230,,,,,,No,D,Raw,DQ
Rajat Dalal,M,Juniors 20-23,1996-01-12,22,90,87.1,India,,,,,,,,,,,290,302.5,-317.5,302.5,,302.5,No,D,Raw,1
Denis Volkov,M,Open,1988-09-28,30,90,83.7,Russia,,,,,,,,,,,210,220,-230,220,,220,No,D,Raw,1
Mohammed Azamatulla,M,Open,1977-11-23,41,100,98.7,India,,,,,,,,,,,200,,,200,,200,No,D,Raw,1
Mohammed Azamatulla,M,Masters 40-44,1977-11-23,41,100,98.7,India,,,,,,,,,,,200,,,200,,200,No,D,Raw,1
Sergey Titkov,M,Masters 45-49,1973-09-22,45,100,94.7,Russia,,,,,,,,,,,-180,180,195,195,,195,No,D,Raw,1
Sandeep Kothari,M,Open,1979-03-21,39,110,109.5,India,,,,,,,,,,,270,-290,-290,270,,270,No,D,Raw,1
Mostafa Ranjbar,M,Open,1990-03-22,28,125,110.9,Iran,,,,,,,,,,,340,-377.5,-377.5,340,,340,No,D,Raw,1
Shivanand Raghavendra,M,Open,1980-11-15,38,140,126.7,India,,,,,,,,,,,290,,,290,,290,No,D,Raw,1
Yuriy Demyanchuk,M,Masters 40-44,1978-10-03,40,140,128.1,Russia,,,,,,,,,,,280,,,280,,280,No,D,Raw,1
Peiman Maheripourehir,M,Open,1987-05-10,31,140+,149.1,Iran,,,,,,,,,,,392.5,400,-405,400,,400,No,D,Raw,1
Kseniya Avdeeva,F,Amateur Open,1993-01-21,25,48,46.7,Russia,65,-67.5,,65,,42.5,45,,45,,75,80,90,90,,200,Yes,SBD,Raw,1
Dmitriy Basantsov,M,Amateur Juniors 20-23,1997-08-11,21,60,59.4,Russia,120,125,130,130,,70,77.5,-80,77.5,,160,-170,-170,160,,367.5,Yes,SBD,Raw,1
Denis Papenko,M,Amateur Juniors 20-23,1997-04-07,21,67.5,66.6,Russia,165,-175,-175,165,,115,-120,120,120,,215,225,232.5,232.5,,517.5,Yes,SBD,Raw,1
Valeriy Anisimov,M,Amateur Juniors 20-23,1998-03-21,20,75,74.1,Russia,175,180,187.5,187.5,,117.5,122.5,127.5,127.5,,195,207.5,217.5,217.5,,532.5,Yes,SBD,Raw,1
Alexandr Osokin,M,Amateur Juniors 20-23,1995-03-22,23,75,74.9,Russia,140,-150,-150,140,,110,-117.5,-117.5,110,,180,-185,-185,180,,430,Yes,SBD,Raw,2
Varad Patil,M,Amateur Open,1988-06-06,30,75,74,India,190,200,,200,,125,135,,135,,210,230,,230,,565,Yes,SBD,Raw,1
Sergey Orlov,M,Amateur Open,1989-06-15,29,75,73.2,Russia,-160,-170,-170,,,-100,,,,,-160,,,,,,Yes,SBD,Raw,DQ
Nikita Drozdov,M,Amateur Open,1987-01-18,31,82.5,80.1,Russia,135,145,152.5,152.5,,85,95,-105,95,,155,170,185,185,,432.5,Yes,SBD,Raw,1
Maksim Ushakov,M,Amateur Masters 45-49,1973-05-22,45,82.5,79.5,Russia,125,132.5,135,135,,-100,105,-107.5,105,,155,-165,-170,155,,395,Yes,SBD,Raw,1
Viktor Chalenko,M,Amateur Open,1987-12-04,31,90,89.4,Russia,215,225,230,230,,140,152.5,-157.5,152.5,,240,247.5,252.5,252.5,,635,Yes,SBD,Raw,1
Pavel Gerchoglo,M,Amateur Open,1989-08-10,29,90,90,Russia,205,215,222.5,222.5,,140,152.5,160,160,,205,220,230,230,,612.5,Yes,SBD,Raw,2
Denis Savelyev,M,Amateur Open,1983-03-14,35,90,88.6,Russia,155,175,-185,175,,115,122.5,127.5,127.5,,190,-210,215,215,,517.5,Yes,SBD,Raw,3
Sergey Lovyagin,M,Amateur Open,1984-08-30,34,90,88.1,Russia,-200,-200,-200,,,-115,,,,,-255,,,,,,Yes,SBD,Raw,DQ
Arsen Akopyan,M,Amateur Masters 45-49,1970-06-23,48,90,90,Russia,170,175,180,180,,-120,127.5,130,130,,205,210,215,215,,525,Yes,SBD,Raw,1
Evgeniy Kaminskiy,M,Amateur Open,1991-06-07,27,100,92.8,Russia,220,-230,230,230,,145,-152.5,152.5,152.5,,250,275,-290,275,,657.5,Yes,SBD,Raw,1
Alexey Arsenov,M,Amateur Open,1982-12-02,36,100,98.3,Russia,185,192.5,200,200,,140,-150,150,150,,195,217.5,225,225,,575,Yes,SBD,Raw,2
Denis Shulga,M,Amateur Masters 40-44,1978-01-23,40,100,95.4,Russia,165,-175,-175,165,,115,122.5,-130,122.5,,175,195,-210,195,,482.5,Yes,SBD,Raw,1
Evgeniy Monahov,M,Amateur Masters 45-49,1972-11-23,46,100,99.3,Russia,215,230,235,235,,-157.5,157.5,-162.5,157.5,,-250,260,-280,260,,652.5,Yes,SBD,Raw,1
Mikhail Nagaybakov,M,Amateur Masters 65-69,1953-03-25,65,100,95.8,Kazakhstan,100,110,120,120,,105,110,,110,,120,135,140,140,,370,Yes,SBD,Raw,1
Ivan Kuznetsov,M,Amateur Open,1984-11-16,34,110,101.1,Russia,150,165,175,175,,120,130,135,135,,165,180,190,190,,500,Yes,SBD,Raw,1
Anatoliy Polevoj,M,Amateur Open,1990-10-04,28,125,116.9,Russia,240,250,260,260,,190,200,-205,200,,280,300,,300,,760,Yes,SBD,Raw,1
Igor Vershinin,M,Amateur Masters 45-49,1973-01-12,45,125,123,Russia,200,210,220,220,,195,205,215,215,,240,260,270,270,,705,Yes,SBD,Raw,1
Bhavna Shah,F,Amateur Open,1976-05-16,42,44,42.7,India,60,65,-67.5,65,,25,27.5,30,30,32.5,60,65,67.5,67.5,,162.5,Yes,SBD,Wraps,1
Bhavna Shah,F,Amateur Masters 40-44,1976-05-16,42,44,42.7,India,60,65,-67.5,65,,25,27.5,30,30,32.5,60,65,67.5,67.5,,162.5,Yes,SBD,Wraps,1
Liliya Kingagulova,F,Amateur Open,1973-07-03,45,48,44.6,Russia,-90,90,95,95,,57.5,60,62.5,62.5,,115,120,-125,120,,277.5,Yes,SBD,Wraps,1
Irina Belousova,F,Amateur Open,1977-11-01,41,48,47.1,Russia,100,-110,-110,100,,47.5,50,52.5,52.5,,110,-120,-120,110,,262.5,Yes,SBD,Wraps,2
Liliya Kingagulova,F,Amateur Masters 45-49,1973-07-03,45,48,44.6,Russia,-90,90,95,95,,57.5,60,62.5,62.5,,115,120,-125,120,,277.5,Yes,SBD,Wraps,1
Bhanu Majiziya,F,Amateur Open,1990-12-01,28,56,54.6,India,125,-140,140,140,,55,-57.5,57.5,57.5,,-140,150,-155,150,,347.5,Yes,SBD,Wraps,1
Ekaterina Kurdykova,F,Amateur Open,1981-10-07,37,75,73.3,Russia,100,-105,-110,100,,52.5,-57.5,,52.5,,130,140,-145,140,,292.5,Yes,SBD,Wraps,1
Elena Ilyina,F,Amateur Open,1987-04-06,31,82.5,81.9,Russia,-100,105,-110,105,,50,-52.5,-52.5,50,,115,120,-125,120,,275,Yes,SBD,Wraps,1
Aaniya Ahmed,F,Amateur Juniors 20-23,1995-04-12,23,90,85.6,India,105,115,-125,115,,60,-67.5,-67.5,60,,130,140,145,145,,320,Yes,SBD,Wraps,1
Alexey Smetankin,M,Amateur Teen 13-15,2008-09-26,10,60,58.6,Russia,40,45,50,50,,32.5,37.5,-40,37.5,,60,65,70,70,,157.5,Yes,SBD,Wraps,1
Varad Patil,M,Amateur Open,1988-06-06,30,75,74,India,215,225,-240,225,,130,-135,,130,,215,230,-240,230,,585,Yes,SBD,Wraps,1
Daljeet Singh,M,Amateur Open,1979-10-01,39,90,87.3,India,215,230,-245,230,,115,-125,-125,115,,220,240,-245,240,,585,Yes,SBD,Wraps,1
Igor Schekotov,M,Amateur Open,1987-03-12,31,90,86.6,Russia,195,-210,-210,195,,-115,115,-120,115,,195,200,205,205,,515,Yes,SBD,Wraps,2
Singh Vikasdeep,M,Amateur Juniors 20-23,1998-10-27,20,100,95.8,India,-210,210,-225,210,,100,110,-115,110,,210,230,-245,230,,550,Yes,SBD,Wraps,1
Singh Herjit,M,Amateur Open,1993-10-21,25,100,98.6,India,160,-180,180,180,,100,107.5,-115,107.5,,210,230,-240,230,,517.5,Yes,SBD,Wraps,1
Ivan Grigoriev,M,Amateur Open,1993-04-22,25,110,107.7,Russia,225,235,245,245,,125,132.5,140,140,,225,-235,235,235,,620,Yes,SBD,Wraps,1
Nikita Tulyakov,M,Amateur Open,1988-02-23,30,125,111.2,Russia,230,240,250,250,,170,-177.5,-177.5,170,,260,275,-290,275,,695,Yes,SBD,Wraps,1
Evgeniy Spesivtsev,M,Amateur Open,1992-05-29,26,125,121.6,Russia,220,-240,-240,220,,-140,150,-160,150,,220,230,235,235,,605,Yes,SBD,Wraps,2
Bhavesh Dabhani,M,Amateur Juniors 20-23,1995-05-17,23,82.5,82.1,India,200,-210,-210,200,,130,145,-160,145,,190,205,-210,205,,550,Yes,SBD,Single-ply,1
Bhavna Shah,F,Amateur Open,1976-05-16,42,44,42.7,India,,,,,,-25,,,,,,,,,,,Yes,B,Raw,DQ
Bhavna Shah,F,Amateur Masters 40-44,1976-05-16,42,44,42.7,India,,,,,,-25,,,,,,,,,,,Yes,B,Raw,DQ
Tatyana Babaeva,F,Amateur Open,2000-02-15,18,48,48,Russia,,,,,,65,-70,70,70,,,,,,,70,Yes,B,Raw,1
Nina Polyakova,F,Amateur Open,1989-10-12,29,52,51.3,Russia,,,,,,50,-55,-55,50,,,,,,,50,Yes,B,Raw,1
Olga Bachmaga,F,Amateur Open,1985-09-23,33,52,50.7,Russia,,,,,,-72.5,-77.5,-77.5,,,,,,,,,Yes,B,Raw,DQ
Olga Sergeeva,F,Amateur Open,1993-09-16,25,56,55.6,Russia,,,,,,-57.5,62.5,-65,62.5,,,,,,,62.5,Yes,B,Raw,1
Mariya Verenikina,F,Amateur Open,1985-10-14,33,56,55.6,Russia,,,,,,-62.5,-62.5,62.5,62.5,,,,,,,62.5,Yes,B,Raw,2
Lyubov Smirnova,F,Amateur Open,1999-09-06,19,56,52.6,Russia,,,,,,42.5,45,-47.5,45,,,,,,,45,Yes,B,Raw,3
Anastasiya Chinchiley,F,Amateur Juniors 20-23,1997-10-06,21,60,58.6,Russia,,,,,,52.5,57.5,-60,57.5,,,,,,,57.5,Yes,B,Raw,1
Mariya Orlova,F,Amateur Open,1986-04-28,32,60,57.6,Russia,,,,,,32.5,-37.5,-37.5,32.5,,,,,,,32.5,Yes,B,Raw,1
Sofia Koroleva,F,Amateur Teen 16-17,2001-07-13,17,67.5,63.8,Russia,,,,,,55,60,-65,60,,,,,,,60,Yes,B,Raw,1
Anastasiya Mindlina,F,Amateur Juniors 20-23,1996-06-09,22,67.5,65.3,Russia,,,,,,85,87.5,-90,87.5,,,,,,,87.5,Yes,B,Raw,1
Marina Lukyanova,F,Amateur Open,1972-02-09,46,67.5,65.2,Russia,,,,,,97.5,102.5,-105,102.5,,,,,,,102.5,Yes,B,Raw,1
Yuliya Makarova,F,Amateur Masters 45-49,1969-06-30,49,67.5,65.1,Russia,,,,,,70,75,-77.5,75,,,,,,,75,Yes,B,Raw,1
Marina Suntsova,F,Amateur Open,1985-12-23,,75,72.3,Russia,,,,,,62.5,67.5,70,70,,,,,,,70,Yes,B,Raw,1
Marina Nyktieva,F,Amateur Open,1988-01-02,30,75,69.5,Russia,,,,,,45,-50,-50,45,,,,,,,45,Yes,B,Raw,2
Nikita Korobeynikov,M,Amateur Teen 13-15,2006-08-09,12,44,40,Russia,,,,,,47.5,50,-52.5,50,,,,,,,50,Yes,B,Raw,1
Aleksandr Kuznetsov,M,Amateur Open,1993-12-16,,60,59.2,Russia,,,,,,-130,130,-132.5,130,,,,,,,130,Yes,B,Raw,1
Abbos Bekov,M,Amateur Open,1993-07-22,25,60,60,Russia,,,,,,110,115,117.5,117.5,,,,,,,117.5,Yes,B,Raw,2
Grigoriy Ungakov,M,Amateur Teen 13-15,2003-04-09,15,67.5,62.9,Russia,,,,,,70,75,80,80,,,,,,,80,Yes,B,Raw,1
Daniil Bogomaz,M,Amateur Teen 13-15,2004-10-28,14,67.5,62,Russia,,,,,,57.5,-62.5,-62.5,57.5,,,,,,,57.5,Yes,B,Raw,2
Evgeniy Zaharov,M,Amateur Open,1990-08-20,28,67.5,67.2,Russia,,,,,,127.5,142.5,-145,142.5,,,,,,,142.5,Yes,B,Raw,1
Ivan Nudniy,M,Amateur Open,1993-04-13,25,67.5,67,Russia,,,,,,130,-142.5,-142.5,130,,,,,,,130,Yes,B,Raw,2
Evgeniy Chubatiy,M,Amateur Open,1990-11-07,28,67.5,65.4,Russia,,,,,,105,107.5,110,110,,,,,,,110,Yes,B,Raw,3
Denis Shentsev,M,Amateur Open,1988-01-08,30,67.5,66.7,Russia,,,,,,-82.5,85,-90,85,,,,,,,85,Yes,B,Raw,4
Kirill Zalozhnev,M,Amateur Juniors 20-23,1998-05-09,20,75,72.7,Russia,,,,,,117.5,120,-125,120,,,,,,,120,Yes,B,Raw,1
Maksim Gurtovoi,M,Amateur Open,1984-11-27,34,75,72.2,Russia,,,,,,125,135,137.5,137.5,,,,,,,137.5,Yes,B,Raw,1
Ivan Karpov,M,Amateur Open,1987-12-09,31,75,73.2,Russia,,,,,,120,-135,135,135,,,,,,,135,Yes,B,Raw,2
Alexandr Deev,M,Amateur Open,1986-07-22,32,75,74.5,Russia,,,,,,125,130,135,135,,,,,,,135,Yes,B,Raw,3
Sergey Mokrushin,M,Amateur Open,1984-07-25,34,75,74.6,Russia,,,,,,122.5,135,-140,135,,,,,,,135,Yes,B,Raw,4
Alexander Volikov,M,Amateur Open,1989-01-03,29,75,72.6,Russia,,,,,,120,127.5,-135,127.5,,,,,,,127.5,Yes,B,Raw,5
Vladimir Yushin,M,Amateur Open,1993-06-16,25,75,72.2,Russia,,,,,,105,112.5,-117.5,112.5,,,,,,,112.5,Yes,B,Raw,6
Artashes Sivkov,M,Amateur Open,1982-06-26,36,75,73.8,Russia,,,,,,-115,-117.5,-117.5,,,,,,,,,Yes,B,Raw,DQ
Sergey Gurkovskiy,M,Amateur Open,1990-08-17,28,82.5,81.5,Russia,,,,,,150,155,160,160,,,,,,,160,Yes,B,Raw,1
Dmirtiy Kasatkin,M,Amateur Open,1981-06-08,37,82.5,80,Russia,,,,,,135,-145,145,145,,,,,,,145,Yes,B,Raw,2
Igor Rogachev,M,Amateur Open,1994-08-07,24,82.5,82,Russia,,,,,,140,145,-147.5,145,,,,,,,145,Yes,B,Raw,3
Vladimir Silivonec,M,Amateur Open,1986-04-22,32,82.5,81.4,Russia,,,,,,-140,-140,140,140,,,,,,,140,Yes,B,Raw,4
Denis Avdonin,M,Amateur Open,1990-09-15,28,82.5,81,Russia,,,,,,137.5,-145,-145,137.5,,,,,,,137.5,Yes,B,Raw,5
Renat Izmaylov,M,Amateur Open,1993-12-01,25,82.5,80.4,Russia,,,,,,135,-140,-140,135,,,,,,,135,Yes,B,Raw,6
Pavel Golubotskikh,M,Amateur Open,1985-08-09,33,82.5,80.5,Russia,,,,,,127.5,132.5,135,135,,,,,,,135,Yes,B,Raw,7
Sergey Buslayev,M,Amateur Open,1991-07-09,27,82.5,81.1,Russia,,,,,,-122.5,122.5,-127.5,122.5,,,,,,,122.5,Yes,B,Raw,8
Dmitriy Sergeev,M,Amateur Open,1987-02-12,31,82.5,80.9,Russia,,,,,,120,-125,-127.5,120,,,,,,,120,Yes,B,Raw,9
Ivan Martsenyuk,M,Amateur Open,1988-02-19,30,82.5,81.1,Russia,,,,,,120,-127.5,-127.5,120,,,,,,,120,Yes,B,Raw,10
Maksim Afonin,M,Amateur Masters 40-44,1975-07-22,43,82.5,80.2,Russia,,,,,,110,120,-125,120,,,,,,,120,Yes,B,Raw,1
Dmitriy Evlashev,M,Amateur Masters 50-54,1967-03-21,51,82.5,78.5,Russia,,,,,,-107.5,107.5,-120,107.5,,,,,,,107.5,Yes,B,Raw,1
Samir-Alexandru Marian,M,Amateur Juniors 20-23,1998-06-26,20,90,89.9,Russia,,,,,,132.5,142.5,152.5,152.5,,,,,,,152.5,Yes,B,Raw,1
Singh Gursimran,M,Amateur Juniors 20-23,1998-07-22,20,90,90,India,,,,,,-117.5,117.5,127.5,127.5,,,,,,,127.5,Yes,B,Raw,2
Ilya Strizhakov,M,Amateur Open,1994-04-28,24,90,88.7,Russia,,,,,,-140,140,145,145,,,,,,,145,Yes,B,Raw,1
Dmitriy Kamshilin,M,Amateur Open,1984-06-20,34,90,89.7,Russia,,,,,,137.5,142.5,-145,142.5,,,,,,,142.5,Yes,B,Raw,2
Igor Suharev,M,Amateur Open,1989-12-20,,90,88.6,Russia,,,,,,132.5,137.5,-140,137.5,,,,,,,137.5,Yes,B,Raw,3
David Osipov,M,Amateur Open,1994-02-03,24,90,88.2,Russia,,,,,,125,135,-145,135,,,,,,,135,Yes,B,Raw,4
Daniil Markin,M,Amateur Open,1990-12-22,,90,87.5,Russia,,,,,,-132.5,132.5,-152.5,132.5,,,,,,,132.5,Yes,B,Raw,5
Dmitriy Sverdlov,M,Amateur Open,1990-04-20,28,90,88.3,Russia,,,,,,120,127.5,-132.5,127.5,,,,,,,127.5,Yes,B,Raw,6
Vladimir Bastamov,M,Amateur Open,1988-11-18,30,90,88.1,Russia,,,,,,115,-125,-125,115,,,,,,,115,Yes,B,Raw,7
Alexey Rachkov,M,Amateur Open,1984-05-13,34,90,88.7,Russia,,,,,,-152.5,-152.5,-152.5,,,,,,,,,Yes,B,Raw,DQ
Evgeniy Solovyov,M,Amateur Open,1989-07-07,29,90,89.3,Russia,,,,,,-125,-125,-125,,,,,,,,,Yes,B,Raw,DQ
Vyacheslav Volkov,M,Amateur Masters 45-49,1971-11-13,47,90,90,Russia,,,,,,162.5,172.5,180,180,,,,,,,180,Yes,B,Raw,1
Gennadiy Sorokin,M,Amateur Masters 55-59,1959-09-08,59,90,89.8,Russia,,,,,,145,-152.5,-152.5,145,,,,,,,145,Yes,B,Raw,1
Ivan Serdykov,M,Amateur Juniors 20-23,1995-07-07,23,100,100,Russia,,,,,,-165,170,-185,170,,,,,,,170,Yes,B,Raw,1
Ruslan Izmaylov,M,Amateur Juniors 20-23,1997-01-18,21,100,97.5,Russia,,,,,,145,150,-152.5,150,,,,,,,150,Yes,B,Raw,2
Andrey Makarkin,M,Amateur Open,1980-02-20,38,100,99.3,Russia,,,,,,185,192.5,-197.5,192.5,,,,,,,192.5,Yes,B,Raw,1
Yuriy Smorodinov,M,Amateur Open,1982-12-13,36,100,98.1,Russia,,,,,,155,162.5,167.5,167.5,,,,,,,167.5,Yes,B,Raw,2
Andrey Babenkov,M,Amateur Open,1991-07-16,27,100,91.7,Russia,,,,,,130,140,-150,140,,,,,,,140,Yes,B,Raw,3
Sergey Pigrov,M,Amateur Masters 40-44,1978-06-03,40,100,95.3,Russia,,,,,,157.5,160,162.5,162.5,,,,,,,162.5,Yes,B,Raw,1
Aleksandr Serov,M,Amateur Masters 40-44,1974-09-25,44,100,97.9,Russia,,,,,,145,155,-160,155,,,,,,,155,Yes,B,Raw,2
Andrey Kondrushin,M,Amateur Masters 40-44,1976-10-20,42,100,94,Russia,,,,,,145,150,-157.5,150,,,,,,,150,Yes,B,Raw,3
Igor Lebedev,M,Amateur Masters 40-44,1977-02-11,41,100,97.9,Russia,,,,,,135,145,-155,145,,,,,,,145,Yes,B,Raw,4
Alexey Lileev,M,Amateur Masters 45-49,1972-09-03,46,100,98.6,Russia,,,,,,140,150,155,155,,,,,,,155,Yes,B,Raw,1
Mikhail Nagaybakov,M,Amateur Masters 65-69,1953-03-25,65,100,95.8,Kazakhstan,,,,,,105,110,,110,,,,,,,110,Yes,B,Raw,1
Igor Korneev,M,Amateur Open,1981-06-05,37,110,106.4,Russia,,,,,,150,-155,155,155,,,,,,,155,Yes,B,Raw,1
Aleksey Markov,M,Amateur Masters 40-44,1977-02-26,41,110,106.6,Russia,,,,,,140,145,150,150,,,,,,,150,Yes,B,Raw,1
Victor Gruntov,M,Amateur Masters 45-49,1972-05-27,46,110,107,Russia,,,,,,170,180,185,185,,,,,,,185,Yes,B,Raw,1
Artem Bezpalenko,M,Amateur Open,1990-03-21,28,125,111.8,Russia,,,,,,175,190,-195,190,,,,,,,190,Yes,B,Raw,1
Vladimir Seleznev,M,Amateur Open,1977-05-09,41,125,123.6,Russia,,,,,,180,-187.5,-187.5,180,,,,,,,180,Yes,B,Raw,2
Artur Popov,M,Amateur Open,1993-09-08,25,125,122.5,Estonia,,,,,,165,175,177.5,177.5,,,,,,,177.5,Yes,B,Raw,3
Vadim Korzinkin,M,Amateur Open,1983-03-26,35,125,119.4,Russia,,,,,,165,172.5,-175,172.5,,,,,,,172.5,Yes,B,Raw,4
Vladimir Seleznev,M,Amateur Masters 40-44,1977-05-09,41,125,123.6,Russia,,,,,,180,-187.5,-187.5,180,,,,,,,180,Yes,B,Raw,1
Sergey Gnezdilov,M,Amateur Masters 40-44,1974-07-21,44,125,116,Russia,,,,,,165,-170,-170,165,,,,,,,165,Yes,B,Raw,2
Igor Bichkov,M,Amateur Masters 45-49,1970-06-18,48,125,116.4,Russia,,,,,,170,172.5,175,175,,,,,,,175,Yes,B,Raw,1
Petr Bogomaz,M,Amateur Masters 60-64,1957-05-24,61,125,122,Russia,,,,,,-170,-170,-170,,,,,,,,,Yes,B,Raw,DQ
Alexey Belikov,M,Amateur Masters 40-44,1977-10-28,41,140,137.5,Russia,,,,,,175,182.5,187.5,187.5,,,,,,,187.5,Yes,B,Raw,1
Masih Simon,M,Amateur Teen 16-17,2002-03-15,16,75,71.5,India,,,,,,150,160,167.5,167.5,172.5,,,,,,167.5,Yes,B,Single-ply,1
Alexey Schuplov,M,Amateur Open,1979-09-11,39,90,88.8,Russia,,,,,,200,215,-230,215,,,,,,,215,Yes,B,Single-ply,1
Alexey Schuplov,M,Amateur Open,1979-09-11,39,90,88.8,Russia,,,,,,-200,,,,,,,,,,,Yes,B,Single-ply,DQ
Alexey Figol,M,Amateur Open,1973-01-26,45,100,98.3,Russia,,,,,,-180,-180,-180,,,,,,,,,Yes,B,Single-ply,DQ
Singh Gursimran,M,Amateur Juniors 20-23,1998-07-22,20,90,90,India,,,,,,165,175,-180,175,,,,,,,175,Yes,B,Multi-ply,1
Alexey Schuplov,M,Amateur Open,1979-09-11,39,90,88.8,Russia,,,,,,200,215,-230,215,,,,,,,215,Yes,B,Multi-ply,1
Guzel Kirillova,F,Amateur Open,1987-04-15,31,44,43.7,Russia,,,,,,,,,,,112.5,127.5,130,130,,130,Yes,D,Raw,1
Ekaterina Filippova,F,Amateur Open,1985-12-21,,44,43.4,Russia,,,,,,,,,,,85,90,95,95,,95,Yes,D,Raw,2
Polina Maksimova,F,Amateur Open,1989-08-25,29,52,52,Russia,,,,,,,,,,,85,92.5,100,100,,100,Yes,D,Raw,1
Mariya Verenikina,F,Amateur Open,1985-10-14,33,56,55.6,Russia,,,,,,,,,,,-110,122.5,130,130,,130,Yes,D,Raw,1
Svetlana Romanova,F,Amateur Masters 45-49,1970-07-25,48,56,55.1,Russia,,,,,,,,,,,105,110,112.5,112.5,,112.5,Yes,D,Raw,1
Anastasiya Starodubtseva,F,Amateur Open,1992-10-22,26,60,57.9,Russia,,,,,,,,,,,110,115,120,120,,120,Yes,D,Raw,1
Olga Moskaeva,F,Amateur Open,1981-10-18,37,60,56.9,Russia,,,,,,,,,,,100,110,115,115,,115,Yes,D,Raw,2
Yana Yakovleva,F,Amateur Open,1993-02-02,25,60,58.8,Russia,,,,,,,,,,,-100,100,-105,100,,100,Yes,D,Raw,3
Alexandra Faturova,F,Amateur Open,1987-06-10,31,60,59.3,Russia,,,,,,,,,,,90,95,97.5,97.5,,97.5,Yes,D,Raw,4
Anna Malisheva,F,Amateur Masters 40-44,1978-07-06,40,60,60,Russia,,,,,,,,,,,90,97.5,110,110,,110,Yes,D,Raw,1
Anastasiya Agaeva,F,Amateur Teen 16-17,2001-06-20,17,67.5,66.1,Russia,,,,,,,,,,,80,-85,-85,80,,80,Yes,D,Raw,1
Yuliya Makarova,F,Amateur Open,1969-06-30,49,67.5,65.1,Russia,,,,,,,,,,,140,-150,-157.5,140,,140,Yes,D,Raw,1
Ekaterina Evgrafova,F,Amateur Open,1982-07-21,36,67.5,63.3,Russia,,,,,,,,,,,85,95,-102.5,95,,95,Yes,D,Raw,2
Mariya Mardonova,F,Amateur Open,1979-09-17,39,75,69.9,Russia,,,,,,,,,,,90,-100,-100,90,,90,Yes,D,Raw,1
Irina Zmievskaya,F,Amateur Open,1988-11-17,30,75,70,Russia,,,,,,,,,,,80,85,90,90,,90,Yes,D,Raw,2
Ekaterina Grigorovskaya,F,Amateur Masters 45-49,1969-09-01,49,75,71.9,Russia,,,,,,,,,,,122.5,127.5,130,130,,130,Yes,D,Raw,1
Svetlana Solovyova,F,Amateur Masters 45-49,1972-06-16,46,75,73.5,Russia,,,,,,,,,,,95,105,110,110,,110,Yes,D,Raw,2
Albina Kamaletdinova,F,Amateur Masters 45-49,1969-01-24,49,75,72.9,Russia,,,,,,,,,,,80,90,-100,90,,90,Yes,D,Raw,3
Anna Samsonova,F,Amateur Open,1983-04-10,35,82.5,82.1,Russia,,,,,,,,,,,100,110,-115,110,,110,Yes,D,Raw,1
Nataliya Belozerova,F,Amateur Open,1980-04-02,38,82.5,79.6,Russia,,,,,,,,,,,-85,90,105,105,,105,Yes,D,Raw,2
Vadim Anahin,M,Amateur Juniors 20-23,1996-08-30,22,60,59.6,Russia,,,,,,,,,,,150,172.5,185,185,,185,Yes,D,Raw,1
Pavel Yakovlev,M,Amateur Juniors 20-23,1996-06-06,22,60,59.8,Russia,,,,,,,,,,,160,172.5,-185,172.5,,172.5,Yes,D,Raw,2
Dmitriy Basantsov,M,Amateur Juniors 20-23,1997-08-11,21,60,59.4,Russia,,,,,,,,,,,160,-170,-170,160,,160,Yes,D,Raw,3
Denis Papenko,M,Amateur Juniors 20-23,1997-04-07,21,67.5,66.6,Russia,,,,,,,,,,,220,225,232.5,232.5,,232.5,Yes,D,Raw,1
Dyulustan Dellohov,M,Amateur Juniors 20-23,1996-12-02,22,75,73.9,Russia,,,,,,,,,,,190,202.5,-207.5,202.5,,202.5,Yes,D,Raw,1
Yuriy Lukonin,M,Amateur Open,1990-04-27,28,75,71.3,Russia,,,,,,,,,,,250,265,-272.5,265,,265,Yes,D,Raw,1
Andrey Sosnovskiy,M,Amateur Open,1987-03-09,31,75,74.5,Russia,,,,,,,,,,,192.5,202.5,207.5,207.5,,207.5,Yes,D,Raw,2
Andrey Fomushkin,M,Amateur Open,1994-07-15,24,75,73.9,Russia,,,,,,,,,,,192.5,-202.5,-202.5,192.5,,192.5,Yes,D,Raw,3
Mikhail Buyanov,M,Amateur Masters 40-44,1974-11-18,44,75,74.4,Russia,,,,,,,,,,,200,210,220,220,,220,Yes,D,Raw,1
Vladimir Shemelev,M,Amateur Masters 55-59,1961-04-02,57,75,74.6,Russia,,,,,,,,,,,190,-200,200,200,,200,Yes,D,Raw,1
Mikhail Votincev,M,Amateur Juniors 20-23,1996-12-15,,82.5,79.3,Russia,,,,,,,,,,,205,-215,,205,,205,Yes,D,Raw,1
Aleksey Shevchenko,M,Amateur Open,1992-07-27,26,82.5,81.9,Russia,,,,,,,,,,,245,255,-260,255,,255,Yes,D,Raw,1
Sergey Gurkovskiy,M,Amateur Open,1990-08-17,28,82.5,81.5,Russia,,,,,,,,,,,220,230,235,235,,235,Yes,D,Raw,2
Anton Bengardt,M,Amateur Open,1990-01-15,28,82.5,81.5,Russia,,,,,,,,,,,195,215,-232.5,215,,215,Yes,D,Raw,3
Dmitriy Sichevoy,M,Amateur Open,1988-03-02,30,82.5,81.2,Russia,,,,,,,,,,,175,-185,-185,175,,175,Yes,D,Raw,4
Aleksandr Skurtu,M,Amateur Masters 45-49,1973-11-17,45,82.5,82.5,Russia,,,,,,,,,,,185,200,215,215,,215,Yes,D,Raw,1
Evgeniy Sibilev,M,Amateur Masters 45-49,1970-03-08,48,82.5,81.2,Russia,,,,,,,,,,,-170,,,,,,Yes,D,Raw,DQ
Ivan Isaev,M,Amateur Teen 18-19,1999-07-28,19,90,86.4,Russia,,,,,,,,,,,132.5,145,155,155,,155,Yes,D,Raw,1
Sergey Gorbunov,M,Amateur Open,1991-11-13,27,90,87.2,Russia,,,,,,,,,,,255,265,-270,265,,265,Yes,D,Raw,1
Kirill Lomanov,M,Amateur Open,1987-07-15,31,90,89.4,Russia,,,,,,,,,,,-302.5,-312.5,-322.5,,,,Yes,D,Raw,DQ
Ivan Manko,M,Amateur Masters 40-44,1977-03-16,41,90,89,Russia,,,,,,,,,,,205,-215,222.5,222.5,,222.5,Yes,D,Raw,1
Artur Dyakin,M,Amateur Masters 50-54,1966-08-02,52,90,88.8,Russia,,,,,,,,,,,175,185,-195,185,,185,Yes,D,Raw,1
Nikolay Kobozev,M,Amateur Masters 60-64,1957-12-05,61,90,87.2,Russia,,,,,,,,,,,190,210,-222.5,210,,210,Yes,D,Raw,1
Igor Khovanets,M,Amateur Masters 60-64,1957-01-07,61,90,87.6,Russia,,,,,,,,,,,145,152.5,-160,152.5,,152.5,Yes,D,Raw,2
Igor Bulaev,M,Amateur Juniors 20-23,1997-04-13,21,100,93.6,Russia,,,,,,,,,,,-202.5,-210,210,210,,210,Yes,D,Raw,1
Oleg Sergeev,M,Amateur Open,1986-04-26,32,100,98.8,Russia,,,,,,,,,,,-235,245,255,255,,255,Yes,D,Raw,1
Maxim Gordopolov,M,Amateur Open,1987-09-24,31,100,92.6,Russia,,,,,,,,,,,250,-267.5,-267.5,250,,250,Yes,D,Raw,2
Mikhail Nagaybakov,M,Amateur Masters 65-69,1953-03-25,65,100,95.8,Kazakhstan,,,,,,,,,,,120,135,140,140,,140,Yes,D,Raw,1
Oleg Mashoshin,M,Amateur Open,1983-02-21,35,110,105.2,Russia,,,,,,,,,,,200,207.5,215,215,,215,Yes,D,Raw,1
Yuriy Mhitaryan,M,Amateur Open,1982-12-17,,125,119.6,Russia,,,,,,,,,,,230,247.5,,247.5,,247.5,Yes,D,Raw,1
Sergey Gnezdilov,M,Amateur Masters 40-44,1974-07-21,44,125,116,Russia,,,,,,,,,,,225,235,-245,235,,235,Yes,D,Raw,1
Sergey Lukyanov,M,Amateur Masters 60-64,1955-10-25,63,125,114.7,Russia,,,,,,,,,,,170,180,-200,180,,180,Yes,D,Raw,1
Stanislav Seleznev,M,Amateur Open,1981-08-31,37,140+,151.4,Russia,,,,,,,,,,,290,300,-310,300,,300,Yes,D,Raw,1
