Event,Sex,Division,WeightClassKg,Best3BenchKg,Bench4Kg,Best3DeadliftKg,Deadlift4Kg,TotalKg,Name,State,Equipment,Place
B,M,Class 1,82.5,125,,,,125,Todd Wechsler,AZ,Single-ply,1
B,M,Class 1,110,182.5,,,,182.5,Justin Bennett,AZ,Single-ply,2
B,M,Class 1,110,190,,,,190,Lance Biggs,AZ,Single-ply,1
B,M,Class 1,125,165,,,,165,Gene Cameron,AZ,Single-ply,1
B,M,Juniors 20-25,125,187.5,,,,187.5,Vijay Maulit,AZ,Single-ply,1
B,M,Juniors 20-25,140+,142.5,,,,142.5,Devin Del Vecchio,AZ,Single-ply,1
B,M,Masters 40-46,82.5,162.5,,,,162.5,Chad Medina,NM,Single-ply,1
B,M,Masters 40-46,90,265,,,,265,Matt LaMarque,California,Single-ply,1
B,M,Masters 40-46,125,205,,,,205,Eric Patterson,AZ,Single-ply,1
B,M,Masters 47-53,60,100,,,,100,Chip Fjelstad,AZ,Single-ply,1
B,M,Masters 47-53,90,205,,,,205,Bryon Brubaker,California,Single-ply,1
B,M,Masters 54-60,75,215,,,,215,Alfredo Evangelista,OR,Single-ply,1
B,M,Masters 54-60,90,95,,,,95,Craig Gustafson,NV,Single-ply,1
B,M,Masters 61-67,82.5,67.5,,,,67.5,Geoffrey Eroe,AZ,Single-ply,1
B,M,Masters 61-67,100,142.5,,,,142.5,Charles Folinus,AZ,Single-ply,1
B,M,Masters 61-67,110,80,,,,80,Tom Matlock,AZ,Single-ply,1
B,M,Masters 61-67,140,102.5,,,,102.5,Edward Lucas,AZ,Single-ply,1
B,M,Masters 68-74,56,85,87.5,,,85,Gary Nye Schwebs,NV,Multi-ply,1
B,M,Masters 68-74,82.5,130,,,,130,Dan Hofeditz,AZ,Multi-ply,1
B,M,Masters 68-74,110,107.5,110,,,107.5,Ed Marshall,AZ,Single-ply,2
B,M,Masters 68-74,110,160,173,,,160,Daniel Smith III,California,Single-ply,1
B,M,Masters 75-79,82.5,125,,,,125,William Prince,NV,Multi-ply,1
B,M,Masters 75-79,90,52.5,,,,52.5,Donald Judd,AZ,Single-ply,1
B,M,Masters 75-79,110,97.5,,,,97.5,Gene Lawrence,AZ,Single-ply,1
B,M,Masters 85-89,110,102.5,,,,102.5,Walter Richter,AZ,Single-ply,1
B,M,Open,75,215,,,,215,Alfredo Evangelista,OR,Single-ply,1
B,M,Open,90,265,,,,265,Matt LaMarque,California,Single-ply,1
B,M,Open,125,200,,,,200,Nick Rowland,AZ,Single-ply,1
B,M,Submasters 33-39,125,117.5,,,,117.5,Charles Scott,NV,Single-ply,1
B,M,Teen 12-13,44,38,,,,38,Rigdon Judd,AZ,Single-ply,1
B,M,Teen 12-13,110,117.5,122.5,,,117.5,Tye Kassen,AZ,Single-ply,1
B,M,Teen 12-13,125,52.5,,,,52.5,Simon Pliler,AZ,Single-ply,1
B,M,Teen 14-15,75,77.5,,,,77.5,Tanner Judd,AZ,Single-ply,2
B,M,Teen 14-15,75,125,,,,125,Trey Sheppard,TX,Single-ply,1
B,M,Teen 14-15,100,90,,,,90,James Thompson,AZ,Single-ply,1
B,M,Teen 16-17,60,90,,,,90,Chevy Shumaker,AZ,Single-ply,1
B,M,Teen 16-17,82.5,100,,,,100,Spencer Coffin,AZ,Single-ply,2
B,M,Teen 16-17,82.5,110,,,,110,Christopher Holloway,AZ,Single-ply,1
B,M,Teen 16-17,100,122.5,,,,122.5,Daniel Hernandez,AZ,Single-ply,2
B,M,Teen 16-17,100,160,,,,160,Eric Nieves,AZ,Single-ply,1
B,M,Teen 18-19,82.5,110,,,,110,Daniel Buchak,AZ,Single-ply,1
B,M,Teen 18-19,82.5,102.5,,,,102.5,Irving Dominguez,AZ,Single-ply,2
D,M,Class 1,82.5,,,242.5,,242.5,Todd Wechsler,AZ,Single-ply,1
D,M,Class 1,110,,,250,,250,Justin Bennett,AZ,Single-ply,1
D,M,Class 1,125,,,272.5,,272.5,Gene Cameron,AZ,Single-ply,1
D,M,Class 1,140,,,280,,280,Angel Benitez,AZ,Single-ply,1
D,M,Juniors 20-25,100,,,262.5,,262.5,Matt Scroggin,AZ,Single-ply,1
D,M,Juniors 20-25,125,,,252.5,,252.5,Vijay Maulit,AZ,Single-ply,1
D,M,Juniors 20-25,140+,,,250,,250,Devin Del Vecchio,AZ,Single-ply,1
D,M,Law-Fire 56-63,67.5,,,182.5,,182.5,Gary Miller #2,NV,Single-ply,1
D,M,Masters 40-46,75,,,230,235,230,Albrietch Dumlao,AZ,Single-ply,1
D,M,Masters 40-46,90,,,283,,283,Matt LaMarque,California,Single-ply,1
D,M,Masters 40-46,110,,,285,,285,Mike Desrosiers,AZ,Single-ply,1
D,M,Masters 47-53,100,,,320.5,,320.5,Tim Sparkes,AZ,Single-ply,1
D,M,Masters 54-60,75,,,230.5,,230.5,Alfredo Evangelista,OR,Single-ply,1
D,M,Masters 54-60,90,,,155,157.5,155,Craig Gustafson,NV,Single-ply,1
D,M,Masters 61-67,67.5,,,182.5,,182.5,Gary Miller #2,NV,Single-ply,1
D,M,Masters 61-67,82.5,,,140,,140,Geoffrey Eroe,AZ,Single-ply,1
D,M,Masters 61-67,100,,,205,210,205,Charles Folinus,AZ,Single-ply,1
D,M,Masters 61-67,110,,,200,,200,Tom Matlock,AZ,Single-ply,1
D,M,Masters 68-74,56,,,92.5,,92.5,Gary Nye Schwebs,NV,Single-ply,1
D,M,Masters 75-79,90,,,115,,115,Donald Judd,AZ,Single-ply,1
D,M,Masters 75-79,110,,,147.5,,147.5,Gene Lawrence,AZ,Single-ply,1
D,M,Open,75,,,230,235,230,Albrietch Dumlao,AZ,Single-ply,2
D,M,Open,75,,,230.5,,230.5,Alfredo Evangelista,OR,Single-ply,1
D,M,Open,90,,,282.5,,282.5,Mike Early,AZ,Single-ply,2
D,M,Open,90,,,283,,283,Matt LaMarque,California,Single-ply,1
D,M,Open,90,,,262.5,,262.5,Ed Sun,AZ,Single-ply,3
D,M,Open,100,,,320.5,,320.5,Tim Sparkes,AZ,Single-ply,1
D,M,Open,110,,,300.5,,300.5,Jimmy House,AZ,Single-ply,1
D,M,Open,125,,,320,,320,Nick Rowland,AZ,Single-ply,1
D,M,Submasters 33-39,90,,,282.5,,282.5,Mike Early,AZ,Single-ply,1
D,M,Submasters 33-39,125,,,220,230,220,Charles Scott,NV,Single-ply,1
D,M,Teen 12-13,44,,,45,,45,Preston Smith,AZ,Single-ply,2
D,M,Teen 12-13,44,,,65,,65,Michael Sparkes,AZ,Single-ply,1
D,M,Teen 12-13,48,,,65,,65,Rigdon Judd,AZ,Single-ply,1
D,M,Teen 12-13,125,,,120,125,120,Simon Pliler,AZ,Single-ply,1
D,M,Teen 14-15,75,,,120,,120,Tanner Judd,AZ,Single-ply,2
D,M,Teen 14-15,75,,,226,230,226,Trey Sheppard,TX,Single-ply,1
D,M,Teen 14-15,100,,,200,202.5,200,James Thompson,AZ,Single-ply,1
D,M,Teen 16-17,60,,,187.5,190,187.5,Chevy Shumaker,AZ,Single-ply,1
D,M,Teen 16-17,75,,,220,,220,Logan Gneck,AZ,Single-ply,1
D,M,Teen 16-17,82.5,,,200,,200,Spencer Coffin,AZ,Single-ply,1
D,M,Teen 16-17,82.5,,,170,,170,Christopher Holloway,AZ,Single-ply,2
D,M,Teen 16-17,100,,,242.5,,242.5,Daniel Hernandez,AZ,Single-ply,1
D,M,Teen 16-17,100,,,237.5,242.5,237.5,Eric Nieves,AZ,Single-ply,2
D,M,Teen 18-19,82.5,,,200,,200,Daniel Buchak,AZ,Single-ply,1
D,M,Teen 18-19,82.5,,,185,,185,Irving Dominguez,AZ,Single-ply,2
D,M,Teen 18-19,110,,,300.5,,300.5,Jimmy House,AZ,Single-ply,1
BD,M,Class 1,110,182.5,,250,,432.5,Justin Bennett,AZ,Single-ply,1
BD,M,Juniors 20-25,140+,142.5,,250,,392.5,Devin Del Vecchio,AZ,Single-ply,1
BD,M,Masters 40-46,90,265,,283,,548,Matt LaMarque,California,Single-ply,1
BD,M,Masters 54-60,75,215,,230.5,,445.5,Alfredo Evangelista,OR,Single-ply,1
BD,M,Masters 54-60,90,95,,155,157.5,250,Craig Gustafson,NV,Single-ply,1
BD,M,Masters 61-67,100,142.5,,205,210,347.5,Charles Folinus,AZ,Single-ply,1
BD,M,Masters 61-67,110,80,,200,,280,Tom Matlock,AZ,Single-ply,1
BD,M,Masters 75-79,110,97.5,,147.5,,245,Gene Lawrence,AZ,Single-ply,1
BD,M,Open,75,215,,230.5,,445.5,Alfredo Evangelista,OR,Single-ply,1
BD,M,Open,90,265,,283,,548,Matt LaMarque,California,Single-ply,1
BD,M,Teen 14-15,75,125,,226,230,351,Trey Sheppard,TX,Single-ply,1
BD,M,Teen 16-17,82.5,100,,200,,300,Spencer Coffin,AZ,Single-ply,1
BD,M,Teen 16-17,100,122.5,,242.5,,365,Daniel Hernandez,AZ,Single-ply,1
BD,M,Teen 18-19,82.5,102.5,,185,,287.5,Irving Dominguez,AZ,Single-ply,1
B,F,Class 1,52,35,,,,35,Jeanne Morris,WA,Single-ply,1
B,F,Class 1,56,47.5,,,,47.5,Kelly Kassen,AZ,Single-ply,1
B,F,Class 1,67.5,82.5,,,,82.5,Nida Namathep,AZ,Single-ply,1
B,F,Class 1,75,57.5,,,,57.5,Pamela Michaels,WA,Single-ply,1
B,F,Masters 40-46,56,80,82.5,,,80,Suzanne Davis,AZ,Single-ply,1
B,F,Masters 40-46,75,63,,,,63,LeAnne Shumaker,AZ,Single-ply,1
B,F,Masters 40-46,82.5,80,,,,80,Erika Grill,AZ,Single-ply,1
B,F,Masters 40-46,90+,77.5,,,,77.5,Leilana McKindra,OK,Single-ply,1
B,F,Masters 54-60,52,35,,,,35,Jeanne Morris,WA,Single-ply,1
B,F,Masters 54-60,82.5,70,,,,70,Margie Huston,WA,Single-ply,1
B,F,Masters 75-79,67.5,47.5,,,,47.5,Romy Brubaker,California,Single-ply,1
B,F,Open,56,80,82.5,,,80,Suzanne Davis,AZ,Single-ply,1
B,F,Open,90,85,,,,85,Farrah Tate,AZ,Single-ply,1
B,F,Submasters,82.5,85,,,,85,Sophia Hussary,AZ,Single-ply,1
D,F,Class 1,56,,,100,107.5,100,Kelly Kassen,AZ,Single-ply,1
D,F,Class 1,67.5,,,115,,115,Marsha Goodman,AZ,Single-ply,2
D,F,Class 1,67.5,,,150,,150,Nida Namathep,AZ,Single-ply,1
D,F,Class 1,75,,,102.5,107.5,102.5,Pamela Michaels,WA,Single-ply,1
D,F,Juniors,52,,,85,,85,Brooke Caraccioli,California,Single-ply,1
D,F,Juniors,90+,,,207.5,,207.5,Makala Davis,AZ,Single-ply,1
D,F,Masters 40-46,56,,,193.5,197.5,193.5,Suzanne Davis,AZ,Single-ply,1
D,F,Masters 40-46,75,,,142.5,,142.5,LeAnne Shumaker,AZ,Single-ply,1
D,F,Masters 47-53,67.5,,,115,,115,Kathy Caraccioli,California,Single-ply,1
D,F,Masters 54-60,52,,,105,,105,Jeanne Morris,WA,Single-ply,1
D,F,Masters 54-60,67.5,,,115,,115,Marsha Goodman,AZ,Single-ply,1
D,F,Masters 54-60,82.5,,,160,,160,Margie Huston,WA,Single-ply,1
D,F,Open,56,,,193.5,197.5,193.5,Suzanne Davis,AZ,Single-ply,1
D,F,Open,67.5,,,147.5,,147.5,Jennifer Scott,NV,Single-ply,1
D,F,Open,75,,,215.5,,215.5,Rebekah Schmidt,MN,Single-ply,1
D,F,Open,75,,,182.5,187.5,182.5,Joanne Vargas,AZ,Single-ply,2
D,F,Open,82.5,,,192.5,,192.5,Sophia Hussary,AZ,Single-ply,1
D,F,Open,90+,,,207.5,,207.5,Makala Davis,AZ,Single-ply,1
D,F,Submasters,75,,,215.5,,215.5,Rebekah Schmidt,MN,Single-ply,1
D,F,Submasters,75,,,182.5,187.5,182.5,Joanne Vargas,AZ,Single-ply,2
D,F,Submasters,82.5,,,192.5,,192.5,Sophia Hussary,AZ,Single-ply,1
D,F,Teen 12-13,44,,,47.5,,47.5,Kailey Gneck-Chartier,AZ,Single-ply,1
BD,F,Class 1,56,47.5,,100,107.5,147.5,Kelly Kassen,AZ,Single-ply,1
BD,F,Class 1,75,57.5,,102.5,107.5,160,Pamela Michaels,WA,Single-ply,1
BD,F,Masters 54-60,52,35,,105,,140,Jeanne Morris,WA,Single-ply,1
BD,F,Masters 54-60,82.5,70,,160,,230,Margie Huston,WA,Single-ply,1
