Division,WeightClassKg,Place,Name,Team,BodyweightKg,Best3SquatKg,Best3BenchKg,Best3DeadliftKg,TotalKg,Equipment,Event,Sex
Boys,51.71,1,Josue Leon,Sulphur Springs,50.48,142.88,72.57,181.44,396.89,Single-ply,SBD,M
Boys,55.79,2,Jacob Kemp,Bonham,51.89,102.06,54.43,127.01,283.5,Single-ply,SBD,M
Boys,51.71,3,Trevor Huie,Paris North Lamar,50.85,113.4,52.16,115.67,281.23,Single-ply,SBD,M
Boys,51.71,4,Matthew Palmer,Bonham,49.58,92.99,58.97,113.4,265.35,Single-ply,SBD,M
Boys,51.71,5,Kenieth Dodson,Pottsboro,46.72,102.06,56.7,95.25,254.01,Single-ply,SBD,M
Boys,51.71,6,Dalton Krodle,Commerce,49.85,95.25,54.43,90.72,240.4,Single-ply,SBD,M
Boys,51.71,7,Odi Carbajal,Sherman,51.62,88.45,56.7,92.99,238.14,Single-ply,SBD,M
Boys,51.71,8,Bailey Henderson,Whitewright,51.35,86.18,49.9,77.11,213.19,Single-ply,SBD,M
Boys,51.71,9,Trent Bell,Longview Pine Tree,47.17,72.57,49.9,83.91,206.38,Single-ply,SBD,M
Boys,55.79,1,Tyler Scott,Paris North Lamar,54.84,136.08,81.65,145.15,362.87,Single-ply,SBD,M
Boys,55.79,2,Brion McKee,Paris Chisum,53.98,142.88,70.31,136.08,349.27,Single-ply,SBD,M
Boys,59.87,3,Luis Gamez,Sulphur Springs,55.93,117.93,70.31,133.81,322.05,Single-ply,SBD,M
Boys,55.79,4,Koby Parker,Pottsboro,55.16,106.59,70.31,99.79,276.69,Single-ply,SBD,M
Boys,55.79,5,Justin Keeton,Anna,55.61,90.72,56.7,111.13,258.55,Single-ply,SBD,M
Boys,55.79,6,Chris Sartor,Longview Pine Tree,53.43,92.99,61.23,97.52,251.74,Single-ply,SBD,M
Boys,59.87,1,Clementria Bailey,Paris,59.69,158.76,102.06,167.83,428.64,Single-ply,SBD,M
Boys,59.87,2,Grey Berry,Whitewright,59.65,154.22,86.18,147.42,387.82,Single-ply,SBD,M
Boys,59.87,3,Josh Fleming,Sherman,59.69,156.49,86.18,140.61,383.29,Single-ply,SBD,M
Boys,59.87,4,Stephen Steele,Pottsboro,59.87,138.35,77.11,147.42,362.87,Single-ply,SBD,M
Boys,67.13,5,Dzvien Fuentes,Sulphur Springs,60.1,122.47,72.57,140.61,335.66,Single-ply,SBD,M
Boys,67.13,6,Brayden Kelley,Sulphur Springs,60.1,122.47,68.04,133.81,324.32,Single-ply,SBD,M
Boys,59.87,7,Tyler Murphy,Commerce,59.87,122.47,65.77,124.74,312.98,Single-ply,SBD,M
Boys,59.87,8,Dustin Davis,Whitewright,58.47,115.67,54.43,113.4,283.5,Single-ply,SBD,M
Boys,67.13,1,Kyle Bawcum,Paris,66.77,244.94,163.29,204.12,612.35,Single-ply,SBD,M
Boys,67.13,2,Dominique Sanders,Paris,66.81,183.7,92.99,201.85,478.54,Single-ply,SBD,M
Boys,67.13,3,Garrett Syfert,Pottsboro,65.77,190.51,104.33,181.44,476.27,Single-ply,SBD,M
Boys,67.13,4,Ali Bernard,Pattonville Prairiland,64.14,149.69,106.59,174.63,430.91,Single-ply,SBD,M
Boys,67.13,5,Daren Kennison,Paris North Lamar,62.55,131.54,111.13,147.42,390.09,Single-ply,SBD,M
Boys,67.13,6,Mason Thompson,Whitewright,62.23,158.76,83.91,142.88,385.55,Single-ply,SBD,M
Boys,67.13,7,Justin McFadden,Paris North Lamar,65.23,156.49,83.91,145.15,385.55,Single-ply,SBD,M
Boys,67.13,8,Aaron Decker,Whitewright,65.63,136.08,86.18,149.69,371.95,Single-ply,SBD,M
Boys,67.13,9,Zecharia Heath,Anna,62.87,147.42,72.57,147.42,367.41,Single-ply,SBD,M
Boys,67.13,10,Chris Stephens,Sherman,63.32,147.42,70.31,138.35,356.07,Single-ply,SBD,M
Boys,67.13,11,Hunter Green,Anna,65.68,138.35,81.65,129.27,349.27,Single-ply,SBD,M
Boys,67.13,12,Sam Hammonds,Sulphur Springs,60.83,129.27,79.38,136.08,344.73,Single-ply,SBD,M
Boys,67.13,13,Kendrick Wallace,Paris,66.81,131.54,65.77,142.88,340.19,Single-ply,SBD,M
Boys,67.13,14,Kaleb Stringer,Paris North Lamar,63.28,136.08,70.31,122.47,328.85,Single-ply,SBD,M
Boys,67.13,15,Alex Enriquez,Sherman,61.69,88.45,72.57,111.13,272.16,Single-ply,SBD,M
Boys,74.84,1,Matt Thompson,Paris,72.71,233.6,136.08,183.7,553.38,Single-ply,SBD,M
Boys,74.84,2,Jonathan Carlisle,Sulphur Springs,69.54,208.65,102.06,213.19,523.9,Single-ply,SBD,M
Boys,74.84,3,Sebastian Spencer,Anna,68.72,197.31,117.93,185.97,501.22,Single-ply,SBD,M
Boys,74.84,4,Marcus Cantera,Commerce,72.57,183.7,120.2,185.97,489.88,Single-ply,SBD,M
Boys,74.84,5,Quinn Lipscomb,Paris,74.16,183.7,92.99,195.04,471.74,Single-ply,SBD,M
Boys,74.84,6,Trey Adair,Sulphur Springs,74.12,185.97,104.33,179.17,469.47,Single-ply,SBD,M
Boys,74.84,7,Jelani Howell,Sherman,70.72,161.03,104.33,188.24,453.59,Single-ply,SBD,M
Boys,74.84,8,Treylon Taylor,Sherman,71.67,165.56,102.06,181.44,449.06,Single-ply,SBD,M
Boys,74.84,9,Brandon Graham,Pattonville Prairiland,74.48,142.88,92.99,183.7,419.57,Single-ply,SBD,M
Boys,74.84,10,Andrew Smith,Anna,69.4,138.35,92.99,172.37,403.7,Single-ply,SBD,M
Boys,74.84,11,Craig Wood,Whitewright,73.53,151.95,92.99,154.22,399.16,Single-ply,SBD,M
Boys,74.84,12,Marcus Wolf,Pattonville Prairiland,70.17,122.47,77.11,170.1,369.68,Single-ply,SBD,M
Boys,74.84,13,Korey Sanchez,Anna,69.17,127.01,88.45,140.61,356.07,Single-ply,SBD,M
Boys,74.84,14,Chase Friddle,Sulphur Springs,68.08,131.54,77.11,124.74,333.39,Single-ply,SBD,M
Boys,74.84,15,Chase Pinion,Anna,72.53,117.93,79.38,129.27,326.59,Single-ply,SBD,M
Boys,74.84,16,Phillip Heintze,Whitewright,71.58,102.06,56.7,120.2,278.96,Single-ply,SBD,M
Boys,82.1,1,Ty Smith,Paris North Lamar,79.29,229.06,136.08,226.8,591.94,Single-ply,SBD,M
Boys,82.1,2,Maverick Jones,Paris North Lamar,80.74,204.12,127.01,204.12,535.24,Single-ply,SBD,M
Boys,82.1,3,ShaCody Williams,Sherman,77.11,192.78,129.27,199.58,521.63,Single-ply,SBD,M
Boys,89.81,4,Dakota Barnes,Bonham,82.19,195.04,97.52,217.72,510.29,Single-ply,SBD,M
Boys,89.81,5,Levi Haggard,Bonham,82.19,201.85,122.47,179.17,503.49,Single-ply,SBD,M
Boys,82.1,6,Dustin Williams,Anna,79.15,199.58,122.47,179.17,501.22,Single-ply,SBD,M
Boys,82.1,7,Mason Justiss,Paris Chisum,75.93,188.24,124.74,176.9,489.88,Single-ply,SBD,M
Boys,82.1,8,Cameron Williams,Sherman,76.38,174.63,97.52,183.7,455.86,Single-ply,SBD,M
Boys,82.1,9,Harrison Flinn,Pottsboro,79.92,163.29,104.33,188.24,455.86,Single-ply,SBD,M
Boys,82.1,10,John Norrell,Anna,80.83,174.63,99.79,172.37,446.79,Single-ply,SBD,M
Boys,82.1,11,Seth Skaggs,Pottsboro,75.11,161.03,97.52,165.56,424.11,Single-ply,SBD,M
Boys,82.1,12,Garrett Lansford,Anna,81.47,170.1,92.99,154.22,417.3,Single-ply,SBD,M
Boys,89.81,13,Ryne Jackson,Pattonville Prairiland,82.33,151.95,77.11,183.7,412.77,Single-ply,SBD,M
Boys,82.1,14,Daniel Marin,Sherman,76.48,133.81,90.72,163.29,387.82,Single-ply,SBD,M
Boys,82.1,15,Sean Kyle,Anna,77.84,127.01,99.79,147.42,374.21,Single-ply,SBD,M
Boys,82.1,16,Chris Ferguson,Longview Pine Tree,77.2,129.27,86.18,122.47,337.93,Single-ply,SBD,M
Boys,82.1,17,Rollen Robertson,Longview Pine Tree,79.88,117.93,90.72,129.27,337.93,Single-ply,SBD,M
Boys,82.1,18,Wyatt Phillips,Pattonville Prairiland,78.88,124.74,74.84,129.27,328.85,Single-ply,SBD,M
Boys,82.1,19,Brian Graham,Pattonville Prairiland,81.96,117.93,68.04,142.88,328.85,Single-ply,SBD,M
Boys,89.81,1,Mike Davidson,Paris North Lamar,89.31,263.08,156.49,254.01,673.58,Single-ply,SBD,M
Boys,89.81,2,Dq Lipscomb,Paris,87.54,249.48,145.15,274.42,669.05,Single-ply,SBD,M
Boys,89.81,3,Shelby Long,Anna,84.23,226.8,106.59,226.8,560.19,Single-ply,SBD,M
Boys,89.81,4,Dj Fields,Bonham,88.9,219.99,124.74,185.97,530.7,Single-ply,SBD,M
Boys,99.79,5,Seth Savage,Sulphur Springs,89.95,195.04,129.27,185.97,510.29,Single-ply,SBD,M
Boys,89.81,6,Dylan House,Pottsboro,87.72,204.12,104.33,199.58,508.02,Single-ply,SBD,M
Boys,89.81,7,Stryker Hunnicutt,Bonham,82.78,188.24,106.59,183.7,478.54,Single-ply,SBD,M
Boys,89.81,8,Ian Lackey,Commerce,89.45,183.7,102.06,188.24,474,Single-ply,SBD,M
Boys,89.81,9,Geoffrey Smith,Paris,88,151.95,90.72,192.78,435.45,Single-ply,SBD,M
Boys,89.81,10,Ryan Terrell,Paris,88.9,170.1,83.91,174.63,428.64,Single-ply,SBD,M
Boys,89.81,11,John Boehler,Paris Chisum,83.28,158.76,95.25,161.03,415.04,Single-ply,SBD,M
Boys,109.77,1,Robert Gay,Sherman,99.88,226.8,124.74,242.67,594.21,Single-ply,SBD,M
Boys,99.79,2,Scott Blair,Anna,98.34,215.46,117.93,204.12,537.51,Single-ply,SBD,M
Boys,99.79,3,KaLynn Miller,Paris Chisum,95.07,215.46,124.74,192.78,532.97,Single-ply,SBD,M
Boys,99.79,4,Scotty Harvey,Whitewright,93.67,147.42,111.13,181.44,439.98,Single-ply,SBD,M
Boys,99.79,5,Dylan Cleveland,Pottsboro,98.88,154.22,90.72,147.42,392.36,Single-ply,SBD,M
Boys,99.79,6,Eric Reed,Pottsboro,93.94,124.74,81.65,138.35,344.73,Single-ply,SBD,M
Boys,99.79,7,Josh Wilson,Pattonville Prairiland,91.13,124.74,65.77,147.42,337.93,Single-ply,SBD,M
Boys,109.77,1,Cortez Crosby,Commerce,109.54,240.4,158.76,242.67,641.83,Single-ply,SBD,M
Boys,109.77,2,Brandon Phillips,Paris,107.05,240.4,131.54,195.04,566.99,Single-ply,SBD,M
Boys,109.77,3,Brian Jones,Pattonville Prairiland,106.59,238.14,120.2,199.58,557.92,Single-ply,SBD,M
Boys,109.77,4,Blake Hawkins,Pottsboro,109.5,201.85,124.74,199.58,526.17,Single-ply,SBD,M
Boys,109.77,5,Chris McCurrin,Sherman,102.29,185.97,120.2,206.38,512.56,Single-ply,SBD,M
Boys,109.77,6,Billy Doyle,Pottsboro,101.97,195.04,104.33,185.97,485.34,Single-ply,SBD,M
Boys,109.77,7,Moses Castonesia,Sherman,109,172.37,104.33,199.58,476.27,Single-ply,SBD,M
Boys,109.77,8,Adam Parson,Paris North Lamar,106.14,165.56,81.65,204.12,451.32,Single-ply,SBD,M
Boys,109.77,9,Julio Peralta,Pattonville Prairiland,100.7,165.56,83.91,167.83,417.3,Single-ply,SBD,M
Boys,109.77,10,Joseph Taylor,Whitewright,107.37,131.54,72.57,145.15,349.27,Single-ply,SBD,M
Boys,124.74,1,Devin Noiel,Paris North Lamar,117.25,226.8,147.42,244.94,619.15,Single-ply,SBD,M
Boys,124.74,2,Marquis Gill,Paris,117.93,215.46,138.35,188.24,542.04,Single-ply,SBD,M
Boys,124.74,3,Chad Evans,Sulphur Springs,114.44,199.58,133.81,204.12,537.51,Single-ply,SBD,M
Boys,124.74,4,Hayden Wyrick,Whitewright,118.3,208.65,117.93,195.04,521.63,Single-ply,SBD,M
Boys,124.74,4,Rod Jackson,Commerce,124.56,190.51,111.13,195.04,496.68,Single-ply,SBD,M
Boys,124.74,5,Jamie Humphrey,Pattonville Prairiland,119.16,179.17,99.79,181.44,460.4,Single-ply,SBD,M
Boys,124.74,6,San Marcos Pratt,Paris Chisum,117.66,204.12,,147.42,351.53,Single-ply,SD,M
Boys,124.74+,1,Joe Merino,Anna,137.8,283.5,167.83,233.6,684.92,Single-ply,SBD,M
Boys,124.74+,2,Tanner Pelham,Anna,125.33,219.99,147.42,226.8,594.21,Single-ply,SBD,M
Boys,124.74+,3,Adam Waw,Sherman,147.05,201.85,124.74,179.17,505.76,Single-ply,SBD,M
Boys,124.74+,5,Chase Cadena,Sulphur Springs,129.95,195.04,111.13,183.7,489.88,Single-ply,SBD,M
Boys,124.74+,6,Josh Green,Pattonville Prairiland,158.58,190.51,122.47,158.76,471.74,Single-ply,SBD,M
