Division,WeightClassKg,Place,Name,Team,BodyweightKg,Best3SquatKg,Best3BenchKg,Best3DeadliftKg,TotalKg,Equipment,Event,Sex
Boys,55.79,1,David Tubig,Burleson,51.94,136.08,77.11,151.95,365.14,Single-ply,SBD,M
Boys,51.71,2,Antonio Ponce,Glen Rose,49.53,124.74,61.23,145.15,331.12,Single-ply,SBD,M
Boys,51.71,3,Azahel Herrera,Glen Rose,50.17,113.4,79.38,127.01,319.78,Single-ply,SBD,M
Boys,55.79,4,Cesar Herrera,Glen Rose,51.8,108.86,61.23,102.06,272.16,Single-ply,SBD,M
Boys,51.71,5,Cooper Warren,Brock,49.71,88.45,49.9,99.79,238.14,Single-ply,SBD,M
Boys,51.71,DQ,Cody Halcom,Glen Rose,50.17,,,,,Single-ply,SBD,M
Boys,55.79,1,Ezra Zepeda,Red Oak Life,55.25,147.42,74.84,172.37,394.63,Single-ply,SBD,M
Boys,55.79,2,Homer Ortiz,Santo,55.79,142.88,77.11,147.42,367.41,Single-ply,SBD,M
Boys,55.79,3,Jaime Luna,Palmer,54.07,147.42,68.04,131.54,347,Single-ply,SBD,M
Boys,55.79,4,David Youngblood,Brock,53.71,120.2,61.23,124.74,306.17,Single-ply,SBD,M
Boys,55.79,5,DeAndre Jones,Dallas Life Oak Cliff,55.16,102.06,63.5,113.4,278.96,Single-ply,SBD,M
Boys,55.79,5,DeAndre Jones,Dallas Life Oak Cliff,55.16,102.06,63.5,113.4,278.96,Single-ply,SBD,M
Boys,67.13,1,Carlin Linnabery,Glen Rose,60.1,158.76,90.72,151.95,401.43,Single-ply,SBD,M
Boys,59.87,2,Sean Wofford,Burleson,56.52,124.74,72.57,145.15,342.46,Single-ply,SBD,M
Boys,59.87,3,Collin Miller,Brock,58.6,106.59,61.23,113.4,281.23,Single-ply,SBD,M
Boys,67.13,1,Josh Beasley,Glen Rose,65.05,183.7,111.13,204.12,498.95,Single-ply,SBD,M
Boys,67.13,2,Taylor Clark,Joshua,65.86,167.83,111.13,181.44,460.4,Single-ply,SBD,M
Boys,67.13,3,Nathan Smith,Glen Rose,66.32,158.76,95.25,174.63,428.64,Single-ply,SBD,M
Boys,67.13,4,Trevor Morgan,Red Oak Life,66.59,165.56,90.72,172.37,428.64,Single-ply,SBD,M
Boys,67.13,5,Michael Royals,Burleson,65.68,163.29,81.65,170.1,415.04,Single-ply,SBD,M
Boys,67.13,6,Jacob Locke,Glen Rose,64.68,138.35,72.57,145.15,356.07,Single-ply,SBD,M
Boys,67.13,7,Michael Henderson,Santo,62.51,136.08,70.31,147.42,353.8,Single-ply,SBD,M
Boys,67.13,8,Tyler Skelton,Brock,65.86,124.74,90.72,136.08,351.53,Single-ply,SBD,M
Boys,67.13,9,Logan Moon,Brock,65.32,129.27,61.23,129.27,319.78,Single-ply,SBD,M
Boys,67.13,DQ,Chance Holveck,Burleson,66.59,140.61,,,,Single-ply,SBD,M
Boys,74.84,1,Hunter Redmond,Glen Rose,73.21,183.7,104.33,204.12,492.15,Single-ply,SBD,M
Boys,74.84,2,Collin Radford,Joshua,74.75,172.37,115.67,199.58,487.61,Single-ply,SBD,M
Boys,82.1,3,Haston Abbott,Boyd,75.07,158.76,102.06,163.29,424.11,Single-ply,SBD,M
Boys,74.84,DQ,Daniel Rangel,Dallas Life Oak Cliff,69.85,142.88,,,,Single-ply,SBD,M
Boys,74.84,DQ,Senovio Delagarza,Glen Rose,72.57,158.76,,,,Single-ply,SBD,M
Boys,74.84,DQ,Daniel Rangel,Dallas Life Oak Cliff,69.85,142.88,,,,Single-ply,SBD,M
Boys,74.84,DQ,Trevor Crawford,Glen Rose,73.26,163.29,97.52,,,Single-ply,SBD,M
Boys,82.1,1,David Rodriguez,Joshua,80.65,222.26,138.35,213.19,573.79,Single-ply,SBD,M
Boys,82.1,2,Jake Mears,Joshua,78.38,188.24,115.67,215.46,519.36,Single-ply,SBD,M
Boys,82.1,3,Andrew Carnes,Burleson,81.83,195.04,108.86,199.58,503.49,Single-ply,SBD,M
Boys,82.1,4,Tanner Teske,Burleson,75.75,151.95,111.13,190.51,453.59,Single-ply,SBD,M
Boys,82.1,5,Jason Burgett,Palmer,75.84,156.49,97.52,190.51,444.52,Single-ply,SBD,M
Boys,82.1,6,Cameron Schulte,Boyd,81.19,176.9,92.99,170.1,439.98,Single-ply,SBD,M
Boys,82.1,7,Dylan Esquivel,Godley,81.1,149.69,92.99,167.83,410.5,Single-ply,SBD,M
Boys,82.1,8,Seth Wallace,Boyd,81.37,142.88,83.91,151.95,378.75,Single-ply,SBD,M
Boys,82.1,9,Preston Stover,Red Oak Life,81.01,129.27,68.04,147.42,344.73,Single-ply,SBD,M
Boys,82.1,10,Tyler Collier,Brock,79.38,122.47,72.57,136.08,331.12,Single-ply,SBD,M
Boys,82.1,DQ,Ayinde Alijiiy,Burleson,77.84,147.42,,,,Single-ply,SBD,M
Boys,82.1,DQ,Calen Ballesteros,Glen Rose,81.37,,,,,Single-ply,SBD,M
Boys,82.1,DQ,Colten Oder,Red Oak Life,81.65,158.76,,,,Single-ply,SBD,M
Boys,89.81,1,KJ Evans,Joshua,87.45,256.28,165.56,242.67,664.51,Single-ply,SBD,M
Boys,89.81,2,Luke Bowling,Santo,83.37,226.8,124.74,215.46,566.99,Single-ply,SBD,M
Boys,89.81,3,Matt Sinclair,Boyd,84.01,185.97,111.13,183.7,480.81,Single-ply,SBD,M
Boys,89.81,4,Nick Delgado,Burleson,83.64,158.76,120.2,192.78,471.74,Single-ply,SBD,M
Boys,89.81,5,Braxton Barrios,Glen Rose,86.91,195.04,111.13,163.29,469.47,Single-ply,SBD,M
Boys,89.81,6,Erick Torres,Palmer,89.81,174.63,120.2,163.29,458.13,Single-ply,SBD,M
Boys,89.81,7,Luis Alcivar,Boyd,85,138.35,72.57,136.08,347,Single-ply,SBD,M
Boys,89.81,8,Gage Snider,Burleson,83.1,142.88,74.84,124.74,342.46,Single-ply,SBD,M
Boys,89.81,DQ,Austin Murrell,Burleson,87.72,,,,,Single-ply,SBD,M
Boys,99.79,DQ,John Carter,Burleson,90.04,165.56,,,,Single-ply,SBD,M
Boys,99.79,1,Josh Whitworth,Joshua,98.52,217.72,149.69,231.33,598.74,Single-ply,SBD,M
Boys,99.79,2,Averil Royal,Red Oak Life,96.8,249.48,127.01,195.04,571.53,Single-ply,SBD,M
Boys,99.79,3,Heath Nicholson,Glen Rose,97.7,229.06,99.79,242.67,571.53,Single-ply,SBD,M
Boys,99.79,4,Ace Navarette,Glen Rose,93.53,217.72,127.01,208.65,553.38,Single-ply,SBD,M
Boys,99.79,5,Dawson Matheny,Glen Rose,98.52,195.04,136.08,195.04,526.17,Single-ply,SBD,M
Boys,99.79,6,Andrew Young,Joshua,92.62,206.38,111.13,190.51,508.02,Single-ply,SBD,M
Boys,99.79,7,Miguel Barraza,Glen Rose,94.53,183.7,113.4,172.37,469.47,Single-ply,SBD,M
Boys,99.79,8,Drannon Brewer,Glen Rose,95.71,170.1,90.72,174.63,435.45,Single-ply,SBD,M
Boys,99.79,9,Ezavian Franklin,Dallas Life Oak Cliff,93.8,163.29,95.25,167.83,426.38,Single-ply,SBD,M
Boys,99.79,9,Ezavian Franklin,Dallas Life Oak Cliff,93.8,163.29,95.25,167.83,426.38,Single-ply,SBD,M
Boys,99.79,10,Daniel McCarley,Burleson,93.98,145.15,92.99,165.56,403.7,Single-ply,SBD,M
Boys,99.79,11,Mazen Subuh,Red Oak Life,91.63,158.76,88.45,149.69,396.89,Single-ply,SBD,M
Boys,99.79,DQ,Kelly Rhodes,Burleson,98.16,,,,,Single-ply,SBD,M
Boys,109.77,1,Gerald Hatch,Burleson,107.86,249.48,145.15,235.87,630.49,Single-ply,SBD,M
Boys,109.77,2,Cruz Marquez,Joshua,104.87,242.67,138.35,229.06,610.08,Single-ply,SBD,M
Boys,109.77,3,Tracy Hightower,Red Oak Life,107.27,242.67,117.93,185.97,546.58,Single-ply,SBD,M
Boys,109.77,4,Jermal Warren,Dallas Life Oak Cliff,102.51,142.88,127.01,147.42,417.3,Single-ply,SBD,M
Boys,109.77,4,Jermal Warren,Dallas Life Oak Cliff,102.51,142.88,127.01,147.42,417.3,Single-ply,SBD,M
Boys,124.74,1,Jared Thames,Glen Rose,119.75,306.17,208.65,272.16,786.98,Single-ply,SBD,M
Boys,124.74,2,Josh Collins,Burleson,123.38,233.6,136.08,249.48,619.15,Single-ply,SBD,M
Boys,124.74,3,Max Driscoll,Godley,112.58,195.04,151.95,181.44,528.44,Single-ply,SBD,M
Boys,124.74,4,Raymundo Barrientos,Godley,116.3,204.12,108.86,181.44,494.42,Single-ply,SBD,M
Boys,124.74,5,Elias Williams,Burleson,118.39,136.08,77.11,151.95,365.14,Single-ply,SBD,M
Boys,124.74+,1,Caleb Riley,Joshua,133.27,242.67,158.76,233.6,635.03,Single-ply,SBD,M
Boys,124.74+,2,Raul Torres,Palmer,131,231.33,149.69,226.8,607.81,Single-ply,SBD,M
Boys,124.74+,3,Colton Schroder,Glen Rose,136.08,190.51,136.08,181.44,508.02,Single-ply,SBD,M
Boys,124.74+,DQ,Quinton Carroll,Dallas Life Oak Cliff,129.18,244.94,,,,Single-ply,SBD,M
Boys,124.74+,DQ,Quinton Carroll,Dallas Life Oak Cliff,129.18,244.94,,,,Single-ply,SBD,M
