Division,WeightClassKg,Place,Name,Team,BodyweightKg,Best3SquatKg,Best3BenchKg,Best3DeadliftKg,TotalKg,Equipment,Event,Sex
Boys,55.79,1,Wesley Reed,Orangefield,54.43,120.2,68.04,138.35,326.59,Single-ply,SBD,M
Boys,67.13,1,Ehson Ghaboolian-Zare,Silsbee,67.13,149.69,90.72,181.44,421.84,Single-ply,SBD,M
Boys,67.13,2,Bry Huebel,Silsbee,63.5,140.61,106.59,154.22,401.43,Single-ply,SBD,M
Boys,67.13,3,Cameron Guillot,Orangefield,66.68,161.03,81.65,154.22,396.89,Single-ply,SBD,M
Boys,67.13,4,Trey Guillory,West Orange-Stark,65.77,140.61,81.65,163.29,385.55,Single-ply,SBD,M
Boys,67.13,5,Cade Datillio,Orangefield,61.69,108.86,72.57,124.74,306.17,Single-ply,SBD,M
Boys,74.84,1,Aaron Angelle,Silsbee,74.84,183.7,127.01,201.85,512.56,Single-ply,SBD,M
Boys,74.84,2,Tyler Hanna,Orange Little Cypress-Mauriceville,74.39,181.44,102.06,183.7,467.2,Single-ply,SBD,M
Boys,74.84,3,Demaric Judge,West Orange-Stark,73.48,151.95,95.25,183.7,430.91,Single-ply,SBD,M
Boys,74.84,4,Keyshawn Holman,West Orange-Stark,73.94,158.76,83.91,167.83,410.5,Single-ply,SBD,M
Boys,74.84,5,Hunter Fontenot,Orange Little Cypress-Mauriceville,73.48,142.88,95.25,165.56,403.7,Single-ply,SBD,M
Boys,74.84,6,Vincent Wilson,Orangefield,71.67,136.08,88.45,163.29,387.82,Single-ply,SBD,M
Boys,74.84,7,Fred Bruner,West Orange-Stark,68.95,124.74,72.57,149.69,347,Single-ply,SBD,M
Boys,74.84,8,Mason Fredric,Orange Little Cypress-Mauriceville,68.04,138.35,61.23,136.08,335.66,Single-ply,SBD,M
Boys,82.1,1,Brad Bergeron,Orange Little Cypress-Mauriceville,82.1,242.67,127.01,181.44,551.11,Single-ply,SBD,M
Boys,82.1,2,Ryan Kirkendall,Silsbee,80.74,208.65,122.47,183.7,514.83,Single-ply,SBD,M
Boys,82.1,3,Tate Hardy,Silsbee,78.02,149.69,95.25,163.29,408.23,Single-ply,SBD,M
Boys,82.1,4,Dwayne LeCompte,Orange Little Cypress-Mauriceville,81.65,183.7,127.01,,310.71,Single-ply,SB,M
Boys,82.1,5,Michael Craven,Orange Little Cypress-Mauriceville,77.11,108.86,72.57,127.01,308.44,Single-ply,SBD,M
Boys,89.81,1,Sidney Holmes,Silsbee,85.28,163.29,120.2,199.58,483.08,Single-ply,SBD,M
Boys,89.81,2,Blake LeBlanc,Orange Little Cypress-Mauriceville,87.54,188.24,106.59,172.37,467.2,Single-ply,SBD,M
Boys,89.81,3,Ryan Burke,Orange Little Cypress-Mauriceville,88.9,181.44,97.52,183.7,462.66,Single-ply,SBD,M
Boys,89.81,4,Tristen Scott,West Orange-Stark,86.18,131.54,95.25,,226.8,Single-ply,SB,M
Boys,89.81,DQ,Beau Kuebodeaux,Silsbee,87.09,142.88,92.99,163.29,,Single-ply,SBD,M
Boys,99.79,1,Derek Lopez,Orangefield,99.79,226.8,120.2,217.72,564.72,Single-ply,SBD,M
Boys,99.79,2,Stephen Sliter,Silsbee,92.99,179.17,106.59,206.38,492.15,Single-ply,SBD,M
Boys,99.79,3,Jacob Harrison,Orangefield,96.62,183.7,104.33,183.7,471.74,Single-ply,SBD,M
Boys,99.79,DQ,Jacob Rachal,Silsbee,95.71,156.49,111.13,158.76,,Single-ply,SBD,M
Boys,99.79,DQ,Trey Franklin,West Orange-Stark,95.25,165.56,83.91,165.56,,Single-ply,SBD,M
Boys,109.77,1,Carter Beck,Orange Little Cypress-Mauriceville,104.33,226.8,124.74,226.8,578.33,Single-ply,SBD,M
Boys,109.77,2,Adam Jacobs,Orangefield,100.47,222.26,138.35,197.31,557.92,Single-ply,SBD,M
Boys,124.74,1,Jake Bradley,Orangefield,115.21,176.9,113.4,181.44,471.74,Single-ply,SBD,M
Boys,124.74,2,Tyler Collins #1,Silsbee,115.67,147.42,102.06,145.15,394.63,Single-ply,SBD,M
Boys,124.74,DQ,Josh King,West Orange-Stark,113.4,176.9,92.99,229.06,,Single-ply,SBD,M
Boys,124.74+,1,Patrick Hudson,Silsbee,148.32,278.96,165.56,272.16,716.68,Single-ply,SBD,M
Boys,124.74+,2,Seth Adams,Silsbee,128.82,229.06,151.95,226.8,607.81,Single-ply,SBD,M
Boys,124.74+,3,Devonthia Alfred,Silsbee,129.73,201.85,129.27,215.46,546.58,Single-ply,SBD,M
