Division,WeightClassKg,Place,Name,Team,BodyweightKg,Best3SquatKg,Best3BenchKg,Best3DeadliftKg,TotalKg,Equipment,Event,Sex
Boys,51.71,1,Eli DeHoyos,Brady,50.53,149.69,83.91,158.76,392.36,Single-ply,SBD,M
Boys,51.71,2,Joel Santillan,Clifton,50.89,142.88,88.45,161.03,392.36,Single-ply,SBD,M
Boys,51.71,3,Bryce Leatherwood,Dublin,50.89,120.2,74.84,140.61,335.66,Single-ply,SBD,M
Boys,51.71,4,Kade Pace,Lago Vista,50.8,131.54,65.77,136.08,333.39,Single-ply,SBD,M
Boys,51.71,5,Jeovanny Navarro,Rockdale,51.71,120.2,70.31,136.08,326.59,Single-ply,SBD,M
Boys,51.71,6,Enrique Davila,San Saba,51.44,108.86,43.09,145.15,297.1,Single-ply,SBD,M
Boys,51.71,7,Wesley Duke,Groesbeck,50.44,106.59,61.23,127.01,294.84,Single-ply,SBD,M
Boys,51.71,8,Nathan Jeter,Rockdale,50.89,102.06,61.23,127.01,290.3,Single-ply,SBD,M
Boys,51.71,9,Jay King,Bosqueville,49.44,108.86,65.77,106.59,281.23,Single-ply,SBD,M
Boys,51.71,10,Mark Valdez,Brady,45.54,97.52,52.16,115.67,265.35,Single-ply,SBD,M
Boys,51.71,DQ,Isrreal Rosas,Bruceville-Eddy,50.17,,,,,Single-ply,SBD,M
Boys,51.71,DQ,Levi Goudeau,Anderson-Shiro,51.71,,,,,Single-ply,SBD,M
Boys,55.79,1,Joe-Angel Carpenter,Troy,54.61,154.22,95.25,165.56,415.04,Single-ply,SBD,M
Boys,55.79,2,Michael Oster,Troy,54.7,154.22,86.18,174.63,415.04,Single-ply,SBD,M
Boys,55.79,3,Marshall Schmitz,Brady,52.8,154.22,83.91,167.83,405.97,Single-ply,SBD,M
Boys,55.79,4,Trevor Uptmor,West,54.07,156.49,92.99,154.22,403.7,Single-ply,SBD,M
Boys,55.79,5,ZaQuavion Golden,Hearne,55.7,142.88,83.91,165.56,392.36,Single-ply,SBD,M
Boys,55.79,6,Houston Tucker,Hamilton,55.52,136.08,70.31,142.88,349.27,Single-ply,SBD,M
Boys,55.79,7,Colby Williamson,Troy,55.34,129.27,77.11,122.47,328.85,Single-ply,SBD,M
Boys,55.79,8,Luc Hyles,Hico,54.43,127.01,70.31,120.2,317.51,Single-ply,SBD,M
Boys,55.79,9,Carlos Moreno,Lingleville,55.34,131.54,52.16,129.27,312.98,Single-ply,SBD,M
Boys,55.79,10,Chris Eckenrode,Riesel,55.79,108.86,63.5,129.27,301.64,Single-ply,SBD,M
Boys,55.79,DQ,Joseph Rangel,Cameron Yoe,54.98,124.74,,,,Single-ply,SBD,M
Boys,55.79,DQ,Michael Palmer,Little River Academy,54.98,138.35,72.57,,,Single-ply,SBD,M
Boys,59.87,1,Sebastion Flores,Blanco,59.42,204.12,133.81,217.72,555.65,Single-ply,SBD,M
Boys,59.87,2,Fausto Rodriguez,West,59.51,204.12,133.81,197.31,535.24,Single-ply,SBD,M
Boys,59.87,3,Hunter Mullins,Jarrell,59.33,204.12,111.13,197.31,512.56,Single-ply,SBD,M
Boys,59.87,4,Cesar Galvan,Dublin,58.97,158.76,95.25,185.97,439.98,Single-ply,SBD,M
Boys,59.87,5,Davon Bandow,Lago Vista,59.78,149.69,90.72,161.03,401.43,Single-ply,SBD,M
Boys,59.87,6,Cale Wade,Early,59.87,158.76,102.06,140.61,401.43,Single-ply,SBD,M
Boys,59.87,7,Zach Kelley,Early,57.97,142.88,108.86,140.61,392.36,Single-ply,SBD,M
Boys,59.87,8,Dalton Glover,Little River Academy,58.42,140.61,83.91,158.76,383.29,Single-ply,SBD,M
Boys,59.87,9,Josh Lopez,Cameron Yoe,55.88,136.08,90.72,149.69,376.48,Single-ply,SBD,M
Boys,59.87,10,Lane Francis,Bosqueville,58.88,133.81,72.57,151.95,358.34,Single-ply,SBD,M
Boys,59.87,DQ,Stetson Thompson,Riesel,58.79,,,,,Single-ply,SBD,M
Boys,59.87,DQ,Dion Miclat,Waco Reicher Catholic,59.6,124.74,68.04,,,Single-ply,SBD,M
Boys,67.13,1,Bryan McNeill,Rogers,65.05,195.04,111.13,206.38,512.56,Single-ply,SBD,M
Boys,67.13,2,Jesson Tarrant,Early,65.23,183.7,127.01,188.24,498.95,Single-ply,SBD,M
Boys,67.13,3,Christian Flores,Blanco,64.5,190.51,111.13,190.51,492.15,Single-ply,SBD,M
Boys,67.13,4,Cameron Naumann,Florence,64.95,188.24,108.86,188.24,485.34,Single-ply,SBD,M
Boys,67.13,5,Gavin Freeman,Little River Academy,66.32,181.44,108.86,174.63,464.93,Single-ply,SBD,M
Boys,67.13,6,Seth Anderson,Bangs,65.41,176.9,97.52,181.44,455.86,Single-ply,SBD,M
Boys,67.13,7,Caleb Carlisle,Jarrell,65.5,183.7,88.45,179.17,451.32,Single-ply,SBD,M
Boys,67.13,8,Alex Hernandez,Jarrell,63.96,174.63,102.06,172.37,449.06,Single-ply,SBD,M
Boys,67.13,9,Stephen Fritz,Lingleville,64.05,170.1,113.4,158.76,442.25,Single-ply,SBD,M
Boys,67.13,10,Alex Flores,Anderson-Shiro,65.68,156.49,102.06,183.7,442.25,Single-ply,SBD,M
Boys,67.13,DQ,Joseph Holloway,Riesel,67.13,,,,,Single-ply,SBD,M
Boys,67.13,DQ,Carter Turner,San Saba,65.95,170.1,115.67,,,Single-ply,SBD,M
Boys,74.84,1,Colby Pederson,Hubbard,74.3,224.53,133.81,199.58,557.92,Single-ply,SBD,M
Boys,74.84,2,Martin Najera,Hamilton,74.12,208.65,111.13,217.72,537.51,Single-ply,SBD,M
Boys,74.84,3,Kameron Sisson,Whitney,70.85,195.04,117.93,217.72,530.7,Single-ply,SBD,M
Boys,74.84,4,Alex Aguillon,Cameron Yoe,74.3,201.85,104.33,217.72,523.9,Single-ply,SBD,M
Boys,74.84,5,Zachary Johle,Thrall,73.66,190.51,136.08,195.04,521.63,Single-ply,SBD,M
Boys,74.84,6,Joe Gilligan,Comanche,74.12,183.7,108.86,219.99,512.56,Single-ply,SBD,M
Boys,74.84,7,Colby Skarpa,West,72.21,204.12,127.01,167.83,498.95,Single-ply,SBD,M
Boys,74.84,8,Shawn Davis,Florence,74.75,181.44,86.18,219.99,487.61,Single-ply,SBD,M
Boys,74.84,9,Jt Cooper,Holland,72.94,195.04,104.33,179.17,478.54,Single-ply,SBD,M
Boys,74.84,10,Jake Chandler,Burton,73.94,176.9,111.13,190.51,478.54,Single-ply,SBD,M
Boys,74.84,DQ,George Sanchez,Luling,74.84,,,,,Single-ply,SBD,M
Boys,82.1,1,Hunter Duzat,Little River Academy,78.93,263.08,170.1,244.94,678.12,Single-ply,SBD,M
Boys,82.1,2,Nathan Gerik,West,81.28,244.94,147.42,240.4,632.76,Single-ply,SBD,M
Boys,82.1,3,Dj Fripp,Cameron Yoe,82.1,242.67,158.76,217.72,619.15,Single-ply,SBD,M
Boys,82.1,4,Jacob Winter,Lingleville,79.38,222.26,117.93,215.46,555.65,Single-ply,SBD,M
Boys,82.1,5,Kade Mercer,Comanche,80.74,199.58,140.61,213.19,553.38,Single-ply,SBD,M
Boys,82.1,6,John Jackson,Hempstead,82.01,183.7,129.27,224.53,537.51,Single-ply,SBD,M
Boys,82.1,7,Clay Cooper,Holland,78.74,190.51,131.54,206.38,528.44,Single-ply,SBD,M
Boys,82.1,8,Price Odom,Comanche,77.93,210.92,115.67,199.58,526.17,Single-ply,SBD,M
Boys,82.1,9,Kevin Avdic,Cameron Yoe,79.65,213.19,117.93,195.04,526.17,Single-ply,SBD,M
Boys,82.1,10,Mario Sanchez,Blanco,78.11,199.58,117.93,183.7,501.22,Single-ply,SBD,M
Boys,82.1,DQ,Bodee Humphreys,Clifton,80.38,197.31,136.08,,,Single-ply,SBD,M
Boys,82.1,DQ,Jim Fowler,Early,81.28,,,,,Single-ply,SBD,M
Boys,89.81,1,Myles McGruder,Groesbeck,88.63,249.48,145.15,274.42,669.05,Single-ply,SBD,M
Boys,89.81,2,Cortney Young,Rogers,88.27,263.08,156.49,226.8,646.37,Single-ply,SBD,M
Boys,89.81,3,Nacho Rios,Comanche,85.82,251.74,154.22,229.06,635.03,Single-ply,SBD,M
Boys,89.81,4,Aaron Harralson,West,87.36,238.14,163.29,233.6,635.03,Single-ply,SBD,M
Boys,89.81,5,Emiliano Jimenez,Comanche,86.73,238.14,140.61,222.26,601.01,Single-ply,SBD,M
Boys,89.81,6,Kyle Martinez,Blanco,89.45,235.87,145.15,213.19,594.21,Single-ply,SBD,M
Boys,89.81,7,Joe Torres,Brady,88.36,231.33,136.08,195.04,562.45,Single-ply,SBD,M
Boys,89.81,8,Greg Williams,McGregor,85.91,208.65,142.88,208.65,560.19,Single-ply,SBD,M
Boys,89.81,9,Damion LaFrance,Wallis Brazos,89.81,215.46,124.74,208.65,548.85,Single-ply,SBD,M
Boys,89.81,10,Joseph Watson,San Saba,88,185.97,127.01,226.8,539.77,Single-ply,SBD,M
Boys,89.81,11,Chad Roebuck,Anderson-Shiro,87.45,204.12,136.08,170.1,510.29,Single-ply,SBD,M
Boys,89.81,DQ,Aubrey Bucholz,Brady,87.18,,,,,Single-ply,SBD,M
Boys,99.79,1,Vincent Wilson,Rogers,97.07,265.35,190.51,274.42,730.28,Single-ply,SBD,M
Boys,99.79,2,Miguel Elizondo,Early,97.43,294.84,174.63,249.48,718.94,Single-ply,SBD,M
Boys,99.79,3,Mikey Castillo,McGregor,97.79,263.08,167.83,240.4,671.32,Single-ply,SBD,M
Boys,99.79,4,Alex Falcon,Troy,93.08,242.67,165.56,254.01,662.24,Single-ply,SBD,M
Boys,99.79,5,James Carpenter,Rogers,93.35,231.33,149.69,226.8,607.81,Single-ply,SBD,M
Boys,99.79,6,Mason Oliver,Clifton,91.63,226.8,122.47,244.94,594.21,Single-ply,SBD,M
Boys,99.79,7,Mason Liles,Thorndale,98.07,247.21,122.47,206.38,576.06,Single-ply,SBD,M
Boys,99.79,8,Caden Carrizales,Brady,98.07,208.65,136.08,181.44,526.17,Single-ply,SBD,M
Boys,99.79,DQ,Adrian Spencer,Florence,98.88,,,,,Single-ply,SBD,M
Boys,99.79,DQ,Zack Menkin,Lago Vista,95.35,,,,,Single-ply,SBD,M
Boys,109.77,1,Chandler Strmiska,Little River Academy,108.41,272.16,195.04,265.35,732.55,Single-ply,SBD,M
Boys,109.77,2,Zach Solano,Rogers,107.14,288.03,195.04,215.46,698.53,Single-ply,SBD,M
Boys,109.77,3,Kendel Beck,Comanche,106.96,240.4,151.95,226.8,619.15,Single-ply,SBD,M
Boys,109.77,4,Clayton Pierce,San Saba,101.79,231.33,145.15,222.26,598.74,Single-ply,SBD,M
Boys,109.77,5,Jared Ricks,Dublin,105.87,219.99,147.42,226.8,594.21,Single-ply,SBD,M
Boys,109.77,6,Jorge Saldana,Grandview,107.23,222.26,122.47,192.78,537.51,Single-ply,SBD,M
Boys,109.77,7,Thomas Clawson,Jarrell,107.77,192.78,129.27,201.85,523.9,Single-ply,SBD,M
Boys,109.77,8,Astin Carr,Hamilton,103.78,197.31,124.74,192.78,514.83,Single-ply,SBD,M
Boys,109.77,DQ,Alex Gomez,Holland,105.69,,,,,Single-ply,SBD,M
Boys,109.77,DQ,Jaren Conine,Comanche,104.96,,,,,Single-ply,SBD,M
Boys,109.77,DQ,Chance Horton,Blanco,107.95,,,,,Single-ply,SBD,M
Boys,109.77,DQ,Daniel Fraire,West,107.95,310.71,,,,Single-ply,SBD,M
Boys,124.74,1,Ethan Price,Dublin,119.2,297.1,215.46,283.5,796.05,Single-ply,SBD,M
Boys,124.74,2,Brandon Webb,Lago Vista,122.11,303.91,167.83,231.33,703.07,Single-ply,SBD,M
Boys,124.74,3,Crispin Salinas,Chilton,115.94,242.67,138.35,242.67,623.69,Single-ply,SBD,M
Boys,124.74,4,Rob Warren,Hico,117.39,229.06,140.61,222.26,591.94,Single-ply,SBD,M
Boys,124.74,5,Clayton Heritage,Groesbeck,117.66,215.46,170.1,204.12,589.67,Single-ply,SBD,M
Boys,124.74,6,Connor Arney,Rogers,115.21,238.14,120.2,215.46,573.79,Single-ply,SBD,M
Boys,124.74,7,Azreal Valle,Luling,110.13,208.65,136.08,204.12,548.85,Single-ply,SBD,M
Boys,124.74,8,Jorde Del Rio,Groesbeck,121.65,213.19,117.93,204.12,535.24,Single-ply,SBD,M
Boys,124.74,DQ,Chase Cochran,Early,117.84,,,,,Single-ply,SBD,M
Boys,124.74,DQ,Dylan Woods,Hearne,116.75,,,,,Single-ply,SBD,M
Boys,124.74,DQ,Wyatt Gardner,Little River Academy,111.86,215.46,138.35,,,Single-ply,SBD,M
Boys,124.74,DQ,Yoqsam Orea,Wallis Brazos,117.12,,,,,Single-ply,SBD,M
Boys,124.74+,1,Seth Kohlscheen,Crawford,138.07,317.51,174.63,265.35,757.5,Single-ply,SBD,M
Boys,124.74+,2,De'vonze Franklin,Snook,155.76,317.51,185.97,219.99,723.48,Single-ply,SBD,M
Boys,124.74+,3,Adrian Lewis,Cameron Yoe,136.44,267.62,179.17,222.26,669.05,Single-ply,SBD,M
Boys,124.74+,4,Jonathan Murry,Luling,142.16,292.57,154.22,222.26,669.05,Single-ply,SBD,M
Boys,124.74+,5,Troy Dunnigan,Florence,162.2,267.62,106.59,260.82,635.03,Single-ply,SBD,M
Boys,124.74+,6,Noah Plsek,Waco Reicher Catholic,137.17,235.87,124.74,265.35,625.96,Single-ply,SBD,M
Boys,124.74+,7,Diesel Ceresini,Hamilton,136.71,226.8,115.67,226.8,569.26,Single-ply,SBD,M
Boys,124.74+,8,Juan Rodriguez,Clifton,157.22,224.53,151.95,192.78,569.26,Single-ply,SBD,M
Boys,124.74+,9,Bryen Healey,Dublin,131.36,219.99,136.08,204.12,560.19,Single-ply,SBD,M
Boys,124.74+,DQ,Anastacio Luna,Groesbeck,129.09,213.19,,,,Single-ply,SBD,M
Boys,,NS,Angel Soriano,Jarrell,,,,,,Single-ply,SBD,M
