Place,Name,CyrillicName,Sex,Event,Equipment,WeightClassKg,Tested,Division,BirthDate,BodyweightKg,Squat1Kg,Squat2Kg,Squat3Kg,Squat4Kg,Best3SquatKg,Bench1Kg,Bench2Kg,Bench3Kg,Bench4Kg,Best3BenchKg,Deadlift1Kg,Deadlift2Kg,Deadlift3Kg,Deadlift4Kg,Best3DeadliftKg,TotalKg
1,Agnessa Antipova,Агнесса Антипова,F,SBD,Wraps,52,No,J20-23,1988-03-09,51.65,-90,90,95,,95,70,75,,,75,80,90,,,90,260
1,Agnessa Antipova,Агнесса Антипова,F,SBD,Wraps,52,No,Open,1988-03-09,51.65,-90,90,95,,95,70,75,,,75,80,90,,,90,260
1,Natalya Starygina,Наталья Старыгина,F,SBD,Wraps,60,No,J20-23,1986-07-10,58.4,75,-85,90,,90,65,75,,,75,80,95,,,95,260
1,Natalya Starygina,Наталья Старыгина,F,SBD,Wraps,60,No,Open,1986-07-10,58.4,75,-85,90,,90,65,75,,,75,80,95,,,95,260
1,Ekaterina Kalyuzhnaya,Екатерина Калюжная,F,SBD,Wraps,67.5,No,J 20-23,1987-11-05,63.45,60,70,80,,80,40,45,-47.5,,45,80,90,100,,100,225
1,Mariya Shmyrina,Мария Шмырина,F,SBD,Wraps,75,No,Т 18-19,1990-09-19,69.4,-70,-70,70,,70,52.5,57.5,,,57.5,70,80,,,80,207.5
1,Valentin Bondarchuk,Валентин Бондарчук,M,SBD,Wraps,52,No,Т 13-15,1995-11-08,38.75,60,70,-80,,70,32.5,-37.5,,,32.5,60,75,-85,,75,177.5
1,Aleksandr Dambinov,Александр Дамбинов,M,SBD,Wraps,56,No,M70-74,1936-03-12,55.95,-95,95,,,95,65,-70,-70,,65,130,135,-137.5,,135,295
1,Konstantin Karlov,Константин Карлов,M,SBD,Wraps,60,No,Т 18-19,1989-06-17,59.2,100,110,-120,,110,75,85,-90,,85,120,130,-140,,130,325
1,Vitaliy Abashev,Виталий Абашев,M,SBD,Wraps,67.5,No,Open,1983-07-07,65.75,150,160,165,,165,90,100,105,,105,160,170,180,,180,450
2,Dmitriy Solonnikov,Дмитрий Солонников,M,SBD,Wraps,67.5,No,Open,1982-07-03,63,-120,130,140,,140,70,80,90,,90,160,170,-180,,170,400
1,Vladimir Ustinov,Владимир Устинов,M,SBD,Wraps,67.5,No,J 20-23,1986-03-16,67.45,180,190,200,,200,125,130,135,,135,190,200,210,,210,545
2,Sergey Sokolov,Сергей Соколов,M,SBD,Wraps,67.5,No,J 20-23,1988-07-21,63.5,140,150,-155,,150,85,95,-100,,95,170,180,190,,190,435
1,Vyacheslav Yurov,Вячеслав Юров,M,SBD,Wraps,67.5,No,Т18-19,1991-02-17,66.65,140,-150,160,,160,95,102.5,-110,,102.5,155,-165,,,155,417.5
3,Vyacheslav Yurov,Вячеслав Юров,M,SBD,Wraps,67.5,No,J20-23,1991-02-17,66.65,140,-150,160,,160,95,102.5,-110,,102.5,155,-165,,,155,417.5
1,Filipp Kozyrkin,Филипп Козыркин,M,SBD,Wraps,67.5,No,Т 13-15,1993-05-25,64.2,-100,-100,100,,100,70,75,-80,,75,140,150,160,,160,335
1,Igor Fedorov,Игорь Федоров,M,SBD,Wraps,67.5,No,Т 16-17,1991-07-13,63.3,120,130,-135,,130,77.5,80,-82.5,,80,145,155,160,,160,370
1,Pavel Muratov,Павел Муратов,M,SBD,Wraps,75,No,J 20-23,1985-09-09,74.35,200,215,-222.5,,215,130,137.5,-140,,137.5,230,250,,,250,602.5
1,Evgeniy Dekkert,Евгений Деккерт,M,SBD,Wraps,75,No,T 18-19,1989-08-22,74.15,-160,160,-170,,160,120,130,135,,135,200,,,,200,495
2,Evgeniy Dekkert,Евгений Деккерт,M,SBD,Wraps,75,No,J 20-23,1989-08-22,74.15,-160,160,-170,,160,120,130,135,,135,200,,,,200,495
3,Sergey Lvov,Сергей Львов,M,SBD,Wraps,75,No,J 20-23,1986-05-08,72.9,130,150,-170,,150,100,115,120,,120,160,-180,190,,190,460
1,Nikita Katrakov,Никита Катраков,M,SBD,Wraps,75,No,T 16-17,1991-10-19,73.3,110,120,130,,130,85,92.5,100,,100,120,130,-140,,130,360
4,Nikita Katrakov,Никита Катраков,M,SBD,Wraps,75,No,J 20-23,1991-10-19,73.3,110,120,130,,130,85,92.5,100,,100,120,130,-140,,130,360
1,Ilya Kramor,Илья Крамор,M,SBD,Wraps,75,No,Т 13-15,1994-08-02,70.9,100,110,115,,115,70,80,87.5,,87.5,130,150,162.5,,162.5,365
2,Aleksey Shapkin,Алексей Шапкин,M,SBD,Wraps,75,No,Т 18-19,1990-09-15,72.15,120,130,-140,,130,100,105,,,105,150,160,,,160,395
1,Ruslan Chelebadze,Руслан Челебадзе,M,SBD,Wraps,82.5,No,Open,1981-02-09,81.5,160,-170,175,,175,-140,140,-150,,140,190,200,,,200,515
1,Leonid Malakichev,Леонид Малакичев,M,SBD,Wraps,82.5,No,J 20-23,1988-08-28,80.9,-160,160,175,,175,120,135,142.5,,142.5,200,215,225,,225,542.5
2,Andrey Nozhkin,Андрей Ножкин,M,SBD,Wraps,82.5,No,J 20-23,1987-12-01,76.15,-145,145,155,,155,95,110,-115,,110,180,190,-200,,190,455
1,Sergey Terentev,Сергей Терентьев,M,SBD,Wraps,82.5,No,Т 16-17,1992-09-08,80,-90,100,110,,110,72.5,80,-87.5,,80,130,137.5,142.5,,142.5,332.5
1,Vladimir Prodanov,Владимир Проданов,M,SBD,Wraps,82.5,No,Т 18-19,1989-10-20,81.55,160,-170,-170,,160,95,105,-110,,105,180,200,210,,210,475
1,Igor Umerenkov,Игорь Умеренков,M,SBD,Wraps,90,No,Open,1980-09-13,87.2,212.5,225,235,,235,165,175,182.5,,182.5,262.5,275,282.5,,282.5,700
2,Petr Selivanov,Петр Селиванов,M,SBD,Wraps,90,No,Open,1970-09-10,86.45,215,-225,-225,,215,170,180,190,,190,230,250,,,250,655
3,Aleksey Bazhenov,Алексей Баженов,M,SBD,Wraps,90,No,Open,1977-11-01,88.95,185,195,210,,210,145,150,-155,,150,190,205,220,,220,580
1,Evgeniy Kravchenko,Евгений Кравченко,M,SBD,Wraps,90,No,J20-23,1986-11-03,86.45,205,220,230,,230,140,147.5,152.5,,152.5,280,295,-302.5,,295,677.5
1,Dmitriy Merkulov,Дмитрий Меркулов,M,SBD,Wraps,100,No,Open,1974-08-21,99.5,200,220,-240,,220,130,140,-145,,140,200,220,240,,240,600
1,Andrey Kryuchkov,Андрей Крючков,M,SBD,Wraps,110,No,Open,1980-11-20,108.55,210,230,245,,245,125,140,150,,150,240,-260,,,240,635
2,Yuriy Marchenko,Юрий Марченко,M,SBD,Wraps,110,No,Open,1995-02-09,109.65,160,180,-200,,180,115,125,-130,,125,160,-190,,,160,465
1,Yuriy Marchenko,Юрий Марченко,M,SBD,Wraps,110,No,T 13-15,1995-02-09,109.65,160,180,-200,,180,115,125,-130,,125,160,-190,,,160,465
1,Yuriy Kolmakov,Юрий Колмаков,M,SBD,Wraps,125,No,Open,1983-05-06,120.65,270,300,-315,,300,170,185,190,,190,280,300,315,,315,805
2,Andrey Petrov,Андрей Петров,M,SBD,Wraps,125,No,Open,1981-09-30,118.4,260,275,290,,290,190,195,200,,200,270,-290,-300,,270,760
1,Andrey Glombotskiy,Андрей Гломбоцкий,M,SBD,Wraps,140,No,Open,1976-01-31,133.95,230,-250,250,,250,160,170,-180,,170,270,290,-300,,290,710
1,Alla Semenova,Алла Семенова,F,B,Raw,52,No,Open,1983-04-12,52,,,,,,45,50,55,,55,,,,,,55
1,Natalya Konovalova,Наталья Коновалова,F,B,Raw,52,No,J20-23,1988-09-14,51.85,,,,,,75,80,85,,85,,,,,,85
1,Agnessa Antipova,Агнесса Антипова,F,B,Raw,56,No,Open,1988-03-09,52.7,,,,,,70,,,,70,,,,,,70
1,Agnessa Antipova,Агнесса Антипова,F,B,Raw,56,No,J 20-23,1988-03-09,52.7,,,,,,70,,,,70,,,,,,70
2,Natalya Mesilova,Наталья Месилова,F,B,Raw,56,No,Open,1973-08-23,54.3,,,,,,50,55,-60,,55,,,,,,55
1,Natalya Starygina,Наталья Старыгина,F,B,Raw,60,No,Open,1986-07-10,58.8,,,,,,65,75,,,75,,,,,,75
1,Natalya Starygina,Наталья Старыгина,F,B,Raw,60,No,J 20-23,1986-07-10,58.8,,,,,,65,75,,,75,,,,,,75
1,Mariya Shmyrina,Мария Шмырина,F,B,Raw,75,No,Т18-19,1990-09-19,69.68,,,,,,52.5,57.5,,,57.5,,,,,,57.5
1,Semen Paley,Семен Палей,M,B,Raw,52,No,Т 13-15,1999-04-14,33.4,,,,,,30,-35,-35,,30,,,,,,30
1,Vitaliy Abashev,Виталий Абашев,M,B,Raw,67.5,No,Open,1983-07-07,65.75,,,,,,100,-105,-105,,100,,,,,,100
1,Vladimir Ustinov,Владимир Устинов,M,B,Raw,67.5,No,J 20-23,1986-03-16,67.5,,,,,,125,130,135,,135,,,,,,135
2,Dmitriy Kelin,Дмитрий Келин,M,B,Raw,67.5,No,J 20-23,1988-05-05,67.5,,,,,,-115,115,,,115,,,,,,115
1,Filipp Kozyrkin,Филипп Козыркин,M,B,Raw,67.5,No,Т 13-15,1993-05-25,64.3,,,,,,75,-80,-80,,75,,,,,,75
2,Aleksey Manyukov,Алексей Манюков,M,B,Raw,67.5,No,Т 13-15,1994-07-08,65.1,,,,,,55,62.5,67.5,,67.5,,,,,,67.5
1,Andrey Salnikov,Андрей Сальников,M,B,Raw,67.5,No,Т 18-19,1990-12-20,65.65,,,,,,105,110,-112.5,,110,,,,,,110
2,Vyacheslav Yurov,Вячеслав Юров,M,B,Raw,67.5,No,Т 18-19,1991-02-17,67.1,,,,,,95,100,105,,105,,,,,,105
1,Aleksandr Biserov,Александр Бисеров,M,B,Raw,75,No,M 65-69,1943-08-18,74.1,,,,,,70,75,,,75,,,,,,75
1,Gennadiy Pereladov,Геннадий Переладов,M,B,Raw,75,No,M 70-74,1936-06-06,73.15,,,,,,90,95,-100,,95,,,,,,95
1,Aleksandr Rode,Александр Роде,M,B,Raw,75,No,Open,1981-04-14,72.05,,,,,,-135,140,145,,145,,,,,,145
2,Sergey Stakheev,Сергей Стахеев,M,B,Raw,75,No,Open,1984-11-22,72.95,,,,,,135,-140,145,,145,,,,,,145
2,Evgeniy Dekkert,Евгений Деккерт,M,B,Raw,75,No,T 18-19,1989-08-22,73.9,,,,,,125,135,-145,,135,,,,,,135
1,Evgeniy Dekkert,Евгений Деккерт,M,B,Raw,75,No,J 20-23,1989-08-22,73.9,,,,,,125,135,-145,,135,,,,,,135
2,Nikita Katrakov,Никита Катраков,M,B,Raw,75,No,J 20-23,1991-10-19,73.1,,,,,,85,92.5,100,,100,,,,,,100
2,Nikita Katrakov,Никита Катраков,M,B,Raw,75,No,T 16-17,1991-10-19,73.1,,,,,,85,92.5,100,,100,,,,,,100
1,Evgeniy Gorshkov,Евгений Горшков,M,B,Raw,75,No,Т 13-15,1993-04-23,74.3,,,,,,90,-100,-100,,90,,,,,,90
1,Ivan Iznov,Иван Изнов,M,B,Raw,75,No,Т 16-17,1991-09-04,72.4,,,,,,110,-112.5,-112.5,,110,,,,,,110
1,Sergey Menshikov,Сергей Меньшиков,M,B,Raw,75,No,Т 18-19,1989-03-28,74.1,,,,,,130,140,145,,145,,,,,,145
3,Aleksey Shapkin,Алексей Шапкин,M,B,Raw,75,No,Т 18-19,1990-09-15,72.45,,,,,,100,110,,,110,,,,,,110
6,Dmitriy Kukharenko,Дмитрий Кухаренко,M,B,Raw,82.5,No,Open,1969-01-22,80,,,,,,155,-165,-170,,155,,,,,,155
1,Dmitriy Kukharenko,Дмитрий Кухаренко,M,B,Raw,82.5,No,M 40-44,1969-01-22,80,,,,,,155,-165,-170,,155,,,,,,155
1,Sergey Konovalov,Сергей Коновалов,M,B,Raw,82.5,No,Open,1987-05-23,81.85,,,,,,180,187.5,200,,200,,,,,,200
1,Sergey Konovalov,Сергей Коновалов,M,B,Raw,82.5,No,J 20-23,1987-05-23,81.85,,,,,,180,187.5,200,,200,,,,,,200
2,Vladimir Charskiy,Владимир Чарский,M,B,Raw,82.5,No,Open,1978-10-27,79.65,,,,,,-180,180,-190,,180,,,,,,180
3,Nikolay Mikheev,Николай Михеев,M,B,Raw,82.5,No,Open,1984-05-22,80.45,,,,,,165,175,-180,,175,,,,,,175
4,Dmitriy Alekseenko,Дмитрий Алексеенко,M,B,Raw,82.5,No,Open,1984-08-18,82.45,,,,,,170,-177.5,-177.5,,170,,,,,,170
5,Denis Maslakov,Денис Маслаков,M,B,Raw,82.5,No,Open,1982-07-31,78.25,,,,,,155,165,-170,,165,,,,,,165
7,Georgiy Avdonin,Георгий Авдонин,M,B,Raw,82.5,No,Open,1969-09-10,81.3,,,,,,155,-160,,,155,,,,,,155
1,Vladimir Shchetinkov,Владимир Щетинков,M,B,Raw,82.5,No,Т 16-17,1991-06-24,79.9,,,,,,-100,100,107.5,,107.5,,,,,,107.5
1,Sergey Chechulin,Сергей Чечулин,M,B,Raw,90,No,M 40-44,1966-12-09,87.8,,,,,,140,-150,-150,,140,,,,,,140
1,Sergey Druzhkov,Сергей Дружков,M,B,Raw,90,No,M 55-59,1950-01-01,85.15,,,,,,135,-150,150,,150,,,,,,150
1,Fedor Chesnokov,Федор Чесноков,M,B,Raw,90,No,M 60-64,1947-02-16,89.7,,,,,,135,140,-145,,140,,,,,,140
1,Vladimir Malyshev,Владимир Малышев,M,B,Raw,90,No,M 70-74,1936-09-07,86,,,,,,120,127.5,130,,130,,,,,,130
1,Ivan Vasyunin,Иван Васюнин,M,B,Raw,90,No,Open,1983-08-08,88.75,,,,,,190,200,207.5,,207.5,,,,,,207.5
2,Alexey Merkulov,Алексей Меркулов,M,B,Raw,90,No,Open,1983-07-24,87.8,,,,,,185,200,-207.5,,200,,,,,,200
3,Petr Selivanov,Петр Селиванов,M,B,Raw,90,No,Open,1970-09-10,86.45,,,,,,-185,190,195,,195,,,,,,195
4,Aleksey Ponosov,Алексей Поносов,M,B,Raw,90,No,Open,1983-08-12,89.75,,,,,,175,185,-197.5,,185,,,,,,185
5,Grigoriy Serebrennikov,Григорий Серебренников,M,B,Raw,90,No,Open,1973-07-25,86.75,,,,,,170,177.5,182.5,,182.5,,,,,,182.5
6,Andrey Belykh,Андрей Белых,M,B,Raw,90,No,Open,1969-07-19,90,,,,,,177.5,182.5,-187.5,,182.5,,,,,,182.5
1,Yuriy Karpov,Юрий Карпов,M,B,Raw,90,No,J 20-23,1986-12-13,88.7,,,,,,170,185,,,185,,,,,,185
2,Rodion Duka,Родион Дука,M,B,Raw,90,No,J 20-23,1985-09-15,89.5,,,,,,120,130,-137.5,,130,,,,,,130
1,Aleksandr Fedulov,Александр Федулов,M,B,Raw,100,No,M 40-44,1966-10-01,99.9,,,,,,170,180,-190,,180,,,,,,180
1,Vladimir Bolshov,Владимир Большов,M,B,Raw,100,No,M 60-64,1947-09-30,94.95,,,,,,120,130,-140,,130,,,,,,130
1,Vadim Kakhuta,Вадим Кахута,M,B,Raw,100,No,Open,1981-08-15,98.65,,,,,,200,220,230,,230,,,,,,230
2,Oleg Saydentsal,Олег Сайденцаль,M,B,Raw,100,No,Open,1975-03-14,99.99,,,,,,200,210,215,,215,,,,,,215
3,Stanislav Dimitryuk,Станислав Димитрюк,M,B,Raw,100,No,Open,1975-04-19,98.45,,,,,,195,205,210,,210,,,,,,210
4,Vadim Smirnov,Вадим Смирнов,M,B,Raw,100,No,Open,1982-10-13,93.65,,,,,,185,190,195,,195,,,,,,195
5,Aleksey Melnikov,Алексей Мельников,M,B,Raw,100,No,Open,1978-12-02,98.25,,,,,,-190,190,-200,,190,,,,,,190
6,Vladimir Shchukin,Владимир Щукин,M,B,Raw,100,No,Open,1980-03-15,96.2,,,,,,160,-172.5,172.5,,172.5,,,,,,172.5
7,Maksim Kozlovich,Максим Козлович,M,B,Raw,100,No,Open,1983-01-08,90.6,,,,,,-170,,170,,170,,,,,,170
8,Aleksandr Velker,Александр Велькер,M,B,Raw,100,No,Open,1983-01-11,99.9,,,,,,145,-152,-152.5,,145,,,,,,145
1,Andrey Govorukha,Андрей Говоруха,M,B,Raw,110,No,M 40-44,1966-12-23,105.85,,,,,,110,120,-125,,120,,,,,,120
1,Viktor Pozdnyakov,Виктор Поздняков,M,B,Raw,110,No,M 50-54,1958-12-12,107.45,,,,,,160,170,180,,180,,,,,,180
1,Vladimir Korniets,Владимир Корниец,M,B,Raw,110,No,M 55-59,1954-01-21,109.8,,,,,,122.5,132.5,137.5,,137.5,,,,,,137.5
2,Anatoliy Lukyanov,Анатолий Лукьянов,M,B,Raw,110,No,M 55-59,1949-11-21,104.7,,,,,,120,130,135,,135,,,,,,135
1,Dmitriy Bubnov,Дмитрий Бубнов,M,B,Raw,110,No,Open,1973-10-14,109.95,,,,,,190,202.5,-210,,202.5,,,,,,202.5
2,Yakov Berman,Яков Берман,M,B,Raw,110,No,Open,1972-06-22,103.45,,,,,,200,-210,-210,,200,,,,,,200
3,Vladislav Manyukov,Владислав Манюков,M,B,Raw,110,No,Open,1972-08-27,108.65,,,,,,175,182.5,192.5,,192.5,,,,,,192.5
4,Igor Chistyakov,Игорь Чистяков,M,B,Raw,110,No,Open,1975-06-05,108,,,,,,190,-200,-205,,190,,,,,,190
5,Marat Garaiev,Марат Гараиев,M,B,Raw,110,No,Open,1975-04-09,108.75,,,,,,180,185,-190,,185,,,,,,185
1,Pavel Redkin,Павел Редькин,M,B,Raw,110,No,J 20-23,1985-07-11,107,,,,,,187.5,190,197.5,,197.5,,,,,,197.5
2,Ivan Minko,Иван Минко,M,B,Raw,110,No,J 20-23,1988-06-15,103.25,,,,,,150,160,-175,,160,,,,,,160
1,Valeriy Novolokov,Валерий Новолоков,M,B,Raw,125,No,Open,1964-03-13,118.65,,,,,,222.5,-227.5,-230,,222.5,,,,,,222.5
1,Valeriy Novolokov,Валерий Новолоков,M,B,Raw,125,No,M 40-44,1964-03-13,118.65,,,,,,222.5,-227.5,-230,,222.5,,,,,,222.5
1,Viktor Kozlov,Виктор Козлов,M,B,Raw,125,No,M 45-49,1963-03-23,118.95,,,,,,210,-215,215,,215,,,,,,215
1,Dmitriy Korshikov,Дмитрий Коршиков,M,B,Raw,125,No,J 20-23,1987-04-22,111.4,,,,,,140,150,160,,160,,,,,,160
1,Evgeniy Gulyaev,Евгений Гуляев,M,B,Raw,140,No,Open,,130.2,,,,,,230,-242.5,-242.5,,230,,,,,,230
2,Andrey Brusov,Андрей Брусов,M,B,Raw,140,No,Open,,128.3,,,,,,220,-230,-230,,220,,,,,,220
2,Agnessa Antipova,Агнесса Антипова,F,SBD,Multi-ply,52,No,Open,,51.55,155,-165,170,,170,95,-102.5,-102.5,,95,135,145,,,145,410
1,Agnessa Antipova,Агнесса Антипова,F,SBD,Multi-ply,52,No,J 20-23,,51.55,155,-165,170,,170,95,-102.5,-102.5,,95,135,145,,,145,410
1,Marina Zotova,Марина Зотова,F,SBD,Multi-ply,52,No,Open,,51.55,-130,140,160,,160,70,92.5,100,,100,160,175,185,195,185,445
1,Rimma Khabibullina,Римма Хабибуллина,F,SBD,Multi-ply,52,No,T 18-19,,50,120,-130,130,,130,60,-70,-70,,60,100,110,-115,,110,300
1,Natalya Sborovskaya,Наталья Сборовская,F,SBD,Multi-ply,56,No,T 18-19,,55.55,120,130,-140,,130,60,-70,-70,,60,130,145,-155,,145,335
1,Darya Bulanakova,Дарья Буланакова,F,SBD,Multi-ply,56,No,Open,,55.05,125,135,145,,145,-50,50,-55,,50,-95,102.5,110,,110,305
1,Natalya Starygina,Наталья Старыгина,F,SBD,Multi-ply,60,No,Open,,58.8,160,170,185,,185,90,-97.5,97.5,,97.5,145,160,165,,165,447.5
1,Natalya Starygina,Наталья Старыгина,F,SBD,Multi-ply,60,No,J 20-23,,58.8,160,170,185,,185,90,-97.5,97.5,,97.5,145,160,165,,165,447.5
2,Anastasiya Amelina,Анастасия Амелина,F,SBD,Multi-ply,60,No,J 20-23,,58.55,180,190,-200,,190,85,-90,90,,90,155,-165,-165,,155,435
1,Alena Podelko,Алёна Поделко,F,SBD,Multi-ply,60,No,T 18-19,,58.4,130,140,-147.5,,140,60,-65,-65,,60,-115,115,120,,120,320
1,Ekaterina Ustyuzhaninova,Екатерина Устюжанинова,F,SBD,Multi-ply,67.5,No,J 20-23,,67,180,-190,190,,190,-100,-100,100,,100,140,150,-160,,150,440
1,Yulia Medvedeva,Юлия Медведева,F,SBD,Multi-ply,67.5,No,Open,,67,-220,-220,220,,220,-140,-140,140,,140,190,-200,-200,,190,550
1,Mariya Shmyrina,Мария Шмырина,F,SBD,Multi-ply,75,No,T 18-19,,69.2,-130,130,-140,,130,-70,70,77.5,,77.5,115,125,135,,135,342.5
1,Marina Makedonskikh,Марина Македонских,F,SBD,Multi-ply,82.5,No,T 18-19,,82.25,100,140,160,,160,50,60,-70,,60,110,140,-155,,140,360
1,Vadim Sokushev,Вадим Сокушев,M,SBD,Multi-ply,52,No,T 18-19,,51.45,170,180,190,,190,100,110,115,,115,130,150,-175,,150,455
1,Mikhail Pridannikov,Михаил Приданников,M,SBD,Multi-ply,56,No,J 20-23,,56,190,-210,210,,210,-140,140,155,,155,150,-180,180,,180,545
1,Rustam Bikbaev,Рустам Бикбаев,M,SBD,Multi-ply,56,No,T 18-19,,54.6,110,130,142.5,,142.5,60,70,77.5,,77.5,130,162.5,-167.5,,162.5,382.5
1,Aleksey Likhach,Алексей Лихач,M,SBD,Multi-ply,60,No,T 18-19,,59.2,160,-180,180,,180,80,90,,,90,180,190,200,,200,470
1,Timur Mukhomedyanov,Тимур Мухомедьянов,M,SBD,Multi-ply,67.5,No,J 20-23,,65.8,230,250,260,,260,130,-140,140,,140,200,215,235,,235,635
2,Dmitriy Kelin,Дмитрий Келин,M,SBD,Multi-ply,67.5,No,J 20-23,,67.5,230,-240,240,,240,-150,150,155,,155,200,215,222.5,,222.5,617.5
3,Vyacheslav Yurov,Вячеслав Юров,M,SBD,Multi-ply,67.5,No,J 20-23,,67.2,210,220,,,220,125,130,135,,135,190,-200,200,,200,555
2,Vyacheslav Yurov,Вячеслав Юров,M,SBD,Multi-ply,67.5,No,T 18-19,,67.2,210,220,,,220,125,130,135,,135,190,-200,200,,200,555
1,Vitaliy Ivanovskiy,Виталий Ивановский,M,SBD,Multi-ply,67.5,No,T 16-17,,67.5,140,-170,170,,170,90,110,115,,115,150,-180,180,,180,465
1,Roman Akhmedziyanov,Роман Ахмедзиянов,M,SBD,Multi-ply,67.5,No,T 18-19,,67,200,215,230,,230,120,130,135,,135,210,220,230,,230,595
1,Sergey Bychkov,Сергей Бычков,M,SBD,Multi-ply,67.5,No,M40-44,,67.5,160,185,195,,195,90,100,105,,105,170,-190,190,,190,490
1,Aleksandr Lisovitskiy,Александр Лисовицкий,M,SBD,Multi-ply,75,No,J 20-23,,74.9,300,315,327.5,,327.5,165,170,180,,180,260,287.5,-290,,287.5,795
2,Maksim Shukhalov,Максим Шухалов,M,SBD,Multi-ply,75,No,J 20-23,,74.5,250,-275,275,,275,155,170,177.5,,177.5,220,232.5,-242.5,,232.5,685
3,Evgeniy Dekkert,Евгений Деккерт,M,SBD,Multi-ply,75,No,J 20-23,,74.95,-270,-270,270,,270,150,160,165,,165,-250,250,-255,,250,685
1,Evgeniy Dekkert,Евгений Деккерт,M,SBD,Multi-ply,75,No,T 18-19,,74.95,-270,-270,270,,270,150,160,165,,165,-250,250,-255,,250,685
4,Georgiy Borovskikh,Георгий Боровских,M,SBD,Multi-ply,75,No,J 20-23,,72.7,160,175,185,,185,120,130,140,,140,190,205,-210,,205,530
5,Nikita Katrakov,Никита Катраков,M,SBD,Multi-ply,75,No,J 20-23,,73.2,200,215,-230,,215,115,125,-130,,125,155,167.5,172.5,,172.5,512.5
1,Nikita Katrakov,Никита Катраков,M,SBD,Multi-ply,75,No,T 16-17,,73.2,200,215,-230,,215,115,125,-130,,125,155,167.5,172.5,,172.5,512.5
6,Vyacheslav Sapozhnikov,Вячеслав Сапожников,M,SBD,Multi-ply,75,No,J 20-23,,74.8,-180,180,-190,,180,-115,115,-120,,115,180,200,,,200,495
1,Anatoliy Glazunov,Анатолий Глазунов,M,SBD,Multi-ply,75,No,Open,,73.3,270,290,315,,315,170,-190,190,,190,220,240,-260,,240,745
1,Evgeniy Gorshkov,Евгений Горшков,M,SBD,Multi-ply,75,No,T 13-15,,74.5,120,140,150,,150,90,97.5,-102.5,,97.5,120,135,-152.5,,135,382.5
2,Denis Stepanov,Денис Степанов,M,SBD,Multi-ply,75,No,T 16-17,,73.25,170,185,-195,,185,130,-140,-140,,130,170,180,-200,,180,495
2,Dmitriy Ovcharov,Дмитрий Овчаров,M,SBD,Multi-ply,75,No,T 18-19,,74.75,220,-240,240,,240,160,170,180,,180,200,215,-222.5,,215,635
DQ,Rinat Valiullin,Ринат Валиуллин,M,SBD,Multi-ply,75,No,T 18-19,,73.95,190,200,210,,210,-105,-105,-105,,,,,,,,
DQ,Aleksey Shapkin,Алексей Шапкин,M,SBD,Multi-ply,75,No,T 18-19,,72.65,180,190,200,,200,-120,-130,-130,,,,,,,,
1,Sergey Konovalov,Сергей Коновалов,M,SBD,Multi-ply,82.5,No,Open,,81.8,-330,330,350,,350,-245,250,260,,260,290,300,-310,,300,910
1,Sergey Konovalov,Сергей Коновалов,M,SBD,Multi-ply,82.5,No,J 20-23,,81.8,-330,330,350,,350,-245,250,260,,260,290,300,-310,,300,910
2,Sergey Blinov,Сергей Блинов,M,SBD,Multi-ply,82.5,No,J 20-23,,80.6,-300,300,320,,320,130,205,215,,215,-265,265,-285,,265,800
3,Igor Ryzhov,Игорь Рыжов,M,SBD,Multi-ply,82.5,No,J 20-23,,81.55,255,-265,270,,270,165,180,-185,,180,-260,270,,,270,720
4,Dmitriy Osipov,Дмитрий Осипов,M,SBD,Multi-ply,82.5,No,J 20-23,,82.15,260,-280,280,,280,170,180,-190,,180,210,240,260,,260,720
5,Vasiliy Ludin,Василий Лудин,M,SBD,Multi-ply,82.5,No,J 20-23,,81.45,-270,280,290,,290,-180,-180,180,,180,-240,240,-250,,240,710
6,Ruslan Medvedev,Руслан Медведев,M,SBD,Multi-ply,82.5,No,J 20-23,,82.5,260,285,292.5,,292.5,175,190,-200,,190,220,-237.5,-237.5,,220,702.5
7,Igor Novikov,Игорь Новиков,M,SBD,Multi-ply,82.5,No,J 20-23,,82.25,220,240,-255,,240,145,155,165,,165,210,225,-235,,225,630
DQ,Andrey Chesnokov #1,Андрей Чесноков,M,SBD,Multi-ply,82.5,No,J 20-23,,80.95,-280,280,-300,,280,-190,-190,-190,,,,,,,,
1,Valeriy Glazunov,Валерий Глазунов,M,SBD,Multi-ply,82.5,No,M 60-64,,81.65,-270,270,300,320,300,170,-190,-190,,170,220,240,250,,250,720
2,Rinat Khusainov,Ринат Хусаинов,M,SBD,Multi-ply,82.5,No,Open,,81.8,300,-320,320,,320,160,170,-180,,170,250,280,-300,,280,770
3,Denis Mosya,Денис Мося,M,SBD,Multi-ply,82.5,No,Open,,79.05,245,265,285,,285,160,170,180,,180,230,250,-265,,250,715
4,Dmitriy Osipov,Дмитрий Осипов,M,SBD,Multi-ply,82.5,No,Open,,82.15,260,-280,280,,280,170,180,-190,,180,220,240,-260,,240,700
1,Andrey Koldovskiy,Андрей Колдовский,M,SBD,Multi-ply,82.5,No,T 16-17,,80.15,130,140,160,,160,70,80,82.5,,82.5,130,140,152.5,,152.5,395
1,Andrey Guz,Андрей Гузь,M,SBD,Multi-ply,82.5,No,T 18-19,,82,250,270,280,,280,-175,175,,,175,230,250,-265,,250,705
2,Dmitriy Ogorodov,Дмитрий Огородов,M,SBD,Multi-ply,82.5,No,T 18-19,,81.55,-240,250,-265,,250,150,-160,-160,,150,-230,230,-240,,230,630
3,Aleksandr Malanin,Александр Маланьин,M,SBD,Multi-ply,82.5,No,T 18-19,,80.15,230,250,260,,260,135,145,-155,,145,200,215,-225,,215,620
4,Konstantin Petrushin,Константин Петрушин,M,SBD,Multi-ply,82.5,No,T 18-19,,80.6,180,-200,205,,205,115,125,132.5,,132.5,180,195,205,,205,542.5
DQ,Nikita Vasilev,Никита Васильев,M,SBD,Multi-ply,82.5,No,T 18-19,,81.8,-250,-250,250,,250,,,,,,,,,,,
1,Mikhail Tsatsulin,Михаил Цацулин,M,SBD,Multi-ply,90,No,J 20-23,,88.6,310,330,-345,,330,200,-210,,,200,300,332,-350,,332,862
2,Vladimir Grigorev,Владимир Григорьев,M,SBD,Multi-ply,90,No,J 20-23,,90,260,285,-300,,285,165,-185,185,,185,270,280,,,280,750
3,Denis Mustafin,Денис Мустафин,M,SBD,Multi-ply,90,No,J 20-23,,88.5,210,220,227.5,,227.5,120,-135,-135,,120,210,-225,-237.5,,210,557.5
DQ,Aleksandr Shirinkin,Александр Ширинкин,M,SBD,Multi-ply,90,No,J 20-23,,89.4,-295,295,-305,,295,-190,-190,-190,,,,,,,,
1,Aleksandr Zhilin,Александр Жилин,M,SBD,Multi-ply,90,No,M 40-44,,86.3,180,190,200,,200,160,170,175,,175,180,-185,-185,,180,555
2,Aleksandr Filatov,Александр Филатов,M,SBD,Multi-ply,90,No,M 40-44,,88.1,-160,-160,160,,160,130,140,-145,,140,-170,-170,170,,170,470
1,Aleksandr Podryadov,Александр Подрядов,M,SBD,Multi-ply,90,No,M 55-59,,90,170,200,225,,225,100,125,140,,140,120,160,-220,,160,525
1,Ilya Lebedev,Илья Лебедев,M,SBD,Multi-ply,90,No,Open,,89.4,280,305,-320,,305,210,225,,,225,250,260,265,,265,795
2,Petr Korolchenko,Петр Корольченко,M,SBD,Multi-ply,90,No,Open,,88.65,300,320,330,,330,180,190,200,,200,240,-250,-260,,240,770
3,Pavel Volkov,Павел Волков,M,SBD,Multi-ply,90,No,Open,,88.8,-290,290,-300,,290,150,157.5,162.5,,162.5,290,-297.5,297.5,,297.5,750
4,Aleksandr Dorokhov,Александр Дорохов,M,SBD,Multi-ply,90,No,Open,,88.55,250,265,-280,,265,-150,150,-160,,150,220,230,240,,240,655
DQ,Andrey Stepanov,Андрей Степанов,M,SBD,Multi-ply,90,No,Open,,84.7,-290,-290,-310,,,,,,,,,,,,,
DQ,Andrey Sharapov,Андрей Шарапов,M,SBD,Multi-ply,90,No,Open,,89.8,400,-420,-420,,400,-240,-240,-240,,,,,,,,
1,Aleksandr Panaskin,Александр Панаскин,M,SBD,Multi-ply,90,No,T 16-17,,87.8,270,290,310,,310,160,181,-200,,181,220,240,260,,260,751
1,Evgeniy Shmelev,Евгений Шмелев,M,SBD,Multi-ply,90,No,T 18-19,,86.8,230,250,,,250,165,-175,,,165,230,240,-255,,240,655
2,Vladimir Ushakov,Владимир Ушаков,M,SBD,Multi-ply,90,No,T 18-19,,86.35,180,-190,190,,190,90,100,110,,110,140,150,160,,160,460
1,Nikolay Piskunov,Николай Пискунов,M,SBD,Multi-ply,100,No,J 20-23,,99.55,-320,320,330,,330,180,190,200,,200,250,270,-280,,270,800
2,Viktor Druzhinin,Виктор Дружинин,M,SBD,Multi-ply,100,No,J 20-23,,99.4,-300,300,-320,,300,195,210,215,,215,240,-260,-260,,240,755
1,Dmitriy Chertushkin,Дмитрий Чертушкин,M,SBD,Multi-ply,100,No,M 40-44,,97.8,245,-255,255,,255,190,197.5,200,,200,200,210,-220,,210,665
1,Vladimir Potapov,Владимир Потапов,M,SBD,Multi-ply,100,No,M 50-54,,90.75,215,235,245,,245,155,170,175,,175,180,200,-205,,200,620
2,Vladimir Kopchuk,Владимир Копчук,M,SBD,Multi-ply,100,No,M 50-54,,92.15,-200,-220,220,,220,135,145,155,,155,200,215,-230,,215,590
1,Nikolay Bezuglov,Николай Безуглов,M,SBD,Multi-ply,100,No,Open,,97.4,-350,370,400,,400,200,-240,240,,240,-320,-320,320,,320,960
2,Aleksey Kozlov,Алексей Козлов,M,SBD,Multi-ply,100,No,Open,,98.15,340,360,,,360,-210,210,-230,,210,300,-330,-330,,300,870
3,Aleksey Yudin,Алексей Юдин,M,SBD,Multi-ply,100,No,Open,,97.7,280,295,310,,310,220,-230,230,,230,260,-270,,,260,800
1,Mikhail Konshin,Михаил Коньшин,M,SBD,Multi-ply,100,No,T 18-19,,96,-210,230,245,,245,130,-137.5,,,130,205,225,235,,235,610
1,Eduard Shpringer,Эдуард Шпрингер,M,SBD,Multi-ply,110,No,J 20-23,,109.65,-310,310,,,310,220,237.5,-255,,237.5,270,280,292.5,,292.5,840
2,Andrey Zverev,Андрей Зверев,M,SBD,Multi-ply,110,No,J 20-23,,109.25,-300,-300,300,,300,200,220,230,,230,265,280,-310,,280,810
3,Roman Gorkovchuk,Роман Горковчук,M,SBD,Multi-ply,110,No,J 20-23,,103.9,270,300,-310,,300,140,-200,-210,,140,200,215,220,,220,660
1,Artem Guseletov,Артем Гуселетов,M,SBD,Multi-ply,110,No,Open,,106.45,-320,340,-360,,340,200,220,-230,,220,280,300,310,,310,870
2,Evgeniy Gavrilov,Евгений Гаврилов,M,SBD,Multi-ply,110,No,Open,,103.85,-300,-345,345,,345,200,-210,-220,,200,270,290,-315,,290,835
3,Kirill Ignatev,Кирилл Игнатьев,M,SBD,Multi-ply,110,No,Open,,104.95,-300,315,325,,325,210,-220,-220,,210,255,260,-262.5,,260,795
4,Aleksandr Musokhranov,Александр Мусохранов,M,SBD,Multi-ply,110,No,Open,,103.15,300,-320,320,,320,175,-185,185,,185,260,-285.5,,,260,765
DQ,Andrey Ayvazov,Андрей Айвазов,M,SBD,Multi-ply,110,No,Open,,105.2,-380,-400,-400,,,,,,,,,,,,,
DQ,Dmitriy Sorokin,Дмитрий Сорокин,M,SBD,Multi-ply,110,No,Open,,106.5,-320,-320,-320,,,,,,,,,,,,,
DQ,Mikhail Brylin,Михаил Брылин,M,SBD,Multi-ply,110,No,Open,,109.9,-390,-390,-390,,,,,,,,,,,,,
1,Oleg Gevko,Олег Гевко,M,SBD,Multi-ply,110,No,T 18-19,,106.1,275,295,315,,315,165,175,180,,180,-260,260,-300,,260,755
2,Artem Feofilov,Артем Феофилов,M,SBD,Multi-ply,110,No,T 18-19,,109.7,300,-315,-315,,300,185,195,-200,,195,240,250,255,,255,750
1,Vyacheslav Shadrin,Вячеслав Шадрин,M,SBD,Multi-ply,125,No,M 40-44,,120.65,-275,-285,285,,285,170,180,,,180,250,280,-300,,280,745
1,Mikhail Glazunov,Михаил Глазунов,M,SBD,Multi-ply,125,No,Open,,119.95,360,390,405,,405,-260,260,280,,280,-330,330,-360,,330,1015
1,Viktor Malyugin,Виктор Малюгин,M,SBD,Multi-ply,125,No,T 18-19,,120,-360,-360,360,,360,250,-260,260,,260,270,290,,,290,910
1,Kirill Sarychev,Кирилл Сарычев,M,SBD,Single-ply,140+,No,Open,,152.2,370,-420,-420,,370,310,320,332.5,,332.5,330,-360,,,330,1032.5
1,Kirill Sarychev,Кирилл Сарычев,M,SBD,Single-ply,140+,No,J 20-23,,152.2,370,-420,-420,,370,310,320,332.5,,332.5,330,-360,,,330,1032.5
1,Nikolay Vinokurov,Николай Винокуров,M,SBD,Multi-ply,140+,No,M 40-44,,141.15,330,360,380,,380,230,260,-280,,260,310,-330,,,310,950
1,Darya Ulanova,Дарья Уланова,F,B,Multi-ply,48,No,T 16-17,,45.3,,,,,,40,45,,,45,,,,,,45
1,Agnessa Antipova,Агнесса Антипова,F,B,Multi-ply,52,No,Open,,52,,,,,,-95,95,100,,100,,,,,,100
1,Agnessa Antipova,Агнесса Антипова,F,B,Multi-ply,52,No,J 20-23,,52,,,,,,-95,95,100,,100,,,,,,100
2,Svetlana Solodilova,Светлана Солодилова,F,B,Multi-ply,52,No,J20-23,,50,,,,,,50,-55,55,,55,,,,,,55
1,Kristina Gafanova,Кристина Гафанова,F,B,Multi-ply,56,No,T 16-17,,53.9,,,,,,40,-45,55,,55,,,,,,55
1,Natalya Starygina,Наталья Старыгина,F,B,Multi-ply,60,No,Open,,59.3,,,,,,-90,-90,90,,90,,,,,,90
1,Natalya Starygina,Наталья Старыгина,F,B,Multi-ply,60,No,J 20-23,,59.3,,,,,,-90,-90,90,,90,,,,,,90
2,Anastasiya Amelina,Анастасия Амелина,F,B,Multi-ply,60,No,J20-23,,59.85,,,,,,82.5,87.5,-92.5,,87.5,,,,,,87.5
3,Mariya Shcherbakova,Мария Щербакова,F,B,Multi-ply,60,No,J20-23,,60,,,,,,60,-70,-70,,60,,,,,,60
2,Marina Gileva,Марина Гилева,F,B,Multi-ply,60,No,Open,,56.9,,,,,,-70,-70,70,,70,,,,,,70
DQ,Ekaterina Ustyuzhaninova,Екатерина Устюжанинова,F,B,Multi-ply,67.5,No,J20-23,,67.3,,,,,,-107.5,-107.5,-107.5,,,,,,,,
1,Yulia Medvedeva,Юлия Медведева,F,B,Multi-ply,67.5,No,Open,,67.45,,,,,,-140,140,-147.5,,140,,,,,,140
2,Nellya Maltseva,Нелля Мальцева,F,B,Multi-ply,67.5,No,Open,,65,,,,,,-130,135,145,,145,,,,,,145
DQ,Irina Pilipishko,Ирина Пилипишко,F,B,Multi-ply,67.5,No,M 50-54,,66.5,,,,,,-85,-92.5,-92.5,,,,,,,,
1,Mariya Shmyrina,Мария Шмырина,F,B,Multi-ply,75,No,Open,,69.5,,,,,,72.5,77.5,-80,,77.5,,,,,,77.5
1,Mariya Shmyrina,Мария Шмырина,F,B,Multi-ply,75,No,T 18-19,,69.5,,,,,,72.5,77.5,-80,,77.5,,,,,,77.5
1,Vadim Sokushev,Вадим Сокушев,M,B,Multi-ply,52,No,T 18-19,,51.2,,,,,,105,-115,-115,,105,,,,,,105
1,Mikhail Pridannikov,Михаил Приданников,M,B,Multi-ply,56,No,J20-23,,55.9,,,,,,140,150,160,,160,,,,,,160
1,Denis Bobrov,Денис Бобров,M,B,Multi-ply,56,No,T 13-15,,53.5,,,,,,-40,-40,40,,40,,,,,,40
1,Aleksey Gusev,Алексей Гусев,M,B,Multi-ply,56,No,T 16-17,,53.2,,,,,,85,90,95,,95,,,,,,95
1,Sergey Ladyzhnikov,Сергей Ладыжников,M,B,Multi-ply,67.5,No,J20-23,,66.6,,,,,,-170,-170,170,,170,,,,,,170
2,Vyacheslav Yurov,Вячеслав Юров,M,B,Multi-ply,67.5,No,J20-23,,67.5,,,,,,125,-130,130,,130,,,,,,130
DQ,Dmitriy Kelin,Дмитрий Келин,M,B,Multi-ply,67.5,No,J20-23,,67.5,,,,,,-145,-145,-145,,,,,,,,
1,Yuriy Kiselev,Юрий Киселев,M,B,Multi-ply,67.5,No,M70-74,,65.8,,,,,,75,85,,,85,,,,,,85
DQ,Denis Perminov,Денис Перминов,M,B,Multi-ply,67.5,No,Open,,67.5,,,,,,-180,-180,-180,,,,,,,,
1,Vyacheslav Yurov,Вячеслав Юров,M,B,Multi-ply,67.5,No,T 18-19,,67.5,,,,,,130,,,,130,,,,,,130
1,Aleksey Lazarev,Алексей Лазарев,M,B,Multi-ply,75,No,J20-23,,73.8,,,,,,190,202.5,205,,205,,,,,,205
2,Vladimir Upolovnikov,Владимир Уполовников,M,B,Multi-ply,75,No,J20-23,,74.95,,,,,,175,187.5,192.5,,192.5,,,,,,192.5
3,Anatoliy Rozenshteyn,Анатолий Розенштейн,M,B,Multi-ply,75,No,J20-23,,74.5,,,,,,190,-202.5,-202.5,,190,,,,,,190
4,Evgeniy Dekkert,Евгений Деккерт,M,B,Multi-ply,75,No,J20-23,,75,,,,,,-115,-115,155,,155,,,,,,155
5,Nikita Katrakov,Никита Катраков,M,B,Multi-ply,75,No,J20-23,,73,,,,,,-115,-115,115,,115,,,,,,115
DQ,Vyacheslav Sapozhnikov,Вячеслав Сапожников,M,B,Multi-ply,75,No,J20-23,,73.95,,,,,,-115,-120,-120,,,,,,,,
DQ,Artem Essin,Артем Ессин,M,B,Multi-ply,75,No,J20-23,,74.35,,,,,,-170,-170,-180,,,,,,,,
DQ,Mikhail Shesterov,Михаил Шестеров,M,B,Multi-ply,75,No,J20-23,,71.55,,,,,,-180,-180,,,,,,,,,
1,Igor Kuimov,Игорь Куимов,M,B,Multi-ply,75,No,M 45-49,,74.65,,,,,,195,202.5,205,,205,,,,,,205
2,Viktor Baranchikov,Виктор Баранчиков,M,B,Multi-ply,75,No,M 45-49,,72.55,,,,,,140,-165,-175,,140,,,,,,140
1,Aleksey Sidelkin,Алексей Сиделкин,M,B,Multi-ply,75,No,M 55-59,,75,,,,,,105,-112.5,-112.5,,105,,,,,,105
1,Evgeniy Petukhov,Евгений Петухов,M,B,Multi-ply,75,No,M70-74,,73.2,,,,,,140,150,-155,,150,,,,,,150
1,Evgeniy Uskov,Евгений Усков,M,B,Multi-ply,75,No,Open,,74.25,,,,,,190,-202.5,202.5,,202.5,,,,,,202.5
2,Oleg Paderin,Олег Падерин,M,B,Multi-ply,75,No,Open,,74.05,,,,,,-180,180,190,,190,,,,,,190
1,Nikita Katrakov,Никита Катраков,M,B,Multi-ply,75,No,T 16-17,,73,,,,,,-115,-115,115,,115,,,,,,115
1,Dmitriy Ovcharov,Дмитрий Овчаров,M,B,Multi-ply,75,No,T 18-19,,75,,,,,,170,-180,,,170,,,,,,170
2,Aleksey Shapkin,Алексей Шапкин,M,B,Multi-ply,75,No,T 18-19,,72.75,,,,,,110,120,,,120,,,,,,120
DQ,Evgeniy Dekkert,Евгений Деккерт,M,B,Multi-ply,75,No,T 18-19,,75,,,,,,-155,-155,-155,,,,,,,,
1,Evgeniy Zlobin,Евгений Злобин,M,B,Multi-ply,82.5,No,J20-23,,77.55,,,,,,175,-185,190,,190,,,,,,190
DQ,Egor Koykov,Егор Койков,M,B,Multi-ply,82.5,No,J20-23,,79.75,,,,,,-200,-200,-200,,,,,,,,
DQ,Nikolay Maslov,Николай Маслов,M,B,Multi-ply,82.5,No,J20-23,,81.4,,,,,,-202.5,-205,-205,,,,,,,,
1,Yuriy Korikov,Юрий Кориков,M,B,Multi-ply,82.5,No,M 45-49,,81.35,,,,,,-175,-175,175,,175,,,,,,175
1,Sergey Druzhkov,Сергей Дружков,M,B,Multi-ply,82.5,No,M 55-59,,82.45,,,,,,175,185,192.5,,192.5,,,,,,192.5
1,Ivan Zyablikov,Иван Зябликов,M,B,Multi-ply,82.5,No,M 60-64,,81.8,,,,,,-165,165,-175.5,,165,,,,,,165
1,Sergey Teterin,Сергей Тетерин,M,B,Multi-ply,82.5,No,Open,,81.85,,,,,,217.5,230,-240,,230,,,,,,230
2,Nikolay Mikheev,Николай Михеев,M,B,Multi-ply,82.5,No,Open,,79.5,,,,,,205,210,-217.5,,210,,,,,,210
3,Georgiy Avdonin,Георгий Авдонин,M,B,Multi-ply,82.5,No,Open,,81.95,,,,,,180,190,-195,,190,,,,,,190
4,Dmitriy Savchenko,Дмитрий Савченко,M,B,Multi-ply,82.5,No,Open,,79,,,,,,180,-192.5,-192.5,,180,,,,,,180
5,Pavel Tsetsulin,Павел Цецулин,M,B,Multi-ply,82.5,No,Open,,78.35,,,,,,170,-175,175,,175,,,,,,175
DQ,Aleksandr Nikulin,Александр Никулин,M,B,Multi-ply,82.5,No,Open,,81.25,,,,,,-250,-250,-250,,,,,,,,
1,Andrey Guz,Андрей Гузь,M,B,Multi-ply,82.5,No,T 18-19,,82.5,,,,,,170,,,,170,,,,,,170
4,Sergey Konovalov,Сергей Коновалов,M,B,Multi-ply,90,No,Open,,84.3,,,,,,240,255,-270,,255,,,,,,255
1,Sergey Konovalov,Сергей Коновалов,M,B,Multi-ply,90,No,J 20-23,,84.3,,,,,,240,255,-270,,255,,,,,,255
2,Andrey Zharyonov,Андрей Жарёнов,M,B,Multi-ply,90,No,J20-23,,89,,,,,,210,230,237.5,,237.5,,,,,,237.5
3,Stanislav Alikin,Станислав Аликин,M,B,Multi-ply,90,No,J20-23,,88.6,,,,,,-230,-235,235,,235,,,,,,235
4,Yuriy Karpov,Юрий Карпов,M,B,Multi-ply,90,No,J20-23,,88.9,,,,,,225,235,-240,,235,,,,,,235
DQ,Vladislav Pudovkin,Владислав Пудовкин,M,B,Multi-ply,90,No,J20-23,,83.35,,,,,,-190,-202.5,-202.5,,,,,,,,
1,Sergey Vylegzhanin,Сергей Вылегжанин,M,B,Multi-ply,90,No,M 40-44,,89.6,,,,,,215,-225,-225,,215,,,,,,215
2,Aleksandr Zhilin,Александр Жилин,M,B,Multi-ply,90,No,M 40-44,,85,,,,,,165,-175,-175,,165,,,,,,165
1,Yuriy Petryakov,Юрий Петряков,M,B,Multi-ply,90,No,M 45-49,,87,,,,,,195,202.5,207.5,,207.5,,,,,,207.5
1,Aleksandr Zavyalov,Александр Завьялов,M,B,Multi-ply,90,No,M 50-54,,88.6,,,,,,185,195,-202.5,,195,,,,,,195
2,Vladimir Soloboev,Владимир Солобоев,M,B,Multi-ply,90,No,M 50-54,,88.5,,,,,,170,-177.5,-177.5,,170,,,,,,170
1,Viktor Vokarev,Виктор Вокарев,M,B,Multi-ply,90,No,M 60-64,,84.25,,,,,,105,-115,,,105,,,,,,105
1,Alexey Merkulov,Алексей Меркулов,M,B,Multi-ply,90,No,Open,,87.75,,,,,,-265,-275,275,,275,,,,,,275
2,Vladimir Chadkov,Владимир Чадков,M,B,Multi-ply,90,No,Open,,89.2,,,,,,270,-280,-280,,270,,,,,,270
3,Ivan Vasyunin,Иван Васюнин,M,B,Multi-ply,90,No,Open,,87.9,,,,,,242.5,252.5,257.5,,257.5,,,,,,257.5
5,Aleksey Zyuzin,Алексей Зюзин,M,B,Multi-ply,90,No,Open,,89.9,,,,,,235,245,-255,,245,,,,,,245
6,Andrey Belykh,Андрей Белых,M,B,Multi-ply,90,No,Open,,89.3,,,,,,242.5,-252.5,-257.5,,242.5,,,,,,242.5
7,Aleksandr Metelev,Александр Метелев,M,B,Multi-ply,90,No,Open,,89.1,,,,,,225,232.5,-240,,232.5,,,,,,232.5
8,Aleksey Ponosov,Алексей Поносов,M,B,Multi-ply,90,No,Open,,89.95,,,,,,215,225,230,,230,,,,,,230
9,Ilya Lebedev,Илья Лебедев,M,B,Multi-ply,90,No,Open,,90,,,,,,200,220,-235,,220,,,,,,220
10,Vyacheslav Chaykovskiy,Вячеслав Чайковский,M,B,Multi-ply,90,No,Open,,89.3,,,,,,-200,-200,210,,210,,,,,,210
11,Sergey Panteleev,Сергей Пантелеев,M,B,Multi-ply,90,No,Open,,89.15,,,,,,190,-202.5,-202.5,,190,,,,,,190
DQ,Petr Selivanov,Петр Селиванов,M,B,Multi-ply,90,No,Open,,85.95,,,,,,-250,-250,,,,,,,,,
1,Aleksandr Panaskin,Александр Панаскин,M,B,Multi-ply,90,No,T 16-17,,89.35,,,,,,160,180,200,,200,,,,,,200
1,Rovshan Abdullaev,Ровшан Абдуллаев,M,B,Multi-ply,90,No,T 18-19,,85.25,,,,,,195,202.5,-230,,202.5,,,,,,202.5
2,Dmitriy Myasnikov,Дмитрий Мясников,M,B,Multi-ply,90,No,T 18-19,,86.65,,,,,,-175,175,-180,,175,,,,,,175
3,Rovshan Shalmiev,Ровшан Шальмиев,M,B,Multi-ply,90,No,T 18-19,,89.65,,,,,,125,140,-150,,140,,,,,,140
1,Stanislav Kolachev,Станислав Колачев,M,B,Multi-ply,100,No,J20-23,,99.3,,,,,,200,210,220,,220,,,,,,220
2,Viktor Druzhinin,Виктор Дружинин,M,B,Multi-ply,100,No,J20-23,,98.95,,,,,,200,-210,210,,210,,,,,,210
3,Aleksey Gnevyshev,Алексей Гневышев,M,B,Multi-ply,100,No,J20-23,,98,,,,,,170,185,200,,200,,,,,,200
1,Aleksandr Fedulov,Александр Федулов,M,B,Multi-ply,100,No,M 40-44,,98.5,,,,,,210,220,,,220,,,,,,220
2,Dmitriy Chertushkin,Дмитрий Чертушкин,M,B,Multi-ply,100,No,M 40-44,,98.5,,,,,,195,-202.5,,,195,,,,,,195
DQ,Vladimir Ladeyshchikov,Владимир Ладейщиков,M,B,Multi-ply,100,No,M 40-44,,99.95,,,,,,-180,-180,-180,,,,,,,,
1,Aleksandr Alekseenko,Александр Алексеенко,M,B,Multi-ply,100,No,M 45-49,,98.15,,,,,,195,-210,-210,,195,,,,,,195
2,Andrey Martemyanov,Андрей Мартемьянов,M,B,Multi-ply,100,No,M 45-49,,98.6,,,,,,-175,175,-185,,175,,,,,,175
1,Valeriy Akentyev,Валерий Акентьев,M,B,Multi-ply,100,No,M 50-54,,96.1,,,,,,210,-220,-220,,210,,,,,,210
1,Georgiy Martirosov,Георгий Мартиросов,M,B,Multi-ply,100,No,M 65-69,,92.5,,,,,,-130,-130,130,,130,,,,,,130
1,Dmitriy Tambovtsev,Дмитрий Тамбовцев,M,B,Multi-ply,100,No,Open,,98.2,,,,,,-260,260,-272.5,,260,,,,,,260
2,Oleg Saydentsal,Олег Сайденцаль,M,B,Multi-ply,100,No,Open,,99.7,,,,,,250,260,-267.5,,260,,,,,,260
3,Sergey Puzanskiy,Сергей Пузанский,M,B,Multi-ply,100,No,Open,,98.9,,,,,,-250,250,-262.5,,250,,,,,,250
4,Vladimir Maksimov,Владимир Максимов,M,B,Multi-ply,100,No,Open,,98.85,,,,,,240,-250,-250,,240,,,,,,240
5,Vladimir Omelkov,Владимир Омельков,M,B,Multi-ply,100,No,Open,,99.5,,,,,,-240,240,-252.5,,240,,,,,,240
6,Maxim Piskunov,Максим Пискунов,M,B,Multi-ply,100,No,Open,,93.3,,,,,,210,-220,220,,220,,,,,,220
7,Andrey Muratov,Андрей Муратов,M,B,Multi-ply,100,No,Open,,94.65,,,,,,-200,-210,210,,210,,,,,,210
8,Vladimir Shchukin,Владимир Щукин,M,B,Multi-ply,100,No,Open,,95.9,,,,,,-210,-210,210,,210,,,,,,210
9,Rinat Nigmatullin,Ринат Нигматуллин,M,B,Multi-ply,100,No,Open,,97.9,,,,,,-210,-210,210,,210,,,,,,210
10,Aleksey Bakharev,Алексей Бахарев,M,B,Multi-ply,100,No,Open,,92.8,,,,,,200,-220,-220,,200,,,,,,200
DQ,Andrey Chernov,Андрей Чернов,M,B,Multi-ply,100,No,Open,,92.65,,,,,,-180,-180,-190,,,,,,,,
DQ,Gleb Mochalov,Глеб Мочалов,M,B,Multi-ply,100,No,Open,,93.55,,,,,,-150,,,,,,,,,,
DQ,Vitaliy Goryunov,Виталий Горюнов,M,B,Multi-ply,100,No,Open,,93.7,,,,,,-210,-220,,,,,,,,,
DQ,Emin Galib Ogly Mamedov,Емин Галиб Оглы Мамедов,M,B,Multi-ply,100,No,Open,,95.45,,,,,,-270,-270,-275,,,,,,,,
DQ,Aleksey Melnik,Алексей Мельник,M,B,Multi-ply,100,No,Open,,99.2,,,,,,-250,-250,-255,,,,,,,,
DQ,Aleksandr Kargopolov,Александр Каргополов,M,B,Multi-ply,100,No,Open,,99.35,,,,,,-265,-265,-275,,,,,,,,
DQ,Ivan Poryadin,Иван Порядин,M,B,Multi-ply,100,No,Open,,99.9,,,,,,-290,-290,-290,,,,,,,,
1,Denis Chernay,Денис Чернай,M,B,Multi-ply,110,No,J20-23,,106.35,,,,,,-210,210,-220,,210,,,,,,210
DQ,Anton Pavlov,Антон Павлов,M,B,Multi-ply,110,No,J20-23,,105.75,,,,,,-220,-220,-220,,,,,,,,
1,Aleksandr Tretyakov,Александр Третьяков,M,B,Multi-ply,110,No,Open,,108.5,,,,,,-310,310,-320,,310,,,,,,310
1,Aleksandr Tretyakov,Александр Третьяков,M,B,Multi-ply,110,No,M 40-44,,108.5,,,,,,-310,310,-320,,310,,,,,,310
2,Vyacheslav Rakhmanov,Вячеслав Рахманов,M,B,Multi-ply,110,No,M 40-44,,108.15,,,,,,260,270,280,,280,,,,,,280
3,Aleksey Chernysh,Алексей Черныш,M,B,Multi-ply,110,No,M 40-44,,107.45,,,,,,-220,220,-225,,220,,,,,,220
DQ,Vladimir Tolmachev,Владимир Толмачев,M,B,Multi-ply,110,No,M 40-44,,105.8,,,,,,-170,-170,-170,,,,,,,,
DQ,Igor Golubitskiy,Игорь Голубицкий,M,B,Multi-ply,110,No,M 40-44,,106.75,,,,,,-220,-220,-220,,,,,,,,
DQ,Ruslan Akhmetov,Руслан Ахметов,M,B,Multi-ply,110,No,M 45-49,,106.2,,,,,,-210,-210,-210,,,,,,,,
1,Konstantin Bobrov,Константин Бобров,M,B,Multi-ply,110,No,M 50-54,,107.45,,,,,,-250,-250,250,,250,,,,,,250
2,Viktor Pozdnyakov,Виктор Поздняков,M,B,Multi-ply,110,No,M 50-54,,107.15,,,,,,220,-230,-230,,220,,,,,,220
1,Vladimir Korniets,Владимир Корниец,M,B,Multi-ply,110,No,M 55-59,,109.8,,,,,,150,-165,170,,170,,,,,,170
DQ,Yuriy Pokhvashchev,Юрий Похващев,M,B,Multi-ply,110,No,M 55-59,,108.9,,,,,,-250,-250,-250,,,,,,,,
2,Vladislav Manyukov,Владислав Манюков,M,B,Multi-ply,110,No,Open,,108.8,,,,,,250,,,,250,,,,,,250
3,Mikhail Brylin,Михаил Брылин,M,B,Multi-ply,110,No,Open,,110,,,,,,240,-260,-260,,240,,,,,,240
4,Sergey Kostin,Сергей Костин,M,B,Multi-ply,110,No,Open,,109,,,,,,-220,-220,220,,220,,,,,,220
DQ,Yakov Berman,Яков Берман,M,B,Multi-ply,110,No,Open,,104.4,,,,,,-250,-260,-260,,,,,,,,
DQ,Denis Semenov,Денис Семенов,M,B,Multi-ply,110,No,Open,,105,,,,,,-220,,,,,,,,,,
DQ,Eduard Khaliullin,Эдуард Халиуллин,M,B,Multi-ply,110,No,Open,,105.2,,,,,,-260,-260,-260,,,,,,,,
DQ,Denis Plotnikov,Денис Плотников,M,B,Multi-ply,110,No,Open,,107.1,,,,,,-240,-240,-240,,,,,,,,
DQ,Ivan Kurpishev,Иван Курпишев,M,B,Multi-ply,110,No,Open,,108.15,,,,,,-310,-310,-315,,,,,,,,
DQ,Sergey Zentsov,Сергей Зенцов,M,B,Multi-ply,110,No,Open,,108.2,,,,,,-210,-210,-210,,,,,,,,
DQ,Vladimir Karasov,Владимир Карасов,M,B,Multi-ply,110,No,Open,,108.5,,,,,,-255,-255,-255,,,,,,,,
1,Artem Feofilov,Артем Феофилов,M,B,Multi-ply,110,No,T 18-19,,109.85,,,,,,180,190,-200,,190,,,,,,190
1,Aleksandr Ponomarev,Александр Пономарев,M,B,Multi-ply,125,No,M 40-44,,113.25,,,,,,245,252.5,255,,255,,,,,,255
2,Andrey Kostromin,Андрей Костромин,M,B,Multi-ply,125,No,M 40-44,,122.45,,,,,,240,-250,-257.5,,240,,,,,,240
DQ,Igor Podelko,Игорь Поделко,M,B,Multi-ply,125,No,Open,,112.9,,,,,,-252.5,,,,,,,,,,
DQ,Igor Podelko,Игорь Поделко,M,B,Multi-ply,125,No,M 40-44,,112.9,,,,,,-252.5,,,,,,,,,,
1,Georgiy Lopatskiy,Георгий Лопацкий,M,B,Multi-ply,125,No,Open,,122.45,,,,,,280,292.5,-300,,292.5,,,,,,292.5
1,Georgiy Lopatskiy,Георгий Лопацкий,M,B,Multi-ply,125,No,M 45-49,,122.45,,,,,,280,292.5,-300,,292.5,,,,,,292.5
2,Pavel Yagovkin,Павел Яговкин,M,B,Multi-ply,125,No,M 45-49,,115.25,,,,,,225,240,-260,,240,,,,,,240
1,Aleksandr Zemerov,Александр Земеров,M,B,Multi-ply,125,No,M 50-54,,114.45,,,,,,200,212.5,-222.5,,212.5,,,,,,212.5
1,Sergey Kapusta,Сергей Капуста,M,B,Multi-ply,125,No,Open,,120.6,,,,,,-300,-300,302.5,,302.5,,,,,,302.5
3,Rinat Kabirov,Ринат Кабиров,M,B,Multi-ply,125,No,Open,,114.6,,,,,,285,-290,-295,,285,,,,,,285
4,Nikolay Pyshmintsev,Николай Пышминцев,M,B,Multi-ply,125,No,Open,,118.75,,,,,,-285,-285,285,,285,,,,,,285
5,Roman Zalutskiy,Роман Залуцкий,M,B,Multi-ply,125,No,Open,,116.4,,,,,,-260,270,280,,280,,,,,,280
6,Igor Podelko,Игорь Поделко,M,B,Multi-ply,125,No,Open,,112.9,,,,,,260,,,,260,,,,,,260
DQ,Vitaliy Ignatov,Виталий Игнатов,M,B,Multi-ply,125,No,Open,,117.35,,,,,,-200,-200,-200,,,,,,,,
1,Viktor Malyugin,Виктор Малюгин,M,B,Multi-ply,125,No,T 18-19,,119.85,,,,,,250,260,265,,265,,,,,,265
1,Oleg Kuzmenko,Олег Кузьменко,M,B,Multi-ply,140,No,Open,,135.65,,,,,,210,225,-232.5,,225,,,,,,225
DQ,Andrey Osipov,Андрей Осипов,M,B,Multi-ply,140,No,Open,,137.9,,,,,,-260,-260,-260,,,,,,,,
DQ,Vasiliy Matsur,Василий Мацур,M,B,Multi-ply,140,No,Open,,136.5,,,,,,-310,-325,-330,,,,,,,,
1,Timur Akhmedov,Тимур Ахмедов,M,B,Multi-ply,140+,No,J20-23,,153,,,,,,210,-220,-230,,210,,,,,,210
1,Denis Vildanov,Денис Вильданов,M,B,Multi-ply,140+,No,Open,,150.5,,,,,,275,-292.5,-292.5,,275,,,,,,275
2,Aleksandr Ablizin,Александр Аблизин,M,B,Multi-ply,140+,No,Open,,160,,,,,,250,260,-272.5,,260,,,,,,260
DQ,Aleksey Brazhkin,Алексей Бражкин,M,B,Multi-ply,140+,No,Open,,140.95,,,,,,-280,-280,-292.5,,,,,,,,
1,Galina Sorikhina,Галина Сорихина,F,SBD,Wraps,48,Yes,Open,,46.5,40,50,55,,55,-25,25,-30,,25,55,65,75,,75,155
1,Olesya Sinelnikova,Олеся Синельникова,F,SBD,Wraps,56,Yes,Open,,53.2,75,-85,-85,,75,47.5,50,-55,,50,80,92.5,100,,100,225
1,Olesya Sinelnikova,Олеся Синельникова,F,SBD,Wraps,56,Yes,T 13-15,,53.2,75,-85,-85,,75,47.5,50,-55,,50,80,92.5,100,,100,225
2,Elena Kucherova,Елена Кучерова,F,SBD,Wraps,56,Yes,Open,,54.25,70,75,-80,,75,37.5,40,42.5,,42.5,85,95,-100,,95,212.5
1,Svetlana Kuzmina,Светлана Кузьмина,F,SBD,Wraps,67.5,Yes,Open,,64.8,-70,-70,75,,75,-45,-45,45,,45,80,90,100,,100,220
DQ,Alena Sokolova,Алена Соколова,F,SBD,Wraps,67.5,Yes,Open,,64.45,-100,-100,-100,,,,,,,,,,,,,
1,Denis Bozrikov,Денис Бозриков,M,SBD,Wraps,52,Yes,T 13-15,,46.7,60,70,75,,75,50,52.5,-55,,52.5,90,100,105,,105,232.5
1,Ildar Usmanov,Ильдар Усманов,M,SBD,Wraps,56,Yes,Open,,54.25,110,120,130,,130,75,85,-92.5,,85,140,155,165,,165,380
1,Ruslan Dokukin,Руслан Докукин,M,SBD,Wraps,56,Yes,T 16-17,,56,100,107.5,115,,115,65,70,75,,75,120,130,140,,140,330
1,Oleg Dvoynikov,Олег Двойников,M,SBD,Wraps,60,Yes,M 45-49,,59,125,-130,132.5,,132.5,92.5,97.5,100,,100,170,180,185,,185,417.5
1,Nail Mukhaev,Наиль Мухаев,M,SBD,Wraps,60,Yes,Т 13-15,,59.1,65,70,80,,80,45,50,-55,,50,85,95,110,,110,240
1,Albert Nabatchikov,Альберт Набатчиков,M,SBD,Wraps,67.5,Yes,Open,,65.1,140,-155,-162.5,,140,85,92.5,97.5,,97.5,150,162.5,170,,170,407.5
DQ,Yuriy Kiselev,Юрий Киселев,M,SBD,Wraps,67.5,Yes,M70-74,,66.1,-105,-105,-105,,,,,,,,,,,,,
1,Anatoliy Chistyakov,Анатолий Чистяков,M,SBD,Wraps,67.5,Yes,M65-69,,61.75,85,95,-100,,95,65,-70,-70,,65,110,120,125,,125,285
1,Denis Neverov,Денис Неверов,M,SBD,Wraps,67.5,Yes,Т 16-17,,66.6,-115,-120,120,,120,77.5,-82.5,85,,85,145,-155,-155,,145,350
1,Pavel Shvetsov,Павел Швецов,M,SBD,Wraps,67.5,Yes,Т 18-19,,66.1,-165,165,-170,,165,115,-120,-120,,115,210,220,-230,,220,500
2,Nichad Mamedov,Ничад Мамедов,M,SBD,Wraps,67.5,Yes,Т 18-19,,60.85,100,-110,-120,,100,75,80,-82.5,,80,-175,175,-177.5,,175,355
1,Valid Ali,Валид Али,M,SBD,Wraps,75,Yes,Open,,70.5,130,145,155,,155,-100,105,110,,110,145,155,165,,165,430
1,Nikita Efimov,Никита Ефимов,M,SBD,Wraps,75,Yes,J20-23,,69.6,165,175,180,,180,110,115,-125,,115,200,215,-225,,215,510
1,Maksim Vasin,Максим Васин,M,SBD,Wraps,75,Yes,Т16-17,,72.05,170,180,190,,190,125,132.5,135,,135,180,190,195,,195,520
1,Dmitriy Trunov,Дмитрий Трунов,M,SBD,Wraps,75,Yes,Т18-19,,74.2,170,-180,,,170,105,110,117.5,,117.5,180,-192.5,,,180,467.5
1,Dmitriy Lukyanov,Дмитрий Лукьянов,M,SBD,Wraps,82.5,Yes,Open,,82.4,190,205,212.5,,212.5,150,-157.5,-160,,150,230,-240,,,230,592.5
2,Amir Yakhin,Амир Яхин,M,SBD,Wraps,82.5,Yes,Open,,81.15,170,180,192.5,,192.5,140,-150,-150,,140,210,225,-260,,225,557.5
3,Konstantin Yushkov,Константин Юшков,M,SBD,Wraps,82.5,Yes,Open,,80.8,165,-172.5,-172.5,,165,135,-145,145,,145,170,180,,,180,490
1,Sergey Olisov,Сергей Олисов,M,SBD,Wraps,82.5,Yes,Т 16-17,,76.05,-135,135,140,,140,107.5,110,115,,115,170,180,-190,,180,435
2,Yuriy Koltyshev,Юрий Колтышев,M,SBD,Wraps,82.5,Yes,Т 16-17,,77.95,115,125,135,,135,70,75,-80,,75,130,145,,,145,355
1,Aleksandr Sapozhnikov,Александр Сапожников,M,SBD,Wraps,82.5,Yes,Т 18-19,,78.2,170,180,190,,190,110,-120,-120,,110,210,220,230,,230,530
2,Dmitriy Efimov,Дмитрий Ефимов,M,SBD,Wraps,82.5,Yes,Т 18-19,,75.9,135,150,-165,,150,115,-120,-120,,115,175,190,210,,210,475
1,Vyacheslav Mishutinskiy,Вячеслав Мишутинский,M,SBD,Wraps,90,Yes,Open,,89.6,-200,200,210,,210,140,150,155,,155,220,240,255,,255,620
1,Aleksandr Leontev,Александр Леонтьев,M,SBD,Wraps,90,Yes,M 45-49,,87.9,190,195,205,,205,135,145,147.5,,147.5,190,202.5,217.5,,217.5,570
1,Lev Vostrykh,Лев Вострых,M,SBD,Wraps,90,Yes,M 50-54,,88.75,130,-135,135,,135,90,105,-112.5,,105,170,190,-200,,190,430
1,Sergey Salmanov,Сергей Салманов,M,SBD,Wraps,90,Yes,Т 18-19,,85.2,130,150,170,,170,110,120,,,120,210,220,,,220,510
2,Evgeniy Sobyanin,Евгений Собянин,M,SBD,Wraps,90,Yes,Т 18-19,,87.7,-130,135,145,,145,115,120,130,,130,145,160,170,,170,445
1,Vladimir Tishchenko,Владимир Тищенко,M,SBD,Wraps,100,Yes,Open,,99.45,220,235,240,,240,170,-175,,,170,250,270,292.5,,292.5,702.5
1,Vladimir Tishchenko,Владимир Тищенко,M,SBD,Wraps,100,Yes,M 40-44,,99.45,220,235,240,,240,170,-175,,,170,250,270,292.5,,292.5,702.5
2,Kirill Valeev,Кирилл Валеев,M,SBD,Wraps,100,Yes,Open,,98,-260,-270,270,,270,170,175,-180,,175,255,-262.5,,,255,700
3,Andrey Ustyugov,Андрей Устюгов,M,SBD,Wraps,100,Yes,Open,,97.9,225,237.5,240,,240,155,165,167.5,,167.5,230,245,255,,255,662.5
4,Aleksey Isakov,Алексей Исаков,M,SBD,Wraps,100,Yes,Open,,98.15,210,220,225,,225,170,180,182.5,,182.5,220,245,255,,255,662.5
5,Denis Sviridovich,Денис Свиридович,M,SBD,Wraps,100,Yes,Open,,94.65,170,-190,-200,,170,110,120,-125,,120,200,210,-220,,210,500
DQ,Andrey Bakulev,Андрей Бакулев,M,SBD,Wraps,100,Yes,Open,,96.25,-230,-230,-230,,,,,,,,,,,,,
1,Valeriy Ugryumov,Валерий Угрюмов,M,SBD,Wraps,100,Yes,M 45-49,,99.8,140,150,160,,160,120,125,130,,130,150,160,170,,170,460
1,Konstantin Komelin,Константин Комелин,M,SBD,Wraps,100,Yes,J 20-23,,97.4,200,210,220,,220,120,130,-137.5,,130,260,270,-275,,270,620
1,Stanislav Moskalenko,Станислав Москаленко,M,SBD,Wraps,100,Yes,Т 16-17,,98.15,160,180,200,,200,130,,,,130,160,200,225,,225,555
1,Zaur Mustafaev,Заур Мустафаев,M,SBD,Wraps,100,Yes,Т 18-19,,99.85,150,-165,175,,175,125,135,-150,,135,180,200,,,200,510
1,Andrey Fedoseev,Андрей Федосеев,M,SBD,Wraps,110,Yes,Open,,108.15,-215,215,-225,,215,170,175,-177.5,,175,250,260,267.5,,267.5,657.5
2,Aleksandr Esaulov,Александр Эсаулов,M,SBD,Wraps,110,Yes,Open,,108.45,210,220,230,,230,150,157.5,165,,165,230,250,262.5,,262.5,657.5
1,Sergey Lishchuk,Сергей Лищук,M,SBD,Wraps,110,Yes,M 40-44,,106.05,170,180,190,,190,130,140,,,140,200,220,240,,240,570
1,Aleksey Akimchenko,Алексей Акимченко,M,SBD,Wraps,110,Yes,Т 16-17,,102.65,-140,150,-170,,150,100,-110,115,,115,130,150,170,,170,435
1,Dmitriy Kirichenko,Дмитрий Кириченко,M,SBD,Wraps,110,Yes,Т 18-19,,101.25,180,190,200,,200,150,155,160,,160,230,240,250,,250,610
1,Sergey Lukyanov,Сергей Лукьянов,M,SBD,Wraps,125,Yes,Open,,113.6,240,260,270,,270,190,207.5,,,207.5,250,265,,,265,742.5
2,Sergey Strizhov,Сергей Стрижов,M,SBD,Wraps,125,Yes,Open,,111.65,180,-200,200,,200,160,180,,,180,160,180,200,,200,580
3,Aleksandr Teterin,Александр Тетерин,M,SBD,Wraps,125,Yes,Open,,117.85,160,170,,,170,110,115,-120,,115,220,240,-250,,240,525
1,Aleksandr Burlakov,Александр Бурлаков,M,SBD,Wraps,125,Yes,M 50-54,,124.9,-180,180,185,,185,155,-165,165,,165,170,180,190,,190,540
1,Mikhail Nekrasov,Михаил Некрасов,M,SBD,Wraps,140,Yes,Open,,133.5,205,215,-225,,215,142.5,152.5,160,,160,210,230,240,,240,615
1,Oleg Vasyuchenko,Олег Васюченко,M,SBD,Wraps,140,Yes,M 40-44,,129.45,-250,250,265,,265,150,165,175,,175,270,280,290,295.5,290,730
1,Marina Stratova,Марина Стратова,F,B,Raw,44,Yes,T 18-19,,41.34,,,,,,40,45,47.5,,47.5,,,,,,47.5
2,Ekaterina Romanova,Екатерина Романова,F,B,Raw,44,Yes,T 18-19,,42.45,,,,,,32.5,-35,-35,,32.5,,,,,,32.5
1,Margarita Dzina,Маргарита Дзина,F,B,Raw,48,Yes,Open,,47.5,,,,,,57.5,62.5,67.5,,67.5,,,,,,67.5
1,Evgeniya Narenkova,Евгения Наренкова,F,B,Raw,48,Yes,J20-23,,47.1,,,,,,57.5,62.5,65,,65,,,,,,65
1,Olga Isakova,Ольга Исакова,F,B,Raw,48,Yes,T 13-15,,47.9,,,,,,40,45,-50,,45,,,,,,45
1,Oksana Butina,Оксана Бутина,F,B,Raw,52,Yes,J20-23,,51.6,,,,,,47.5,52.5,55,,55,,,,,,55
1,Mariya Dyukova,Мария Дюкова,F,B,Raw,52,Yes,Open,,51,,,,,,-50,-50,50,,50,,,,,,50
1,Yuliya Ponomareva,Юлия Пономарева,F,B,Raw,52,Yes,T 13-15,,49.65,,,,,,32.5,35,-37.5,,35,,,,,,35
2,Olga Lebedeva,Ольга Лебедева,F,B,Raw,52,Yes,Open,,49.75,,,,,,35,40,-47.5,,40,,,,,,40
1,Olesya Sinelnikova,Олеся Синельникова,F,B,Raw,56,Yes,Open,,53.2,,,,,,47.5,52.5,-55,,52.5,,,,,,52.5
1,Olesya Sinelnikova,Олеся Синельникова,F,B,Raw,56,Yes,T 13-15,,53.2,,,,,,47.5,52.5,-55,,52.5,,,,,,52.5
2,Olesya Sinelnikova,Олеся Синельникова,F,B,Raw,56,Yes,J 20-23,,53.2,,,,,,47.5,52.5,-55,,52.5,,,,,,52.5
2,Irina Zarudko,Ирина Зарудко,F,B,Raw,56,Yes,Open,,52.7,,,,,,42.5,45,-47.5,,45,,,,,,45
3,Tatyana Solonenko,Татьяна Солоненко,F,B,Raw,56,Yes,Open,,55,,,,,,30,35,-40,,35,,,,,,35
1,Darya Kashina,Дарья Кашина,F,B,Raw,56,Yes,T 16-17,,53.55,,,,,,50,-55,-55,,50,,,,,,50
1,Ziliya Gimaeva,Зилия Гимаева,F,B,Raw,56,Yes,J20-23,,54.7,,,,,,55,60,-62.5,,60,,,,,,60
3,Marina Yakovenko,Марина Яковенко,F,B,Raw,56,Yes,J20-23,,55.52,,,,,,30,32.5,-35,,32.5,,,,,,32.5
1,Anastasiya Rakcheeva,Анастасия Ракчеева,F,B,Raw,60,Yes,Open,,59.3,,,,,,85,-90,-90,,85,,,,,,85
1,Svetlana Loginova,Светлана Логинова,F,B,Raw,67.5,Yes,M 40-44,,66.4,,,,,,30,35,37.5,,37.5,,,,,,37.5
1,Alena Sokolova,Алена Соколова,F,B,Raw,67.5,Yes,Open,,65.25,,,,,,55,62.5,-67.5,,62.5,,,,,,62.5
1,Svetlana Sinacheva,Светлана Синачева,F,B,Raw,75,Yes,Open,,73.75,,,,,,90,-95,-95,,90,,,,,,90
1,Svetlana Sinacheva,Светлана Синачева,F,B,Raw,75,Yes,M 40-44,,73.75,,,,,,90,-95,-95,,90,,,,,,90
1,Aleksandr Medvedchuk,Александр Медведчук,M,B,Raw,52,Yes,J 20-23,,50.25,,,,,,95,-100,,,95,,,,,,95
1,Ivan Repnitsyn,Иван Репницын,M,B,Raw,52,Yes,Т 13-15,,42.5,,,,,,20,-25,-25,,20,,,,,,20
1,Nikita Menshchikov,Никита Меньщиков,M,B,Raw,56,Yes,Open,,53.95,,,,,,105,122.5,-125,,122.5,,,,,,122.5
1,Ivan Kudryavtsev,Иван Кудрявцев,M,B,Raw,56,Yes,Т 13-15,,55,,,,,,85,92.5,-100,,92.5,,,,,,92.5
2,Aleksandr Silantev,Александр Силантьев,M,B,Raw,56,Yes,Т 13-15,,35,,,,,,35,42,47.5,,47.5,,,,,,47.5
1,Vladislav Trubin,Владислав Трубин,M,B,Raw,56,Yes,Т 16-17,,52.55,,,,,,60,-70,-70,,60,,,,,,60
1,Oleg Dvoynikov,Олег Двойников,M,B,Raw,60,Yes,M 45-49,,59.85,,,,,,95,100,102.5,,102.5,,,,,,102.5
1,Aleksandr Ivankin,Александр Иванкин,M,B,Raw,60,Yes,Open,,57.6,,,,,,100,-115,-115,,100,,,,,,100
1,Dmitriy Suetnov,Дмитрий Суетнов,M,B,Raw,60,Yes,J 20-23,,60,,,,,,120,125,-132.5,,125,,,,,,125
2,Artem Fedin,Артем Федин,M,B,Raw,60,Yes,J 20-23,,59.6,,,,,,110,-115,115,,115,,,,,,115
1,Evgeniy Kovalenko,Евгений Коваленко,M,B,Raw,60,Yes,Т 13-15,,56.9,,,,,,85,90,92.5,,92.5,,,,,,92.5
2,Sergey Tyapkin,Сергей Тяпкин,M,B,Raw,60,Yes,Т 13-15,,59,,,,,,75,-85,-87.5,,75,,,,,,75
1,Mikhail Fateev,Михаил Фатеев,M,B,Raw,60,Yes,Т 18-19,,60,,,,,,110,-115,115,,115,,,,,,115
1,Vladimir Zabolotnev,Владимир Заболотнев,M,B,Raw,67.5,Yes,M 40-44,,65.35,,,,,,120,130,132.5,,132.5,,,,,,132.5
1,Yuriy Kiselev,Юрий Киселев,M,B,Raw,67.5,Yes,M 70-74,,66.2,,,,,,75,-85,85,,85,,,,,,85
1,Ruslan Khayrullin,Руслан Хайруллин,M,B,Raw,67.5,Yes,Open,,67.3,,,,,,125,-132.5,-135,,125,,,,,,125
2,Ilya Obolenskiy,Илья Оболенский,M,B,Raw,67.5,Yes,Open,,65.35,,,,,,110,-115,117.5,,117.5,,,,,,117.5
3,Dmitriy Shalunov,Дмитрий Шалунов,M,B,Raw,67.5,Yes,Open,,64.2,,,,,,110,115,-117.5,,115,,,,,,115
DQ,Aleksandr Nikitin,Александр Никитин,M,B,Raw,67.5,Yes,Open,,67.25,,,,,,-130,-135,-135,,,,,,,,
1,Ivan Korolev,Иван Королев,M,B,Raw,67.5,Yes,J 20-23,,66.6,,,,,,130,135,-140,,135,,,,,,135
2,Evgeniy Grebenshchikov,Евгений Гребенщиков,M,B,Raw,67.5,Yes,J 20-23,,66.8,,,,,,105,110,-115,,110,,,,,,110
3,Artak Varosyan,Артак Варосян,M,B,Raw,67.5,Yes,J 20-23,,65.65,,,,,,-100,105,-115,,105,,,,,,105
4,Maksim Chirkov,Максим Чирков,M,B,Raw,67.5,Yes,J 20-23,,65.1,,,,,,90,95,-100,,95,,,,,,95
1,Semen Filyakin,Семён Филякин,M,B,Raw,67.5,Yes,Т 16-17,,64.25,,,,,,107.5,-115,-115,,107.5,,,,,,107.5
1,Sergey Alampiev,Сергей Алампиев,M,B,Raw,75,Yes,M 50-54,,68.45,,,,,,100,110,-115,,110,,,,,,110
1,Igor Dyachenko,Игорь Дьяченко,M,B,Raw,75,Yes,Open,,73.35,,,,,,155,162.5,167.5,,167.5,,,,,,167.5
2,Aleksey Noskov,Алексей Носков,M,B,Raw,75,Yes,Open,,74.3,,,,,,155,165,-170,,165,,,,,,165
3,Vadim Rozenfeld,Вадим Розенфельд,M,B,Raw,75,Yes,Open,,73.6,,,,,,130,140,142.5,,142.5,,,,,,142.5
4,Valeriy Bazanov,Валерий Базанов,M,B,Raw,75,Yes,Open,,74.25,,,,,,132.5,-140,-140,,132.5,,,,,,132.5
5,Andrey Veselov,Андрей Веселов,M,B,Raw,75,Yes,Open,,73.1,,,,,,125,130,-132.5,,130,,,,,,130
6,Viktor Kosenko,Виктор Косенко,M,B,Raw,75,Yes,Open,,73.8,,,,,,125,-127.5,127.5,,127.5,,,,,,127.5
7,Artem Kochereshchenko,Артем Кочерещенко,M,B,Raw,75,Yes,Open,,72.55,,,,,,120,125,-130,,125,,,,,,125
8,Andrey Krasnozhon,Андрей Красножон,M,B,Raw,75,Yes,Open,,71,,,,,,112.5,117.5,-125,,117.5,,,,,,117.5
1,Aleksandr Yakovlev,Александр Яковлев,M,B,Raw,75,Yes,J 20-23,,71.75,,,,,,-105,110,117.5,,117.5,,,,,,117.5
1,Nikita Rezitskiy,Никита Резицкий,M,B,Raw,75,Yes,Т 13-15,,73.55,,,,,,107.5,112.5,-122.5,,112.5,,,,,,112.5
1,Aleksey Lyapustin,Алексей Ляпустин,M,B,Raw,75,Yes,Т 16-17,,73.35,,,,,,110,-115,-115,,110,,,,,,110
1,Sergey Suvorov,Сергей Суворов,M,B,Raw,75,Yes,Т 18-19,,74.4,,,,,,117.5,125,-132.5,,125,,,,,,125
1,Eduard Isakov,Эдуард Исаков,M,B,Raw,82.5,Yes,M 40-44,,78.75,,,,,,105,-110,110,,110,,,,,,110
1,Vadim Mirzayanov,Вадим Мирзаянов,M,B,Raw,82.5,Yes,M 45-49,,81.55,,,,,,120,130,140,,140,,,,,,140
1,Vladimir Larin,Владимир Ларин,M,B,Raw,82.5,Yes,M 50-54,,82.4,,,,,,100,107.5,110,,110,,,,,,110
1,Eldar Tsoriev,Эльдар Цориев,M,B,Raw,82.5,Yes,M 60-64,,80.8,,,,,,130,135,-140,,135,,,,,,135
1,Andrey Galayda,Андрей Галайда,M,B,Raw,82.5,Yes,Open,,81.6,,,,,,175,-182.5,-187.5,,175,,,,,,175
2,Konstantin Yushkov,Константин Юшков,M,B,Raw,82.5,Yes,Open,,79.2,,,,,,135,-150,,,135,,,,,,135
3,Valentin Shchapov,Валентин Щапов,M,B,Raw,82.5,Yes,Open,,81.55,,,,,,125,132.5,-137.5,,132.5,,,,,,132.5
4,Ilya Serebryakov,Илья Серебряков,M,B,Raw,82.5,Yes,Open,,81.45,,,,,,117.5,-132.5,-132.5,,117.5,,,,,,117.5
5,Aleksey Zubakin,Алексей Зубакин,M,B,Raw,82.5,Yes,Open,,82.1,,,,,,112.5,-132.5,-132.5,,112.5,,,,,,112.5
1,Egor Koykov,Егор Койков,M,B,Raw,82.5,Yes,J 20-23,,80.15,,,,,,130,140,-145,,140,,,,,,140
2,Leonid Yakovlev,Леонид Яковлев,M,B,Raw,82.5,Yes,J 20-23,,81.95,,,,,,137.5,-145,-150,,137.5,,,,,,137.5
1,Igor Zhukov,Игорь Жуков,M,B,Raw,82.5,Yes,Т 13-15,,78.85,,,,,,110,115,-120,,115,,,,,,115
1,Yuriy Koltyshev,Юрий Колтышев,M,B,Raw,82.5,Yes,Т 16-17,,77.4,,,,,,70,75,,,75,,,,,,75
1,Dmitriy Efimov,Дмитрий Ефимов,M,B,Raw,82.5,Yes,Т 18-19,,75.25,,,,,,115,,,,115,,,,,,115
1,Sergey Zhukov,Сергей Жуков,M,B,Raw,90,Yes,M 40-44,,88.55,,,,,,155,160,165,,165,,,,,,165
2,Pavel Galayda,Павел Галайда,M,B,Raw,90,Yes,M 40-44,,89.5,,,,,,150,-157.5,-160,,150,,,,,,150
1,Aleksandr Leontev,Александр Леонтьев,M,B,Raw,90,Yes,M 45-49,,88.2,,,,,,137.5,147.5,150,,150,,,,,,150
1,Sergey Panibratov,Сергей Панибратов,M,B,Raw,90,Yes,M 50-54,,89.5,,,,,,-155,155,-160,,155,,,,,,155
1,Aleksey Kharauzov,Алексей Хараузов,M,B,Raw,90,Yes,Open,,88.6,,,,,,185,192.5,200,,200,,,,,,200
2,Mikhail Veber,Михаил Вебер,M,B,Raw,90,Yes,Open,,87.35,,,,,,182.5,187.5,-192.5,,187.5,,,,,,187.5
3,Sergey Zaytsev,Сергей Зайцев,M,B,Raw,90,Yes,Open,,89.6,,,,,,175,182.5,-192.5,,182.5,,,,,,182.5
4,Vladimir Lapaev,Владимир Лапаев,M,B,Raw,90,Yes,Open,,87.15,,,,,,155,162.5,165,,165,,,,,,165
5,Vasiliy Zhilyakov,Василий Жиляков,M,B,Raw,90,Yes,Open,,89.7,,,,,,160,-170,-170,,160,,,,,,160
6,Sergey Grigoshkin,Сергей Григошкин,M,B,Raw,90,Yes,Open,,87.55,,,,,,145,150,155,,155,,,,,,155
7,Sergey Nechaev,Сергей Нечаев,M,B,Raw,90,Yes,Open,,88.35,,,,,,155,-162.5,-162.5,,155,,,,,,155
8,Pavel Kokorin,Павел Кокорин,M,B,Raw,90,Yes,Open,,84.8,,,,,,145,152.5,-160,,152.5,,,,,,152.5
9,Ruslan Tribunov,Руслан Трибунов,M,B,Raw,90,Yes,Open,,89.9,,,,,,150,-155,-155,,150,,,,,,150
10,Andrey Abzaev,Андрей Абзаев,M,B,Raw,90,Yes,Open,,87.7,,,,,,-137.5,147.5,-155,,147.5,,,,,,147.5
DQ,Aleksandr Kozhevin,Александр Кожевин,M,B,Raw,90,Yes,Open,,89.9,,,,,,-152.5,-152.5,-152.5,,,,,,,,
1,Maksim Markov,Максим Марков,M,B,Raw,90,Yes,J 20-23,,89.25,,,,,,150,160,-170,,160,,,,,,160
1,Lev Osokin,Лев Осокин,M,B,Raw,90,Yes,Т 13-15,,88.65,,,,,,95,100,105,,105,,,,,,105
1,Sergey Salmanov,Сергей Салманов,M,B,Raw,90,Yes,Т 18-19,,84.75,,,,,,110,120,,,120,,,,,,120
1,Andrey Kataev,Андрей Катаев,M,B,Raw,100,Yes,M 40-44,,95.75,,,,,,157.5,162.5,-170,,162.5,,,,,,162.5
2,Mikhail Prokopov,Михаил Прокопов,M,B,Raw,100,Yes,M 40-44,,98.95,,,,,,-130,135,142.5,,142.5,,,,,,142.5
3,Evgeniy Fadeev,Евгений Фадеев,M,B,Raw,100,Yes,M 40-44,,96.9,,,,,,115,125,-142.5,,125,,,,,,125
1,Viktor Mandrygin,Виктор Мандрыгин,M,B,Raw,100,Yes,M 45-49,,99.4,,,,,,155,165,-172.5,,165,,,,,,165
1,Gennadiy Semenov,Геннадий Семенов,M,B,Raw,100,Yes,M 50-54,,98.4,,,,,,-122.5,127.5,-132.5,,127.5,,,,,,127.5
1,Pavel Cheredov,Павел Чередов,M,B,Raw,100,Yes,Open,,95.75,,,,,,180,187.5,190,,190,,,,,,190
2,Dmitriy Kozik,Дмитрий Козик,M,B,Raw,100,Yes,Open,,97.45,,,,,,175,-180,180,,180,,,,,,180
3,Konstantin Talda,Константин Талда,M,B,Raw,100,Yes,Open,,97.65,,,,,,-170,170,-175,,170,,,,,,170
4,Denis Vasilev,Денис Васильев,M,B,Raw,100,Yes,Open,,99.45,,,,,,157.5,162.5,167.5,,167.5,,,,,,167.5
5,Maksim Sukhovchenko,Максим Суховченко,M,B,Raw,100,Yes,Open,,98.5,,,,,,165,-175,-177.5,,165,,,,,,165
6,Dmitriy Bulatov,Дмитрий Булатов,M,B,Raw,100,Yes,Open,,99.2,,,,,,150,162.5,-165,,162.5,,,,,,162.5
7,Andrey Tagankin,Андрей Таганкин,M,B,Raw,100,Yes,Open,,99.4,,,,,,162.5,-167.5,-172.5,,162.5,,,,,,162.5
8,Sergey Gnevanov,Сергей Гневанов,M,B,Raw,100,Yes,Open,,97.4,,,,,,152.5,-162.5,-162.5,,152.5,,,,,,152.5
9,Maksim Pechenkin,Максим Печенкин,M,B,Raw,100,Yes,Open,,93.45,,,,,,142.5,145,147.5,,147.5,,,,,,147.5
10,Andrey Bakulev,Андрей Бакулев,M,B,Raw,100,Yes,Open,,96.5,,,,,,142.5,147.5,-155,,147.5,,,,,,147.5
11,Aleksandr Shestakov,Александр Шестаков,M,B,Raw,100,Yes,Open,,99.25,,,,,,-130,-142.5,142.5,,142.5,,,,,,142.5
12,Anton Vereta,Антон Верета,M,B,Raw,100,Yes,Open,,96.1,,,,,,130,-142.5,-142.5,,130,,,,,,130
DQ,Evgeniy Krayukhin,Евгений Краюхин,M,B,Raw,100,Yes,Open,,98.45,,,,,,-187.5,-187.5,-187.5,,,,,,,,
1,Ilya Pakhomov,Илья Пахомов,M,B,Raw,100,Yes,J 20-23,,93.05,,,,,,-162.5,162.5,-172.5,,162.5,,,,,,162.5
2,Aleksey Kalichev,Алексей Каличев,M,B,Raw,100,Yes,J 20-23,,95.05,,,,,,150,-157.5,-157.5,,150,,,,,,150
1,Stanislav Moskalenko,Станислав Москаленко,M,B,Raw,100,Yes,Т 16-17,,98.2,,,,,,140,-162.5,-162.5,,140,,,,,,140
2,Ruslan Nigmatulin,Руслан Нигматулин,M,B,Raw,100,Yes,Т 16-17,,95.9,,,,,,-100,100,110,,110,,,,,,110
1,Dmitriy Karelin,Дмитрий Карелин,M,B,Raw,110,Yes,M 40-44,,100.75,,,,,,167.5,172.5,-175,,172.5,,,,,,172.5
2,Vladimir Karpov,Владимир Карпов,M,B,Raw,110,Yes,M 40-44,,107.35,,,,,,160,172.5,-180,,172.5,,,,,,172.5
3,Pavel Vishnitskiy,Павел Вишницкий,M,B,Raw,110,Yes,M 40-44,,107.4,,,,,,120,135,-147.5,,135,,,,,,135
1,Maksim Vanin,Максим Ванин,M,B,Raw,110,Yes,M 45-49,,109.45,,,,,,150,160,167.5,,167.5,,,,,,167.5
1,Vladimir Gusev,Владимир Гусев,M,B,Raw,110,Yes,M 50-54,,107.15,,,,,,170,177.5,180,,180,,,,,,180
2,Nikolay Fedorovtsev,Николай Федоровцев,M,B,Raw,110,Yes,M 50-54,,103.5,,,,,,100,120,-125,,120,,,,,,120
1,Aleksandr Darsht,Александр Даршт,M,B,Raw,110,Yes,Open,,103.75,,,,,,195,210,220,,220,,,,,,220
1,Aleksandr Darsht,Александр Даршт,M,B,Raw,110,Yes,J 20-23,,103.75,,,,,,195,210,220,,220,,,,,,220
2,Andrey Ovechkin,Андрей Овечкин,M,B,Raw,110,Yes,Open,,108.75,,,,,,205,-212.5,-222.5,,205,,,,,,205
3,Dmitriy Otinov,Дмитрий Отинов,M,B,Raw,110,Yes,Open,,108.5,,,,,,185,192.5,200,,200,,,,,,200
4,Aleksandr Zaytsev,Александр Зайцев,M,B,Raw,110,Yes,Open,,109.55,,,,,,185,195,200,,200,,,,,,200
5,Sergey Strizhov,Сергей Стрижов,M,B,Raw,110,Yes,Open,,110,,,,,,180,187.5,195,,195,,,,,,195
6,Valeriy Bekker,Валерий Беккер,M,B,Raw,110,Yes,Open,,109.8,,,,,,180,187.5,-195,,187.5,,,,,,187.5
7,Andrey Sharov,Андрей Шаров,M,B,Raw,110,Yes,Open,,108.4,,,,,,170,180,-185,,180,,,,,,180
8,Vladimir Surkov,Владимир Сурков,M,B,Raw,110,Yes,Open,,110,,,,,,165,175,-180,,175,,,,,,175
9,Nikolay Mozharovskiy,Николай Можаровский,M,B,Raw,110,Yes,Open,,104.95,,,,,,-167.5,-167.5,167.5,,167.5,,,,,,167.5
10,Nikolay Seliverstov,Николай Селиверстов,M,B,Raw,110,Yes,Open,,108.4,,,,,,-147.5,157.5,-167.5,,157.5,,,,,,157.5
1,Zaur Mustafeev,Заур Мустафеев,M,B,Raw,110,Yes,Т 18-19,,100.85,,,,,,130,140,-150,,140,,,,,,140
1,Ramil Safarov,Рамил Сафаров,M,B,Raw,125,Yes,M 40-44,,120.9,,,,,,165,177.5,-185,,177.5,,,,,,177.5
1,Aleksandr Mineev,Александр Минеев,M,B,Raw,125,Yes,M 55-59,,118.2,,,,,,80,-95,,,80,,,,,,80
1,Andrey Zavgorodniy,Андрей Завгородний,M,B,Raw,125,Yes,Open,,122.4,,,,,,210,220,227.5,,227.5,,,,,,227.5
2,Vasiliy Petrov,Василий Петров,M,B,Raw,125,Yes,Open,,120.35,,,,,,210,217.5,-225,,217.5,,,,,,217.5
3,Sergey Lukyanov,Сергей Лукьянов,M,B,Raw,125,Yes,Open,,114.3,,,,,,200,207.5,-212.5,,207.5,,,,,,207.5
4,Mikhail Kekalo,Михаил Кекало,M,B,Raw,125,Yes,Open,,119.65,,,,,,190,-202.5,202.5,,202.5,,,,,,202.5
5,Sergey Kolesnichenko,Сергей Колесниченко,M,B,Raw,125,Yes,Open,,120.85,,,,,,-185,-185,185,,185,,,,,,185
6,Vyacheslav Marenchuk,Вячеслав Маренчук,M,B,Raw,125,Yes,Open,,124.25,,,,,,150,155,-165,,155,,,,,,155
1,Semen Demenev,Семен Деменев,M,B,Raw,125,Yes,J 20-23,,113.95,,,,,,202.5,207.5,212.5,,212.5,,,,,,212.5
2,Albert Fakhretdinov,Альберт Фахретдинов,M,B,Raw,125,Yes,J 20-23,,113.1,,,,,,150,160,165,,165,,,,,,165
1,Andrey Melkozerov,Андрей Мелкозеров,M,B,Raw,140,Yes,Open,,131.5,,,,,,210,220,-228,,220,,,,,,220
2,Nikolay Shchukin,Николай Щукин,M,B,Raw,140,Yes,Open,,126.9,,,,,,130,140,-157.5,,140,,,,,,140
1,Mikhail Podchinenov,Михаил Подчиненов,M,B,Raw,140,Yes,J 20-23,,132.4,,,,,,160,-180,-180,,160,,,,,,160
1,Oleg Melentev,Олег Мелентьев,M,B,Raw,140+,Yes,Open,,141.6,,,,,,170,182.5,-187.5,,182.5,,,,,,182.5
1,Margarita Dzina,Маргарита Дзина,F,SBD,Multi-ply,48,Yes,Open,,47.5,-110,120,-140,,120,-70,70,75,,75,110,130,-142.5,,130,325
1,Yuliya Ermakova,Юлия Ермакова,F,SBD,Multi-ply,48,Yes,T 13-15,,46.7,70,75,80,,80,30,-35,35,,35,85,-95,95,,95,210
1,Elena Arkhipova,Елена Архипова,F,SBD,Multi-ply,52,Yes,J 20-23,,51,-110,120,-125,,120,-50,-60,60,,60,110,-117.5,-117.5,,110,290
1,Tatyana Rykunova,Татьяна Рыкунова,F,SBD,Multi-ply,52,Yes,Open,,50.95,95,105,110,,110,-55,55,-60,,55,90,95,100,,100,265
1,Nadezhda Reutova,Надежда Реутова,F,SBD,Multi-ply,52,Yes,T 16-17,,48.3,90,-105,115,,115,55,57.5,-67.5,,57.5,100,110,-112.5,,110,282.5
1,Kseniya Bulygina,Ксения Булыгина,F,SBD,Multi-ply,56,Yes,J 20-23,,55.3,-125,135,142.5,,142.5,57.5,60,,,60,110,120,122.5,,122.5,325
1,Margarita Gaas,Маргарита Гаас,F,SBD,Multi-ply,56,Yes,J 20-23,,54.75,130,-140,-140,,130,-70,70,75,,75,100,115,-117.5,,115,320
1,Marina Tuz,Марина Туз,F,SBD,Multi-ply,56,Yes,Open,,54,115,125,127.5,,127.5,60,65,67.5,,67.5,110,120,125,,125,320
1,Anastasiya Ladygina,Анастасия Ладыгина,F,SBD,Multi-ply,56,Yes,T 18-19,,54.65,120,130,-140,,130,60,67.5,-72.5,,67.5,115,125,,,125,322.5
1,Natalya Avgust,Наталья Август,F,SBD,Multi-ply,60,Yes,Open,,59.6,125,132.5,140,,140,-77.5,77.5,80,,80,155,165,-167.5,,165,385
1,Mariya Berezenko,Мария Березенко,F,SBD,Multi-ply,60,Yes,T 18-19,,58.35,135,150,-160,,150,75,80,-85,,80,125,140,155,,155,385
1,Elena Tokareva,Елена Токарева,F,SBD,Multi-ply,67.5,Yes,J 20-23,,67.35,130,140,155,,155,80,-85,,,80,110,120,130,,130,365
1,Marina Shabaeva,Марина Шабаева,F,SBD,Multi-ply,82.5,Yes,Open,,80.35,180,-190,190,,190,85,-92.5,92.5,,92.5,175,185,-192.5,,185,467.5
1,Vitaliy Mikhin,Виталий Михин,M,SBD,Multi-ply,52,Yes,Open,,51.4,140,-155,160,,160,80,85,-90,,85,160,-177.5,-177.5,,160,405
1,Vitaliy Mikhin,Виталий Михин,M,SBD,Multi-ply,52,Yes,T 13-15,,51.4,140,-155,160,,160,80,85,-90,,85,160,-177.5,-177.5,,160,405
2,Artur Mevlyutov,Артур Мевлютов,M,SBD,Multi-ply,52,Yes,T 13-15,,50.55,150,160,170,,170,65,70,-75,,70,130,140,145,,145,385
1,Vladimir Ubeyvolk,Владимир Убейволк,M,SBD,Multi-ply,52,Yes,T 16-17,,48.9,85,-100,100,,100,60,70,75,,75,100,120,130,,130,305
1,Nikita Telegin,Никита Телегин,M,SBD,Multi-ply,56,Yes,T 13-15,,52.35,125,140,-150,,140,80,85,-90,,85,120,135,140,,140,365
2,Daniil Pavlyuk,Даниил Павлюк,M,SBD,Multi-ply,56,Yes,T 13-15,,54.8,125,-135,-140,,125,50,57.5,-62.5,,57.5,100,110,-120,,110,292.5
1,Yegor Pavlyuk,Егор Павлюк,M,SBD,Multi-ply,56,Yes,T 16-17,,54.5,165,175,185,,185,55,-65,65,,65,110,122.5,135,,135,385
2,Royal Dzhabarov,Роял Джабаров,M,SBD,Multi-ply,56,Yes,T 18-19,,53.6,160,-180,200,,200,80,85,87.5,,87.5,150,170,-175,,170,457.5
1,Andrey Kadochnikov,Андрей Кадочников,M,SBD,Multi-ply,60,Yes,J 20-23,,59.65,190,205,215,,215,115,125,-135,,125,180,-205,-205,,180,520
1,Mikhail Fateev,Михаил Фатеев,M,SBD,Multi-ply,60,Yes,T 18-19,,60,180,200,-215,,200,140,150,-160,,150,190,-227.5,,,190,540
2,Maksim Shvarts,Максим Шварц,M,SBD,Multi-ply,60,Yes,T 18-19,,59.65,195,210,-215,,210,95,105,-110,,105,185,-195,195,,195,510
1,Zaur Gusenov,Заур Гусейнов,M,SBD,Multi-ply,67.5,Yes,Open,,67.5,216,-230,-230,,216,135,-142.5,-142.5,,135,175,185,,,185,536
1,Zaur Gusenov,Заур Гусейнов,M,SBD,Multi-ply,67.5,Yes,J 20-23,,67.5,216,-230,-230,,216,135,-142.5,-142.5,,135,175,185,,,185,536
1,Yuriy Kiselev,Юрий Киселев,M,SBD,Multi-ply,67.5,Yes,M70-74,,66,100,120,140,,140,75,85,-90,,85,150,165,180,,180,405
2,Yaroslav Markov,Ярослав Марков,M,SBD,Multi-ply,67.5,Yes,Open,,65.15,185,200,-210,,200,-110,110,120,,120,190,200,210,,210,530
1,Radik Rakhimov,Радик Рахимов,M,SBD,Multi-ply,67.5,Yes,T 16-17,,64.05,230,240,245,,245,-130,135,140,,140,200,210,220,,220,605
1,Sergey Lyubimov,Сергей Любимов,M,SBD,Multi-ply,67.5,Yes,T 18-19,,64.4,120,145,165,,165,100,110,-115,,110,145,160,-170,,160,435
1,Vener Fayzullin,Венер Файзуллин,M,SBD,Multi-ply,75,Yes,J 20-23,,71.15,225,235,247.5,,247.5,-140,150,157.5,,157.5,235,250,-260,,250,655
1,Sergey Alampiev,Сергей Алампиев,M,SBD,Multi-ply,75,Yes,M 50-54,,68.75,150,170,180,,180,120,-130,-130,,120,180,200,210,,210,510
1,Vladimir Narenkov,Владимир Наренков,M,SBD,Multi-ply,75,Yes,Open,,74.15,210,220,-225,,220,140,150,155,,155,215,-225,-235,,215,590
1,Andrey Shchuklin,Андрей Щуклин,M,SBD,Multi-ply,75,Yes,T 13-15,,72.6,110,120,-130,,120,60,70,-75,,70,140,150,160,,160,350
1,Aleksandr Skutin,Александр Скутин,M,SBD,Multi-ply,75,Yes,T 16-17,,73.9,210,220,-230,,220,140,150,-155,,150,200,210,215,,215,585
2,Pavel Volkov,Павел Волков,M,SBD,Multi-ply,75,Yes,T 16-17,,73.55,200,215,-230,,215,130,-137.5,137.5,,137.5,190,205,-215,,205,557.5
3,Vladimir Babin,Владимир Бабин,M,SBD,Multi-ply,75,Yes,T 16-17,,74.75,202.5,210,215,,215,100,-105,-105,,100,200,207.5,220,,220,535
1,Vladimir Boyarshinov,Владимир Бояршинов,M,SBD,Multi-ply,82.5,Yes,M 45-49,,81.75,-180,180,210,,210,120,130,140,,140,230,250,265,,265,615
1,Aleksandr Shunin,Александр Шунин,M,SBD,Multi-ply,82.5,Yes,Open,,82.5,260,-275,-275,,260,150,160,170,,170,220,230,,,230,660
2,Ernest Gazaryan,Эрнест Газарян,M,SBD,Multi-ply,82.5,Yes,Open,,82.35,-250,250,-255,,250,-150,-150,150,,150,190,205,-210,,205,605
1,Denis Mosharov,Денис Мошаров,M,SBD,Multi-ply,82.5,Yes,T 16-17,,80.4,220,235,-242.5,,235,110,120,127.5,,127.5,-180,180,205,,205,567.5
1,Vladimir Konkin,Владимир Конкин,M,SBD,Multi-ply,82.5,Yes,T 18-19,,81,250,267.5,-277.5,,267.5,140,147.5,-152.5,,147.5,200,-210,-210,,200,615
2,Andrey Simakov,Андрей Симаков,M,SBD,Multi-ply,82.5,Yes,T 18-19,,82.15,-210,220,240,,240,110,120,-125,,120,210,-225,225,,225,585
3,Dmitriy Efimov,Дмитрий Ефимов,M,SBD,Multi-ply,82.5,Yes,T 18-19,,76,190,210,-230,,210,135,-150,-150,,135,200,225,237.5,,237.5,582.5
1,Stanislav Pryakhin,Станислав Пряхин,M,SBD,Multi-ply,90,Yes,Open,,83.4,320,-342.5,342.5,,342.5,-185,-185,185,,185,250,272.5,-300,,272.5,800
1,Sergey Salmanov,Сергей Салманов,M,SBD,Multi-ply,90,Yes,T 18-19,,86.55,-210,210,-250,,210,130,150,160,,160,230,250,-270,,250,620
1,Ivan Maslov,Иван Маслов,M,SBD,Multi-ply,100,Yes,J 20-23,,93.85,180,200,,,200,160,180,-200,,180,180,200,,,200,580
1,Oleg Pisachenko,Олег Писаченко,M,SBD,Multi-ply,100,Yes,M 40-44,,98.65,250,270,285,,285,165,175,185,,185,235,247.5,,,247.5,717.5
1,Oleg Kholodov,Олег Холодов,M,SBD,Multi-ply,100,Yes,M 45-49,,92.8,170,200,210,,210,150,160,170,,170,170,200,210,,210,590
1,Evgeniy Gorelov,Евгений Горелов,M,SBD,Multi-ply,100,Yes,Open,,95.85,240,260,-280,,260,130,140,,,140,250,270,280,,280,680
1,Ilya Selivanov,Илья Селиванов,M,SBD,Multi-ply,100,Yes,T 18-19,,91.1,200,215,225,,225,140,150,-160,,150,180,190,-200,,190,565
1,Maksim Zakharkin,Максим Захаркин,M,SBD,Multi-ply,110,Yes,Open,,108.45,300,315,,,315,170,180,-195,,180,280,300,-315,,300,795
1,Mariya Shtin,Мария Штин,F,B,Multi-ply,52,Yes,Open,,51.6,,,,,,65,-70,-70,,65,,,,,,65
2,Tatyana Rykunova,Татьяна Рыкунова,F,B,Multi-ply,52,Yes,Open,,51.9,,,,,,55,-60,60,,60,,,,,,60
1,Nadezhda Reutova,Надежда Реутова,F,B,Multi-ply,52,Yes,T 16-17,,50.4,,,,,,50,55,-60,,55,,,,,,55
DQ,Olesya Pervyshina,Олеся Первышина,F,B,Multi-ply,56,Yes,Open,,53.8,,,,,,-60,-60,-60,,,,,,,,
1,Olga Krasnova,Ольга Краснова,F,B,Multi-ply,60,Yes,J20-23,,58.6,,,,,,-65,65,-70,,65,,,,,,65
1,Marya Berezenko,Марья Березенко,F,B,Multi-ply,60,Yes,T 18-19,,58.25,,,,,,75,80,82.5,87.5,82.5,,,,,,82.5
1,Larisa Dernova,Лариса Дернова,F,B,Multi-ply,67.5,Yes,Open,,67.1,,,,,,85,92.5,97.5,,97.5,,,,,,97.5
DQ,Elena Tokareva,Елена Токарева,F,B,Multi-ply,67.5,Yes,J20-23,,67.5,,,,,,-80,-87.5,-87.5,,,,,,,,
1,Svetlana Sinacheva,Светлана Синачева,F,B,Multi-ply,75,Yes,Open,,74,,,,,,110,-115,,,110,,,,,,110
1,Nikita Telegin,Никита Телегин,M,B,Multi-ply,52,Yes,T 13-15,,51.9,,,,,,82.5,90,,,90,,,,,,90
2,Vladimir Kondratev,Владимир Кондратьев,M,B,Multi-ply,52,Yes,T 13-15,,51.9,,,,,,55,60,-65,,60,,,,,,60
1,Vitaliy Mikhin,Виталий Михин,M,B,Multi-ply,56,Yes,Open,,53.3,,,,,,80,85,90,,90,,,,,,90
1,Vitaliy Mikhin,Виталий Михин,M,B,Multi-ply,56,Yes,T 13-15,,53.3,,,,,,80,85,90,,90,,,,,,90
1,Dmitriy Vyrupaev,Дмитрий Вырупаев,M,B,Multi-ply,56,Yes,T 16-17,,55.5,,,,,,-85,85,-90,,85,,,,,,85
1,Stepan Kuchin,Степан Кучин,M,B,Multi-ply,67.5,Yes,J20-23,,65.6,,,,,,115,125,-140,,125,,,,,,125
1,Ruslan Khayrullin,Руслан Хайруллин,M,B,Multi-ply,67.5,Yes,Open,,67.25,,,,,,150,-155,-155,,150,,,,,,150
2,Ilya Obolenskiy,Илья Оболенский,M,B,Multi-ply,67.5,Yes,Open,,66.95,,,,,,130,140,-150,,140,,,,,,140
1,Anton Mogilevskiy,Антон Могилевский,M,B,Multi-ply,67.5,Yes,T 16-17,,64.75,,,,,,-130,130,150,,150,,,,,,150
1,Sergey Streltsov,Сергей Стрельцов,M,B,Multi-ply,67.5,Yes,T 18-19,,61.65,,,,,,100,115,125,,125,,,,,,125
2,Georgiy Gushul,Георгий Гушул,M,B,Multi-ply,67.5,Yes,T 18-19,,64.1,,,,,,110,120,-125,,120,,,,,,120
3,Sergey Lyubimov,Сергей Любимов,M,B,Multi-ply,67.5,Yes,T 18-19,,67,,,,,,100,-110,110,,110,,,,,,110
DQ,Aleksey Bolshevykh,Алексей Большевых,M,B,Multi-ply,67.5,Yes,T 18-19,,67.5,,,,,,-135,,-140,,,,,,,,
1,Vener Fayzullin,Венер Файзуллин,M,B,Multi-ply,75,Yes,J20-23,,70.8,,,,,,140,-150,-150,,140,,,,,,140
DQ,Denis Knyaginin,Денис Княгинин,M,B,Multi-ply,75,Yes,J20-23,,71.85,,,,,,-150,-150,-150,,,,,,,,
1,Sergey Alampiev,Сергей Алампиев,M,B,Multi-ply,75,Yes,M 50-54,,68.25,,,,,,120,125,-130,,125,,,,,,125
1,Rustem Khusainov,Рустем Хусаинов,M,B,Multi-ply,75,Yes,Open,,75,,,,,,145,157.5,,,157.5,,,,,,157.5
2,Ruslan Allayarov,Руслан Аллаяров,M,B,Multi-ply,75,Yes,Open,,70,,,,,,140,-150,-157.5,,140,,,,,,140
DQ,Stanislav Dmitriev,Станислав Дмитриев,M,B,Multi-ply,75,Yes,Open,,74.65,,,,,,-137.5,-137.5,-137.5,,,,,,,,
DQ,Aleksandr Medvedev,Александр Медведев,M,B,Multi-ply,75,Yes,Open,,73.9,,,,,,-170,-170,-170,,,,,,,,
1,Nikita Rezitskiy,Никита Резицкий,M,B,Multi-ply,75,Yes,T 13-15,,72.85,,,,,,107.5,112.5,-115,,112.5,,,,,,112.5
1,Pavel Volkov,Павел Волков,M,B,Multi-ply,75,Yes,T 16-17,,73.3,,,,,,130,-137.5,-137.5,,130,,,,,,130
1,Rinat Abubekirov,Ринат Абубекиров,M,B,Multi-ply,82.5,Yes,J20-23,,79.75,,,,,,185,-195,-195,,185,,,,,,185
1,Valeriy Trubin,Валерий Трубин,M,B,Multi-ply,82.5,Yes,M 40-44,,82.3,,,,,,170,-175,-177.5,,170,,,,,,170
1,Viktor Mistratov,Виктор Мистратов,M,B,Multi-ply,82.5,Yes,Open,,81.15,,,,,,180,190,-215,,190,,,,,,190
2,Aleksey Savosin,Алексей Савосин,M,B,Multi-ply,82.5,Yes,Open,,79.45,,,,,,-170,170,-185,,170,,,,,,170
3,Aleksey Gasanov,Алексей Гасанов,M,B,Multi-ply,82.5,Yes,Open,,82.25,,,,,,-170,170,-172,,170,,,,,,170
DQ,Andrey Bogatkov,Андрей Богатков,M,B,Multi-ply,82.5,Yes,Open,,81,,,,,,-185,-185,-190,,,,,,,,
1,Ilya Chudin,Илья Чудин,M,B,Multi-ply,82.5,Yes,T 18-19,,77.15,,,,,,-140,140,152.5,,152.5,,,,,,152.5
2,Dmitriy Efimov,Дмитрий Ефимов,M,B,Multi-ply,82.5,Yes,T 18-19,,75.9,,,,,,135,145,-155,,145,,,,,,145
1,Rafik Zeynalov,Рафик Зейналов,M,B,Multi-ply,90,Yes,J20-23,,89.25,,,,,,-160,160,-180,,160,,,,,,160
DQ,Gennadiy Ladkin,Геннадий Ладкин,M,B,Multi-ply,90,Yes,J20-23,,87.8,,,,,,-230,,-230,,,,,,,,
1,Sergey Kosarev,Сергей Косарев,M,B,Multi-ply,90,Yes,M 40-44,,87.25,,,,,,-150,150,-160,,150,,,,,,150
1,Mikhail Veber,Михаил Вебер,M,B,Multi-ply,90,Yes,Open,,88.3,,,,,,222.5,230,235,,235,,,,,,235
2,Pavel Isakov,Павел Исаков,M,B,Multi-ply,90,Yes,Open,,89.65,,,,,,215,225,-237.5,,225,,,,,,225
3,Matvey Gutorov,Матвей Гуторов,M,B,Multi-ply,90,Yes,Open,,89.25,,,,,,-200,207.5,215,,215,,,,,,215
4,Vladimir Stepanenko,Владимир Степаненко,M,B,Multi-ply,90,Yes,Open,,88.9,,,,,,-207.5,-207.5,207.5,,207.5,,,,,,207.5
5,Konstantin Tolkachev,Константин Толкачев,M,B,Multi-ply,90,Yes,Open,,86.6,,,,,,180,-185,,,180,,,,,,180
1,Evgeniy Panferov,Евгений Панферов,M,B,Multi-ply,90,Yes,T 16-17,,88.65,,,,,,150,-160,-172.5,,150,,,,,,150
1,Vadim Shevchuk,Вадим Шевчук,M,B,Multi-ply,90,Yes,T 18-19,,89.5,,,,,,165,172.5,-180,,172.5,,,,,,172.5
2,Sergey Salmanov,Сергей Салманов,M,B,Multi-ply,90,Yes,T 18-19,,86.25,,,,,,130,-150,-160,,130,,,,,,130
1,Evgeniy Medeltsov,Евгений Медельцов,M,B,Multi-ply,100,Yes,J20-23,,93.25,,,,,,215,222.5,-240,,222.5,,,,,,222.5
1,Valeriy Kurochkin,Валерий Курочкин,M,B,Multi-ply,100,Yes,Open,,97.3,,,,,,-210,220,225,,225,,,,,,225
2,Sergey Shikhalev,Сергей Шихалев,M,B,Multi-ply,100,Yes,Open,,93.1,,,,,,-192.5,-192.5,192.5,,192.5,,,,,,192.5
DQ,Vadim Fedulov,Вадим Федулов,M,B,Multi-ply,100,Yes,Open,,97.15,,,,,,-182.5,-182.5,-182.5,,,,,,,,
DQ,Andrey Dobryakov,Андрей Добряков,M,B,Multi-ply,100,Yes,Open,,97.85,,,,,,-220,,-220,,,,,,,,
DQ,Dmitriy Khanykov,Дмитрий Ханыков,M,B,Multi-ply,100,Yes,Open,,98.5,,,,,,-220,-220,-220,,,,,,,,
DQ,Konstantin Talda,Константин Талда,M,B,Multi-ply,100,Yes,Open,,98.7,,,,,,-190,-200,-200,,,,,,,,
DQ,Aleksandr Belyaev,Александр Беляев,M,B,Multi-ply,100,Yes,Open,,99.75,,,,,,-220,-220,-220,,,,,,,,
DQ,Oleg Kozin,Олег Козин,M,B,Multi-ply,100,Yes,Open,,99.75,,,,,,-192.5,-192.5,-192.5,,,,,,,,
1,Stanislav Moskalenko,Станислав Москаленко,M,B,Multi-ply,100,Yes,T 16-17,,99.55,,,,,,150,160,-175,,160,,,,,,160
1,Ilya Selivanov,Илья Селиванов,M,B,Multi-ply,100,Yes,T 18-19,,99.35,,,,,,135,150,,,150,,,,,,150
DQ,Aleksandr Kvasnikov,Александр Квасников,M,B,Multi-ply,110,Yes,J20-23,,109.95,,,,,,-235,-235,-235,,,,,,,,
1,Pavel Kucherov,Павел Кучеров,M,B,Multi-ply,110,Yes,M 40-44,,108.1,,,,,,230,240,,,240,,,,,,240
1,Pavel Kucherov,Павел Кучеров,M,B,Multi-ply,110,Yes,Open,,108.1,,,,,,230,240,,,240,,,,,,240
2,Aleksey Tereshchenko,Алексей Терещенко,M,B,Multi-ply,110,Yes,M 40-44,,105.6,,,,,,180,-190,-190,,180,,,,,,180
DQ,Pavel Vishnitskiy,Павел Вишницкий,M,B,Multi-ply,110,Yes,M 40-44,,108.8,,,,,,-165,-165,,,,,,,,,
1,Andrey Zapylikhin,Андрей Запылихин,M,B,Multi-ply,110,Yes,M 45-49,,107.8,,,,,,185,-195,-202.5,,185,,,,,,185
DQ,Dmitriy Otinov,Дмитрий Отинов,M,B,Multi-ply,110,Yes,Open,,108.7,,,,,,-290,-290,-290,,,,,,,,
DQ,Evgeniy Formin,Евгений Формин,M,B,Multi-ply,125,Yes,M 40-44,,117.25,,,,,,-212.5,-212.5,-212.5,,,,,,,,
1,Mikhail Kekalo,Михаил Кекало,M,B,Multi-ply,125,Yes,Open,,119.15,,,,,,230,235,240,,240,,,,,,240
2,Aleksey Belousov,Алексей Белоусов,M,B,Multi-ply,125,Yes,Open,,118.25,,,,,,215,220,227.5,,227.5,,,,,,227.5
3,Dmitriy Ryzhov,Дмитрий Рыжов,M,B,Multi-ply,125,Yes,Open,,118.3,,,,,,215,225,-235,,225,,,,,,225
DQ,Ivan Kulchitskiy,Иван Кульчицкий,M,B,Multi-ply,125,Yes,Open,,112.85,,,,,,-200,,,,,,,,,,
1,Mikhail Nekrasov,Михаил Некрасов,M,B,Multi-ply,140,Yes,Open,,133.55,,,,,,-200,205,215,,215,,,,,,215
1,Mikhail Kurkomeli,Михаил Куркомели,M,B,Multi-ply,140,Yes,T 16-17,,137,,,,,,-140,140,145,,145,,,,,,145
1,Oleg Melentev,Олег Мелентьев,M,B,Multi-ply,140+,Yes,Open,,141.6,,,,,,230,240,-250,,240,,,,,,240
