Division,WeightClassKg,Place,Name,Team,BodyweightKg,Best3SquatKg,Best3BenchKg,Best3DeadliftKg,TotalKg,Equipment,Event,Sex
Boys,51.71,1,Austin Peppers,Rice,51.57,129.27,65.77,136.08,331.12,Single-ply,SBD,M
Boys,51.71,2,Dillon Silvis,New Waverly,48.9,102.06,38.56,97.52,238.14,Single-ply,SBD,M
Boys,59.87,1,Kyle Stafford,Navasota,55.97,140.61,77.11,140.61,358.34,Single-ply,SBD,M
Boys,55.79,DQ,Roberto Oropeza,Rice,54.93,,,,,Single-ply,SBD,M
Boys,55.79,DQ,Dalton Ellis,Elkhart,52.62,,,,,Single-ply,SBD,M
Boys,55.79,DQ,Lee Ballou,Groesbeck,54.88,,,,,Single-ply,SBD,M
Boys,67.13,1,Juan Hernandez,Mexia,59.92,158.76,92.99,185.97,437.72,Single-ply,SBD,M
Boys,67.13,2,Tate Hartley,Buffalo,60.1,176.9,86.18,174.63,437.72,Single-ply,SBD,M
Boys,59.87,3,Dane Rodriguez,Chilton,59.15,133.81,83.91,145.15,362.87,Single-ply,SBD,M
Boys,59.87,4,Nick Harris,Madisonville,57.79,124.74,79.38,142.88,347,Single-ply,SBD,M
Boys,59.87,5,Nick Degelia,Normangee,59.6,129.27,79.38,136.08,344.73,Single-ply,SBD,M
Boys,67.13,6,Adam Payne,Rice,60.1,122.47,63.5,131.54,317.51,Single-ply,SBD,M
Boys,59.87,DQ,Ismael Castillo,Madisonville,59.6,,,,,Single-ply,SBD,M
Boys,67.13,DQ,Cody DeFore,Elkhart,60.06,,,,,Single-ply,SBD,M
Boys,59.87,DQ,Eli Trim,Elkhart,56.25,,,,,Single-ply,SBD,M
Boys,67.13,DQ,Davonte Graves,Chilton,59.92,,,,,Single-ply,SBD,M
Boys,67.13,DQ,Tony Woods,Kerens,60.1,131.54,63.5,,,Single-ply,SBD,M
Boys,67.13,1,Michael Kohl,Rosebud-Lott,66.68,201.85,120.2,185.97,508.02,Single-ply,SBD,M
Boys,67.13,2,David Marez,Mexia,65.41,181.44,88.45,176.9,446.79,Single-ply,SBD,M
Boys,67.13,3,Denovious Scaggs,Bremond,63.37,158.76,95.25,174.63,428.64,Single-ply,SBD,M
Boys,67.13,4,Colton Monroe,Blooming Grove,63.96,142.88,86.18,197.31,426.38,Single-ply,SBD,M
Boys,67.13,5,Frankie DeLeon,Navasota,67.04,145.15,83.91,172.37,401.43,Single-ply,SBD,M
Boys,67.13,6,Broch Saxton,New Waverly,66.22,140.61,92.99,165.56,399.16,Single-ply,SBD,M
Boys,67.13,7,Osvaldo Solis,Rice,65,158.76,83.91,154.22,396.89,Single-ply,SBD,M
Boys,74.84,8,Cody Windham,Bremond,67.27,154.22,72.57,167.83,394.63,Single-ply,SBD,M
Boys,67.13,9,Matthew Gordon,Groesbeck,65.63,142.88,86.18,158.76,387.82,Single-ply,SBD,M
Boys,74.84,10,Trent Holt,Centerville,67.27,129.27,104.33,154.22,387.82,Single-ply,SBD,M
Boys,67.13,11,Tristin LaChapple,Rice,63.5,136.08,95.25,136.08,367.41,Single-ply,SBD,M
Boys,67.13,12,Devyn Jankowiak,Centerville,66.36,113.4,102.06,151.95,367.41,Single-ply,SBD,M
Boys,67.13,13,Haiden Zarate,Centerville,64.05,122.47,83.91,158.76,365.14,Single-ply,SBD,M
Boys,67.13,14,Quivante Rameriaz,Kerens,62.05,136.08,79.38,136.08,351.53,Single-ply,SBD,M
Boys,67.13,15,Kyle Shannon,Normangee,66.41,117.93,77.11,115.67,310.71,Single-ply,SBD,M
Boys,67.13,16,Spencer James,Navasota,62.46,108.86,58.97,124.74,292.57,Single-ply,SBD,M
Boys,67.13,17,Jernon Hawley,Buffalo,64.32,99.79,56.7,113.4,269.89,Single-ply,SBD,M
Boys,74.84,1,Tracy Washington,Mexia,71.03,190.51,120.2,210.92,521.63,Single-ply,SBD,M
Boys,74.84,2,Jesus Lopez,Buffalo,70.03,172.37,95.25,188.24,455.86,Single-ply,SBD,M
Boys,74.84,3,Jayson Jordan,Rice,74.75,172.37,97.52,170.1,439.98,Single-ply,SBD,M
Boys,74.84,4,Austin Cude,Navasota,72.39,151.95,97.52,167.83,417.3,Single-ply,SBD,M
Boys,74.84,5,Garrett Flaningan,Elkhart,73.71,145.15,88.45,174.63,408.23,Single-ply,SBD,M
Boys,74.84,6,Jake Maddux,Groesbeck,72.57,161.03,92.99,147.42,401.43,Single-ply,SBD,M
Boys,74.84,7,Trent Peterson,Centerville,68.4,113.4,68.04,124.74,306.17,Single-ply,SBD,M
Boys,74.84,DQ,Cj Corona,Bremond,71.58,,,,,Single-ply,SBD,M
Boys,74.84,DQ,Cody Markham,New Waverly,74.16,181.44,95.25,,,Single-ply,SBD,M
Boys,89.81,1,Martin Balderas,Groesbeck,82.15,242.67,149.69,254.01,646.37,Single-ply,SBD,M
Boys,82.1,2,Damian Kozak,Bremond,78.74,249.48,158.76,231.33,639.57,Single-ply,SBD,M
Boys,82.1,3,Jose Dominguez,Buffalo,80.29,240.4,147.42,229.06,616.89,Single-ply,SBD,M
Boys,82.1,4,Ben Parrish,Groesbeck,81.92,204.12,111.13,192.78,508.02,Single-ply,SBD,M
Boys,82.1,5,Chris Atchley,Rice,76.43,185.97,111.13,195.04,492.15,Single-ply,SBD,M
Boys,82.1,6,Zach Starkey,Kerens,77.02,170.1,117.93,201.85,489.88,Single-ply,SBD,M
Boys,82.1,7,Tavion Hall,Kerens,75.3,163.29,97.52,217.72,478.54,Single-ply,SBD,M
Boys,82.1,8,Colton Cogdill,Elkhart,80.1,181.44,117.93,163.29,462.66,Single-ply,SBD,M
Boys,89.81,9,Colton Hedrick,Groesbeck,82.19,181.44,88.45,188.24,458.13,Single-ply,SBD,M
Boys,82.1,10,Dustin Sawyer,New Waverly,81.92,172.37,102.06,174.63,449.06,Single-ply,SBD,M
Boys,82.1,11,Dylan Woods,Kerens,77.02,158.76,99.79,,258.55,Single-ply,SB,M
Boys,82.1,DQ,William Pugh,Kerens,81.19,117.93,74.84,147.42,,Single-ply,SBD,M
Boys,82.1,DQ,Kyle Harris,Centerville,75.89,,,,,Single-ply,SB,M
Boys,82.1,DQ,Tate Molandes,Elkhart,80.1,,,,,Single-ply,SB,M
Boys,82.1,DQ,Jamarcus Fletcher,New Waverly,80.69,158.76,133.81,,,Single-ply,SB,M
Boys,82.1,DQ,Blake Reeves,Centerville,77.66,,,,,Single-ply,SB,M
Boys,99.79,1,Dj Woods,Kerens,89.99,272.16,147.42,229.06,648.64,Single-ply,SBD,M
Boys,89.81,2,Ben Torres,Rice,88.72,226.8,138.35,201.85,566.99,Single-ply,SBD,M
Boys,89.81,3,Jody Bernal,Rice,86.73,195.04,145.15,217.72,557.92,Single-ply,SBD,M
Boys,89.81,4,Ivan Rivas,Buffalo,88.45,197.31,147.42,206.38,551.11,Single-ply,SBD,M
Boys,89.81,5,Robert Robinson,Mexia,89.09,208.65,108.86,208.65,526.17,Single-ply,SBD,M
Boys,89.81,6,James Roach,Centerville,86.82,165.56,111.13,179.17,455.86,Single-ply,SBD,M
Boys,89.81,7,Dylan Ward,Elkhart,88.81,149.69,95.25,158.76,403.7,Single-ply,SBD,M
Boys,89.81,8,Austin Desutel,Madisonville,89.13,158.76,88.45,156.49,403.7,Single-ply,SBD,M
Boys,89.81,9,Charles Cavanaugh,Navasota,87.91,145.15,81.65,174.63,401.43,Single-ply,SBD,M
Boys,99.79,10,Zack Pavlock,Navasota,89.9,117.93,86.18,154.22,358.34,Single-ply,SBD,M
Boys,89.81,11,Billy Brewer,Bremond,83.01,127.01,63.5,142.88,333.39,Single-ply,SBD,M
Boys,89.81,DQ,Colton Henson,Buffalo,83.73,,,,,Single-ply,SBD,M
Boys,89.81,DQ,Chris Carolan,New Waverly,83.14,181.44,156.49,,,Single-ply,SBD,M
Boys,89.81,DQ,Rodrick Arceneaux,Elkhart,87.54,,,,,Single-ply,SBD,M
Boys,109.77,1,Ragan Henderson,Rice,99.88,254.01,154.22,278.96,687.19,Single-ply,SBD,M
Boys,99.79,2,John Maddigan,Rosebud-Lott,95.12,258.55,163.29,254.01,675.85,Single-ply,SBD,M
Boys,99.79,3,Josh Freeman,Hubbard,94.8,240.4,142.88,208.65,591.94,Single-ply,SBD,M
Boys,99.79,4,Cedric Carter,Chilton,94.44,231.33,124.74,199.58,555.65,Single-ply,SBD,M
Boys,99.79,5,Ben Chavez,Chilton,95.39,213.19,97.52,210.92,521.63,Single-ply,SBD,M
Boys,99.79,6,Justin Smith,Rice,92.53,204.12,104.33,208.65,517.1,Single-ply,SBD,M
Boys,99.79,7,Austin Talafuse,Rosebud-Lott,97.57,181.44,113.4,174.63,469.47,Single-ply,SBD,M
Boys,99.79,8,Julio Camarena,Madisonville,97.89,165.56,111.13,192.78,469.47,Single-ply,SBD,M
Boys,99.79,9,David Rameriez,Navasota,93.62,176.9,86.18,158.76,421.84,Single-ply,SBD,M
Boys,99.79,10,Trace Sanders,New Waverly,98.43,145.15,92.99,167.83,405.97,Single-ply,SBD,M
Boys,99.79,11,Kameron Smith,Chilton,96.71,149.69,106.59,147.42,403.7,Single-ply,SBD,M
Boys,99.79,12,Trent Watkins,Normangee,97.52,117.93,65.77,129.27,312.98,Single-ply,SBD,M
Boys,99.79,DQ,Alex Chicas,Elkhart,95.44,,,,,Single-ply,SBD,M
Boys,109.77,1,Trevon Williams,Rosebud-Lott,104.33,238.14,136.08,226.8,601.01,Single-ply,SBD,M
Boys,109.77,2,Diontre Oliver,Mexia,100.7,231.33,117.93,233.6,582.87,Single-ply,SBD,M
Boys,109.77,3,Mario Cortez,Buffalo,106.28,197.31,117.93,185.97,501.22,Single-ply,SBD,M
Boys,109.77,4,Austin Ashley,Madisonville,105.19,188.24,129.27,181.44,498.95,Single-ply,SBD,M
Boys,109.77,5,Steven King,Groesbeck,104.14,170.1,122.47,176.9,469.47,Single-ply,SBD,M
Boys,109.77,6,Dalton Gilbert,Madisonville,108.59,181.44,117.93,170.1,469.47,Single-ply,SBD,M
Boys,124.74,7,Cody Nichols,Navasota,109.86,181.44,86.18,176.9,444.52,Single-ply,SBD,M
Boys,109.77,8,Billy Stephens,Rice,105.6,158.76,104.33,136.08,399.16,Single-ply,SBD,M
Boys,109.77,9,Brandon Brumbelow,Kerens,107.18,145.15,79.38,140.61,365.14,Single-ply,SBD,M
Boys,109.77,10,Marc McCloud,Centerville,100.7,131.54,77.11,145.15,353.8,Single-ply,SBD,M
Boys,109.77,DQ,Cayten Tucker,Elkhart,105.23,176.9,,,,Single-ply,SBD,M
Boys,109.77,DQ,Logan McGilvrey,Groesbeck,108.86,108.86,,,,Single-ply,SBD,M
Boys,109.77,DQ,Kurtis Parker,Centerville,101.42,,,,,Single-ply,SBD,M
Boys,124.74,1,Dylon Isom,Normangee,122.38,249.48,115.67,240.4,605.55,Single-ply,SBD,M
Boys,124.74,2,Anthony Barraza,Groesbeck,114.21,249.48,129.27,219.99,598.74,Single-ply,SBD,M
Boys,124.74,3,Jorge Rosas,Madisonville,116.39,226.8,124.74,192.78,544.31,Single-ply,SBD,M
Boys,124.74,4,Garrett Lane,Blooming Grove,123.15,183.7,140.61,185.97,510.29,Single-ply,SBD,M
Boys,124.74,5,Chris Hobbs,Kerens,114.35,195.04,111.13,199.58,505.76,Single-ply,SBD,M
Boys,124.74,6,Alex Montano,Buffalo,113.4,181.44,124.74,181.44,487.61,Single-ply,SBD,M
Boys,124.74,7,Brandon Kendrick,Madisonville,120.56,158.76,104.33,181.44,444.52,Single-ply,SBD,M
Boys,124.74,DQ,Donnie Simpson,Chilton,114.21,,,,,Single-ply,SBD,M
Boys,124.74+,1,Trevin Pomier,Navasota,181.44,215.46,127.01,208.65,551.11,Single-ply,SBD,M
Boys,124.74+,2,Ethan Still,Kerens,186.88,219.99,122.47,190.51,532.97,Single-ply,SBD,M
Boys,124.74+,3,Tyler White,Navasota,146.15,195.04,108.86,181.44,485.34,Single-ply,SBD,M
Boys,124.74+,4,Kevin Laningham,Elkhart,132,163.29,99.79,167.83,430.91,Single-ply,SBD,M
Boys,124.74+,5,Robert Anglin,Groesbeck,136.8,149.69,90.72,172.37,412.77,Single-ply,SBD,M
Boys,124.74+,DQ,Tony Russell,New Waverly,132.99,,,,,Single-ply,SBD,M
Boys,,NS,Dalton Clark,Normangee,,,,,,Single-ply,SBD,M
Boys,,NS,Fanacio Guttevez,Chilton,,,,,,Single-ply,SBD,M
Boys,,NS,Cole Thigpen,Chilton,,,,,,Single-ply,SBD,M
Boys,,NS,Chris Reid,Hubbard,,,,,,Single-ply,SBD,M
Boys,,NS,Eric Aceves,Madisonville,,,,,,Single-ply,SBD,M
Boys,,NS,Rey Perez,Madisonville,,,,,,Single-ply,SBD,M
Boys,,NS,Travis Crowson,Groesbeck,,,,,,Single-ply,SBD,M
Boys,,NS,Codie Pair,Rice,,,,,,Single-ply,SBD,M
Boys,,NS,Ryan Clever,Madisonville,,,,,,Single-ply,SBD,M
Boys,,NS,Alveraz Luis,Rice,,,,,,Single-ply,SBD,M
