Division,WeightClassKg,Place,Name,Team,BodyweightKg,Best3SquatKg,Best3BenchKg,Best3DeadliftKg,TotalKg,Equipment,Event,Sex
Girls,44.23,1,Valery Cano,Edinburg Idea College Prep,43.09,117.93,61.23,115.67,294.84,Single-ply,SBD,F
Girls,44.23,2,Arely Ortega,Edinburg Quest College Prep,43.73,115.67,61.23,113.4,290.3,Single-ply,SBD,F
Girls,44.23,3,Elizabeth Lazo,PSJA Southwest,44.09,113.4,54.43,108.86,276.69,Single-ply,SBD,F
Girls,44.23,4,Roxanne Cantu,Donna,43.91,106.59,36.29,99.79,242.67,Single-ply,SBD,F
Girls,44.23,5,Maria Gutierrez,Edinburg,44.09,97.52,58.97,86.18,242.67,Single-ply,SBD,F
Girls,44.23,6,Ana Herrera,Edinburg,43.45,95.25,47.63,97.52,240.4,Single-ply,SBD,F
Girls,44.23,7,Cathlynn Guerra,PSJA Memorial,43,81.65,43.09,86.18,210.92,Single-ply,SBD,F
Girls,44.23,8,Diana Arias,PSJA Southwest,44.09,81.65,36.29,74.84,192.78,Single-ply,SBD,F
Girls,44.23,9,Angelina Zuniga,San Benito,39.28,70.31,34.02,68.04,172.37,Single-ply,SBD,F
Girls,44.23,DQ,Syann Hernandez,Weslaco East,40.46,106.59,,,,Single-ply,SBD,F
Girls,47.85,1,Brittney Salcido,PSJA Memorial,47.26,149.69,79.38,129.27,358.34,Single-ply,SBD,F
Girls,47.85,2,Jacqueline Pena,Edinburg Idea College Prep,47.17,136.08,63.5,131.54,331.12,Single-ply,SBD,F
Girls,47.85,3,Crystal Borrego,PSJA Memorial,47.81,117.93,45.36,120.2,283.5,Single-ply,SBD,F
Girls,47.85,4,Anyssa Navarro,Weslaco East,47.85,117.93,52.16,113.4,283.5,Single-ply,SBD,F
Girls,47.85,5,Debahni Garza,Edinburg,47.85,102.06,52.16,111.13,265.35,Single-ply,SBD,F
Girls,47.85,6,Deisy Herrera,Monte Alto,47.36,92.99,43.09,106.59,242.67,Single-ply,SBD,F
Girls,47.85,7,Mitzy Juarez,Donna,47.81,104.33,45.36,86.18,235.87,Single-ply,SBD,F
Girls,47.85,8,Janell Martinez,PSJA Southwest,46.72,97.52,38.56,86.18,222.26,Single-ply,SBD,F
Girls,47.85,9,Laura Garza,Pharr Valley View,45.09,90.72,38.56,81.65,210.92,Single-ply,SBD,F
Girls,47.85,10,Ariel Rendon,PSJA,47.81,79.38,38.56,88.45,206.38,Single-ply,SBD,F
Girls,47.85,DQ,Laryssa Garcia,Weslaco East,44.72,86.18,34.02,,,Single-ply,SBD,F
Girls,51.94,1,Jacqueline Sanchez,Donna,51.85,140.61,52.16,131.54,324.32,Single-ply,SBD,F
Girls,51.94,2,Nayelee Trevino,Donna North,51.71,122.47,58.97,136.08,317.51,Single-ply,SBD,F
Girls,51.94,3,Karla Martinez,Donna North,50.62,115.67,52.16,127.01,294.84,Single-ply,SBD,F
Girls,51.94,4,Alexa Cavazos,Pharr Valley View,50.53,124.74,61.23,104.33,290.3,Single-ply,SBD,F
Girls,51.94,5,Isabel Sanchez,Mercedes,49.62,133.81,45.36,108.86,288.03,Single-ply,SBD,F
Girls,51.94,6,Angela Sandoval,Donna,51.71,120.2,38.56,129.27,288.03,Single-ply,SBD,F
Girls,51.94,7,Melani Davila,San Benito,51.53,99.79,56.7,124.74,281.23,Single-ply,SBD,F
Girls,51.94,8,Destiny Garza,PSJA Southwest,51.94,115.67,54.43,104.33,274.42,Single-ply,SBD,F
Girls,51.94,9,Irali Cerda,Donna North,50.98,90.72,45.36,131.54,267.62,Single-ply,SBD,F
Girls,51.94,DQ,Ashly Longoria,PSJA,48.17,88.45,,,,Single-ply,SBD,F
Girls,56.02,1,Jenacy Avitia,Donna North,55.84,147.42,83.91,142.88,374.21,Single-ply,SBD,F
Girls,56.02,2,Jimena Diaz,Edinburg,54.88,145.15,72.57,131.54,349.27,Single-ply,SBD,F
Girls,56.02,3,Nora Cortez,PSJA Southwest,52.62,142.88,72.57,127.01,342.46,Single-ply,SBD,F
Girls,56.02,4,Adamari Martinez,PSJA,55.88,131.54,47.63,136.08,315.25,Single-ply,SBD,F
Girls,56.02,5,Alyzza Ortiz,Edinburg Quest College Prep,53.98,124.74,61.23,120.2,306.17,Single-ply,SBD,F
Girls,56.02,6,Bryanna Marroquin,Edinburg North,55.43,117.93,70.31,111.13,299.37,Single-ply,SBD,F
Girls,56.02,7,Jayden Barrientes,PSJA Memorial,55.61,115.67,70.31,113.4,299.37,Single-ply,SBD,F
Girls,56.02,8,Valerie Soto,San Benito,55.88,127.01,56.7,106.59,290.3,Single-ply,SBD,F
Girls,56.02,9,Ayisha Recio,PSJA,54.98,115.67,54.43,115.67,285.76,Single-ply,SBD,F
Girls,56.02,10,Taeecija Vickmark,Edinburg Quest College Prep,55.34,115.67,58.97,111.13,285.76,Single-ply,SBD,F
Girls,56.02,11,Fernanda Garza,Donna North,55.7,108.86,47.63,127.01,283.5,Single-ply,SBD,F
Girls,56.02,12,Lindsey Gutierrez,La Villa,55.61,102.06,43.09,86.18,231.33,Single-ply,SBD,F
Girls,56.02,DQ,Brianna Rodriguez,PSJA,55.61,99.79,43.09,,,Single-ply,SBD,F
Girls,56.02,DQ,Sabrina Trevino,San Benito,55.61,,,,,Single-ply,SBD,F
Girls,60.1,1,Laura Gomez,PSJA Memorial,59.6,172.37,92.99,154.22,419.57,Single-ply,SBD,F
Girls,60.1,2,Amme Alcorchas,PSJA Memorial,58.6,151.95,83.91,142.88,378.75,Single-ply,SBD,F
Girls,60.1,3,Angeline Cruz,San Benito,59.87,142.88,58.97,140.61,342.46,Single-ply,SBD,F
Girls,60.1,4,Kimberly Gonzalez,Edinburg,60.06,133.81,74.84,133.81,342.46,Single-ply,SBD,F
Girls,60.1,5,Keila Gonzalez,Edinburg,60.1,133.81,79.38,124.74,337.93,Single-ply,SBD,F
Girls,60.1,6,Kimberly Ramos,Donna North,60.06,120.2,65.77,142.88,328.85,Single-ply,SBD,F
Girls,60.1,7,Heidy Perez,PSJA Memorial,57.33,124.74,54.43,138.35,317.51,Single-ply,SBD,F
Girls,60.1,8,Rebekka Flores,PSJA Memorial,58.88,120.2,56.7,136.08,312.98,Single-ply,SBD,F
Girls,60.1,9,America Navarro,Pharr Valley View,57.88,115.67,61.23,133.81,310.71,Single-ply,SBD,F
Girls,60.1,10,Ayanna Rangel,Monte Alto,57.33,127.01,58.97,120.2,306.17,Single-ply,SBD,F
Girls,60.1,11,Rubi Suarez,Edinburg,58.69,108.86,56.7,115.67,281.23,Single-ply,SBD,F
Girls,60.1,12,Alexandra Martinez,Weslaco East,59.6,102.06,43.09,108.86,254.01,Single-ply,SBD,F
Girls,60.1,13,Jessica Rivera,Edinburg North,58.42,74.84,43.09,92.99,210.92,Single-ply,SBD,F
Girls,60.1,DQ,Karen Rosales,Donna North,59.15,124.74,63.5,,,Single-ply,SBD,F
Girls,60.1,DQ,Natalia Marquez,Mercedes,59.87,124.74,,,,Single-ply,SBD,F
Girls,60.1,DQ,Isis Sandiford,Edinburg Idea College Prep,59.24,142.88,,,,Single-ply,SBD,F
Girls,60.1,DQ,Jasmine Marroquin,San Benito,60.1,106.59,,,,Single-ply,SBD,F
Girls,67.36,1,Natalie Maldonado,PSJA Memorial,66.04,163.29,74.84,147.42,385.55,Single-ply,SBD,F
Girls,67.36,2,Jenifher Gallegos,San Benito,67.36,154.22,72.57,138.35,365.14,Single-ply,SBD,F
Girls,67.36,3,Stephanie Cantu,San Benito,64.86,145.15,81.65,136.08,362.87,Single-ply,SBD,F
Girls,67.36,4,Alyssa Salinas,Edinburg,67.13,142.88,81.65,138.35,362.87,Single-ply,SBD,F
Girls,67.36,5,Sindy Garcia,Edinburg Idea College Prep,67.13,147.42,70.31,115.67,333.39,Single-ply,SBD,F
Girls,67.36,6,Jasmin Tamez,Donna,66.95,136.08,52.16,127.01,315.25,Single-ply,SBD,F
Girls,67.36,7,Kylie Olivares,Donna North,64.41,127.01,49.9,122.47,299.37,Single-ply,SBD,F
Girls,67.36,8,Audrey Garza,Monte Alto,66.13,127.01,47.63,113.4,288.03,Single-ply,SBD,F
Girls,67.36,9,Zaylin Cavazos,Edinburg North,66.59,111.13,63.5,113.4,288.03,Single-ply,SBD,F
Girls,67.36,10,Alexia Suarez,PSJA Memorial,65.41,106.59,58.97,120.2,285.76,Single-ply,SBD,F
Girls,67.36,11,Mariana Perez,Donna North,65.32,108.86,61.23,113.4,283.5,Single-ply,SBD,F
Girls,67.36,12,Pamela Torres,La Villa,66.04,111.13,61.23,111.13,283.5,Single-ply,SBD,F
Girls,67.36,13,Michelle Ramirez,Edinburg North,65.5,111.13,58.97,111.13,281.23,Single-ply,SBD,F
Girls,67.36,14,Mayra Yanez,San Benito,64.05,111.13,61.23,106.59,278.96,Single-ply,SBD,F
Girls,67.36,15,Jasmine Rendon,PSJA,64.32,102.06,45.36,108.86,256.28,Single-ply,SBD,F
Girls,67.36,16,Valery Gomez,PSJA Memorial,64.32,102.06,49.9,99.79,251.74,Single-ply,SBD,F
Girls,67.36,17,Abby Yzaguirre,PSJA North,63.68,79.38,56.7,83.91,219.99,Single-ply,SBD,F
Girls,67.36,DQ,Luisa Rodriguez,PSJA,60.51,149.69,,,,Single-ply,SBD,F
Girls,67.36,DQ,Adriana Ruiz,PSJA,62.69,,,,,Single-ply,SBD,F
Girls,75.07,1,Victoria Trevino,PSJA Memorial,73.84,192.78,99.79,165.56,458.13,Single-ply,SBD,F
Girls,75.07,2,Mitzi de la Cruz,Edinburg,73.48,188.24,90.72,151.95,430.91,Single-ply,SBD,F
Girls,75.07,3,Josie Munoz,Weslaco East,71.21,170.1,88.45,147.42,405.97,Single-ply,SBD,F
Girls,75.07,4,Angela Elvira,PSJA,67.68,158.76,74.84,167.83,401.43,Single-ply,SBD,F
Girls,75.07,5,Bianca Aguirre,Donna North,71.67,147.42,56.7,133.81,337.93,Single-ply,SBD,F
Girls,75.07,6,Mariana Juarez,PSJA North,73.84,120.2,54.43,136.08,310.71,Single-ply,SBD,F
Girls,75.07,7,Yvette Solis,Donna,74.48,136.08,54.43,113.4,303.91,Single-ply,SBD,F
Girls,75.07,8,Valeria Estrada,Edinburg North,73.39,95.25,56.7,108.86,260.82,Single-ply,SBD,F
Girls,75.07,9,Samarah Contreras,PSJA,73.48,104.33,45.36,111.13,260.82,Single-ply,SBD,F
Girls,75.07,DQ,Aranza Delgado,PSJA North,71.58,68.04,,,,Single-ply,SBD,F
Girls,75.07,DQ,Alisha Galvan,Santa Rosa,71.85,106.59,,,,Single-ply,SBD,F
Girls,82.33,1,Brittnay Garza,Donna,81.28,165.56,77.11,145.15,387.82,Single-ply,SBD,F
Girls,82.33,2,Destiny Perez,Edinburg,82.28,158.76,97.52,113.4,369.68,Single-ply,SBD,F
Girls,82.33,3,Abby Martinez,PSJA Memorial,81.65,156.49,79.38,131.54,367.41,Single-ply,SBD,F
Girls,82.33,4,Kayla Cox,Edinburg North,80.65,142.88,86.18,129.27,358.34,Single-ply,SBD,F
Girls,82.33,5,Sasha Garcia,Edinburg Quest College Prep,81.19,142.88,63.5,140.61,347,Single-ply,SBD,F
Girls,82.33,6,Leticia Flores,PSJA North,80.29,136.08,83.91,122.47,342.46,Single-ply,SBD,F
Girls,82.33,7,Trinity Guzman,Edinburg North,79.38,117.93,68.04,127.01,312.98,Single-ply,SBD,F
Girls,82.33,8,Dafne Guzman,Donna North,82.19,120.2,70.31,117.93,308.44,Single-ply,SBD,F
Girls,82.33,9,Ashley Bryant,Edinburg North,81.37,117.93,65.77,102.06,285.76,Single-ply,SBD,F
Girls,82.33,10,Bianca Garcia,PSJA Southwest,78.83,120.2,54.43,104.33,278.96,Single-ply,SBD,F
Girls,82.33,11,Ashley Zuniga,Weslaco East,78.93,102.06,52.16,115.67,269.89,Single-ply,SBD,F
Girls,82.33,DQ,Brianna Lozano,Edinburg Quest College Prep,81.01,,,,,Single-ply,SBD,F
Girls,82.33,DQ,Jacky Ybarra,Edinburg Idea College Prep,77.75,,,,,Single-ply,SBD,F
Girls,82.33,DQ,Destiny Hernandez,Edinburg North,80.47,,,,,Single-ply,SBD,F
Girls,82.33,DQ,Sophia Coronado,Edinburg,80.92,145.15,,,,Single-ply,SBD,F
Girls,90.04,1,Aysha Lopez,Edinburg,89.81,185.97,111.13,170.1,467.2,Single-ply,SBD,F
Girls,90.04,2,Arrianna Guerra,Donna,88.54,210.92,90.72,163.29,464.93,Single-ply,SBD,F
Girls,90.04,3,Jessica Mendez,Donna North,89.18,188.24,90.72,181.44,460.4,Single-ply,SBD,F
Girls,90.04,4,Alexandra Hall,Edinburg Quest College Prep,88.9,170.1,92.99,140.61,403.7,Single-ply,SBD,F
Girls,90.04,5,Arlyssa Ybarra,Donna,86.64,188.24,70.31,131.54,390.09,Single-ply,SBD,F
Girls,90.04,6,Amabella Gonzalez,Pharr Valley View,90.04,165.56,81.65,140.61,387.82,Single-ply,SBD,F
Girls,90.04,7,Samantha Gonzalez,Edinburg Idea College Prep,82.92,158.76,77.11,147.42,383.29,Single-ply,SBD,F
Girls,90.04,8,Karla Frias,PSJA Memorial,87.82,151.95,68.04,140.61,360.61,Single-ply,SBD,F
Girls,90.04,9,Dalila Araguz,San Benito,89.54,151.95,63.5,129.27,344.73,Single-ply,SBD,F
Girls,90.04,10,Maria Cuellar,PSJA Memorial,88.18,147.42,70.31,120.2,337.93,Single-ply,SBD,F
Girls,90.04,11,Jasmine Lara,San Benito,88.72,133.81,58.97,115.67,308.44,Single-ply,SBD,F
Girls,90.04,12,Maddie Vela,Weslaco East,86.82,104.33,56.7,117.93,278.96,Single-ply,SBD,F
Girls,90.04,DQ,Mariela Hefferan,Valley View,89.45,154.22,77.11,,,Single-ply,SBD,F
Girls,90.04,DQ,Kimberly Guerra,PSJA,88.54,,,,,Single-ply,SBD,F
Girls,90.04,DQ,Tiffani Gonzalez,Donna North,87.18,183.7,104.33,,,Single-ply,SBD,F
Girls,100.02,1,Alicia Gomez,PSJA Memorial,97.43,176.9,90.72,170.1,437.72,Single-ply,SBD,F
Girls,100.02,2,Teresa Valdez,Monte Alto,92.8,140.61,72.57,124.74,337.93,Single-ply,SBD,F
Girls,100.02,3,Anyah Brown,PSJA North,96.57,136.08,68.04,102.06,306.17,Single-ply,SBD,F
Girls,100.02,4,Paloma Samaniego,PSJA North,99.7,115.67,68.04,120.2,303.91,Single-ply,SBD,F
Girls,100.02,5,Marissa Peacock,Edinburg North,91.9,113.4,77.11,111.13,301.64,Single-ply,SBD,F
Girls,100.02,DQ,Jewelyanna Rivera,La Villa,95.53,,,,,Single-ply,SBD,F
Girls,117.71,1,Melanie Morales,Edinburg Idea College Prep,111.58,226.8,129.27,181.44,537.51,Single-ply,SBD,F
Girls,117.71,2,Brenda Lopez,Pharr Valley View,100.61,208.65,122.47,174.63,505.76,Single-ply,SBD,F
Girls,117.71,3,Roxanne Martinez,Donna,109.86,226.8,97.52,149.69,474,Single-ply,SBD,F
Girls,117.71,4,Kaylen Flores,PSJA Memorial,115.85,181.44,99.79,147.42,428.64,Single-ply,SBD,F
Girls,117.71,5,Laura Gonzalez,Edinburg North,114.76,129.27,74.84,129.27,333.39,Single-ply,SBD,F
Girls,117.71,6,Kenya Moreno,PSJA Memorial,107.86,127.01,74.84,106.59,308.44,Single-ply,SBD,F
Girls,117.71+,1,Marissa Hernandez,San Benito,118.39,158.76,74.84,142.88,376.48,Single-ply,SBD,F
Girls,117.71+,2,RosaLynn Davila,Edinburg North,130.27,115.67,102.06,147.42,365.14,Single-ply,SBD,F
