Division,WeightClassKg,Place,Name,Team,BodyweightKg,Best3SquatKg,Best3BenchKg,Best3DeadliftKg,TotalKg,Equipment,Event,Sex
Boys,51.71,1,Nick Provost,Conroe The Woodlands,51.57,88.45,43.09,90.72,222.26,Single-ply,SBD,M
Boys,59.87,1,AJ Ono,Conroe The Woodlands,55.97,115.67,81.65,138.35,335.66,Single-ply,SBD,M
Boys,67.13,1,Gavin Webster,Conroe The Woodlands,60.01,176.9,106.59,181.44,464.93,Single-ply,SBD,M
Boys,67.13,1,Jack Byrnes,Conroe Woodlands College Park,66.59,133.81,86.18,154.22,374.21,Single-ply,SBD,M
Boys,67.13,2,Gage Blue,Conroe The Woodlands,66.18,111.13,79.38,140.61,331.12,Single-ply,SBD,M
Boys,67.13,3,Jacob Jackson,Conroe Woodlands College Park,63.28,79.38,72.57,95.25,247.21,Single-ply,SBD,M
Boys,74.84,1,Alevon Holloman,Conroe,71.94,165.56,81.65,158.76,405.97,Single-ply,SBD,M
Boys,74.84,2,Garrett Jackson,Conroe,74.39,124.74,88.45,142.88,356.07,Single-ply,SBD,M
Boys,74.84,3,Jack Rust,Conroe Woodlands College Park,69.72,92.99,52.16,124.74,269.89,Single-ply,SBD,M
Boys,74.84,4,Jordan Castro,Conroe The Woodlands,70.26,92.99,61.23,92.99,247.21,Single-ply,SBD,M
Boys,82.1,1,Darrian Dock,Conroe,77.16,192.78,115.67,176.9,485.34,Single-ply,SBD,M
Boys,82.1,2,Jason Campbell,Conroe Woodlands College Park,77.97,161.03,102.06,190.51,453.59,Single-ply,SBD,M
Boys,82.1,3,Grant Mountain,Conroe The Woodlands,77.7,115.67,61.23,140.61,317.51,Single-ply,SBD,M
Boys,89.81,1,Ian Harris,Conroe The Woodlands,89.04,188.24,111.13,192.78,492.15,Single-ply,SBD,M
Boys,89.81,2,Dustin Baranowski,Conroe The Woodlands,87.82,174.63,102.06,204.12,480.81,Single-ply,SBD,M
Boys,89.81,3,Javier Solano,Conroe Woodlands College Park,86.55,142.88,108.86,174.63,426.38,Single-ply,SBD,M
Boys,89.81,4,Parker Coleman,Conroe The Woodlands,87.5,149.69,106.59,165.56,421.84,Single-ply,SBD,M
Boys,89.81,5,Cortland Brown,Conroe The Woodlands,84.46,142.88,92.99,149.69,385.55,Single-ply,SBD,M
Boys,99.79,1,Roy Kelley,Conroe,93.44,226.8,106.59,235.87,569.26,Single-ply,SBD,M
Boys,99.79,2,Rene Troche-Baez,Conroe The Woodlands,97.79,213.19,113.4,226.8,553.38,Single-ply,SBD,M
Boys,99.79,3,Zach Loane,Conroe The Woodlands,95.89,181.44,102.06,226.8,510.29,Single-ply,SBD,M
Boys,99.79,4,Uri Lujan,Conroe,98.25,206.38,111.13,192.78,510.29,Single-ply,SBD,M
Boys,99.79,5,John Love,Conroe Woodlands College Park,95.25,183.7,99.79,183.7,467.2,Single-ply,SBD,M
Boys,99.79,6,David Magalee,Conroe Woodlands College Park,93.71,133.81,97.52,174.63,405.97,Single-ply,SBD,M
Boys,109.77,1,Daylon Jefferson,Conroe,106.32,199.58,142.88,206.38,548.85,Single-ply,SBD,M
Boys,109.77,2,Vaughn Taylor,Conroe,103.65,197.31,106.59,215.46,519.36,Single-ply,SBD,M
Boys,109.77,3,Andrew Smith,Conroe The Woodlands,100.15,176.9,104.33,181.44,462.66,Single-ply,SBD,M
Boys,109.77,4,Max Joiner,Conroe,109.32,161.03,104.33,147.42,412.77,Single-ply,SBD,M
Boys,124.74,1,Darius Lloyd,Conroe,123.24,219.99,113.4,197.31,530.7,Single-ply,SBD,M
Boys,124.74,2,Benton Imhoff,Conroe Woodlands College Park,112.17,147.42,102.06,174.63,424.11,Single-ply,SBD,M
Boys,124.74+,1,TJ Anderson,Conroe,125.74,272.16,136.08,235.87,644.1,Single-ply,SBD,M
Boys,124.74+,2,Cole Kennedy,Conroe The Woodlands,125.51,181.44,145.15,190.51,517.1,Single-ply,SBD,M
Boys,124.74+,3,Jamie Beaton,Conroe,128,217.72,106.59,190.51,514.83,Single-ply,SBD,M
