Division,WeightClassKg,Place,Name,Team,BodyweightKg,Best3SquatKg,Best3BenchKg,Best3DeadliftKg,TotalKg,Equipment,Event,Sex
Boys,51.71,1,Derek Parsons,Lindsay,45.27,63.5,36.29,77.11,176.9,Single-ply,SBD,M
Boys,51.71,DQ,Parker Hillis,Lindsay,51.39,,,,,Single-ply,SBD,M
Boys,55.79,1,Dax Irvin,Pottsboro,54.25,140.61,83.91,140.61,365.14,Single-ply,SBD,M
Boys,55.79,2,James Ramsey,Pottsboro,52.84,129.27,72.57,138.35,340.19,Single-ply,SBD,M
Boys,55.79,3,Edwin Rodriguez,Pilot Point,55.75,117.93,61.23,154.22,333.39,Single-ply,SBD,M
Boys,55.79,4,Jacob Vasquez,Leonard,54.98,102.06,56.7,122.47,281.23,Single-ply,SBD,M
Boys,59.87,1,Luke Kirkbride,Denison,59.69,172.37,95.25,188.24,455.86,Single-ply,SBD,M
Boys,59.87,2,Adam Cunningham,Pottsboro,59.87,172.37,95.25,158.76,426.38,Single-ply,SBD,M
Boys,59.87,3,Eli Ersch,Pottsboro,57.79,142.88,90.72,136.08,369.68,Single-ply,SBD,M
Boys,59.87,4,Jaymz Hemenway,Callisburg,59.87,136.08,83.91,145.15,365.14,Single-ply,SBD,M
Boys,59.87,5,Gregory Turner,Leonard,57.7,136.08,63.5,136.08,335.66,Single-ply,SBD,M
Boys,59.87,6,Trey Shocklee,Leonard,57.74,117.93,65.77,131.54,315.25,Single-ply,SBD,M
Boys,59.87,7,Riley Fish,Pottsboro,56.02,102.06,56.7,127.01,285.76,Single-ply,SBD,M
Boys,67.13,1,Wilson Kirkbride,Denison,66.13,226.8,108.86,215.46,551.11,Single-ply,SBD,M
Boys,67.13,2,David Colmenero,Pilot Point,66.95,174.63,99.79,195.04,469.47,Single-ply,SBD,M
Boys,67.13,3,Finlee Rudicile,Farmersville,67.13,167.83,108.86,181.44,458.13,Single-ply,SBD,M
Boys,67.13,4,Tyler Watts,Valley View,63.05,165.56,104.33,167.83,437.72,Single-ply,SBD,M
Boys,67.13,5,Erick Martinez,Pilot Point,66.32,161.03,86.18,181.44,428.64,Single-ply,SBD,M
Boys,67.13,6,Victor Martinez,Pilot Point,64.55,154.22,92.99,163.29,410.5,Single-ply,SBD,M
Boys,67.13,7,Keiton Eitelman,Pottsboro,66.86,167.83,90.72,151.95,410.5,Single-ply,SBD,M
Boys,67.13,8,Enrique Colmenero,Pilot Point,65.18,149.69,68.04,185.97,403.7,Single-ply,SBD,M
Boys,67.13,9,Kevin Romero,Sherman,66.22,120.2,104.33,174.63,399.16,Single-ply,SBD,M
Boys,67.13,10,Dalton Davis,Bowie,63.46,142.88,86.18,158.76,387.82,Single-ply,SBD,M
Boys,67.13,11,Robin Cung,Sherman,64.91,124.74,88.45,154.22,367.41,Single-ply,SBD,M
Boys,67.13,12,Mason Pendegrass,Whitesboro,65.68,124.74,74.84,140.61,340.19,Single-ply,SBD,M
Boys,67.13,DQ,Sebastian Reulas,Farmersville,65.82,122.47,,,,Single-ply,SBD,M
Boys,74.84,1,DeVante Clayton,Sherman,71.44,190.51,113.4,226.8,530.7,Single-ply,SBD,M
Boys,74.84,2,Ty McFail,Denison,73.8,195.04,122.47,190.51,508.02,Single-ply,SBD,M
Boys,74.84,3,Jaxson Rudicile,Farmersville,74.03,181.44,117.93,190.51,489.88,Single-ply,SBD,M
Boys,74.84,4,Jacob Skinner,Bowie,74.25,181.44,113.4,195.04,489.88,Single-ply,SBD,M
Boys,74.84,5,Jacob Jeffers,Pottsboro,73.98,188.24,106.59,133.81,428.64,Single-ply,SBD,M
Boys,74.84,6,Joey Crawford,Bowie,70.49,151.95,88.45,183.7,424.11,Single-ply,SBD,M
Boys,74.84,7,Hunter McCoy,Farmersville,72.8,170.1,95.25,151.95,417.3,Single-ply,SBD,M
Boys,74.84,8,Cameryn Crisp,Callisburg,73.12,151.95,117.93,145.15,415.04,Single-ply,SBD,M
Boys,74.84,9,Cameron Washington,Sherman,68.54,154.22,74.84,149.69,378.75,Single-ply,SBD,M
Boys,74.84,10,Christian Chitwood,Whitesboro,74.03,136.08,79.38,163.29,378.75,Single-ply,SBD,M
Boys,74.84,11,Ethan Sewell,Callisburg,74.57,136.08,83.91,154.22,374.21,Single-ply,SBD,M
Boys,74.84,12,Landon Speaker,Sherman,73.3,102.06,70.31,127.01,299.37,Single-ply,SBD,M
Boys,74.84,DQ,Lawson Moore,Whitewright,74.39,,,,,Single-ply,SBD,M
Boys,82.1,1,Tony Puga,Pilot Point,81.33,219.99,122.47,226.8,569.26,Single-ply,SBD,M
Boys,82.1,2,Seth Baucum,Callisburg,81.42,181.44,92.99,199.58,474,Single-ply,SBD,M
Boys,82.1,3,Justin Crisp,Callisburg,79.47,170.1,104.33,165.56,439.98,Single-ply,SBD,M
Boys,82.1,4,Victor Tran,Bowie,80.97,115.67,79.38,170.1,365.14,Single-ply,SBD,M
Boys,82.1,DQ,Brady Knabe,Collinsville,75.7,,,,,Single-ply,SBD,M
Boys,89.81,1,Diego Puga,Pilot Point,88.81,240.4,136.08,240.4,616.89,Single-ply,SBD,M
Boys,89.81,2,Lxamri Bolden,Farmersville,88.22,222.26,151.95,204.12,578.33,Single-ply,SBD,M
Boys,89.81,3,Brendon Kirk,Callisburg,89.81,226.8,120.2,204.12,551.11,Single-ply,SBD,M
Boys,89.81,4,Rainier Corral,Valley View,89.54,208.65,102.06,226.8,537.51,Single-ply,SBD,M
Boys,89.81,5,Zackary Otto,Bowie,86.5,213.19,127.01,192.78,532.97,Single-ply,SBD,M
Boys,89.81,6,Chris Gidney,Blue Ridge,89.81,192.78,131.54,201.85,526.17,Single-ply,SBD,M
Boys,89.81,7,Markos Morales,Whitesboro,86.64,183.7,115.67,197.31,496.68,Single-ply,SBD,M
Boys,89.81,8,Ethan Ellis,Denison,89.58,185.97,102.06,204.12,492.15,Single-ply,SBD,M
Boys,89.81,9,Drayden Lawson,Pilot Point,85.05,147.42,102.06,192.78,442.25,Single-ply,SBD,M
Boys,89.81,10,Dakota Meeks,Whitesboro,86.86,147.42,90.72,176.9,415.04,Single-ply,SBD,M
Boys,89.81,11,Nathan Hacker,Muenster,84.87,142.88,72.57,156.49,371.95,Single-ply,SBD,M
Boys,89.81,12,Julius Carraway,Whitewright,89.04,122.47,70.31,142.88,335.66,Single-ply,SBD,M
Boys,89.81,DQ,Coy Hollman,Pilot Point,86.45,,,,,Single-ply,SBD,M
Boys,99.79,1,John Cooper,Whitewright,94.3,235.87,129.27,256.28,621.42,Single-ply,SBD,M
Boys,99.79,2,Colby Hammond,Callisburg,97.98,231.33,115.67,226.8,573.79,Single-ply,SBD,M
Boys,99.79,3,Brody Wiggins,Blue Ridge,99.29,210.92,131.54,215.46,557.92,Single-ply,SBD,M
Boys,99.79,4,Tanner Chambers,Callisburg,97.39,197.31,145.15,192.78,535.24,Single-ply,SBD,M
Boys,99.79,5,Brandon Hubert,Pottsboro,94.85,188.24,102.06,192.78,483.08,Single-ply,SBD,M
Boys,99.79,6,Jaron Gage,Whitewright,91.53,181.44,90.72,158.76,430.91,Single-ply,SBD,M
Boys,99.79,7,Kaleb Markham,Whitesboro,95.07,154.22,104.33,165.56,424.11,Single-ply,SBD,M
Boys,99.79,8,Mason Doyle,Denison,98.61,136.08,97.52,190.51,424.11,Single-ply,SBD,M
Boys,99.79,9,Jesse Pena,Pottsboro,93.39,124.74,74.84,136.08,335.66,Single-ply,SBD,M
Boys,99.79,DQ,Radley Hamm,Whitewright,98.16,183.7,120.2,,,Single-ply,SBD,M
Boys,109.77,1,Tanner Young,Whitesboro,101.79,226.8,136.08,226.8,589.67,Single-ply,SBD,M
Boys,109.77,2,Drew Williams,Denison,107.73,222.26,145.15,185.97,553.38,Single-ply,SBD,M
Boys,109.77,3,Jacob Batson,Farmersville,107.05,172.37,106.59,197.31,476.27,Single-ply,SBD,M
Boys,109.77,4,Ryan Riddle,Denison,105.78,174.63,117.93,174.63,467.2,Single-ply,SBD,M
Boys,109.77,5,Zack Schutt,Callisburg,103.01,181.44,124.74,158.76,464.93,Single-ply,SBD,M
Boys,109.77,6,Hunter Fulton,Pottsboro,100.83,111.13,61.23,129.27,301.64,Single-ply,SBD,M
Boys,109.77,DQ,Mathew Johnson,Pilot Point,104.51,181.44,,,,Single-ply,SBD,M
Boys,124.74,1,Esteban Cervantes,Valley View,122.92,283.5,156.49,235.87,675.85,Single-ply,SBD,M
Boys,124.74,2,Dylan Kays,Collinsville,113.35,235.87,147.42,206.38,589.67,Single-ply,SBD,M
Boys,124.74,3,Rudy Vasquez,Sherman,123.92,238.14,127.01,192.78,557.92,Single-ply,SBD,M
Boys,124.74,4,Jose Conejo,Denison,113.26,199.58,136.08,190.51,526.17,Single-ply,SBD,M
Boys,124.74,5,Wes Brooks,Denison,116.71,176.9,136.08,204.12,517.1,Single-ply,SBD,M
Boys,124.74,6,Casey Pounds,Lindsay,112.17,192.78,117.93,188.24,498.95,Single-ply,SBD,M
Boys,124.74,7,Tyler Smith,Sherman,115.26,188.24,88.45,206.38,483.08,Single-ply,SBD,M
Boys,124.74,8,Jonathan Reyes,Leonard,111.4,185.97,92.99,181.44,460.4,Single-ply,SBD,M
Boys,124.74,9,Kamron Rogers,Leonard,123.65,176.9,102.06,181.44,460.4,Single-ply,SBD,M
Boys,124.74,10,Kase Patterson,Callisburg,118.02,174.63,115.67,165.56,455.86,Single-ply,SBD,M
Boys,124.74,11,Nick Vallecilla,Whitewright,118.66,154.22,102.06,154.22,410.5,Single-ply,SBD,M
Boys,124.74,12,Luke Rogers,Lindsay,113.72,147.42,79.38,142.88,369.68,Single-ply,SBD,M
Boys,124.74+,1,TK Walton,Sherman,139.25,238.14,158.76,249.48,646.37,Single-ply,SBD,M
Boys,124.74+,2,Kyle Brooks,Denison,125.1,238.14,145.15,222.26,605.55,Single-ply,SBD,M
Boys,124.74+,3,Cruz Tobar,Sherman,186.29,235.87,161.03,185.97,582.87,Single-ply,SBD,M
Boys,124.74+,4,Kobe Williams,Pottsboro,135.53,192.78,136.08,195.04,523.9,Single-ply,SBD,M
Boys,124.74+,5,Jaden Forbes,Denison,157.4,204.12,124.74,195.04,523.9,Single-ply,SBD,M
Boys,124.74+,6,Chris Tobar,Sherman,129.46,201.85,138.35,174.63,514.83,Single-ply,SBD,M
Boys,124.74+,7,Colby McAdams,Leonard,139.03,181.44,102.06,167.83,451.32,Single-ply,SBD,M
Boys,124.74+,8,Jacob Scott,Pilot Point,144.83,151.95,74.84,156.49,383.29,Single-ply,SBD,M
Boys,,NS,Israel Gutierrez,Sherman,,,,,,Single-ply,SBD,M
Boys,,NS,Keeli Mann,Pilot Point,,,,,,Single-ply,SBD,M
Boys,,NS,Justin Garner,Callisburg,,,,,,Single-ply,SBD,M
