Division,WeightClassKg,Place,Name,Team,BodyweightKg,Best3SquatKg,Best3BenchKg,Best3DeadliftKg,TotalKg,Equipment,Event,Sex
Boys,51.71,1,Reese Turner,Tyler Chapel Hill,50.44,124.74,68.04,156.49,349.27,Single-ply,SBD,M
Boys,55.79,2,Micha Kitchens,Commerce,51.89,90.72,58.97,97.52,247.21,Single-ply,SBD,M
Boys,51.71,3,Cody Cade,Brownsboro,48.53,63.5,43.09,88.45,195.04,Single-ply,SBD,M
Boys,55.79,DQ,Colton Christina,Kemp,51.8,127.01,,,,Single-ply,SBD,M
Boys,55.79,DQ,Noah Richardson,Van,51.94,,,,,Single-ply,SBD,M
Boys,51.71,DQ,Jakovan Williams,Nacogdoches,49.26,,,,,Single-ply,SBD,M
Boys,55.79,1,Jose Rodriguez,Athens,52.34,131.54,77.11,136.08,344.73,Single-ply,SBD,M
Boys,59.87,2,Dalton Krodle,Commerce,55.97,113.4,68.04,133.81,315.25,Single-ply,SBD,M
Boys,55.79,3,Trey Russell,Eustace,54.98,106.59,63.5,122.47,292.57,Single-ply,SBD,M
Boys,55.79,4,Ruben Esquivel,Corsicana,55.52,104.33,61.23,122.47,288.03,Single-ply,SBD,M
Boys,55.79,5,Christian Fisk,Longview Pine Tree,54.61,102.06,56.7,122.47,281.23,Single-ply,SBD,M
Boys,55.79,6,David Blackwell,Nacogdoches,53.07,102.06,45.36,104.33,251.74,Single-ply,SBD,M
Boys,55.79,DQ,Brandon Hall,Eustace,54.61,106.59,,,,Single-ply,SBD,M
Boys,55.79,DQ,Samuel Odom,Brownsboro,53.07,99.79,,,,Single-ply,SBD,M
Boys,59.87,1,Micah Ethington,Nacogdoches,58.51,151.95,70.31,151.95,374.21,Single-ply,SBD,M
Boys,59.87,2,Luis Camacho,Athens,57.88,120.2,83.91,138.35,342.46,Single-ply,SBD,M
Boys,59.87,3,Jorge Urteaga,Eustace,59.69,104.33,65.77,102.06,272.16,Single-ply,SBD,M
Boys,59.87,DQ,Matthew J House,Kemp,58.79,,,,,Single-ply,SBD,M
Boys,67.13,1,Abed Abuhatub,Eustace,65.68,154.22,99.79,151.95,405.97,Single-ply,SBD,M
Boys,67.13,2,Olice Rogers,Kemp,64.77,147.42,88.45,158.76,394.63,Single-ply,SBD,M
Boys,67.13,3,Wayne Wernicke,Eustace,64.41,145.15,83.91,156.49,385.55,Single-ply,SBD,M
Boys,67.13,4,Karson Street,Malakoff,64.59,145.15,90.72,136.08,371.95,Single-ply,SBD,M
Boys,67.13,5,Daniel Salazar,Athens,65.32,127.01,95.25,149.69,371.95,Single-ply,SBD,M
Boys,67.13,6,Forest Lemon,Nacogdoches,60.69,136.08,79.38,151.95,367.41,Single-ply,SBD,M
Boys,67.13,7,Tyler Murphy,Commerce,62.14,145.15,65.77,149.69,360.61,Single-ply,SBD,M
Boys,67.13,8,Dakota Hobbs,Brownsboro,60.78,113.4,70.31,136.08,319.78,Single-ply,SBD,M
Boys,67.13,9,Jarrod Baker,Van,62.96,115.67,63.5,127.01,306.17,Single-ply,SBD,M
Boys,67.13,DQ,Dustin Bendall,Brownsboro,64.41,158.76,,,,Single-ply,SBD,M
Boys,67.13,DQ,Turner Taylor,Brownsboro,64.86,,,,,Single-ply,SBD,M
Boys,67.13,DQ,Cris Fesenden,Kemp,66.68,,,,,Single-ply,SBD,M
Boys,74.84,DQ,Harley Hudspeth,Kemp,67.22,113.4,83.91,,,Single-ply,SBD,M
Boys,74.84,1,Joseph Clark,Tyler Chapel Hill,74.48,158.76,108.86,188.24,455.86,Single-ply,SBD,M
Boys,74.84,2,Cesar Garcia,Malakoff,74.3,176.9,88.45,165.56,430.91,Single-ply,SBD,M
Boys,74.84,3,Devin Hall,Athens,71.85,136.08,102.06,151.95,390.09,Single-ply,SBD,M
Boys,74.84,4,Tyler Thomison,Brownsboro,69.4,151.95,83.91,151.95,387.82,Single-ply,SBD,M
Boys,74.84,5,Mitchell Penny,Brownsboro,73.94,129.27,83.91,165.56,378.75,Single-ply,SBD,M
Boys,74.84,6,Tristan Bussell,Brownsboro,73.94,145.15,81.65,136.08,362.87,Single-ply,SBD,M
Boys,74.84,DQ,Preston Amason,Eustace,70.13,,,,,Single-ply,SBD,M
Boys,74.84,DQ,Ronnie Roberts,Nacogdoches,69.94,,,,,Single-ply,SBD,M
Boys,74.84,DQ,Joe Singletary,Nacogdoches,73.94,127.01,,,,Single-ply,SBD,M
Boys,74.84,DQ,Kelvin Fitzpatric,Longview Pine Tree,68.13,113.4,,,,Single-ply,SBD,M
Boys,74.84,DQ,Cruz Renteria,Longview Pine Tree,68.49,122.47,,,,Single-ply,SBD,M
Boys,82.1,1,Mitchell Pinion,Kemp,81.74,235.87,140.61,192.78,569.26,Single-ply,SBD,M
Boys,82.1,2,Isaiah Martinez,Commerce,81.01,195.04,142.88,208.65,546.58,Single-ply,SBD,M
Boys,82.1,3,Bryce Sanford,Canton,80.47,226.8,124.74,192.78,544.31,Single-ply,SBD,M
Boys,82.1,4,Tyraiel Hart,Tyler Chapel Hill,80.74,217.72,106.59,217.72,542.04,Single-ply,SBD,M
Boys,82.1,5,Marcus Cantera,Commerce,78.52,183.7,129.27,190.51,503.49,Single-ply,SBD,M
Boys,82.1,6,Reece Sumner,Canton,80.56,195.04,113.4,183.7,492.15,Single-ply,SBD,M
Boys,82.1,7,Christmon Weeks,Tyler Chapel Hill,81.1,170.1,129.27,190.51,489.88,Single-ply,SBD,M
Boys,82.1,8,Jerrod Lane,Kemp,77.93,190.51,115.67,174.63,480.81,Single-ply,SBD,M
Boys,82.1,9,Miles Spencer,Brownsboro,79.38,174.63,120.2,181.44,476.27,Single-ply,SBD,M
Boys,82.1,10,Keyotrick Brown,Longview Pine Tree,80.38,174.63,90.72,181.44,446.79,Single-ply,SBD,M
Boys,82.1,11,Shawn Smith,Nacogdoches,79.74,167.83,92.99,163.29,424.11,Single-ply,SBD,M
Boys,82.1,12,Brady Wilbanks,Longview Pine Tree,80.56,151.95,117.93,140.61,410.5,Single-ply,SBD,M
Boys,82.1,13,Johntae Harmon,Brownsboro,76.66,136.08,86.18,174.63,396.89,Single-ply,SBD,M
Boys,82.1,14,Lane Harrison,Brownsboro,80.29,136.08,79.38,176.9,392.36,Single-ply,SBD,M
Boys,82.1,DQ,Dj Cumby,Athens,78.56,176.9,,,,Single-ply,SBD,M
Boys,82.1,DQ,Jorge Mendoza,Longview Pine Tree,79.74,99.79,,,,Single-ply,SBD,M
Boys,89.81,1,Dequan Raindle,Corsicana,85.18,229.06,120.2,235.87,585.13,Single-ply,SBD,M
Boys,89.81,2,Brandoyn Bell,Tyler Chapel Hill,87.72,229.06,127.01,226.8,582.87,Single-ply,SBD,M
Boys,99.79,3,Jon Jennings,Kemp,89.99,204.12,113.4,185.97,503.49,Single-ply,SBD,M
Boys,89.81,4,Jawuan Martin,Athens,87.27,183.7,129.27,185.97,498.95,Single-ply,SBD,M
Boys,89.81,5,Eddie Viluneva,Kemp,83.1,161.03,108.86,190.51,460.4,Single-ply,SBD,M
Boys,89.81,6,Tate Taylor,Malakoff,83.01,176.9,104.33,172.37,453.59,Single-ply,SBD,M
Boys,89.81,7,David Havlik,Malakoff,86.09,154.22,113.4,185.97,453.59,Single-ply,SBD,M
Boys,89.81,8,Deaveron Dean,Tyler Chapel Hill,85.82,176.9,104.33,147.42,428.64,Single-ply,SBD,M
Boys,89.81,9,Tristan Moore,Brownsboro,83.01,161.03,97.52,167.83,426.38,Single-ply,SBD,M
Boys,89.81,10,Chris Furgason,Longview Pine Tree,87.63,161.03,92.99,170.1,424.11,Single-ply,SBD,M
Boys,99.79,11,Jarrett Hall,Corsicana,89.99,158.76,81.65,172.37,412.77,Single-ply,SBD,M
Boys,89.81,12,Hunter Anderson,Canton,88.72,147.42,79.38,142.88,369.68,Single-ply,SBD,M
Boys,89.81,13,Logan Thompson,Canton,86.18,142.88,79.38,142.88,365.14,Single-ply,SBD,M
Boys,89.81,14,Alberto Martinez,Athens,83.64,124.74,102.06,136.08,362.87,Single-ply,SBD,M
Boys,89.81,15,Jordan Harris,Malakoff,84.37,129.27,86.18,145.15,360.61,Single-ply,SBD,M
Boys,89.81,16,Andrew Lemonds,Van,89.09,133.81,79.38,133.81,347,Single-ply,SBD,M
Boys,89.81,DQ,Alec Fawvor,Nacogdoches,86.82,167.83,,,,Single-ply,SBD,M
Boys,89.81,DQ,Troy Shifflet,Nacogdoches,88,136.08,,,,Single-ply,SBD,M
Boys,89.81,DQ,Cory Toombs,Longview Pine Tree,88.45,151.95,,,,Single-ply,SBD,M
Boys,89.81,DQ,Antonio Rojas,Brownsboro,84.37,181.44,,,,Single-ply,SBD,M
Boys,89.81,DQ,Josh Seale,Brownsboro,83.91,,,,,Single-ply,SBD,M
Boys,89.81,DQ,Jacob Grayson,Corsicana,86.82,142.88,81.65,,,Single-ply,SBD,M
Boys,99.79,1,Keiundas Wade,Tyler Chapel Hill,99.34,195.04,131.54,226.8,553.38,Single-ply,SBD,M
Boys,99.79,2,Keven Garcia,Tyler Chapel Hill,99.34,192.78,149.69,185.97,528.44,Single-ply,SBD,M
Boys,99.79,3,Chris Chadwick,Longview Pine Tree,92.08,206.38,120.2,174.63,501.22,Single-ply,SBD,M
Boys,99.79,4,Gustavo Solis,Longview Pine Tree,98.7,158.76,117.93,188.24,464.93,Single-ply,SBD,M
Boys,99.79,5,Swaide Houston,Brownsboro,97.98,151.95,97.52,195.04,444.52,Single-ply,SBD,M
Boys,99.79,6,David Guynn,Malakoff,99.25,179.17,83.91,172.37,435.45,Single-ply,SBD,M
Boys,99.79,7,Diego Medina,Malakoff,99.52,149.69,102.06,165.56,417.3,Single-ply,SBD,M
Boys,99.79,8,Zach Hughes,Eustace,93.35,151.95,106.59,147.42,405.97,Single-ply,SBD,M
Boys,99.79,9,Montrell Williams,Malakoff,94.71,142.88,77.11,147.42,367.41,Single-ply,SBD,M
Boys,99.79,10,Donavon Hailey,Corsicana,95.89,129.27,79.38,151.95,360.61,Single-ply,SBD,M
Boys,99.79,DQ,Brandon Ramirez,Commerce,94.26,154.22,,,,Single-ply,SBD,M
Boys,99.79,DQ,Jacob Smith,Longview Pine Tree,94.08,,,,,Single-ply,SBD,M
Boys,99.79,DQ,Julio Valdez,Corsicana,91.26,172.37,102.06,,,Single-ply,SBD,M
Boys,99.79,DQ,Aaron De La Garza,Brownsboro,92.99,149.69,111.13,,,Single-ply,SBD,M
Boys,109.77,1,Eddie Calico,Longview Pine Tree,106.59,272.16,172.37,240.4,684.92,Single-ply,SBD,M
Boys,109.77,2,Dominic Kelly,Corsicana,106.59,233.6,138.35,226.8,598.74,Single-ply,SBD,M
Boys,109.77,3,Xavier Gordon,Nacogdoches,107.23,226.8,124.74,195.04,546.58,Single-ply,SBD,M
Boys,109.77,4,Ke'Adric Nelson,Canton,108.32,210.92,106.59,206.38,523.9,Single-ply,SBD,M
Boys,109.77,5,Justin Hopkins,Van,108.68,215.46,124.74,170.1,510.29,Single-ply,SBD,M
Boys,109.77,6,Joey Duncan,Brownsboro,108.41,172.37,120.2,195.04,487.61,Single-ply,SBD,M
Boys,109.77,7,William Mitchell,Longview Pine Tree,108.14,206.38,106.59,172.37,485.34,Single-ply,SBD,M
Boys,109.77,8,Brian Guitterez,Athens,104.33,181.44,111.13,172.37,464.93,Single-ply,SBD,M
Boys,109.77,9,Ridge Smith,Eustace,109.77,174.63,102.06,151.95,428.64,Single-ply,SBD,M
Boys,109.77,10,Darean Morse,Brownsboro,101.6,142.88,106.59,167.83,417.3,Single-ply,SBD,M
Boys,109.77,11,Isreal Chavez,Malakoff,104.78,142.88,90.72,136.08,369.68,Single-ply,SBD,M
Boys,109.77,12,Wally Baker,Eustace,105.14,133.81,92.99,131.54,358.34,Single-ply,SBD,M
Boys,109.77,13,Kade Graham,Eustace,106.59,136.08,74.84,117.93,328.85,Single-ply,SBD,M
Boys,124.74,1,Cortez Crosby,Commerce,112.94,278.96,170.1,258.55,707.6,Single-ply,SBD,M
Boys,124.74,2,Tyran Wilson,Commerce,112.72,174.63,131.54,208.65,514.83,Single-ply,SBD,M
Boys,124.74,3,Tavo Lemus,Van,115.76,195.04,145.15,170.1,510.29,Single-ply,SBD,M
Boys,124.74,DQ,Carlos Hernandez,Van,117.66,199.58,,,,Single-ply,SBD,M
Boys,124.74,DQ,Cody Bryce,Nacogdoches,116.48,179.17,99.79,181.44,,Single-ply,SBD,M
Boys,124.74,DQ,Brady Burleson,Brownsboro,112.49,197.31,117.93,,,Single-ply,SBD,M
Boys,124.74,DQ,Ty Collier,Canton,116.94,,,,,Single-ply,SBD,M
Boys,124.74+,1,Sir Calvin Wallace,Tyler Chapel Hill,136.8,249.48,158.76,204.12,612.35,Single-ply,SBD,M
Boys,124.74+,2,Dan Ruiz,Corsicana,152.68,201.85,129.27,215.46,546.58,Single-ply,SBD,M
Boys,124.74+,3,Thomas Acoi,Malakoff,131,195.04,117.93,174.63,487.61,Single-ply,SBD,M
Boys,124.74+,4,Thomas Hyde,Eustace,135.44,204.12,90.72,181.44,476.27,Single-ply,SBD,M
Boys,124.74+,5,Keanan Ivory,Canton,135.99,142.88,70.31,142.88,356.07,Single-ply,SBD,M
Boys,124.74+,DQ,Juan Gomez,Brownsboro,125.65,204.12,113.4,,,Single-ply,SBD,M
Boys,124.74+,DQ,Rod Jackson,Commerce,131.18,190.51,136.08,,,Single-ply,SBD,M
Boys,,NS,Garrett Webb,Canton,,,,,,Single-ply,SBD,M
Boys,,NS,Marquise Harris,Canton,,,,,,Single-ply,SBD,M
