Division,WeightClassKg,Place,Name,Team,BodyweightKg,Best3SquatKg,Best3BenchKg,Best3DeadliftKg,TotalKg,Equipment,Event,Sex
Boys,51.71,1,Adrian Campos,Freer,51.26,129.27,88.45,131.54,349.27,Single-ply,SBD,M
Boys,51.71,2,Arnold Pena,Benavides,51.53,138.35,65.77,142.88,347,Single-ply,SBD,M
Boys,51.71,3,Trevor Carmona,Alice,51.44,115.67,56.7,129.27,301.64,Single-ply,SBD,M
Boys,51.71,4,Javier Cantu,San Diego,51.35,99.79,56.7,117.93,274.42,Single-ply,SBD,M
Boys,51.71,5,Victor Vasquez,San Diego,49.8,92.99,56.7,120.2,269.89,Single-ply,SBD,M
Boys,51.71,6,Trey Nunez,Bishop,51.71,79.38,34.02,99.79,213.19,Single-ply,SBD,M
Boys,51.71,7,Miguel Gonzalez,Alice,40.55,90.72,36.29,81.65,208.65,Single-ply,SBD,M
Boys,55.79,1,Cody Juarez,Alice,53.34,183.7,111.13,176.9,471.74,Single-ply,SBD,M
Boys,55.79,2,Brandon Canales,Benavides,54.88,142.88,79.38,161.03,383.29,Single-ply,SBD,M
Boys,55.79,3,Marcus Garza,Alice,53.43,163.29,72.57,111.13,347,Single-ply,SBD,M
Boys,55.79,4,Jocob Martinez,Hebbronville,54.7,99.79,58.97,124.74,283.5,Single-ply,SBD,M
Boys,55.79,DQ,Niko Munoz,Falfurrias,54.25,117.93,79.38,,,Single-ply,SBD,M
Boys,59.87,1,Richard Saenz,Hebbronville,59.87,197.31,108.86,195.04,501.22,Single-ply,SBD,M
Boys,59.87,2,Anthony Perez,Ben Bolt-Palito Blanco,58.24,179.17,113.4,185.97,478.54,Single-ply,SBD,M
Boys,59.87,3,Noe Herrera,Kingsville King,58.42,147.42,86.18,165.56,399.16,Single-ply,SBD,M
Boys,59.87,4,John Robali,Robstown,59.06,136.08,70.31,136.08,342.46,Single-ply,SBD,M
Boys,59.87,5,Antonio De La Rosa,Santa Gertrudis Academy,59.42,97.52,70.31,142.88,310.71,Single-ply,SBD,M
Boys,59.87,6,Ryan Elizondo,Santa Gertrudis Academy,59.15,90.72,58.97,115.67,265.35,Single-ply,SBD,M
Boys,59.87,7,Ethan Vasquez,Alice,59.78,70.31,58.97,102.06,231.33,Single-ply,SBD,M
Boys,59.87,DQ,Tristen Perez,Benavides,58.33,104.33,,,,Single-ply,SBD,M
Boys,59.87,DQ,Andy Saenz,Benavides,59.33,127.01,,,,Single-ply,SBD,M
Boys,67.13,1,Ramiro Gonzalez,Falfurrias,65.41,179.17,111.13,206.38,496.68,Single-ply,SBD,M
Boys,67.13,2,Arturo Reyna,Bishop,65.86,192.78,113.4,188.24,494.42,Single-ply,SBD,M
Boys,67.13,3,Jose Maldonado,Falfurrias,61.33,151.95,106.59,174.63,433.18,Single-ply,SBD,M
Boys,67.13,4,Ryan Saenz,Hebbronville,61.96,167.83,88.45,172.37,428.64,Single-ply,SBD,M
Boys,67.13,5,Alejandro Ramirez,Falfurrias,60.87,142.88,86.18,183.7,412.77,Single-ply,SBD,M
Boys,67.13,6,Ozzy Ayarzagoitia,Kingsville King,65.14,151.95,83.91,176.9,412.77,Single-ply,SBD,M
Boys,67.13,7,Brandin Carballo,Hebbronville,62.32,142.88,83.91,167.83,394.63,Single-ply,SBD,M
Boys,67.13,8,Ryan Villareal,Santa Gertrudis Academy,66.86,145.15,90.72,156.49,392.36,Single-ply,SBD,M
Boys,67.13,9,Alvert Lopez,Kingsville King,63.14,124.74,88.45,142.88,356.07,Single-ply,SBD,M
Boys,67.13,10,Felix Del Rio,Robstown,60.15,133.81,83.91,136.08,353.8,Single-ply,SBD,M
Boys,67.13,11,Damien Diaz,Hebbronville,66.04,129.27,63.5,140.61,333.39,Single-ply,SBD,M
Boys,67.13,12,Cody Prather,Ben Bolt-Palito Blanco,66.86,120.2,65.77,145.15,331.12,Single-ply,SBD,M
Boys,67.13,DQ,Nathaniel McRae,Hebbronville,66.68,,,,,Single-ply,SBD,M
Boys,67.13,DQ,Chase Bowers,Bishop,65.05,131.54,,,,Single-ply,SBD,M
Boys,74.84,1,Javier Rodriguez,San Diego,74.84,231.33,158.76,210.92,601.01,Single-ply,SBD,M
Boys,74.84,2,Alex Gonzales,Alice,72.48,240.4,117.93,231.33,589.67,Single-ply,SBD,M
Boys,74.84,3,Trevino Treevino,Bishop,73.66,190.51,111.13,215.46,517.1,Single-ply,SBD,M
Boys,74.84,4,Ilias Rodriguez,Three Rivers,73.75,183.7,95.25,195.04,474,Single-ply,SBD,M
Boys,74.84,5,AJ Moreno,Alice,73.03,181.44,104.33,170.1,455.86,Single-ply,SBD,M
Boys,74.84,6,Dennis Guajardo,Benavides,72.85,158.76,95.25,161.03,415.04,Single-ply,SBD,M
Boys,74.84,7,Seth Meza-Briones,Santa Gertrudis Academy,71.67,133.81,111.13,161.03,405.97,Single-ply,SBD,M
Boys,74.84,8,Ethan Almendarez,Three Rivers,74.84,163.29,77.11,165.56,405.97,Single-ply,SBD,M
Boys,74.84,9,Jacob Loera,Alice,68.49,136.08,102.06,165.56,403.7,Single-ply,SBD,M
Boys,74.84,10,Joseph Martinez,Odem,74.66,129.27,95.25,140.61,365.14,Single-ply,SBD,M
Boys,74.84,11,Nico Perez,Benavides,74.03,127.01,83.91,142.88,353.8,Single-ply,SBD,M
Boys,74.84,12,Erik Rocha,Santa Gertrudis Academy,73.48,102.06,72.57,115.67,290.3,Single-ply,SBD,M
Boys,74.84,DQ,Arin Saenz,Freer,73.03,192.78,102.06,,,Single-ply,SBD,M
Boys,82.1,1,Joshua Olivarez,Falfurrias,80.2,215.46,122.47,233.6,571.53,Single-ply,SBD,M
Boys,82.1,2,Ithel Carrillo,Hebbronville,81.47,201.85,136.08,204.12,542.04,Single-ply,SBD,M
Boys,82.1,3,Oscar Perez,Ben Bolt-Palito Blanco,78.02,195.04,124.74,206.38,526.17,Single-ply,SBD,M
Boys,82.1,4,Isaac Bueno,Alice,80.01,195.04,127.01,204.12,526.17,Single-ply,SBD,M
Boys,82.1,5,Connor Bowers,Bishop,78.11,190.51,115.67,215.46,521.63,Single-ply,SBD,M
Boys,82.1,6,Brit Bowers,Bishop,79.38,167.83,124.74,204.12,496.68,Single-ply,SBD,M
Boys,82.1,7,Joel Salinas,Falfurrias,78.29,174.63,86.18,192.78,453.59,Single-ply,SBD,M
Boys,82.1,8,Jacob Prather,Three Rivers,79.02,165.56,99.79,170.1,435.45,Single-ply,SBD,M
Boys,82.1,9,Lucas Lopez,Odem,82.1,151.95,97.52,163.29,412.77,Single-ply,SBD,M
Boys,82.1,10,Benji Olivarez,Kingsville King,82.01,142.88,92.99,158.76,394.63,Single-ply,SBD,M
Boys,82.1,11,Ryan Martinez,Kingsville King,82.01,136.08,88.45,151.95,376.48,Single-ply,SBD,M
Boys,82.1,12,Ethan Juarez,Santa Gertrudis Academy,77.75,92.99,61.23,129.27,283.5,Single-ply,SBD,M
Boys,82.1,DQ,Tristian Perez,Ben Bolt-Palito Blanco,75.84,170.1,,,,Single-ply,SBD,M
Boys,82.1,DQ,Marcos Salas,Bishop,81.47,142.88,,,,Single-ply,SBD,M
Boys,89.81,1,Tristan Nino,Kingsville King,89.63,226.8,145.15,210.92,582.87,Single-ply,SBD,M
Boys,89.81,2,Ethan Gonzalez,San Diego,89.63,229.06,133.81,215.46,578.33,Single-ply,SBD,M
Boys,89.81,3,Gilbert Mendez,Bishop,83.46,204.12,124.74,215.46,544.31,Single-ply,SBD,M
Boys,89.81,4,Ryan De Los Santos,Robstown,89.72,195.04,115.67,213.19,523.9,Single-ply,SBD,M
Boys,89.81,5,Alan Medrano,Bishop,82.28,188.24,124.74,208.65,521.63,Single-ply,SBD,M
Boys,89.81,6,Daniel Gonzalez,Kingsville King,86.18,192.78,122.47,199.58,514.83,Single-ply,SBD,M
Boys,89.81,7,Tevin Moreno,Odem,86.64,192.78,106.59,188.24,487.61,Single-ply,SBD,M
Boys,89.81,8,Gilbert Arriaga,Kingsville King,84.82,183.7,106.59,192.78,483.08,Single-ply,SBD,M
Boys,89.81,9,Orlando Gonzalez,Odem,89.45,170.1,127.01,165.56,462.66,Single-ply,SBD,M
Boys,89.81,10,Daniel Ramos,Ben Bolt-Palito Blanco,87.27,138.35,92.99,181.44,412.77,Single-ply,SBD,M
Boys,89.81,11,Heron Tamez,Falfurrias,83.55,111.13,79.38,147.42,337.93,Single-ply,SBD,M
Boys,89.81,12,Aaron Casarez,Three Rivers,89.63,122.47,68.04,115.67,306.17,Single-ply,SBD,M
Boys,89.81,13,Sebastian Moseley,Santa Gertrudis Academy,84.82,90.72,72.57,140.61,303.91,Single-ply,SBD,M
Boys,89.81,DQ,Carlos Huerta,Hebbronville,88,172.37,,,,Single-ply,SBD,M
Boys,89.81,DQ,Ivan Naranjo,Robstown,87.09,,,,,Single-ply,SBD,M
Boys,99.79,1,Eric Gutierrez,Robstown,98.61,229.06,133.81,208.65,571.53,Single-ply,SBD,M
Boys,99.79,2,Elias Cantu,Hebbronville,95.44,195.04,142.88,226.8,564.72,Single-ply,SBD,M
Boys,99.79,3,Saulo Ramos,Kingsville King,93.98,197.31,111.13,195.04,503.49,Single-ply,SBD,M
Boys,99.79,4,Freddy Martinez,Robstown,92.53,183.7,111.13,165.56,460.4,Single-ply,SBD,M
Boys,99.79,5,Adrian Salinas,Three Rivers,91.26,120.2,68.04,122.47,310.71,Single-ply,SBD,M
Boys,99.79,DQ,Ray Saenz,Bishop,93.35,,,,,Single-ply,SBD,M
Boys,99.79,DQ,Angel Hernandez,Ben Bolt-Palito Blanco,92.08,,,,,Single-ply,SBD,M
Boys,99.79,DQ,David Colecio,Bishop,96.43,,,,,Single-ply,SBD,M
Boys,109.77,1,Michael Salaiz,San Diego,106.23,260.82,145.15,226.8,632.76,Single-ply,SBD,M
Boys,109.77,2,Daniel Vela,Falfurrias,108.77,249.48,136.08,240.4,625.96,Single-ply,SBD,M
Boys,109.77,3,Ismael Gonzalez,Kingsville King,101.42,219.99,129.27,190.51,539.77,Single-ply,SBD,M
Boys,109.77,4,Joey Garza,Falfurrias,107.32,226.8,104.33,204.12,535.24,Single-ply,SBD,M
Boys,109.77,5,Victor Soliz,San Diego,109.68,201.85,111.13,174.63,487.61,Single-ply,SBD,M
Boys,109.77,6,Jonathon Garza,San Diego,107.14,117.93,92.99,142.88,353.8,Single-ply,SBD,M
Boys,109.77,DQ,Osbaldo Gonzalez,Alice,108.05,,,,,Single-ply,SBD,M
Boys,109.77,DQ,Jose Marquez,Hebbronville,109.04,,,,,Single-ply,SBD,M
Boys,124.74,1,Jaime Rosas,Falfurrias,113.76,272.16,120.2,238.14,630.49,Single-ply,SBD,M
Boys,124.74,2,Luis Sanchez,Three Rivers,120.02,260.82,151.95,217.72,630.49,Single-ply,SBD,M
Boys,124.74,3,Steve Covarrubias,Robstown,112.49,226.8,129.27,219.99,576.06,Single-ply,SBD,M
Boys,124.74,4,Adam Gonzalez,Kingsville King,110.22,208.65,142.88,217.72,569.26,Single-ply,SBD,M
Boys,124.74,5,Pete Dominguez,Hebbronville,111.13,136.08,65.77,176.9,378.75,Single-ply,SBD,M
Boys,124.74,DQ,Abel Tunchez,San Diego,120.66,265.35,,,,Single-ply,SBD,M
Boys,124.74,DQ,Luis Garcia,Odem,117.21,21.32,,,,Single-ply,SBD,M
Boys,124.74,DQ,Ezra Naranjo,Odem,120.38,,,,,Single-ply,SBD,M
Boys,124.74+,1,Marcos Romero,Odem,140.16,224.53,149.69,215.46,589.67,Single-ply,SBD,M
Boys,124.74+,2,George Hughes,San Diego,129.73,222.26,145.15,206.38,573.79,Single-ply,SBD,M
Boys,124.74+,3,Chris Lytle,Benavides,136.17,183.7,106.59,206.38,496.68,Single-ply,SBD,M
Boys,124.74+,4,Aaron Flores,Santa Gertrudis Academy,136.17,163.29,68.04,145.15,376.48,Single-ply,SBD,M
