Division,WeightClassKg,Place,Name,Team,BodyweightKg,Best3SquatKg,Best3BenchKg,Best3DeadliftKg,TotalKg,Equipment,Event,Sex
Girls,44.23,1,Ayline Pesina,Los Fresnos,44.13,124.74,52.16,140.61,317.51,Single-ply,SBD,F
Girls,44.23,2,Iliana Gamez,Edinburg Vela,43.45,127.01,61.23,127.01,315.25,Single-ply,SBD,F
Girls,44.23,3,Niomi Gamez,Los Fresnos,43.45,115.67,43.09,102.06,260.82,Single-ply,SBD,F
Girls,44.23,4,Frida Rodriguez,Brownsville Pace,42.77,108.86,49.9,95.25,254.01,Single-ply,SBD,F
Girls,44.23,5,Nelly Gutierrez,San Benito,43.27,68.04,40.82,68.04,176.9,Single-ply,SBD,F
Girls,44.23,DQ,Yaira Velez,Rio Hondo,43.82,120.2,,,,Single-ply,SBD,F
Girls,44.23,DQ,Natalia Villarreal,Edinburg Vela,44.18,88.45,,,,Single-ply,SBD,F
Girls,47.85,1,Aliana Richardson,Los Fresnos,47.58,165.56,68.04,163.29,396.89,Single-ply,SBD,F
Girls,47.85,2,Sophia Navarrete,Los Fresnos,46.99,127.01,61.23,136.08,324.32,Single-ply,SBD,F
Girls,47.85,3,Amaya Rodriguez,Weslaco,46.77,106.59,61.23,138.35,306.17,Single-ply,SBD,F
Girls,47.85,4,Lexi Davila,Brownsville Lopez,46.95,115.67,61.23,120.2,297.1,Single-ply,SBD,F
Girls,47.85,5,Esmeralda Saldana,Brownsville Lopez,47.49,117.93,61.23,113.4,292.57,Single-ply,SBD,F
Girls,47.85,6,Dulce Montes,Brownsville Hanna,47.63,111.13,56.7,115.67,283.5,Single-ply,SBD,F
Girls,47.85,7,Alexie Hernandez,Los Fresnos,47.67,117.93,45.36,115.67,278.96,Single-ply,SBD,F
Girls,47.85,8,Valeria Quintanilla,Edinburg Vela,47.58,115.67,52.16,106.59,274.42,Single-ply,SBD,F
Girls,47.85,9,Kayla Anya,Edinburg Vela,46.86,90.72,58.97,97.52,247.21,Single-ply,SBD,F
Girls,47.85,DQ,Aime Perez,Brownsville Lopez,45.95,83.91,,,,Single-ply,SBD,F
Girls,51.94,1,Angel Esquivel,Los Fresnos,51.8,156.49,70.31,158.76,385.55,Single-ply,SBD,F
Girls,51.94,2,Mandy Sanchez,Los Fresnos,51.62,142.88,74.84,147.42,365.14,Single-ply,SBD,F
Girls,51.94,3,Juliette Cantu,Edinburg Vela,51.17,140.61,74.84,115.67,331.12,Single-ply,SBD,F
Girls,51.94,4,Brittany Berber,Los Fresnos,51.75,136.08,45.36,142.88,324.32,Single-ply,SBD,F
Girls,51.94,5,Vero Martinez,Los Fresnos,50.17,122.47,49.9,142.88,315.25,Single-ply,SBD,F
Girls,51.94,6,Daisy Hernandez,Weslaco,50.58,127.01,61.23,127.01,315.25,Single-ply,SBD,F
Girls,51.94,7,Jackie Del Molino,Brownsville Veterans Memorial,50.44,124.74,45.36,136.08,306.17,Single-ply,SBD,F
Girls,51.94,8,Devin Balderama,Los Fresnos,51.8,117.93,54.43,115.67,288.03,Single-ply,SBD,F
Girls,51.94,9,Aubree Ramos,Los Fresnos,51.85,115.67,54.43,113.4,283.5,Single-ply,SBD,F
Girls,51.94,10,Emily Reyes,Brownsville Pace,51.8,124.74,43.09,102.06,269.89,Single-ply,SBD,F
Girls,51.94,11,Melanie Davila,Los Fresnos,50.94,97.52,43.09,102.06,242.67,Single-ply,SBD,F
Girls,51.94,12,Alexandra Bradshaw,Brownsville Hanna,50.71,92.99,47.63,92.99,233.6,Single-ply,SBD,F
Girls,51.94,DQ,Ellenise Guerra,Brownsville Veterans Memorial,49.17,92.99,,,,Single-ply,SBD,F
Girls,56.02,1,Bella Vargas,Los Fresnos,55.29,151.95,90.72,172.37,415.04,Single-ply,SBD,F
Girls,56.02,2,Audrey Olivarez,Edinburg Vela,54.88,165.56,95.25,151.95,412.77,Single-ply,SBD,F
Girls,56.02,3,Alexa Vega,Brownsville Lopez,52.98,142.88,79.38,136.08,358.34,Single-ply,SBD,F
Girls,56.02,4,Abby Dominguez,Los Fresnos,55.84,136.08,65.77,133.81,335.66,Single-ply,SBD,F
Girls,56.02,5,Julya Espinoza,Brownsville Hanna,55.75,124.74,65.77,122.47,312.98,Single-ply,SBD,F
Girls,56.02,6,Daniella Rodriguez,Brownsville Hanna,55.7,106.59,56.7,88.45,251.74,Single-ply,SBD,F
Girls,56.02,7,Star Aguilar,Weslaco,54.25,79.38,31.75,90.72,201.85,Single-ply,SBD,F
Girls,56.02,DQ,Kayla Medellin,San Benito,55.52,,,,,Single-ply,SBD,F
Girls,56.02,DQ,Annahi Pizana,Brownsville Lopez,56.02,151.95,,,,Single-ply,SBD,F
Girls,56.02,DQ,Jackie Benavides,Brownsville Pace,55.57,138.35,,,,Single-ply,SBD,F
Girls,56.02,DQ,Ana Lopez,Brownsville Pace,55.84,113.4,49.9,,,Single-ply,SBD,F
Girls,60.1,1,Andrea Ramirez,Rio Hondo,59.87,190.51,92.99,147.42,430.91,Single-ply,SBD,F
Girls,60.1,2,Deeandra Flores,Edinburg Vela,57.65,149.69,77.11,145.15,371.95,Single-ply,SBD,F
Girls,60.1,3,Joesha Villanueva,Los Fresnos,59.92,142.88,70.31,145.15,358.34,Single-ply,SBD,F
Girls,60.1,4,Hannah Castillo,Los Fresnos,58.56,133.81,68.04,147.42,349.27,Single-ply,SBD,F
Girls,60.1,5,Leanna Gonzalez,Rio Hondo,59.06,131.54,58.97,122.47,312.98,Single-ply,SBD,F
Girls,60.1,6,Kiara Garcia,Brownsville Lopez,57.97,120.2,54.43,120.2,294.84,Single-ply,SBD,F
Girls,60.1,7,Sylvia Cardenas,Brownsville Hanna,57.42,127.01,52.16,102.06,281.23,Single-ply,SBD,F
Girls,60.1,8,Mayra Yanez,San Benito,58.2,97.52,47.63,117.93,263.08,Single-ply,SBD,F
Girls,60.1,9,Chantal Macias,Brownsville Hanna,60.1,97.52,52.16,106.59,256.28,Single-ply,SBD,F
Girls,60.1,10,Ashley Cardenas,Brownsville Hanna,59.1,99.79,52.16,97.52,249.48,Single-ply,SBD,F
Girls,60.1,11,Amy Moran,San Benito,58.15,90.72,47.63,99.79,238.14,Single-ply,SBD,F
Girls,60.1,DQ,Annahi Escobar,Brownsville Lopez,60.06,120.2,,,,Single-ply,SBD,F
Girls,67.36,1,Liz De La Fuente,Brownsville Lopez,64.82,192.78,83.91,176.9,453.59,Single-ply,SBD,F
Girls,67.36,2,Mary Jane Maldonado,Los Fresnos,66.86,170.1,97.52,156.49,424.11,Single-ply,SBD,F
Girls,67.36,3,Audrey Waller,Edinburg Vela,65,156.49,74.84,133.81,365.14,Single-ply,SBD,F
Girls,67.36,4,Stephanie Cantu,San Benito,65.41,149.69,77.11,127.01,353.8,Single-ply,SBD,F
Girls,67.36,5,Nancy Gutierrez,Brownsville Veterans Memorial,66.04,142.88,61.23,131.54,335.66,Single-ply,SBD,F
Girls,67.36,6,Tiffany Silguero,Los Fresnos,66.95,129.27,70.31,133.81,333.39,Single-ply,SBD,F
Girls,67.36,7,Saira Castillo,Los Fresnos,65.86,147.42,49.9,127.01,324.32,Single-ply,SBD,F
Girls,67.36,8,Xitlali Montes,Brownsville Hanna,67.31,124.74,61.23,136.08,322.05,Single-ply,SBD,F
Girls,67.36,9,Jordyn Torres,Weslaco,64.5,136.08,54.43,113.4,303.91,Single-ply,SBD,F
Girls,67.36,10,Abby Atkinson,Los Fresnos,63.87,120.2,52.16,111.13,283.5,Single-ply,SBD,F
Girls,67.36,DQ,Kim Medellin,San Benito,65.73,,54.43,,,Single-ply,SBD,F
Girls,75.07,1,Madelyne McKinney,Brownsville Veterans Memorial,71.85,147.42,72.57,167.83,387.82,Single-ply,SBD,F
Girls,75.07,2,Carolina Hernandez,Brownsville Hanna,72.89,151.95,70.31,142.88,365.14,Single-ply,SBD,F
Girls,75.07,3,Mayelisa Sanchez,Brownsville Lopez,67.99,142.88,74.84,140.61,358.34,Single-ply,SBD,F
Girls,75.07,4,Andrea Ochoa,Edinburg Vela,71.21,142.88,81.65,133.81,358.34,Single-ply,SBD,F
Girls,75.07,5,Karen Villanueva,Rio Hondo,71.99,140.61,61.23,140.61,342.46,Single-ply,SBD,F
Girls,75.07,6,Dehlila Cantu,Edinburg Vela,71.49,142.88,70.31,127.01,340.19,Single-ply,SBD,F
Girls,75.07,7,Starr Montoya,Brownsville Hanna,70.99,151.95,56.7,124.74,333.39,Single-ply,SBD,F
Girls,75.07,8,Janie Ramos,Brownsville Veterans Memorial,73.53,127.01,63.5,138.35,328.85,Single-ply,SBD,F
Girls,75.07,9,Edie Montalvo,Weslaco,71.71,129.27,56.7,131.54,317.51,Single-ply,SBD,F
Girls,75.07,10,Alondra Guajardo,Brownsville Hanna,74.34,142.88,52.16,120.2,315.25,Single-ply,SBD,F
Girls,75.07,11,Bianca Cardenas,Weslaco,69.26,102.06,56.7,124.74,283.5,Single-ply,SBD,F
Girls,75.07,12,Athena Martinez,Brownsville Hanna,72.71,111.13,56.7,111.13,278.96,Single-ply,SBD,F
Girls,75.07,13,Jazmin Lopez,Weslaco,72.62,111.13,49.9,113.4,274.42,Single-ply,SBD,F
Girls,75.07,DQ,Natalie Rivera,Brownsville Pace,75.07,,,,,Single-ply,SBD,F
Girls,82.33,1,Kathy Garza,Edinburg Vela,78.02,185.97,111.13,165.56,462.66,Single-ply,SBD,F
Girls,82.33,2,Layla Carrisalez,Los Fresnos,80.92,176.9,90.72,161.03,428.64,Single-ply,SBD,F
Girls,82.33,3,Anyssa Barrientes,Rio Hondo,81.78,156.49,97.52,163.29,417.3,Single-ply,SBD,F
Girls,82.33,4,Natalie Monjaras,Weslaco,79.11,142.88,97.52,138.35,378.75,Single-ply,SBD,F
Girls,82.33,5,Carmen Lainez,Los Fresnos,77.84,129.27,79.38,133.81,342.46,Single-ply,SBD,F
Girls,82.33,6,Jennifer Gallegos,San Benito,76.57,127.01,56.7,108.86,292.57,Single-ply,SBD,F
Girls,90.04,1,Melanie Quintero,Brownsville Lopez,85.96,185.97,95.25,179.17,460.4,Single-ply,SBD,F
Girls,90.04,2,Ruby Quintero,Los Fresnos,88.09,183.7,97.52,154.22,435.45,Single-ply,SBD,F
Girls,90.04,3,Virginia Watkins,Edinburg Vela,82.92,174.63,88.45,170.1,433.18,Single-ply,SBD,F
Girls,90.04,4,Rheanne Lopez,Los Fresnos,88.81,192.78,65.77,172.37,430.91,Single-ply,SBD,F
Girls,90.04,5,Ashlea Perales,Rio Hondo,86.14,149.69,90.72,142.88,383.29,Single-ply,SBD,F
Girls,90.04,6,Adriana Valerio,Brownsville Pace,86.14,147.42,77.11,147.42,371.95,Single-ply,SBD,F
Girls,90.04,7,Crystal Magana,Brownsville Hanna,89.31,147.42,65.77,138.35,351.53,Single-ply,SBD,F
Girls,90.04,8,Dalila Araguz,San Benito,88.22,136.08,61.23,127.01,324.32,Single-ply,SBD,F
Girls,90.04,9,Michelle Davila,Brownsville Hanna,89.36,124.74,56.7,129.27,310.71,Single-ply,SBD,F
Girls,90.04,10,Shyanna Gutierrez,San Benito,89.95,117.93,61.23,99.79,278.96,Single-ply,SBD,F
Girls,90.04,11,Valeria Guerra,Brownsville Pace,87.72,88.45,58.97,90.72,238.14,Single-ply,SBD,F
Girls,90.04,DQ,Angeline Young,Edinburg Vela,84.41,179.17,,,,Single-ply,SBD,F
Girls,90.04,DQ,Izabel Vela,Weslaco,86.32,,,,,Single-ply,SBD,F
Girls,100.02,1,Leslie Quintero,Los Fresnos,93.85,195.04,90.72,170.1,455.86,Single-ply,SBD,F
Girls,100.02,2,Victoria Reyna,Brownsville Hanna,94.8,183.7,74.84,142.88,401.43,Single-ply,SBD,F
Girls,100.02,3,Casey Najar,Rio Hondo,92.44,161.03,90.72,147.42,399.16,Single-ply,SBD,F
Girls,100.02,4,Caroline Hernandez,San Benito,91.49,163.29,72.57,136.08,371.95,Single-ply,SBD,F
Girls,100.02,5,Adelina Quintana,Rio Hondo,90.26,136.08,92.99,136.08,365.14,Single-ply,SBD,F
Girls,100.02,6,Yessica Vega,Weslaco,93.76,122.47,47.63,136.08,306.17,Single-ply,SBD,F
Girls,100.02,7,Ara Lucio,Brownsville Pace,98.61,77.11,47.63,106.59,231.33,Single-ply,SBD,F
Girls,117.71,1,Brandy Gonzales,Rio Hondo,106.5,190.51,102.06,149.69,442.25,Single-ply,SBD,F
Girls,117.71,2,Lisa Zuniga,Rio Hondo,105.46,165.56,106.59,145.15,417.3,Single-ply,SBD,F
Girls,117.71,3,Marissa Hernandez,San Benito,111.99,145.15,65.77,120.2,331.12,Single-ply,SBD,F
Girls,117.71,4,Stephanie Vallejo,Brownsville Pace,104.28,113.4,61.23,106.59,281.23,Single-ply,SBD,F
Girls,117.71,5,Yliannah Luna,Weslaco,116.71,102.06,58.97,113.4,274.42,Single-ply,SBD,F
Girls,117.71,6,Yvonne De La Fuente,Brownsville Veterans Memorial,104.37,97.52,45.36,111.13,254.01,Single-ply,SBD,F
Girls,117.71,DQ,Rosario Vargas,Brownsville Lopez,102.1,,,,,Single-ply,SBD,F
Girls,117.71+,DQ,Emily Corpus,Edinburg Vela,119.75,131.54,,,,Single-ply,SBD,F
