Division,WeightClassKg,Place,Name,Team,BodyweightKg,Best3SquatKg,Best3BenchKg,Best3DeadliftKg,TotalKg,Equipment,Event,Sex
Boys,51.71,1,Victor Solis,Beckville,49.53,97.52,52.16,106.59,256.28,Single-ply,SBD,M
Boys,55.79,1,Justin Clough,Carthage,53.8,97.52,70.31,113.4,281.23,Single-ply,SBD,M
Boys,55.79,2,Auryan Parks,Hallsville,54.75,102.06,61.23,106.59,269.89,Single-ply,SBD,M
Boys,55.79,3,Nick Bergt,Atlanta,55.7,92.99,61.23,106.59,260.82,Single-ply,SBD,M
Boys,55.79,4,Zack Baker,Hallsville,54.48,79.38,,90.72,170.1,Single-ply,SD,M
Boys,59.87,1,Tanner Stogner,Beckville,58.79,86.18,56.7,106.59,249.48,Single-ply,SBD,M
Boys,59.87,2,I'Sean McDaniel,Waskom,58.06,,77.11,140.61,217.72,Single-ply,BD,M
Boys,67.13,1,Levi Roberts,Atlanta,67,163.29,95.25,163.29,421.84,Single-ply,SBD,M
Boys,67.13,2,Christian Allison,Carthage,65.95,149.69,92.99,154.22,396.89,Single-ply,SBD,M
Boys,67.13,3,Justin Spurlin,Waskom,64.41,133.81,88.45,167.83,390.09,Single-ply,SBD,M
Boys,67.13,4,Micha Templeton,Carthage,62.78,131.54,68.04,149.69,349.27,Single-ply,SBD,M
Boys,67.13,5,Terry Dickerson,Atlanta,67.13,115.67,79.38,145.15,340.19,Single-ply,SBD,M
Boys,67.13,6,Dustin Mcculler,Hallsville,63.55,102.06,68.04,138.35,308.44,Single-ply,SBD,M
Boys,67.13,7,Preston Ellis,Beckville,66.41,106.59,72.57,127.01,306.17,Single-ply,SBD,M
Boys,67.13,8,Drew Lawson,Hallsville,66.59,102.06,79.38,99.79,281.23,Single-ply,SBD,M
Boys,67.13,9,Dylan Hudson,Waskom,67.13,97.52,47.63,129.27,274.42,Single-ply,SBD,M
Boys,74.84,1,Dk Calloway,Carthage,69.4,215.46,120.2,190.51,526.17,Single-ply,SBD,M
Boys,74.84,2,JC Garcia,Waskom,73.03,204.12,99.79,185.97,489.88,Single-ply,SBD,M
Boys,74.84,3,Alvin Battle,Atlanta,74.48,183.7,113.4,181.44,478.54,Single-ply,SBD,M
Boys,74.84,4,AJ Rose,Hallsville,74.84,142.88,131.54,158.76,433.18,Single-ply,SBD,M
Boys,74.84,5,Sam Ruley,Atlanta,74.03,129.27,108.86,145.15,383.29,Single-ply,SBD,M
Boys,74.84,6,Gage Allen,Hallsville,68.67,136.08,88.45,140.61,365.14,Single-ply,SBD,M
Boys,74.84,7,Cal Walton,Beckville,70.76,117.93,83.91,127.01,328.85,Single-ply,SBD,M
Boys,74.84,8,Brian Simmington,Atlanta,74.57,111.13,72.57,131.54,315.25,Single-ply,SBD,M
Boys,74.84,9,Bryce Harris,Beckville,72.12,102.06,81.65,122.47,306.17,Single-ply,SBD,M
Boys,74.84,10,Adam Jones,Beckville,72.57,88.45,70.31,106.59,265.35,Single-ply,SBD,M
Boys,74.84,11,Zac Hickson,Hallsville,69.17,74.84,52.16,74.84,201.85,Single-ply,SBD,M
Boys,74.84,12,Nolan Tryon,Hallsville,70.99,63.5,63.5,72.57,199.58,Single-ply,SBD,M
Boys,82.1,1,Derek McCuller,Hallsville,81.06,188.24,115.67,181.44,485.34,Single-ply,SBD,M
Boys,82.1,2,Dexter Ward,Hallsville,81.87,172.37,117.93,181.44,471.74,Single-ply,SBD,M
Boys,82.1,3,Javontay Brown,Carthage,77.84,156.49,115.67,181.44,453.59,Single-ply,SBD,M
Boys,82.1,4,Chris Howard,Carthage,81.65,170.1,102.06,172.37,444.52,Single-ply,SBD,M
Boys,82.1,5,Taylor Frost,Hallsville,80.15,142.88,108.86,170.1,421.84,Single-ply,SBD,M
Boys,82.1,6,Joseph Juarez,Carthage,80.15,142.88,92.99,142.88,378.75,Single-ply,SBD,M
Boys,82.1,7,Trey Moreno,Beckville,77.11,106.59,70.31,136.08,312.98,Single-ply,SBD,M
Boys,82.1,8,Tristen Trevillion,Beckville,76.2,117.93,,,117.93,Single-ply,S,M
Boys,89.81,1,Roderick Boyd,Hallsville,85.87,226.8,136.08,217.72,580.6,Single-ply,SBD,M
Boys,89.81,2,Tookie Neal,Atlanta,89.58,195.04,102.06,213.19,510.29,Single-ply,SBD,M
Boys,89.81,3,Dan Davis,Atlanta,89.72,156.49,120.2,204.12,480.81,Single-ply,SBD,M
Boys,89.81,4,Rusty Cogdill,Hallsville,84.87,127.01,115.67,176.9,419.57,Single-ply,SBD,M
Boys,89.81,5,Logan Moorehead,Atlanta,86.36,113.4,77.11,158.76,349.27,Single-ply,SBD,M
Boys,89.81,6,Zach Mahan,Atlanta,89.81,102.06,74.84,122.47,299.37,Single-ply,SBD,M
Boys,89.81,7,Gustavo Loredo,Beckville,83.91,102.06,61.23,113.4,276.69,Single-ply,SBD,M
Boys,99.79,1,Cole Davis,Atlanta,97.07,206.38,113.4,195.04,514.83,Single-ply,SBD,M
Boys,109.77,2,Garrett Harvey,Carthage,99.88,192.78,102.06,170.1,464.93,Single-ply,SBD,M
Boys,99.79,3,Dillon Husar,Carthage,99.25,174.63,97.52,176.9,449.06,Single-ply,SBD,M
Boys,99.79,4,Robert Earnhardt,Atlanta,98.02,151.95,83.91,124.74,360.61,Single-ply,SBD,M
Boys,99.79,5,Caleb Winemire,Beckville,99.79,102.06,68.04,,170.1,Single-ply,SB,M
Boys,99.79,DQ,Logan Bailey,Hallsville,99.06,,,,,Single-ply,SB,M
Boys,109.77,1,Tray King,Hallsville,101.79,217.72,127.01,219.99,564.72,Single-ply,SBD,M
Boys,109.77,2,Deshanti Holloway,Atlanta,100.38,197.31,95.25,217.72,510.29,Single-ply,SBD,M
Boys,109.77,3,Cade Clinton,Carthage,100.7,163.29,117.93,195.04,476.27,Single-ply,SBD,M
Boys,109.77,4,Branton Halcomb,Carthage,107.05,161.03,117.93,174.63,453.59,Single-ply,SBD,M
Boys,109.77,5,Trey Gillespie,Hallsville,106.96,172.37,90.72,156.49,419.57,Single-ply,SBD,M
Boys,109.77,6,Matt Norris,Waskom,107.05,158.76,99.79,154.22,412.77,Single-ply,SBD,M
Boys,109.77,7,Hunter Tidwell,Atlanta,108.09,142.88,92.99,154.22,390.09,Single-ply,SBD,M
Boys,109.77,8,Cagen Baldree,Carthage,104.78,129.27,90.72,136.08,356.07,Single-ply,SBD,M
Boys,109.77,9,Lelan Anderson,Hallsville,100.97,129.27,83.91,138.35,351.53,Single-ply,SBD,M
Boys,109.77,10,Brandon Carlson,Carthage,104.33,136.08,79.38,136.08,351.53,Single-ply,SBD,M
Boys,109.77,11,Gerald Kenzie,Carthage,100.52,111.13,74.84,122.47,308.44,Single-ply,SBD,M
Boys,109.77,12,Jakcie Alston,Hallsville,108.32,,72.57,129.27,201.85,Single-ply,BD,M
Boys,124.74,1,Joey Lenard,Atlanta,111.22,213.19,136.08,217.72,566.99,Single-ply,SBD,M
Boys,124.74,2,Shane Armstrong,Beckville,112.94,190.51,138.35,208.65,537.51,Single-ply,SBD,M
Boys,124.74,3,Carlton Hasten,Hallsville,115.17,151.95,88.45,156.49,396.89,Single-ply,SBD,M
Boys,124.74,4,Trey Worrell,Hallsville,114.31,142.88,102.06,,244.94,Single-ply,SB,M
Boys,124.74+,1,Josh Byrd,Waskom,158.76,235.87,165.56,208.65,610.08,Single-ply,SBD,M
Boys,124.74+,2,Kason Willis,Atlanta,127.37,226.8,129.27,231.33,587.4,Single-ply,SBD,M
Boys,124.74+,3,Adrian Goodacre,Carthage,139.71,183.7,108.86,181.44,474,Single-ply,SBD,M
Boys,124.74+,4,Griffin Bankhead,Carthage,130.18,181.44,102.06,172.37,455.86,Single-ply,SBD,M
Boys,124.74+,5,Corey Hall,Hallsville,127.19,142.88,74.84,147.42,365.14,Single-ply,SBD,M
Boys,124.74+,6,Christian Jimenez,Carthage,145.88,156.49,,156.49,312.98,Single-ply,SD,M
