Name,WeightClassKg,Best3SquatKg,Best3BenchKg,Best3DeadliftKg,TotalKg,Event,Equipment,Division,Sex,Place
David Clinch,56,100,80,180,360,SBD,Single-ply,Open,M,1
Raymond Hope,60,167.5,87.5,180,435,SBD,Single-ply,Open,M,1
Fred Litchfield,67.5,170,115.5,202.5,488,SBD,Single-ply,Open,M,1
John Elliot Dicks,67.5,162.5,97.5,202.5,462.5,SBD,Single-ply,Open,M,2
Daniel Walker,75,200,90,210,500,SBD,Single-ply,Open,M,2
Mark Tait,75,220,120,220,560,SBD,Single-ply,Open,M,1
Will Grati,82.5,195,142.5,240,577.5,SBD,Single-ply,Open,M,1
Dan Baker,82.5,210,125,230,565,SBD,Single-ply,Open,M,2
Ellen Stanton,75,182.5,85,197.5,465,SBD,Single-ply,Open,F,1
