Name,Age,Sex,Equipment,Division,BodyweightKg,WeightClassKg,Squat1Kg,Squat2Kg,Squat3Kg,Best3SquatKg,Bench1Kg,Bench2Kg,Bench3Kg,Best3BenchKg,Deadlift1Kg,Deadlift2Kg,Deadlift3Kg,Best3DeadliftKg,TotalKg,Place,Event
Linda Koos,61,F,Raw,F_MR_5_AAPF,97.4,90+,,,,,35,45,-50,45,,,,,45,1,B
Linda Koos,61,F,Raw,F_MR_5_APF,97.4,90+,,,,,35,45,-50,45,,,,,45,1,B
Autumn Peach,20,F,Raw,F_JR_AAPF,70.5,75,,,,,45,55,-62.5,55,,,,,55,1,B
Halley Baker,23,F,Raw,F_JR_AAPF,79.5,82.5,,,,,45,52.5,-60,52.5,,,,,52.5,1,B
Autumn Peach,20,F,Raw,F_JR_APF,70.5,75,,,,,45,55,-62.5,55,,,,,55,1,B
Bonnie Schroeder,28,F,Raw,F_OR_APF,53.7,56,,,,,65,-70,70,70,,,,,70,1,B
Ian Scott,78,M,Raw,M_MR_8_APF,81.6,82.5,,,,,107.5,-110,112.5,112.5,,,,,112.5,1,B
Stephen Pate,60,M,Raw,M_MR_5_AAPF,84.7,90,,,,,110,125,130,130,,,,,130,1,B
Bill Busby,64,M,Raw,M_MR_5_AAPF,86,90,,,,,130,-135,,130,,,,,130,2,B
Bill Busby,64,M,Raw,M_MR_5_APF,86,90,,,,,130,-135,,130,,,,,130,1,B
James Briggs,57,M,Raw,M_MR_4_AAPF,97.8,100,,,,,105,115,125,125,,,,,125,1,B
James Briggs,57,M,Raw,M_MR_4_APF,97.8,100,,,,,105,115,125,125,,,,,125,1,B
Charles Morse,49,M,Multi-ply,M_MEM_2_APF,74,75,,,,,100,105,110,110,,,,,110,1,B
Ken Grond,21,M,Raw,M_JR_AAPF,88.7,90,,,,,145,147.5,-152.5,147.5,,,,,147.5,1,B
Sam Wilson,20,M,Raw,M_JR_APF,73,75,,,,,112.5,115,117.5,117.5,,,,,117.5,1,B
Tom Waldrep,52,M,Single-ply,M_OES_APF,99.4,100,,,,,-335,335,-345,335,,,,,335,1,B
Nate Dimond,33,M,Raw,M_OR_AAPF,97.9,100,,,,,135,145,152.5,152.5,,,,,152.5,1,B
PJ Ginn,23,M,Raw,M_OR_APF,97.3,100,,,,,185,200,205,205,,,,,205,1,B
David Murphy,61,M,Multi-ply,M_MEM_5_APF,109,110,,,,,90,-265,-272.5,90,,,,,90,1,B
John Lucas,58,M,Raw,M_MR_4_APF,123.9,125,,,,,185,195,-200,195,,,,,195,1,B
Tony Bartolomei,57,M,Multi-ply,M_MEM_3_APF,109.1,110,,,,,-240,-240,-240,,,,,,,DQ,B
Michael Robinson,45,M,Raw,M_MR_2_AAPF,113.6,125,,,,,150,-157.5,,150,,,,,150,1,B
Matt McCoy,48,M,Raw,M_MR_2_AAPF,121.7,125,,,,,105,115,127.5,127.5,,,,,127.5,2,B
Chris May,40,M,Raw,M_MR_1_AAPF,108.2,110,,,,,105,-115,-115,105,,,,,105,1,B
Timothy Brechon,35,M,Raw,M_SR_AAPF,108.6,110,,,,,125,180,185,185,,,,,185,1,B
David Zigler,35,M,Raw,M_SR_APF,105.7,110,,,,,175,192.5,205,205,,,,,205,1,B
Cory Henry,39,M,Raw,M_SR_APF,107.6,110,,,,,202.5,-220,-220,202.5,,,,,202.5,2,B
Cliff Wheeler,34,M,Raw,M_SR_APF,116.6,125,,,,,200,217.5,,217.5,,,,,217.5,1,B
Tate Briggs,20,M,Raw,M_JR_AAPF,137.3,140,,,,,160,167.5,,167.5,,,,,167.5,1,B
Tate Briggs,20,M,Raw,M_JR_APF,137.3,140,,,,,160,167.5,,167.5,,,,,167.5,1,B
David Murphy,61,M,Multi-ply,M_OEM_APF,109,110,,,,,90,-265,-272.5,90,,,,,90,1,B
Matt Houser,32,M,Single-ply,M_OES_APF,137.5,140,,,,,390,397.5,-410,397.5,,,,,397.5,1,B
Nick Berry,24,M,Raw,M_OR_AAPF,139.5,140,,,,,175,190,-205,190,,,,,190,1,B
Tatum Susberry,29,M,Raw,M_OR_AAPF,154.6,140+,,,,,185,197.5,-210,197.5,,,,,197.5,1,B
David Zigler,35,M,Raw,M_OR_APF,105.7,110,,,,,175,192.5,205,205,,,,,205,1,B
Cory Henry,39,M,Raw,M_OR_APF,107.6,110,,,,,202.5,-220,-220,202.5,,,,,202.5,2,B
Cliff Wheeler,34,M,Raw,M_OR_APF,116.6,125,,,,,200,217.5,,217.5,,,,,217.5,1,B
Tatum Susberry,29,M,Raw,M_OR_APF,154.6,140+,,,,,185,197.5,-210,197.5,,,,,197.5,1,B
Michael Robinson,45,M,Raw,M_MR_2_APF,113.6,125,,,,,150,-157.5,,150,,,,,150,1,B
Alexandra Vallejo,50,F,Multi-ply,F_MEM_3_AAPF,50.9,52,87.5,102.5,107.5,107.5,57.5,62.5,-67.5,62.5,115,122.5,-127.5,122.5,292.5,1,SBD
Alexandra Vallejo,50,F,Multi-ply,F_MEM_3_APF,50.9,52,87.5,102.5,107.5,107.5,57.5,62.5,-67.5,62.5,115,122.5,-127.5,122.5,292.5,1,SBD
Andrea Richards,45,F,Raw,F_MR_2_AAPF,65.9,67.5,115,120,127.5,127.5,70,77.5,,77.5,132.5,142.5,150,150,355,1,SBD
Dawn Maroscher,47,F,Raw,F_MR_2_AAPF,68,75,112.5,125,127.5,127.5,85,-92.5,-92.5,85,135,152.5,162.5,162.5,375,1,SBD
Maureen Harty,41,F,Raw,F_MR_1_AAPF,65.2,67.5,87.5,-92.5,92.5,92.5,37.5,42.5,-45,42.5,105,110,115,115,250,1,SBD
Christy Armstrong,43,F,Raw,F_MR_1_AAPF,78.7,82.5,-87.5,92.5,102.5,102.5,47.5,-52.5,-52.5,47.5,102.5,110,117.5,117.5,267.5,1,SBD
Victoria Ruiz,36,F,Wraps,F_SCR_AAPF,67.1,67.5,-60,60,67.5,67.5,55,60,-62.5,60,127.5,137.5,-142.5,137.5,265,1,SBD
Nicka Golia,35,F,Raw,F_SR_AAPF,57.1,60,70,77.5,-85,77.5,45,-55,-55,45,95,105,-115,105,227.5,1,SBD
Trinity Bracey,,F,Raw,F_SR_AAPF,73.4,75,102.5,107.5,112.5,112.5,55,60,-62.5,60,132.5,137.5,-142.5,137.5,310,1,SBD
Lora Messer,39,F,Raw,F_SR_AAPF,78.8,82.5,100,110,112.5,112.5,62.5,70,-75,70,115,130,132.5,132.5,315,1,SBD
Jessamyn Trocio,,F,Raw,F_SR_AAPF,83.1,90,105,-110,110,110,60,62.5,65,65,137.5,145,150,150,325,1,SBD
Abigail Rakocy,33,F,Raw,F_SR_AAPF,108.6,90+,87.5,105,122.5,122.5,52.5,62.5,-75,62.5,120,140,152.5,152.5,337.5,1,SBD
Heejung Kim,21,F,Wraps,F_JCR_AAPF,73.2,75,-120,120,130,130,52.5,55,57.5,57.5,130,137.5,142.5,142.5,330,1,SBD
Alisha Oseguera,21,F,Wraps,F_JCR_APF,73.1,75,-122.5,127.5,137.5,137.5,50,55,-60,55,132.5,142.5,-145,142.5,335,1,SBD
Kelsey Giganti,23,F,Wraps,F_JCR_APF,79.6,82.5,115,127.5,137.5,137.5,52.5,60,-65,60,122.5,-137.5,-137.5,122.5,320,1,SBD
AJ Tran,22,F,Raw,F_JR_AAPF,59.1,60,102.5,112.5,-120,112.5,57.5,62.5,-65,62.5,120,130,137.5,137.5,312.5,1,SBD
Nicole Leuzzi,21,F,Raw,F_JR_AAPF,59.5,60,85,92.5,97.5,97.5,42.5,52.5,-55,52.5,110,130,140,140,290,2,SBD
Kelsey Wittmann,23,F,Raw,F_JR_APF,97.7,90+,102.5,110,120,120,62.5,-65,-72.5,62.5,147.5,157.5,-165,157.5,340,1,SBD
Constance Hibbing,19,F,Wraps,F_TCR_3_AAPF,50.3,52,90,-105,-107.5,90,37.5,45,47.5,47.5,95,100,110,110,247.5,1,SBD
Madeleine Forberg,18,F,Raw,F_TR_3_AAPF,54.6,56,95,-105,105,105,50,-55,-60,50,97.5,102.5,107.5,107.5,262.5,1,SBD
Kate Bochenek,17,F,Wraps,F_TCR_2_APF,72.5,75,85,97.5,107.5,107.5,-50,-55,-55,,,,,,,DQ,SBD
Jennifer Gimmell,34,F,Multi-ply,F_OEM_AAPF,89.4,90,192.5,210,220,220,125,-132.5,132.5,132.5,157.5,-175,175,175,527.5,1,SBD
Pamela Dorn,51,F,Multi-ply,F_OEM_APF,64.3,67.5,-155,155,-170,155,-80,80,-82.5,80,152.5,175,-182.5,175,410,1,SBD
JuJu Yang,32,F,Multi-ply,F_OEM_APF,88.6,90,235,-245,255,255,62.5,-125,-125,62.5,160,175,182.5,182.5,500,1,SBD
Krystal Marie Santaniello,24,F,Wraps,F_OCR_AAPF,59.9,60,102.5,107.5,115,115,57.5,60,65,65,130,137.5,145,145,325,1,SBD
Christina Candelora,31,F,Wraps,F_OCR_AAPF,65.4,67.5,125,137.5,142.5,142.5,52.5,57.5,-60,57.5,120,130,137.5,137.5,337.5,1,SBD
Aurelia Freedman,29,F,Wraps,F_OCR_AAPF,70.9,75,77.5,92.5,-115,92.5,55,-60,-60,55,127.5,137.5,145,145,292.5,1,SBD
Kayla Heal,25,F,Wraps,F_OCR_AAPF,80.6,82.5,182.5,195,-200,195,80,85,92.5,92.5,170,182.5,190,190,477.5,1,SBD
Jasmine Baez,30,F,Wraps,F_OCR_AAPF,80.6,82.5,-132.5,132.5,142.5,142.5,82.5,-87.5,-90,82.5,147.5,150,152.5,152.5,377.5,2,SBD
Rachel Pederson,30,F,Wraps,F_OCR_AAPF,79.4,82.5,102.5,110,117.5,117.5,55,62.5,-65,62.5,147.5,152.5,165,165,345,3,SBD
Erika Elmblad,28,F,Wraps,F_OCR_AAPF,104.2,90+,160,172.5,-182.5,172.5,80,-87.5,-87.5,80,162.5,172.5,180,180,432.5,1,SBD
Kate Murawski,26,F,Wraps,F_OCR_AAPF,90.5,90+,97.5,107.5,117.5,117.5,42.5,47.5,-52.5,47.5,122.5,132.5,142.5,142.5,307.5,2,SBD
Marjorie Gudani,25,F,Wraps,F_OCR_APF,51.9,52,105,115,-127.5,115,52.5,57.5,-62.5,57.5,142.5,150,155,155,327.5,1,SBD
Sandy Jiries,27,F,Wraps,F_OCR_APF,78.7,82.5,155,165,-170,165,70,80,87.5,87.5,160,172.5,180,180,432.5,1,SBD
Erika Elmblad,28,F,Wraps,F_OCR_APF,104.2,90+,160,172.5,-182.5,172.5,80,-87.5,-87.5,80,162.5,172.5,180,180,432.5,1,SBD
Lindsey Crosby,24,F,Raw,F_OR_AAPF,55.5,56,102.5,115,120,120,62.5,-70,70,70,137.5,150,157.5,157.5,347.5,1,SBD
Krissy Cox,,F,Raw,F_OR_AAPF,56,56,105,112.5,-120,112.5,57.5,62.5,-65,62.5,105,112.5,120,120,295,2,SBD
Sarah Heinz,27,F,Raw,F_OR_AAPF,55.8,56,80,87.5,-92.5,87.5,50,55,57.5,57.5,117.5,125,130,130,275,3,SBD
Brittany Biendenbender,27,F,Raw,F_OR_AAPF,58.2,60,95,100,-102.5,100,60,-65,-65,60,115,120,125,125,285,1,SBD
Ashley Carter,,F,Raw,F_OR_AAPF,59.2,60,75,80,-82.5,80,37.5,42.5,-45,42.5,92.5,97.5,-102.5,97.5,220,2,SBD
Margaret Rowan,25,F,Raw,F_OR_AAPF,66.1,67.5,77.5,85,90,90,57.5,-60,60,60,107.5,115,120,120,270,1,SBD
Breanne Osborne,31,F,Raw,F_OR_AAPF,63.8,67.5,100,102.5,-105,102.5,-52.5,52.5,-57.5,52.5,100,105,110,110,265,2,SBD
Caroline Moody,32,F,Raw,F_OR_AAPF,64,67.5,80,82.5,87.5,87.5,45,50,-55,50,92.5,102.5,107.5,107.5,245,3,SBD
Soleil Benavides,,F,Raw,F_OR_AAPF,64.7,67.5,85,90,-92.5,90,45,47.5,50,50,92.5,97.5,105,105,245,4,SBD
Maura McDaniel,,F,Raw,F_OR_AAPF,61.4,67.5,67.5,-72.5,-72.5,67.5,45,47.5,-50,47.5,90,95,97.5,97.5,212.5,5,SBD
Dawn Maroscher,47,F,Raw,F_OR_AAPF,68,75,112.5,125,127.5,127.5,85,-92.5,-92.5,85,135,152.5,162.5,162.5,375,1,SBD
Trinity Bracey,,F,Raw,F_OR_AAPF,73.4,75,102.5,107.5,112.5,112.5,55,60,-62.5,60,132.5,137.5,-142.5,137.5,310,2,SBD
Lindsey Cardinal,27,F,Raw,F_OR_AAPF,79.8,82.5,167.5,172.5,,172.5,102.5,107.5,-110,107.5,177.5,185,192.5,192.5,472.5,1,SBD
Toni Freeman,30,F,Raw,F_OR_AAPF,82.2,82.5,90,97.5,105,105,62.5,-67.5,-67.5,62.5,137.5,142.5,150,150,317.5,2,SBD
Samantha Silverstein,,F,Raw,F_OR_AAPF,77.8,82.5,-115,115,-117.5,115,55,-57.5,-57.5,55,130,137.5,-147.5,137.5,307.5,3,SBD
Melissa Freitag,,F,Raw,F_OR_AAPF,78.1,82.5,95,100,-105,100,55,57.5,-60,57.5,107.5,112.5,117.5,117.5,275,4,SBD
Ashley Garren,30,F,Raw,F_OR_AAPF,82.8,90,115,-120,122.5,122.5,70,75,-80,75,-160,160,-167.5,160,357.5,1,SBD
Rebecca Ivers,25,F,Raw,F_OR_AAPF,89.3,90,115,130,-137.5,130,52.5,62.5,-67.5,62.5,137.5,152.5,-160,152.5,345,2,SBD
Kiara Frey,,F,Raw,F_OR_AAPF,115.8,90+,152.5,160,165,165,70,75,-82.5,75,165,175,-182.5,175,415,1,SBD
Maggie Corruthers,30,F,Raw,F_OR_AAPF,102.4,90+,102.5,107.5,-112.5,107.5,62.5,67.5,75,75,125,132.5,142.5,142.5,325,2,SBD
Lindsey Cardinal,27,F,Raw,F_OR_APF,79.8,82.5,167.5,172.5,,172.5,102.5,107.5,-110,107.5,177.5,185,192.5,192.5,472.5,1,SBD
Matt Wallace,,M,Wraps,M_JCR_AAPF,68,75,180,197.5,207.5,207.5,105,115,122.5,122.5,190,205,215,215,545,1,SBD
Brady Kness,22,M,Wraps,M_JCR_AAPF,89.9,90,180,195,210,210,120,127.5,-137.5,127.5,200,215,-227.5,215,552.5,1,SBD
Tyler Kelly,22,M,Wraps,M_JCR_AAPF,85.5,90,180,-197.5,197.5,197.5,120,130,-142.5,130,182.5,205,217.5,217.5,545,2,SBD
Tony Canino,23,M,Wraps,M_JCR_AAPF,120.9,125,237.5,255,265,265,-155,155,-162.5,155,260,280,-285,280,700,1,SBD
Giries Hattar,23,M,Wraps,M_JCR_AAPF,117.7,125,142.5,-152.5,160,160,-142.5,147.5,165,165,190,-227.5,227.5,227.5,552.5,2,SBD
Matt Wallace,21,M,Wraps,M_JCR_APF,68,75,180,197.5,207.5,207.5,105,115,122.5,122.5,190,205,215,215,545,1,SBD
Steve Lovecky,20,M,Wraps,M_JCR_APF,86.8,90,190,202.5,217.5,217.5,102.5,115,122.5,122.5,205,225,227.5,227.5,567.5,1,SBD
Tommy Pentek,23,M,Wraps,M_JCR_APF,98.5,100,-270,270,287.5,287.5,182.5,-192.5,-192.5,182.5,272.5,287.5,-295,287.5,757.5,1,SBD
Thomas Martin,21,M,Wraps,M_JCR_APF,94.2,100,-247.5,247.5,265,265,155,167.5,-175,167.5,215,232.5,247.5,247.5,680,2,SBD
Giries Hattar,23,M,Wraps,M_JCR_APF,117.7,125,142.5,-152.5,160,160,-142.5,147.5,165,165,190,-227.5,227.5,227.5,552.5,1,SBD
Kevin Anderson,21,M,Wraps,M_JCR_APF,136.5,140,287.5,300,320,320,142.5,152.5,157.5,157.5,282.5,295,-320,295,772.5,1,SBD
Sean Orton,23,M,Raw,M_JR_AAPF,74.8,75,187.5,205,210,210,105,115,-125,115,222.5,242.5,255,255,580,1,SBD
AJ Bibergall,20,M,Raw,M_JR_AAPF,79.6,82.5,175,182.5,-187.5,182.5,130,-142.5,-142.5,130,182.5,-190,190,190,502.5,1,SBD
Antonio Vazquez,21,M,Raw,M_JR_AAPF,80.7,82.5,165,-182.5,-182.5,165,107.5,112.5,117.5,117.5,197.5,207.5,212.5,212.5,495,2,SBD
Woojin Oh,20,M,Raw,M_JR_AAPF,79.9,82.5,117.5,130,-137.5,130,100,105,107.5,107.5,152.5,170,182.5,182.5,420,3,SBD
Sean Cornejo,22,M,Raw,M_JR_AAPF,99,100,-197.5,197.5,220,220,135,142.5,-147.5,142.5,235,255,257.5,257.5,620,1,SBD
Aymen Attig,22,M,Raw,M_JR_AAPF,95.3,100,175,192.5,210,210,142.5,155,160,160,225,240,247.5,247.5,617.5,2,SBD
Tyler Van Dahm,20,M,Raw,M_JR_AAPF,105,110,180,-202.5,202.5,202.5,130,142.5,-150,142.5,205,237.5,-250,237.5,582.5,1,SBD
Thomas Valadez,21,M,Raw,M_JR_APF,65.9,67.5,102.5,112.5,-125,112.5,67.5,75,-85,75,147.5,165,-172.5,165,352.5,1,SBD
Sean Orton,23,M,Raw,M_JR_APF,74.8,75,187.5,205,210,210,105,115,-125,115,222.5,242.5,255,255,580,1,SBD
Denis Dumitru,22,M,Raw,M_JR_APF,76.9,82.5,175,182.5,-190,182.5,-120,122.5,-130,122.5,220,227.5,-235,227.5,532.5,1,SBD
Elishua Fleming,23,M,Raw,M_JR_APF,108.7,110,-192.5,-200,207.5,207.5,145,150,160,160,240,250,262.5,262.5,630,1,SBD
Cory Mahoney,23,M,Raw,M_JR_APF,138,140,250,265,-272.5,265,167.5,185,190,190,250,275,290,290,745,1,SBD
Nico Bibergall,18,M,Wraps,M_TCR_3_AAPF,79.7,82.5,172.5,185,187.5,187.5,100,110,-115,110,182.5,197.5,210,210,507.5,1,SBD
Kyle Pigney,19,M,Wraps,M_TCR_3_AAPF,86,90,170,185,192.5,192.5,132.5,140,145,145,202.5,215,227.5,227.5,565,1,SBD
Tyler Bolger,18,M,Wraps,M_TCR_3_AAPF,97.2,100,205,215,-222.5,215,150,157.5,-165,157.5,205,220,227.5,227.5,600,1,SBD
Kyle Pigney,19,M,Wraps,M_TCR_3_APF,86,90,170,185,192.5,192.5,132.5,140,145,145,202.5,215,227.5,227.5,565,1,SBD
Leroy Dickerson,19,M,Wraps,M_TCR_3_APF,109,110,172.5,187.5,197.5,197.5,120,127.5,132.5,132.5,172.5,187.5,197.5,197.5,527.5,1,SBD
Michael Corradini,18,M,Wraps,M_TCR_3_APF,119.5,125,180,190,200,200,120,132.5,145,145,200,220,230,230,575,1,SBD
Jose Ramirez,18,M,Raw,M_TR_3_AAPF,58,60,125,-137.5,-137.5,125,95,-102.5,-102.5,95,152.5,160,170,170,390,1,SBD
Mike Graf,19,M,Raw,M_TR_3_AAPF,74.4,75,182.5,190,197.5,197.5,130,135,137.5,137.5,215,220,227.5,227.5,562.5,1,SBD
Mark Nowak,18,M,Raw,M_TR_3_AAPF,74.3,75,162.5,172.5,-182.5,172.5,100,-105,-110,100,167.5,182.5,200,200,472.5,2,SBD
Matthew Kuszynski,19,M,Raw,M_TR_3_AAPF,81.4,82.5,197.5,210,-217.5,210,127.5,137.5,,137.5,220,227.5,,227.5,575,1,SBD
Jose Ramirez,18,M,Raw,M_TR_3_APF,58,60,125,-137.5,-137.5,125,95,-102.5,-102.5,95,152.5,160,170,170,390,1,SBD
Alex Payne,19,M,Raw,M_TR_3_APF,80.6,82.5,150,155,-160,155,105,107.5,-112.5,107.5,170,185,195,195,457.5,1,SBD
Stihl Chalmers,16,M,Multi-ply,M_TEM_2_AAPF,66.4,67.5,-182.5,182.5,200,200,85,102.5,-112.5,102.5,170,187.5,195,195,497.5,1,SBD
Corey Greninger,17,M,Wraps,M_TCR_2_AAPF,80.8,82.5,167.5,175,185,185,117.5,122.5,-130,122.5,192.5,202.5,212.5,212.5,520,1,SBD
Noah DuBose,17,M,Wraps,M_TCR_2_AAPF,88.5,90,157.5,170,-177.5,170,92.5,100,107.5,107.5,177.5,185,-195,185,462.5,1,SBD
Joshua Anetekhai,17,M,Wraps,M_TCR_2_AAPF,109.5,110,230,242.5,257.5,257.5,147.5,155,160,160,200,215,-227.5,215,632.5,1,SBD
Corey Greninger,17,M,Wraps,M_TCR_2_APF,80.8,82.5,167.5,175,185,185,117.5,122.5,-130,122.5,192.5,202.5,212.5,212.5,520,1,SBD
Nathaneal Luckmann,16,M,Raw,M_TR_2_AAPF,72.6,75,135,155,-165,155,80,87.5,-95,87.5,-165,165,-172.5,165,407.5,1,SBD
Alec Sweeney,17,M,Raw,M_TR_2_AAPF,80.6,82.5,-177.5,192.5,205,205,145,157.5,-162.5,157.5,217.5,240,-252.5,240,602.5,1,SBD
Vinson May,16,M,Raw,M_TR_2_AAPF,79.5,82.5,137.5,157.5,165,165,102.5,115,-127.5,115,162.5,182.5,-205,182.5,462.5,2,SBD
Dallas Chiero Osborne,17,M,Raw,M_TR_2_AAPF,96.8,100,160,172.5,177.5,177.5,105,-110,115,115,167.5,175,187.5,187.5,480,1,SBD
Cole Chalmers,13,M,Multi-ply,M_TEM_1_AAPF,65.5,67.5,137.5,155,-165,155,75,85,-97.5,85,142.5,155,165,165,405,1,SBD
Jacob Fordham,15,M,Raw,M_TR_1_AAPF,66.5,67.5,115,122.5,-130,122.5,85,-90,-90,85,122.5,132.5,142.5,142.5,350,1,SBD
Michael McNulty,15,M,Raw,M_TR_1_AAPF,74,75,-170,-185,-185,,-80,90,100,100,170,185,-200,185,,DQ,SBD
Elijah Dertz,13,M,Raw,M_TR_1_AAPF,77.4,82.5,120,127.5,135,135,85,92.5,-100,92.5,137.5,142.5,145,145,372.5,1,SBD
Elijah Dertz,13,M,Raw,M_TR_1_APF,77.4,82.5,120,127.5,135,135,85,92.5,-100,92.5,137.5,142.5,145,145,372.5,1,SBD
Tony Noplos,71,M,Wraps,M_MCR_7_AAPF,66.1,67.5,120,130,137.5,137.5,97.5,102.5,-107.5,102.5,155,175,180,180,420,1,SBD
Tony Noplos,71,M,Raw,M_MR_7_AAPF,66.1,67.5,120,130,137.5,137.5,97.5,102.5,-107.5,102.5,155,175,180,180,420,1,SBD
Roger Haab,65,M,Raw,M_MR_6_AAPF,88,90,-130,140,147.5,147.5,80,87.5,-92.5,87.5,175,185,190,190,425,1,SBD
Don Kinnaman,59,M,Raw,M_MR_4_AAPF,88.4,90,107.5,120,-135,120,105,110,115,115,185,197.5,205,205,440,1,SBD
Vincent Stepchuk,50,M,Multi-ply,M_MEM_3_AAPF,88,90,272.5,-300,-300,272.5,-232.5,-232.5,-232.5,,-210,,,,,DQ,SBD
Angel Munoz,51,M,Multi-ply,M_MEM_3_APF,88.5,90,240,252.5,265,265,142.5,-150,-150,142.5,175,200,222.5,222.5,630,1,SBD
Dennis Liberti,46,M,Wraps,M_MCR_2_APF,88.8,90,227.5,240,250,250,167.5,172.5,-177.5,172.5,205,227.5,237.5,237.5,660,1,SBD
Dave Chastain,47,M,Wraps,M_MCR_2_APF,87.6,90,217.5,-230,232.5,232.5,120,125,-130,125,220,232.5,237.5,237.5,595,2,SBD
Dan Oberman,49,M,Raw,M_MR_2_AAPF,89.6,90,155,162.5,170,170,120,127.5,132.5,132.5,220,232.5,245,245,547.5,1,SBD
Dan Oberman,49,M,Raw,M_MR_2_APF,89.6,90,155,162.5,170,170,120,127.5,132.5,132.5,220,232.5,245,245,547.5,1,SBD
Michael Poort,41,M,Wraps,M_MCR_1_APF,88.5,90,255,265,277.5,277.5,150,160,-165,160,242.5,250,255,255,692.5,1,SBD
Chris Johnson,40,M,Raw,M_MR_1_APF,88.6,90,170,-175,-175,170,85,90,-95,90,175,185,195,195,455,1,SBD
William Beard,37,M,Wraps,M_SCR_AAPF,87.2,90,160,200,-222.5,200,-102.5,102.5,112.5,112.5,185,202.5,227.5,227.5,540,1,SBD
Adam Munaretto,37,M,Wraps,M_SCR_APF,89,90,272.5,295,320,320,182.5,195,-197.5,195,227.5,257.5,275,275,790,1,SBD
Mike Krieger,35,M,Wraps,M_SCR_APF,89.4,90,155,-167.5,167.5,167.5,155,162.5,-170,162.5,197.5,212.5,-230,212.5,542.5,2,SBD
Don Tinumbang,34,M,Raw,M_SR_AAPF,72.9,75,152.5,157.5,162.5,162.5,105,-110,110,110,215,-225,-225,215,487.5,1,SBD
David Hernandez,35,M,Raw,M_SR_AAPF,81.4,82.5,142.5,152.5,157.5,157.5,127.5,135,140,140,165,177.5,-185,177.5,475,1,SBD
Stephan Wang,,M,Raw,M_SR_AAPF,79.6,82.5,135,-142.5,-142.5,135,82.5,87.5,-92.5,87.5,165,175,-182.5,175,397.5,2,SBD
Igor Melnick,33,M,Raw,M_SR_AAPF,77.7,82.5,110,117.5,122.5,122.5,-82.5,97.5,-107.5,97.5,155,165,-175,165,385,3,SBD
Rolando Perez,35,M,Raw,M_SR_AAPF,79.8,82.5,130,137.5,142.5,142.5,-107.5,-110,-110,,177.5,185,190,190,,DQ,SBD
Jason Bienko,33,M,Raw,M_SR_AAPF,83.7,90,155,162.5,-167.5,162.5,-107.5,-107.5,107.5,107.5,215,220,227.5,227.5,497.5,1,SBD
Aaron King,38,M,Raw,M_SR_AAPF,83.5,90,140,150,160,160,102.5,107.5,112.5,112.5,200,210,-217.5,210,482.5,2,SBD
Aaron King,,M,Raw,M_SR_APF,83.5,90,140,150,160,160,102.5,107.5,112.5,112.5,200,210,-217.5,210,482.5,1,SBD
Louis Ruiz,39,M,Raw,M_SR_APF,88.8,90,142.5,147.5,-157.5,147.5,127.5,-137.5,-137.5,127.5,187.5,-205,-205,187.5,462.5,2,SBD
Eric Stone,33,M,Multi-ply,M_OEM_AAPF,74.7,75,272.5,-295,-295,272.5,160,182.5,-190,182.5,215,-245,245,245,700,1,SBD
Seaver Mattison,28,M,Multi-ply,M_OEM_AAPF,80.8,82.5,-320,320,,320,100,187.5,-200,187.5,190,217.5,232.5,232.5,740,1,SBD
Thomas Krawiec,33,M,Multi-ply,M_OEM_APF,81.8,82.5,365,390,-410,390,272.5,-282.5,-282.5,272.5,272.5,282.5,-292.5,282.5,945,1,SBD
John Ponzetti,51,M,Multi-ply,M_OEM_APF,88.2,90,265,277.5,287.5,287.5,165,170,172.5,172.5,220,240,245,245,705,1,SBD
Tom McNeill,,M,Wraps,M_OCR_AAPF,81.9,82.5,232.5,247.5,255,255,147.5,157.5,-162.5,157.5,260,-275,275,275,687.5,1,SBD
Darius Wallace,25,M,Wraps,M_OCR_AAPF,80.6,82.5,205,220,227.5,227.5,142.5,150,-155,150,247.5,265,275,275,652.5,2,SBD
Patrick Kelly,25,M,Wraps,M_OCR_AAPF,80,82.5,205,220,227.5,227.5,137.5,142.5,-147.5,142.5,-212.5,212.5,227.5,227.5,597.5,3,SBD
Brandon Smitle,,M,Wraps,M_OCR_APF,66.4,67.5,100,,,100,50,,,50,100,,,100,250,1,SBD
Brian Porciuncula,,M,Wraps,M_OCR_APF,70.5,75,167.5,180,187.5,187.5,110,120,-137.5,120,-212.5,-232.5,240,240,547.5,1,SBD
William Swann,24,M,Wraps,M_OCR_APF,81.3,82.5,220,232.5,237.5,237.5,155,160,-165,160,250,267.5,275,275,672.5,1,SBD
Ryan DiPompeo,27,M,Wraps,M_OCR_APF,81.2,82.5,220,-235,235,235,140,147.5,-150,147.5,257.5,265,272.5,272.5,655,2,SBD
Patrick Kelly,25,M,Wraps,M_OCR_APF,80,82.5,205,220,227.5,227.5,137.5,142.5,-147.5,142.5,-212.5,212.5,227.5,227.5,597.5,3,SBD
Karon Sharma,22,M,Wraps,M_OCR_APF,79.8,82.5,177.5,185,192.5,192.5,120,125,-130,125,215,225,230,230,547.5,4,SBD
Lucas Ivanic,24,M,Wraps,M_OCR_APF,76.8,82.5,180,190,200,200,107.5,112.5,117.5,117.5,207.5,222.5,-227.5,222.5,540,5,SBD
Andrew Chastain,20,M,Wraps,M_OCR_APF,89.7,90,285,305,-320,305,152.5,162.5,-165,162.5,247.5,265,277.5,277.5,745,1,SBD
Pablo Garcia Flores,31,M,Wraps,M_OCR_APF,86.3,90,192.5,207.5,215,215,142.5,155,162.5,162.5,197.5,217.5,-232.5,217.5,595,2,SBD
Carriek Herron,28,M,Wraps,M_OCR_APF,87.4,90,175,-182.5,182.5,182.5,125,135,-137.5,135,185,200,207.5,207.5,525,3,SBD
Sean Tomac,25,M,Raw,M_OR_AAPF,55.1,56,115,125,-137.5,125,90,-97.5,-97.5,90,145,150,155,155,370,1,SBD
Don Tinumbang,34,M,Raw,M_OR_AAPF,72.9,75,152.5,157.5,162.5,162.5,105,-110,110,110,215,-225,-225,215,487.5,1,SBD
David Mielcarek,25,M,Raw,M_OR_AAPF,72.3,75,140,145,150,150,87.5,-92.5,92.5,92.5,135,147.5,160,160,402.5,2,SBD
Shuangyard Zhang,,M,Raw,M_OR_AAPF,73.4,75,140,147.5,-157.5,147.5,87.5,95,-102.5,95,132.5,147.5,-157.5,147.5,390,3,SBD
Alex Carranza,25,M,Raw,M_OR_AAPF,72.9,75,165,175,-185,175,-115,-115,-115,,200,210,220,220,,DQ,SBD
Joe Torres,32,M,Raw,M_OR_AAPF,81.3,82.5,170,182.5,195,195,135,142.5,-152.5,142.5,230,242.5,-247.5,242.5,580,1,SBD
Ryan Carter,26,M,Raw,M_OR_AAPF,81.7,82.5,167.5,175,182.5,182.5,-117.5,117.5,120,120,212.5,-220,-220,212.5,515,2,SBD
Joshua Alanis,28,M,Raw,M_OR_AAPF,79,82.5,130,-150,150,150,100,110,-117.5,110,150,182.5,195,195,455,3,SBD
Stephan Wang,35,M,Raw,M_OR_AAPF,79.6,82.5,135,-142.5,-142.5,135,82.5,87.5,-92.5,87.5,165,175,-182.5,175,397.5,4,SBD
Rolando Perez,35,M,Raw,M_OR_AAPF,79.8,82.5,130,137.5,142.5,142.5,-107.5,-110,-110,,177.5,185,190,190,,DQ,SBD
Grant McCaulley,35,M,Raw,M_OR_AAPF,89.3,90,217.5,227.5,232.5,232.5,145,150,155,155,252.5,-267.5,267.5,267.5,655,1,SBD
Darin Decker,28,M,Raw,M_OR_AAPF,88.9,90,210,217.5,-227.5,217.5,142.5,-147.5,147.5,147.5,250,260,,260,625,2,SBD
Sean Tomac,25,M,Raw,M_OR_APF,55.1,56,115,125,-137.5,125,90,-97.5,-97.5,90,145,150,155,155,370,1,SBD
Matthew Bailey,31,M,Raw,M_OR_APF,82,82.5,185,190,200,200,122.5,130,132.5,132.5,215,227.5,235,235,567.5,1,SBD
Joseph Musick,26,M,Raw,M_OR_APF,82.5,82.5,165,177.5,190,190,135,-145,-145,135,210,227.5,-240,227.5,552.5,2,SBD
Joshua Alanis,28,M,Raw,M_OR_APF,79,82.5,130,-150,150,150,100,110,-117.5,110,150,182.5,195,195,455,3,SBD
Grant McCaulley,35,M,Raw,M_OR_APF,89.3,90,217.5,227.5,232.5,232.5,145,150,155,155,252.5,-267.5,267.5,267.5,655,1,SBD
Guillermo Blanco,25,M,Raw,M_OR_APF,88,90,220,235,247.5,247.5,152.5,-162.5,-162.5,152.5,222.5,235,-242.5,235,635,2,SBD
Bernie Ferro,61,M,Multi-ply,M_MEM_5_APF,94.6,100,-230,230,262.5,262.5,145,157.5,-167.5,157.5,220,227.5,240,240,660,1,SBD
Terry Davis,59,M,Multi-ply,M_MEM_4_AAPF,121.2,125,340,365,385,385,-227.5,-227.5,227.5,227.5,250,-272.5,272.5,272.5,885,1,SBD
Terry Davis,59,M,Multi-ply,M_MEM_4_APF,121.2,125,340,365,385,385,-227.5,-227.5,227.5,227.5,250,-272.5,272.5,272.5,885,1,SBD
Mike Goldman,55,M,Multi-ply,M_MEM_4_APF,116.6,125,280,-295,-320,280,142.5,152.5,160,160,235,250,-265,250,690,2,SBD
John Carrano,58,M,Wraps,M_MCR_4_APF,106.1,110,150,162.5,175,175,137.5,145,-155,145,167.5,182.5,197.5,197.5,517.5,1,SBD
Mark Chellino,54,M,Multi-ply,M_MEM_3_APF,107.4,110,-235,235,250,250,187.5,197.5,202.5,202.5,187.5,192.5,197.5,197.5,650,1,SBD
Scott Edmiston,53,M,Wraps,M_MCR_3_APF,131.5,140,250,272.5,282.5,282.5,160,-175,-175,160,250,272.5,,272.5,715,1,SBD
Richard Candelora,45,M,Wraps,M_MCR_2_APF,108.6,110,-192.5,192.5,210,210,157.5,165,172.5,172.5,192.5,207.5,217.5,217.5,600,1,SBD
Frank Gaudio,42,M,Wraps,M_MCR_1_APF,123,125,155,-162.5,-165,155,147.5,-150,-150,147.5,205,210,215,215,517.5,1,SBD
Mike Turner,43,M,Raw,M_MR_1_AAPF,110,110,175,182.5,-190,182.5,122.5,130,-142.5,130,220,227.5,-232.5,227.5,540,1,SBD
Mike Turner,43,M,Raw,M_MR_1_APF,110,110,175,182.5,-190,182.5,122.5,130,-142.5,130,220,227.5,-232.5,227.5,540,1,SBD
Ovidio Lopez,37,M,Wraps,M_SCR_APF,96.4,100,227.5,237.5,250,250,142.5,155,-160,155,65,,,65,470,1,SBD
Byron Hicks,38,M,Wraps,M_SCR_APF,121.8,125,,,,,,,,,,,,,,DQ,SBD
Chris Johnson,33,M,Wraps,M_SCR_APF,136.3,140,227.5,240,252.5,252.5,167.5,-175,-175,167.5,217.5,227.5,-240,227.5,647.5,1,SBD
Sean Bauman,34,M,Raw,M_SR_AAPF,97.7,100,-175,-175,175,175,147.5,155,-160,155,182.5,187.5,192.5,192.5,522.5,1,SBD
Benjamin Herreid,33,M,Raw,M_SR_AAPF,99.3,100,147.5,170,192.5,192.5,85,90,97.5,97.5,187.5,210,230,230,520,2,SBD
Lucas Sassolinno,,M,Raw,M_SR_AAPF,93.8,100,145,157.5,165,165,112.5,-117.5,117.5,117.5,137.5,147.5,160,160,442.5,3,SBD
Sean Bauman,34,M,Raw,M_SR_APF,97.7,100,-175,-175,175,175,147.5,155,-160,155,182.5,187.5,192.5,192.5,522.5,1,SBD
Samuel Merrill,24,M,Multi-ply,M_OEM_AAPF,94.7,100,235,255,-260,255,115,-120,152.5,152.5,-175,182.5,192.5,192.5,600,1,SBD
Robert Cerkoshe,,M,Multi-ply,M_OEM_AAPF,119.4,125,272.5,295,317.5,317.5,192.5,207.5,-217.5,207.5,270,282.5,-292.5,282.5,807.5,1,SBD
Greg Denny,,M,Multi-ply,M_OEM_APF,109.5,110,365,382.5,400,400,142.5,250,257.5,257.5,237.5,252.5,-262.5,252.5,910,1,SBD
Joe Trent,32,M,Multi-ply,M_OEM_APF,109,110,332.5,347.5,355,355,200,-210,210,210,265,275,282.5,282.5,847.5,2,SBD
Ben Goyette,33,M,Multi-ply,M_OEM_APF,108.6,110,337.5,-347.5,,337.5,-210,-215,-215,,,,,,,DQ,SBD
Mike Sanchez,24,M,Multi-ply,M_OEM_APF,115.1,125,285,-305,317.5,317.5,205,215,-227.5,215,240,255,-260,255,787.5,1,SBD
Josh Carpenter,28,M,Wraps,M_OCR_AAPF,92.4,100,225,-235,240,240,142.5,150,-157.5,150,215,227.5,-230,227.5,617.5,1,SBD
Brian Simmerman,31,M,Wraps,M_OCR_AAPF,96.9,100,175,182.5,190,190,120,122.5,-125,122.5,250,-262.5,-262.5,250,562.5,2,SBD
Michael Scheitler,32,M,Wraps,M_OCR_AAPF,122.6,125,225,242.5,,242.5,135,147.5,160,160,242.5,260,280,280,682.5,1,SBD
Russell DiNaro,30,M,Wraps,M_OCR_AAPF,115.4,125,195,210,-240,210,147.5,170,-182.5,170,240,252.5,-272.5,252.5,632.5,2,SBD
Jacob Senlow,18,M,Wraps,M_OCR_APF,97.3,100,275,290,-297.5,290,142.5,155,-160,155,290,310,-330,310,755,1,SBD
Thaddeus Majka,29,M,Wraps,M_OCR_APF,98.9,100,230,245,257.5,257.5,165,175,-182.5,175,272.5,290,-297.5,290,722.5,2,SBD
Brian Irmiter,27,M,Wraps,M_OCR_APF,100,100,220,237.5,,237.5,172.5,182.5,-190,182.5,225,242.5,-265,242.5,662.5,3,SBD
Alexander Acosta,28,M,Wraps,M_OCR_APF,98.3,100,220,-230,-230,220,155,160,-165,160,265,272.5,280,280,660,4,SBD
Cody Tormoehlen,24,M,Wraps,M_OCR_APF,96,100,200,215,227.5,227.5,130,137.5,145,145,215,227.5,-240,227.5,600,5,SBD
Matt Mattoon,31,M,Wraps,M_OCR_APF,109.1,110,-265,265,277.5,277.5,180,195,205,205,227.5,250,267.5,267.5,750,1,SBD
Christopher Danner,29,M,Wraps,M_OCR_APF,107.8,110,210,-235,235,235,165,175,182.5,182.5,247.5,272.5,280,280,697.5,2,SBD
Christian Mayen,24,M,Wraps,M_OCR_APF,107.3,110,255,-272.5,272.5,272.5,160,-165,-165,160,242.5,-260,-260,242.5,675,3,SBD
Julian Batula,24,M,Wraps,M_OCR_APF,107.9,110,200,217.5,227.5,227.5,165,-175,-175,165,250,265,280,280,672.5,4,SBD
Tim Welch,30,M,Wraps,M_OCR_APF,104.4,110,237.5,-260,,237.5,140,150,-155,150,267.5,280,-287.5,280,667.5,5,SBD
David Keilman,32,M,Wraps,M_OCR_APF,124.5,125,287.5,310,335,335,165,177.5,185,185,250,277.5,282.5,282.5,802.5,1,SBD
Dan Scott,36,M,Wraps,M_OCR_APF,119.4,125,275,287.5,300,300,182.5,-200,200,200,250,275,-282.5,275,775,2,SBD
Chris Graf,23,M,Wraps,M_OCR_APF,121.5,125,250,275,287.5,287.5,150,160,165,165,235,247.5,262.5,262.5,715,3,SBD
Joe Niehaus,35,M,Wraps,M_OCR_APF,118,125,230,245,260,260,170,192.5,,192.5,240,250,260,260,712.5,4,SBD
Michael Scheitler,32,M,Wraps,M_OCR_APF,122.6,125,225,242.5,,242.5,135,147.5,160,160,242.5,260,280,280,682.5,5,SBD
Russell DiNaro,30,M,Wraps,M_OCR_APF,115.4,125,195,210,-240,210,147.5,170,-182.5,170,240,252.5,-272.5,252.5,632.5,6,SBD
Jon Jursich,29,M,Wraps,M_OCR_APF,125,125,272.5,-292.5,-292.5,272.5,185,197.5,-205,197.5,-240,,,,,DQ,SBD
Scott Edmiston,53,M,Wraps,M_OCR_APF,131.5,140,250,272.5,282.5,282.5,160,-175,-175,160,250,272.5,,272.5,715,1,SBD
Vince Tindal,34,M,Wraps,M_OCR_APF,137.8,140,250,-272.5,-272.5,250,195,207.5,-220,207.5,240,257.5,-262.5,257.5,715,2,SBD
Kevin Agbulos,28,M,Raw,M_OR_AAPF,98.7,100,240,247.5,-255,247.5,-140,140,-145,140,240,247.5,-255,247.5,635,1,SBD
Aniekan Akpaniniye,27,M,Raw,M_OR_AAPF,94.8,100,175,182.5,-187.5,182.5,122.5,-127.5,-127.5,122.5,250,265,272.5,272.5,577.5,2,SBD
Bryan Lizza,29,M,Raw,M_OR_AAPF,99,100,147.5,155,-160,155,115,120,125,125,185,192.5,-200,192.5,472.5,3,SBD
Lucas Sassolinno,,M,Raw,M_OR_AAPF,93.8,100,145,157.5,165,165,112.5,-117.5,117.5,117.5,137.5,147.5,160,160,442.5,4,SBD
Jeffrey Calderone,25,M,Raw,M_OR_AAPF,108.2,110,210,217.5,227.5,227.5,127.5,-140,-140,127.5,247.5,262.5,272.5,272.5,627.5,1,SBD
Chris Szorc,29,M,Raw,M_OR_AAPF,104.2,110,182.5,210,220,220,140,157.5,-160,157.5,220,240,,240,617.5,2,SBD
Patrick Callahan,30,M,Raw,M_OR_AAPF,107.5,110,217.5,225,-230,225,125,130,-135,130,212.5,220,227.5,227.5,582.5,3,SBD
Kevin Agbulos,28,M,Raw,M_OR_APF,98.7,100,240,247.5,-255,247.5,-140,140,-145,140,240,247.5,-255,247.5,635,1,SBD
Cody Schoppe,29,M,Raw,M_OR_APF,99,100,125,132.5,145,145,112.5,117.5,125,125,175,190,197.5,197.5,467.5,2,SBD
Patrick Callahan,30,M,Raw,M_OR_APF,107.5,110,217.5,225,-230,225,125,130,-135,130,212.5,220,227.5,227.5,582.5,1,SBD
Bill Lee,31,M,Raw,M_OR_APF,151.8,140+,252.5,275,290,290,182.5,192.5,-200,192.5,305,322.5,-347.5,322.5,805,1,SBD
