Division,WeightClassKg,Place,Name,Team,BodyweightKg,Best3SquatKg,Best3BenchKg,Best3DeadliftKg,TotalKg,Equipment,Event,Sex
Boys,51.71,1,Tyler Ratanamonghala,Madisonville,50.12,111.13,52.16,120.2,283.5,Single-ply,SBD,M
Boys,55.79,1,Joseph Herrera,Navasota,53.3,131.54,74.84,131.54,337.93,Single-ply,SBD,M
Boys,55.79,2,Jalleen Pickett,Madisonville,55.57,129.27,65.77,138.35,333.39,Single-ply,SBD,M
Boys,55.79,3,Kyle Ramsey,Navasota,55.34,127.01,68.04,131.54,326.59,Single-ply,SBD,M
Boys,67.13,1,Ismael Castillo,Madisonville,60.1,156.49,92.99,147.42,396.89,Single-ply,SBD,M
Boys,59.87,2,Dalton Clark,Normangee,59.87,124.74,79.38,158.76,362.87,Single-ply,SBD,M
Boys,59.87,3,Nick Harris,Madisonville,57.15,127.01,81.65,151.95,360.61,Single-ply,SBD,M
Boys,74.84,1,Franteric Powell,Navasota,67.36,192.78,106.59,185.97,485.34,Single-ply,SBD,M
Boys,67.13,2,Darius Mallard,Navasota,61.01,156.49,92.99,197.31,446.79,Single-ply,SBD,M
Boys,67.13,3,Vester Fulmer,Buffalo,67.13,167.83,83.91,170.1,421.84,Single-ply,SBD,M
Boys,67.13,4,Ryne Moore,Oakwood,60.78,142.88,72.57,145.15,360.61,Single-ply,SBD,M
Boys,74.84,5,Mason Allen,Buffalo,67.36,129.27,83.91,147.42,360.61,Single-ply,SBD,M
Boys,67.13,DQ,Will Barnett,Oakwood,62.14,61.23,,117.93,,Single-ply,SBD,M
Boys,74.84,1,Jesus Lopez,Buffalo,70.53,158.76,97.52,181.44,437.72,Single-ply,SBD,M
Boys,74.84,2,Frankie DeLeon,Navasota,72.12,167.83,97.52,167.83,433.18,Single-ply,SBD,M
Boys,74.84,3,LaMarcus Newsome,Oakwood,73.48,136.08,83.91,158.76,378.75,Single-ply,SBD,M
Boys,74.84,4,Ty Bryson,Buffalo,73.94,140.61,92.99,136.08,369.68,Single-ply,SBD,M
Boys,74.84,5,Luis Gallaga,Willis,73.48,131.54,79.38,142.88,353.8,Single-ply,SBD,M
Boys,74.84,6,Trey Penrod,Willis,73.03,106.59,70.31,120.2,297.1,Single-ply,SBD,M
Boys,82.1,DQ,Roy Kuykendall,Oakwood,75.07,68.04,,,,Single-ply,SBD,M
Boys,74.84,DQ,Mason Ferguson,Willis,68.95,97.52,,,,Single-ply,SBD,M
Boys,82.1,1,Jose Dominguez,Buffalo,81.19,249.48,149.69,249.48,648.64,Single-ply,SBD,M
Boys,82.1,2,Christian Brummett,Oakwood,79.83,172.37,97.52,181.44,451.32,Single-ply,SBD,M
Boys,82.1,3,Cesar Lopez,Buffalo,77.11,163.29,88.45,158.76,410.5,Single-ply,SBD,M
Boys,82.1,4,Cameron Litchfield,Oakwood,80.29,140.61,86.18,142.88,369.68,Single-ply,SBD,M
Boys,82.1,5,Maurice Emanuel,Oakwood,81.65,108.86,83.91,136.08,328.85,Single-ply,SBD,M
Boys,89.81,1,Howard Horn,Navasota,88,195.04,145.15,235.87,576.06,Single-ply,SBD,M
Boys,89.81,2,Desmond Calhoun,Navasota,89.13,195.04,117.93,242.67,555.65,Single-ply,SBD,M
Boys,89.81,3,Louis Collins,Oakwood,83.46,181.44,140.61,190.51,512.56,Single-ply,SBD,M
Boys,89.81,4,Thomas Nicholson,Oakwood,88,140.61,74.84,136.08,351.53,Single-ply,SBD,M
Boys,99.79,1,Etheridge Brooks,Madisonville,99.79,229.06,151.95,224.53,605.55,Single-ply,SBD,M
Boys,109.77,2,Jaylin Minor,Navasota,100.02,226.8,136.08,229.06,591.94,Single-ply,SBD,M
Boys,99.79,3,Julio Camarena,Madisonville,99.34,195.04,120.2,199.58,514.83,Single-ply,SBD,M
Boys,99.79,4,Keyshawn Blackshear,Navasota,95.25,192.78,117.93,190.51,501.22,Single-ply,SBD,M
Boys,99.79,5,David Bastardo,Madisonville,91.17,170.1,111.13,183.7,464.93,Single-ply,SBD,M
Boys,99.79,6,Collin Hayman,Willis,92.99,149.69,111.13,149.69,410.5,Single-ply,SBD,M
Boys,109.77,1,Jorge Rosas,Madisonville,107.05,226.8,129.27,226.8,582.87,Single-ply,SBD,M
Boys,109.77,2,Dalton Gilbert,Madisonville,102.97,172.37,113.4,190.51,476.27,Single-ply,SBD,M
Boys,109.77,3,Cameron Brummett,Oakwood,109.32,106.59,72.57,102.06,281.23,Single-ply,SBD,M
Boys,124.74,1,Joe Ogrodowicz,Willis,116.57,226.8,117.93,206.38,551.11,Single-ply,SBD,M
Boys,124.74,2,Jacob DeBorde,Buffalo,115.67,213.19,106.59,195.04,514.83,Single-ply,SBD,M
Boys,124.74+,1,Jordan Wells,Navasota,129.27,258.55,172.37,272.16,703.07,Single-ply,SBD,M
Boys,124.74+,2,Casey Cress,Willis,128.82,170.1,97.52,165.56,433.18,Single-ply,SBD,M
Boys,124.74+,DQ,Ronald Brown,Navasota,142.88,,,,,Single-ply,SBD,M
