Place,Name,Sex,Event,Division,Equipment,BirthYear,State,WeightClassKg,BodyweightKg,Squat1Kg,Squat2Kg,Squat3Kg,Best3SquatKg,Bench1Kg,Bench2Kg,Bench3Kg,Best3BenchKg,Deadlift1Kg,Deadlift2Kg,Deadlift3Kg,Best3DeadliftKg,TotalKg
1,Desiree Cremers,F,B,FR-M1a,Raw,1977,MN,63,62.65,,,,,72.5,77.5,80,80,,,,,80
1,Lynn Keller,F,B,FR-M1b,Raw,1972,MN,57,53.7,,,,,50,52.5,-55,52.5,,,,,52.5
2,Sue Burns,F,B,FR-M1b,Raw,1970,MN,63,62.75,,,,,45,50,52.5,52.5,,,,,52.5
1,Patricia Huhn,F,B,FR-M2a,Raw,1964,MN,84,72.45,,,,,62.5,65,-67.5,65,,,,,65
2,Midge Anderson,F,B,FR-M2a,Raw,1967,MN,63,62.85,,,,,40,45,47.5,47.5,,,,,47.5
1,Brenda Knutson,F,B,FR-M2b,Raw,1960,MN,84+,113.35,,,,,35,-40,45,45,,,,,45
1,Larry Most,M,B,MR-M1a,Raw,1978,MN,120,119.2,,,,,-152.5,152.5,-157.5,152.5,,,,,152.5
1,Douglas Miller,M,B,MR-M2a,Raw,1968,MN,105,94.7,,,,,162.5,172.5,-182.5,172.5,,,,,172.5
1,Jeffrey Chamberlin,M,B,MR-M2b,Raw,1962,MN,120+,122.4,,,,,145,-152.5,-152.5,145,,,,,145
1,Jodi Funk,F,SBD,F-M1b,Single-ply,1973,MN,57,55.85,112.5,130,140,140,82.5,87.5,90,90,127.5,142.5,145,145,375
1,Kristy Cannon,F,SBD,FR-M1a,Raw,1978,MN,72,68.7,110,122.5,-130,122.5,65,70,-72.5,70,135,142.5,147.5,147.5,340
2,Tanya Snell,F,SBD,FR-M1a,Raw,1974,WI,84+,89.65,117.5,127.5,137.5,137.5,70,77.5,-82.5,77.5,147.5,157.5,165,165,380
3,Elizabeth Carpenter,F,SBD,FR-M1a,Raw,1974,MN,84+,130.65,107.5,-110,-115,107.5,77.5,80,-82.5,80,150,160,167.5,167.5,355
4,Karla Pankow,F,SBD,FR-M1a,Raw,1976,MN,84+,113.4,107.5,110,115,115,65,70,-72.5,70,140,150,160,160,345
5,Amy Thimmesh,F,SBD,FR-M1a,Raw,1978,MN,84,82.25,90,102.5,115,115,47.5,55,-60,55,115,125,137.5,137.5,307.5
1,Lois Mahlberg,F,SBD,FR-M1b,Raw,1969,MN,72,64.75,105,110,-112.5,110,65,70,72.5,72.5,117.5,125,135,135,317.5
2,Michelle Modrijan,F,SBD,FR-M1b,Raw,1971,MN,57,56.05,95,100,-102.5,100,55,57.5,-60,57.5,105,110,112.5,112.5,270
3,Janna Rider,F,SBD,FR-M1b,Raw,1972,MN,84+,92.35,-112.5,112.5,115,115,60,65,67.5,67.5,160,172.5,177.5,177.5,360
4,Joanne Jones,F,SBD,FR-M1b,Raw,1969,MN,63,62.8,92.5,-102.5,105,105,42.5,47.5,50,50,102.5,107.5,112.5,112.5,267.5
5,Angela Josephs,F,SBD,FR-M1b,Raw,1972,MN,63,62.95,80,85,-90,85,52.5,57.5,-60,57.5,102.5,110,115,115,257.5
6,Traci Slane,F,SBD,FR-M1b,Raw,1969,MN,84+,98.05,95,102.5,107.5,107.5,57.5,62.5,-67.5,62.5,130,142.5,152.5,152.5,322.5
1,Tammy Lauer,F,SBD,FR-M2a,Raw,1964,MN,72,66.75,65,75,82.5,82.5,67.5,72.5,75,75,90,95,102.5,102.5,260
2,Whitney Hanson,F,SBD,FR-M2a,Raw,1965,MN,57,56.05,65,72.5,80,80,32.5,37.5,-42.5,37.5,82.5,-90,97.5,97.5,215
1,Linda White,F,SBD,FR-M3b,Raw,1953,IA,63,58.05,45,52.5,57.5,57.5,37.5,45,-52.5,45,50,60,-65,60,162.5
1,Terry Wells,M,SBD,M-M1b,Single-ply,1970,WI,120,109.05,212.5,227.5,,227.5,167.5,177.5,180,180,277.5,297.5,-302.5,297.5,705
1,Gary Grahn,M,SBD,M-M3a,Single-ply,1955,MN,93,92.65,165,175,185,185,122.5,130,-135,130,165,180,190,190,505
1,Bart Dahl,M,SBD,MR-M1a,Raw,1977,WI,120+,139.45,215,232.5,-247.5,232.5,142.5,152.5,162.5,162.5,240,257.5,-267.5,257.5,652.5
2,Todd Hale,M,SBD,MR-M1a,Raw,1975,MN,120,118.8,175,187.5,200,200,137.5,150,155,155,205,227.5,240,240,595
3,Jeremy Bauer,M,SBD,MR-M1a,Raw,1974,MN,120,115.4,175,180,185,185,102.5,107.5,110,110,195,205,212.5,212.5,507.5
1,Norman Alston,M,SBD,MR-M1b,Raw,1971,MN,105,94.7,195,-200,202.5,202.5,147.5,152.5,-157.5,152.5,240,252.5,-257.5,252.5,607.5
2,Keith Emerson,M,SBD,MR-M1b,Raw,1970,MN,93,90.65,157.5,165,172.5,172.5,115,125,132.5,132.5,205,215,-227.5,215,520
3,Joseph Lovely,M,SBD,MR-M1b,Raw,1969,MN,105,103.65,157.5,170,-177.5,170,-90,95,-97.5,95,205,215,222.5,222.5,487.5
1,Mike Burns,M,SBD,MR-M2a,Raw,1966,MN,93,91.9,172.5,185,190,190,170,177.5,182.5,182.5,207.5,227.5,235,235,607.5
2,Matthew Smith #6,M,SBD,MR-M2a,Raw,1964,MN,105,102.6,207.5,217.5,227.5,227.5,137.5,150,157.5,157.5,207.5,227.5,242.5,242.5,627.5
3,Troy Anderson,M,SBD,MR-M2a,Raw,1968,MN,120+,136.8,230,250,265,265,150,160,165,165,200,205,222.5,222.5,652.5
4,John Doiron,M,SBD,MR-M2a,Raw,1965,MN,105,97.8,97.5,110,122.5,122.5,72.5,80,-85,80,145,157.5,-182.5,157.5,360
1,Steve Harstad,M,SBD,MR-M2b,Raw,1963,MN,83,82.55,145,150,155,155,97.5,102.5,-105,102.5,192.5,202.5,210,210,467.5
2,Marc Hagberg,M,SBD,MR-M2b,Raw,1959,MN,93,86.5,162.5,170,177.5,177.5,97.5,102.5,-107.5,102.5,170,177.5,185,185,465
3,Don Modlin,M,SBD,MR-M2b,Raw,1963,IA,105,93.15,180,-182.5,,180,110,115,-120,115,160,170,180,180,475
4,Roger Rineck,M,SBD,MR-M2b,Raw,1960,MN,83,80.25,130,140,152.5,152.5,92.5,102.5,-105,102.5,145,155,175,175,430
5,Pat Beaumaster,M,SBD,MR-M2b,Raw,1962,MN,83,80.55,145,,,145,120,127.5,132.5,132.5,145,,,145,422.5
1,Robert Lawson,M,SBD,MR-M3a,Raw,1957,WI,93,89.65,167.5,-175,177.5,177.5,100,107.5,-110,107.5,215,222.5,227.5,227.5,512.5
2,Jon Govin,M,SBD,MR-M3a,Raw,1956,MN,105,98.6,157.5,170,182.5,182.5,82.5,92.5,-97.5,92.5,175,190,200,200,475
3,David Ross,M,SBD,MR-M3a,Raw,1956,MN,120+,123.6,137.5,152.5,-160,152.5,137.5,152.5,-160,152.5,162.5,192.5,200,200,505
1,Michael Jamison,M,SBD,MR-M3b,Raw,1952,MN,93,87.6,60,62.5,65,65,60,62.5,65,65,105,107.5,110,110,240
1,DL Diltz,M,SBD,MR-M4a,Raw,1948,MN,105,101.7,125,145,150,150,110,120,-122.5,120,185,200,-212.5,200,470
2,Ed Krall,M,SBD,MR-M4a,Raw,1946,WI,93,83.1,135,145,-147.5,145,90,95,97.5,97.5,165,175,182.5,182.5,425
3,Sid Reid,M,SBD,MR-M4a,Raw,1948,MN,83,80.65,122.5,130,-132.5,130,67.5,70,72.5,72.5,152.5,-157.5,157.5,157.5,360
4,John Milnes,M,SBD,MR-M4a,Raw,1947,MN,105,102.3,115,127.5,137.5,137.5,60,67.5,82.5,82.5,145,167.5,182.5,182.5,402.5
5,John Bonner III,M,SBD,MR-M4a,Raw,1945,MN,93,92.6,75,-80,90,90,70,-77.5,-77.5,70,152.5,160,165,165,325
