Division,WeightClassKg,Place,Name,Team,BodyweightKg,Best3SquatKg,Best3BenchKg,Best3DeadliftKg,TotalKg,Equipment,Event,Sex
Boys,51.71,1,Cody Strokos,New Caney,51.03,129.27,70.31,154.22,353.8,Single-ply,SBD,M
Boys,55.79,2,Grayson Danner,Conroe The Woodlands,51.8,138.35,79.38,136.08,353.8,Single-ply,SBD,M
Boys,51.71,3,Carlos Salazar,Manvel,51.35,120.2,68.04,149.69,337.93,Single-ply,SBD,M
Boys,51.71,4,Eddie Taylor,La Porte,51.53,122.47,72.57,136.08,331.12,Single-ply,SBD,M
Boys,51.71,5,Jonathon Cardenas,Freeport Brazosport,51.39,115.67,72.57,136.08,324.32,Single-ply,SBD,M
Boys,51.71,6,Jacory Bellnamy,Houston Madison,51.3,140.61,54.43,117.93,312.98,Single-ply,SBD,M
Boys,51.71,7,Crisoforo Ayala,Pasadena Rayburn,49.58,106.59,65.77,127.01,299.37,Single-ply,SBD,M
Boys,51.71,8,Alex Holland,Conroe The Woodlands,51.53,102.06,58.97,129.27,290.3,Single-ply,SBD,M
Boys,55.79,9,Cade Logan,Magnolia West,51.85,95.25,65.77,113.4,274.42,Single-ply,SBD,M
Boys,51.71,DQ,Paul Bass,Katy Mayde Creek,51.17,,,,,Single-ply,SBD,M
Boys,51.71,DQ,Herquin Chable,Channelview,51.71,,,,,Single-ply,SBD,M
Boys,55.79,1,Trey Marrero,Alvin,54.61,163.29,102.06,158.76,424.11,Single-ply,SBD,M
Boys,55.79,2,Cameron Guillen,Clute Brazoswood,55.79,158.76,88.45,161.03,408.23,Single-ply,SBD,M
Boys,59.87,3,Cooper Houston,Montgomery,55.97,167.83,86.18,145.15,399.16,Single-ply,SBD,M
Boys,55.79,4,Gavin Webster,Conroe The Woodlands,55.79,145.15,86.18,165.56,396.89,Single-ply,SBD,M
Boys,55.79,5,Blake Gamez,La Porte,54.2,147.42,88.45,156.49,392.36,Single-ply,SBD,M
Boys,55.79,6,Taylor Riley,La Porte,54.98,140.61,86.18,154.22,381.02,Single-ply,SBD,M
Boys,55.79,7,Eric Flores,Katy Mayde Creek,55.7,140.61,77.11,163.29,381.02,Single-ply,SBD,M
Boys,55.79,8,Melvin Quitugua,Vidor,52.12,136.08,97.52,145.15,378.75,Single-ply,SBD,M
Boys,55.79,9,Dominic Monsivaiz,Dickinson,55.47,142.88,86.18,149.69,378.75,Single-ply,SBD,M
Boys,55.79,10,Chein Phan,Dickinson,55.29,149.69,65.77,142.88,358.34,Single-ply,SBD,M
Boys,59.87,1,Grayson Brown,Conroe The Woodlands,59.69,215.46,104.33,188.24,508.02,Single-ply,SBD,M
Boys,59.87,2,Donovan Lee,Katy Mayde Creek,59.69,165.56,99.79,199.58,464.93,Single-ply,SBD,M
Boys,59.87,3,Cecilio Hernandez,Dickinson,59.56,165.56,108.86,174.63,449.06,Single-ply,SBD,M
Boys,59.87,4,Juan Ochoa,CROSBY,57.7,170.1,95.25,174.63,439.98,Single-ply,SBD,M
Boys,59.87,5,Brandon Coon,Conroe Caney Creek,59.83,181.44,86.18,165.56,433.18,Single-ply,SBD,M
Boys,59.87,6,Brandon Martinez,Dickinson,59.65,167.83,83.91,165.56,417.3,Single-ply,SBD,M
Boys,67.13,7,Kevin Lozano,Bay City,59.92,158.76,97.52,156.49,412.77,Single-ply,SBD,M
Boys,59.87,8,Cody Tunning,Montgomery,58.6,163.29,97.52,147.42,408.23,Single-ply,SBD,M
Boys,59.87,DQ,Jakob Rios,Clute Brazoswood,59.28,,,,,Single-ply,SBD,M
Boys,59.87,DQ,Daniel Segura,Magnolia,59.87,,,,,Single-ply,SBD,M
Boys,67.13,1,Tyler Marcel,Conroe Oak Ridge,66.27,206.38,145.15,222.26,573.79,Single-ply,SBD,M
Boys,67.13,2,Alec DeLeon,Dickinson,65,217.72,127.01,206.38,551.11,Single-ply,SBD,M
Boys,67.13,3,Garrett Shantz,Montgomery,64.27,215.46,115.67,213.19,544.31,Single-ply,SBD,M
Boys,67.13,4,Zach Massey,Vidor,67.09,199.58,145.15,199.58,544.31,Single-ply,SBD,M
Boys,67.13,5,Patrick Dorn,Vidor,66.09,199.58,115.67,192.78,508.02,Single-ply,SBD,M
Boys,67.13,6,Lane Cappel,Nederland,66.13,188.24,102.06,192.78,483.08,Single-ply,SBD,M
Boys,67.13,7,Zachary Mutchler,Manvel,63.09,170.1,136.08,172.37,478.54,Single-ply,SBD,M
Boys,67.13,8,Ricardo Barragan,Alvin,66.45,174.63,113.4,185.97,474,Single-ply,SBD,M
Boys,74.84,9,Eric Stanfield,Livingston,67.27,208.65,92.99,165.56,467.2,Single-ply,SBD,M
Boys,67.13,DQ,Dallan Sneed,Livingston,67.13,,,,,Single-ply,SBD,M
Boys,74.84,1,Calvin Laskey,Katy Mayde Creek,72.67,226.8,140.61,238.14,605.55,Single-ply,SBD,M
Boys,74.84,2,Christian Quitugua,Vidor,73.21,213.19,127.01,226.8,566.99,Single-ply,SBD,M
Boys,74.84,3,Raine Spafford,Pearland,74.53,206.38,145.15,210.92,562.45,Single-ply,SBD,M
Boys,74.84,4,Trey Vaughans,Dickinson,73.39,215.46,142.88,201.85,560.19,Single-ply,SBD,M
Boys,74.84,5,Ian Stoute,Lumberton,73.3,213.19,131.54,213.19,557.92,Single-ply,SBD,M
Boys,74.84,6,Da'Shaun Smith,Bay City,73.94,226.8,120.2,210.92,557.92,Single-ply,SBD,M
Boys,74.84,7,Rodney Kinchen,Port Arthur Memorial,74.07,215.46,117.93,208.65,542.04,Single-ply,SBD,M
Boys,74.84,8,Jordin Pastorella,Nederland,74.75,201.85,131.54,206.38,539.77,Single-ply,SBD,M
Boys,74.84,9,Samuel Fisher,Bay City,70.72,192.78,127.01,206.38,526.17,Single-ply,SBD,M
Boys,74.84,10,Daniel Douglas,Dayton,74.34,183.7,127.01,213.19,523.9,Single-ply,SBD,M
Boys,74.84,DQ,Tahj Edwards,Freeport Brazosport,74.84,,,,,Single-ply,SBD,M
Boys,82.1,1,Vernon Allen,CROSBY,80.65,272.16,136.08,224.53,632.76,Single-ply,SBD,M
Boys,82.1,2,Thomas Bridges,Dickinson,79.33,226.8,163.29,222.26,612.35,Single-ply,SBD,M
Boys,82.1,3,Travis Anderson,CROSBY,80.74,233.6,145.15,233.6,612.35,Single-ply,SBD,M
Boys,82.1,4,John Saenz,Clute Brazoswood,80.6,251.74,138.35,215.46,605.55,Single-ply,SBD,M
Boys,82.1,5,Jonathan Voltaire,Conroe Oak Ridge,79.33,219.99,131.54,242.67,594.21,Single-ply,SBD,M
Boys,82.1,6,Brandon McBride,Dayton,80.65,247.21,124.74,217.72,589.67,Single-ply,SBD,M
Boys,82.1,7,Colton Wetustki,Montgomery,77.2,244.94,113.4,208.65,566.99,Single-ply,SBD,M
Boys,82.1,8,Terrence Giles,Alvin,78.88,206.38,140.61,210.92,557.92,Single-ply,SBD,M
Boys,82.1,DQ,Randolph Onyiejegha,Beaumont West Brook,79.15,219.99,113.4,,,Single-ply,SBD,M
Boys,82.1,DQ,Austin McKean,Conroe Caney Creek,81.19,210.92,133.81,,,Single-ply,SBD,M
Boys,89.81,1,Troy Angelo,Orange Little Cypress-Mauriceville,88.27,278.96,154.22,272.16,705.34,Single-ply,SBD,M
Boys,89.81,2,George Stephenson,Conroe Oak Ridge,88.04,278.96,158.76,244.94,682.66,Single-ply,SBD,M
Boys,89.81,3,Zach Griffin,Beaumont Central,88.86,242.67,156.49,254.01,653.17,Single-ply,SBD,M
Boys,89.81,4,Chris Sherrill,Bay City,87.59,265.35,158.76,226.8,650.91,Single-ply,SBD,M
Boys,89.81,5,Carlos García,Alvin,83.73,229.06,147.42,226.8,603.28,Single-ply,SBD,M
Boys,89.81,6,Jalen Hurts,Channelview,84.41,226.8,117.93,226.8,571.53,Single-ply,SBD,M
Boys,89.81,7,Josh Van-Sant,Waller,85.73,226.8,127.01,217.72,571.53,Single-ply,SBD,M
Boys,89.81,8,Dante Woods,Willis,88.36,226.8,122.47,219.99,569.26,Single-ply,SBD,M
Boys,89.81,9,Eric Hembling,Clute Brazoswood,85.87,208.65,122.47,226.8,557.92,Single-ply,SBD,M
Boys,89.81,10,Jordan Daigle,Beaumont Ozen,85.59,181.44,122.47,233.6,537.51,Single-ply,SBD,M
Boys,89.81,DQ,Blake Wright,CROSBY,87.23,235.87,136.08,,,Single-ply,SBD,M
Boys,99.79,1,Mitchell Fountain,Conroe The Woodlands,98.34,335.66,183.7,317.51,836.88,Single-ply,SBD,M
Boys,99.79,2,Chase Nix,CROSBY,97.84,285.76,185.97,272.16,743.89,Single-ply,SBD,M
Boys,99.79,3,Dustin Hoeffler,New Caney Porter,96.62,272.16,154.22,249.48,675.85,Single-ply,SBD,M
Boys,99.79,4,Tyler Ray,Magnolia West,97.34,251.74,181.44,226.8,659.98,Single-ply,SBD,M
Boys,99.79,5,Jason Paul,Conroe Woodlands College Park,93.85,285.76,149.69,222.26,657.71,Single-ply,SBD,M
Boys,99.79,6,Francios Bonilla,Texas City,99.16,254.01,158.76,244.94,657.71,Single-ply,SBD,M
Boys,99.79,7,JR Rodriguez,Bay City,99.65,285.76,147.42,224.53,657.71,Single-ply,SBD,M
Boys,99.79,8,Stevan Gonzalvez,Clute Brazoswood,95.89,276.69,142.88,208.65,628.23,Single-ply,SBD,M
Boys,99.79,9,Ignacio Salinas,Conroe,98.75,242.67,149.69,217.72,610.08,Single-ply,SBD,M
Boys,99.79,DQ,Corcy Green,Freeport Brazosport,99.79,,,,,Single-ply,SBD,M
Boys,109.77,1,Kaylond North,Dickinson,104.87,297.1,170.1,276.69,743.89,Single-ply,SBD,M
Boys,109.77,2,Anietie Etuk,Dickinson,105.14,267.62,147.42,265.35,680.39,Single-ply,SBD,M
Boys,109.77,3,Nestor Mendez,Freeport Brazosport,106.28,251.74,165.56,249.48,666.78,Single-ply,SBD,M
Boys,109.77,4,Jimmy LaFata,Clute Brazoswood,108.59,272.16,158.76,215.46,646.37,Single-ply,SBD,M
Boys,109.77,5,Ronnie Fraser,Pearland,105.01,247.21,158.76,226.8,632.76,Single-ply,SBD,M
Boys,109.77,6,Dillon Anderson,Katy Mayde Creek,107.5,226.8,167.83,226.8,621.42,Single-ply,SBD,M
Boys,109.77,7,Tyler McDaniel,Vidor,101.65,233.6,154.22,229.06,616.89,Single-ply,SBD,M
Boys,109.77,8,Malcolm Pringle,Houston Westbury,104.01,226.8,145.15,240.4,612.35,Single-ply,SBD,M
Boys,109.77,9,Tyler Moran,Port Neches-Groves,108.23,242.67,172.37,183.7,598.74,Single-ply,SBD,M
Boys,109.77,DQ,Bryan Herrera,Pearland,108.23,256.28,136.08,,,Single-ply,SBD,M
Boys,124.74,1,Josh Opiela,CROSBY,121.79,328.85,174.63,240.4,743.89,Single-ply,SBD,M
Boys,124.74,2,Will Demmings,Conroe,121.97,297.1,165.56,247.21,709.87,Single-ply,SBD,M
Boys,124.74,3,Jacobey Callahan,New Caney Porter,115.94,272.16,158.76,272.16,703.07,Single-ply,SBD,M
Boys,124.74,4,Ernesto Reales,Dickinson,118.84,285.76,163.29,226.8,675.85,Single-ply,SBD,M
Boys,124.74,5,Nathaniel Flores,Pasadena Dobie,112.54,260.82,179.17,226.8,666.78,Single-ply,SBD,M
Boys,124.74,6,Christian Blueitt,Beaumont West Brook,112.08,249.48,163.29,249.48,662.24,Single-ply,SBD,M
Boys,124.74,7,Jose Guevara,Magnolia West,118.84,254.01,167.83,235.87,657.71,Single-ply,SBD,M
Boys,124.74,8,Javier Vega,Pasadena Rayburn,122.52,272.16,140.61,242.67,655.44,Single-ply,SBD,M
Boys,124.74,9,Denaus Ferguson,La Porte,120.75,249.48,170.1,226.8,646.37,Single-ply,SBD,M
Boys,124.74,10,Korey Robinson,Texas City,114.99,242.67,158.76,233.6,635.03,Single-ply,SBD,M
Boys,124.74,DQ,Chris Gomez,Freeport Brazosport,115.48,274.42,165.56,217.72,,Single-ply,SBD,M
Boys,124.74+,1,William Simpson,Houston Madison,148.78,317.51,215.46,249.48,782.45,Single-ply,SBD,M
Boys,124.74+,2,Alonzo Crittendon,Dickinson,140.02,362.87,145.15,256.28,764.3,Single-ply,SBD,M
Boys,124.74+,3,Chance Harmanson,Dickinson,133.45,306.17,165.56,265.35,737.09,Single-ply,SBD,M
Boys,124.74+,4,Andrew Blueitt,Beaumont West Brook,159.44,283.5,181.44,272.16,737.09,Single-ply,SBD,M
Boys,124.74+,5,Chris Mangini,Port Neches-Groves,129.64,294.84,192.78,238.14,725.75,Single-ply,SBD,M
Boys,124.74+,6,Darin Slater,Dickinson,150.05,285.76,149.69,242.67,678.12,Single-ply,SBD,M
Boys,124.74+,7,Skyler Scott,Vidor,132.13,249.48,165.56,249.48,664.51,Single-ply,SBD,M
Boys,124.74+,8,Michael Cisneros,Lumberton,141.11,260.82,136.08,231.33,628.23,Single-ply,SBD,M
Boys,124.74+,9,Alex Pina,Clute Brazoswood,125.51,260.82,161.03,204.12,625.96,Single-ply,SBD,M
Boys,124.74+,10,Cameron Duhon,Freeport Brazosport,155.9,244.94,122.47,249.48,616.89,Single-ply,SBD,M
Boys,124.74+,DQ,Osiel Cerna,Magnolia,136.08,,,,,Single-ply,SBD,M
