Place,Sex,Name,CyrillicName,BodyweightKg,Squat1Kg,Squat2Kg,Squat3Kg,Best3SquatKg,Squat4Kg,Bench1Kg,Bench2Kg,Bench3Kg,Best3BenchKg,Bench4Kg,Deadlift1Kg,Deadlift2Kg,Deadlift3Kg,Best3DeadliftKg,Deadlift4Kg,TotalKg,WeightClassKg,Event,Equipment,Tested,Division,Age,BirthDate
1,F,Lyubov Soldatova,Любовь Солдатова,58.5,80,-85,85,85,,45,47.5,-50,47.5,,-100,100,105,105,,237.5,60,SBD,Wraps,Yes,Amateur Open,27,1991-04-29
1,M,Dmitriy Kostin,Дмитрий Костин,87.1,140,150,-160,150,,110,115,-120,115,,-160,160,170,170,,435,90,SBD,Wraps,Yes,Amateur Open,30,1988-01-27
1,F,Ekaterina Varivtseva,Екатерина Варивцева,59.1,,,,,,47.5,50,52.5,52.5,,,,,,,52.5,60,B,Raw,Yes,Amateur Open,33,1985-11-17
1,M,Aleksey Arkhipov,Алексей Архипов,59.2,,,,,,105,112.5,-115,112.5,,,,,,,112.5,60,B,Raw,Yes,Amateur Masters 40-49,44,1974-01-19
1,M,Leonid Zagudaev,Леонид Загудаев,66.5,,,,,,75,80,85,85,,,,,,,85,67.5,B,Raw,Yes,Amateur Teen 14-16,16,2002-07-19
1,M,Igor Kuchin,Игорь Кучин,68.3,,,,,,142.5,147.5,152.5,152.5,,,,,,,152.5,75,B,Raw,Yes,Amateur Open,51,1967-06-11
2,M,Vladimir Alekseev,Владимир Алексеев,70,,,,,,97.5,-102.5,-102.5,97.5,,,,,,,97.5,75,B,Raw,Yes,Amateur Open,31,1987-07-24
1,M,Mikhail Bondarenko,Михаил Бондаренко,78.6,,,,,,-62.5,62.5,65,65,,,,,,,65,82.5,B,Raw,Yes,Amateur Teen 14-16,12,2006-01-03
1,M,Evgeniy Repin,Евгений Репин,79,,,,,,127.5,132.5,-135,132.5,,,,,,,132.5,82.5,B,Raw,Yes,Amateur Open,35,1983-07-29
2,M,Dmitriy Antonenko,Дмитрий Антоненко,82,,,,,,-100,100,-120,100,,,,,,,100,82.5,B,Raw,Yes,Amateur Open,26,1992-05-31
1,M,Evgeniy Goglidze,Евгений Гоглидзе,86.3,,,,,,95,100,110,110,,,,,,,110,90,B,Raw,Yes,Amateur Teen 17-19,19,1999-08-08
1,M,Pavel Karpukhin,Павел Карпухин,88.9,,,,,,165,170,175,175,,,,,,,175,90,B,Raw,Yes,Amateur Open,31,1987-10-16
2,M,Andrey Korobov,Андрей Коробов,89.3,,,,,,82.5,87.5,-92.5,87.5,,,,,,,87.5,90,B,Raw,Yes,Amateur Open,32,1985-12-15
1,M,Sergey Balyakin,Сергей Балякин,99,,,,,,125,140,145,145,,,,,,,145,100,B,Raw,Yes,Amateur Teen 17-19,17,2001-04-03
1,M,German Plotnikov,Герман Плотников,97.6,,,,,,175,180,-185,180,,,,,,,180,100,B,Raw,Yes,Amateur Open,42,1976-05-08
2,M,Aleksandr Chadaev,Александр Чадаев,94.1,,,,,,145,-150,-150,145,,,,,,,145,100,B,Raw,Yes,Amateur Open,28,1989-11-18
1,M,German Plotnikov,Герман Плотников,97.6,,,,,,175,180,-185,180,,,,,,,180,100,B,Raw,Yes,Amateur Masters 40-49,42,1976-05-08
1,M,Vladimir Adamov,Владимир Адамов,107.9,,,,,,175,-185,-190,175,,,,,,,175,110,B,Raw,Yes,Amateur Open,32,1986-04-25
1,M,Sergey Gorshunov,Сергей Горшунов,108.4,,,,,,147.5,-155,155,155,,,,,,,155,110,B,Raw,Yes,Amateur Masters 40-49,42,1976-05-26
1,M,Egor Trifonov,Егор Трифонов,113.4,,,,,,170,-177.5,-177.5,170,,,,,,,170,125,B,Raw,Yes,Amateur Open,36,1982-07-29
1,M,Aleksandr Koptelinin,Александр Коптелинин,133.4,,,,,,-160,172.5,182.5,182.5,,,,,,,182.5,140,B,Raw,Yes,Amateur Open,25,1993-02-18
1,F,Anna Smirnova,Анна Смирнова,63.9,,,,,,55,57.5,-60,57.5,,,,,,,57.5,67.5,B,Raw,No,Pro Open,35,1983-08-30
1,F,Marina Cherneva,Марина Чернева,72.8,,,,,,65,70,75,75,,,,,,,75,75,B,Raw,No,Pro Masters 40-49,48,1970-09-27
1,M,Vladimir Skripachev,Владимир Скрипачев,66.9,,,,,,117.5,122.5,-127.5,122.5,,,,,,,122.5,67.5,B,Raw,No,Pro Open,24,1994-02-03
1,M,Rafael Garifullov,Рафаэль Гарифуллов,70.2,,,,,,100,117.5,120,120,,,,,,,120,75,B,Raw,No,Pro Juniors,23,1995-01-03
1,M,Pavel Panfilov,Павел Панфилов,76.5,,,,,,95,102.5,107.5,107.5,,,,,,,107.5,82.5,B,Raw,No,Pro Teen 17-19,17,2001-07-29
1,M,Rafail Zaripov,Рафаиль Зарипов,89.1,,,,,,117.5,125,132.5,132.5,,,,,,,132.5,90,B,Raw,No,Pro Teen 17-19,17,2001-04-16
1,M,Aleksey Kutukov,Алексей Кутуков,98.7,,,,,,170,175,-180,175,,,,,,,175,100,B,Raw,No,Pro Open,36,1982-08-01
1,M,Yuriy Demyanchuk,Юрий Демьянчук,126.7,,,,,,170,-185,-190,170,,,,,,,170,140,B,Raw,No,Pro Masters 40-49,40,1978-10-03
1,M,Pavel Karpukhin,Павел Карпухин,88.9,,,,,,235,247.5,-250,247.5,,,,,,,247.5,90,B,Multi-ply,Yes,Amateur Open,31,1987-10-16
1,M,Aleksandr Chadaev,Александр Чадаев,94.1,,,,,,215,-220,222.5,222.5,,,,,,,222.5,100,B,Multi-ply,Yes,Amateur Open,28,1989-11-18
1,M,Mikhail Zotkin,Михаил Зоткин,108.8,,,,,,215,225,-230,225,,,,,,,225,110,B,Multi-ply,Yes,Amateur Open,33,1985-02-14
1,F,Marina Cherneva,Марина Чернева,72.8,,,,,,85,90,95,95,,,,,,,95,75,B,Multi-ply,No,Pro Masters 40-49,48,1970-09-27
1,M,Artem Salekhov,Артем Салехов,101.6,,,,,,200,210,215,215,,,,,,,215,110,B,Multi-ply,No,Pro Open,28,1990-02-21
1,M,Mikhail Zotkin,Михаил Зоткин,108.8,,,,,,-240,240,-245,240,,,,,,,240,110,B,Multi-ply,Yes,Amateur Open,33,1985-02-14
1,F,Lyubov Soldatova,Любовь Солдатова,58.5,,,,,,,,,,,-100,100,105,105,,105,60,D,Raw,Yes,Amateur Open,27,1991-04-29
1,M,Yuriy Demyanchuk,Юрий Демьянчук,126.7,,,,,,,,,,,280,,,280,,280,140,D,Raw,No,Pro Masters 40-49,40,1978-10-03
