Division,WeightClassKg,Place,Name,Team,BodyweightKg,Best3SquatKg,Best3BenchKg,Best3DeadliftKg,TotalKg,Equipment,Event,Sex
Boys,51.71,1,Trevor Dykema,Crandall,49.53,106.59,49.9,108.86,265.35,Single-ply,SBD,M
Boys,55.79,1,Daniel Hernandez,Royse City,55.61,142.88,74.84,147.42,365.14,Single-ply,SBD,M
Boys,59.87,2,Zack Poindexter,Rockwall,55.97,127.01,81.65,136.08,344.73,Single-ply,SBD,M
Boys,55.79,3,Houston Patterson,Justin Northwest,53.89,111.13,63.5,120.2,294.84,Single-ply,SBD,M
Boys,55.79,4,Ashton Griffin,Lindale,52.71,90.72,68.04,117.93,276.69,Single-ply,SBD,M
Boys,59.87,1,Travis Watson,Crandall,59.33,185.97,102.06,192.78,480.81,Single-ply,SBD,M
Boys,59.87,2,Robert Landers,Royse City,57.7,154.22,90.72,165.56,410.5,Single-ply,SBD,M
Boys,59.87,3,Joseph Gable,Van,58.69,163.29,86.18,161.03,410.5,Single-ply,SBD,M
Boys,67.13,4,James Bickham,Forney,60.06,142.88,72.57,147.42,362.87,Single-ply,SBD,M
Boys,59.87,5,Marcelino Montano,Wills Point,59.6,122.47,88.45,131.54,342.46,Single-ply,SBD,M
Boys,67.13,6,Dylan Easter,Rockwall,60.06,122.47,72.57,131.54,326.59,Single-ply,SBD,M
Boys,59.87,7,Russ Garetson,Forney,59.15,108.86,68.04,117.93,294.84,Single-ply,SBD,M
Boys,67.13,1,Casey Obenshain,Justin Northwest,66.41,165.56,95.25,181.44,442.25,Single-ply,SBD,M
Boys,67.13,2,Tim Bailey,Lindale,65.05,165.56,102.06,172.37,439.98,Single-ply,SBD,M
Boys,67.13,3,Jonny Sorey,Forney,64.41,163.29,86.18,174.63,424.11,Single-ply,SBD,M
Boys,67.13,4,Christian Atkinson,Canton,64.41,167.83,83.91,165.56,417.3,Single-ply,SBD,M
Boys,74.84,5,Jacob Blunt,Crandall,67.22,136.08,97.52,158.76,392.36,Single-ply,SBD,M
Boys,67.13,6,Chris Doyle,Royse City,61.05,129.27,86.18,149.69,365.14,Single-ply,SBD,M
Boys,67.13,7,Anthony Offord,Crandall,60.96,140.61,63.5,149.69,353.8,Single-ply,SBD,M
Boys,67.13,DQ,Zak Kellums,Forney,66.5,140.61,,,,Single-ply,SBD,M
Boys,74.84,DQ,Ernesto Franco,Royse City,67.31,176.9,,,,Single-ply,SBD,M
Boys,67.13,DQ,Devin DeLeon,Sunnyvale,65.32,127.01,,,,Single-ply,SBD,M
Boys,67.13,DQ,Caleb Williams,Sunnyvale,63.05,145.15,,,,Single-ply,SBD,M
Boys,74.84,1,Colton Roelofs,Justin Northwest,74.66,208.65,127.01,204.12,539.77,Single-ply,SBD,M
Boys,74.84,2,Ben Bittle,Rockwall,73.12,195.04,117.93,192.78,505.76,Single-ply,SBD,M
Boys,74.84,3,Clay Price,Lindale,73.39,197.31,95.25,192.78,485.34,Single-ply,SBD,M
Boys,74.84,4,Alec Lafoon,Justin Northwest,72.03,181.44,88.45,181.44,451.32,Single-ply,SBD,M
Boys,74.84,5,Sloan Walls,North Forney,69.13,151.95,108.86,154.22,415.04,Single-ply,SBD,M
Boys,74.84,6,Daniel Lopez,Canton,70.85,151.95,97.52,161.03,410.5,Single-ply,SBD,M
Boys,74.84,7,Reece Sumner,Canton,71.67,165.56,86.18,158.76,410.5,Single-ply,SBD,M
Boys,74.84,8,Brennan Sooter,Justin Northwest,71.58,154.22,83.91,167.83,405.97,Single-ply,SBD,M
Boys,74.84,9,Jake Hulsman,Wills Point,74.39,131.54,92.99,179.17,403.7,Single-ply,SBD,M
Boys,74.84,10,Clay Barnes,Sunnyvale,71.58,142.88,86.18,163.29,392.36,Single-ply,SBD,M
Boys,74.84,11,Aaron Bocook,Wills Point,71.76,145.15,86.18,154.22,385.55,Single-ply,SBD,M
Boys,74.84,12,Dylan Horn,Canton,71.03,131.54,99.79,145.15,376.48,Single-ply,SBD,M
Boys,74.84,13,Bryan Tucker,Wills Point,72.03,149.69,90.72,136.08,376.48,Single-ply,SBD,M
Boys,74.84,14,Dustin Ashley,Canton,74.21,136.08,88.45,149.69,374.21,Single-ply,SBD,M
Boys,74.84,DQ,Colin Jones,Forney,70.22,,,,,Single-ply,SBD,M
Boys,74.84,DQ,Dillion Collard,Crandall,71.94,156.49,92.99,,,Single-ply,SBD,M
Boys,74.84,DQ,Garrett Fikes,Rockwall,74.03,158.76,108.86,,,Single-ply,SBD,M
Boys,74.84,DQ,Will Moss,Sunnyvale,68.49,142.88,88.45,,,Single-ply,SBD,M
Boys,82.1,1,Kolton Barber,Crandall,79.74,222.26,147.42,204.12,573.79,Single-ply,SBD,M
Boys,82.1,2,Terronce Johnson,Lindale,80.83,190.51,122.47,226.8,539.77,Single-ply,SBD,M
Boys,89.81,3,Cameron Langer,Justin Northwest,82.28,176.9,124.74,204.12,505.76,Single-ply,SBD,M
Boys,82.1,4,Joseph Frye,Royse City,81.56,176.9,117.93,195.04,489.88,Single-ply,SBD,M
Boys,82.1,5,Corey Fuller,Van,80.92,174.63,117.93,174.63,467.2,Single-ply,SBD,M
Boys,82.1,6,Lapone Finley,North Forney,77.47,176.9,83.91,192.78,453.59,Single-ply,SBD,M
Boys,82.1,7,Drew Douphrate,Rockwall,80.65,170.1,92.99,151.95,415.04,Single-ply,SBD,M
Boys,82.1,8,Jarod Hague,Canton,77.93,161.03,86.18,156.49,403.7,Single-ply,SBD,M
Boys,82.1,9,Oscar Ramirez,Royse City,78.11,165.56,83.91,151.95,401.43,Single-ply,SBD,M
Boys,82.1,10,Hayden Long,Sunnyvale,79.83,145.15,79.38,158.76,383.29,Single-ply,SBD,M
Boys,82.1,11,Beau Hughes,North Forney,80.1,136.08,68.04,142.88,347,Single-ply,SBD,M
Boys,82.1,12,Nathan Lewis,Wills Point,77.56,131.54,70.31,127.01,328.85,Single-ply,SBD,M
Boys,82.1,13,Courtney Miles,Crandall,77.2,181.44,,,181.44,Single-ply,S,M
Boys,82.1,14,Miguel Sepulveda,North Forney,79.47,158.76,,,158.76,Single-ply,S,M
Boys,89.81,1,Jeff Stevens,Justin Northwest,89.09,226.8,154.22,233.6,614.62,Single-ply,SBD,M
Boys,89.81,2,Matthew Cortez,Royse City,88.54,251.74,133.81,210.92,596.47,Single-ply,SBD,M
Boys,99.79,3,Giresse Forchu,North Forney,89.99,215.46,124.74,199.58,539.77,Single-ply,SBD,M
Boys,89.81,4,John Ryzman,Lindale,85.46,190.51,117.93,201.85,510.29,Single-ply,SBD,M
Boys,89.81,5,Chris Johnson,Wills Point,86.91,181.44,127.01,185.97,494.42,Single-ply,SBD,M
Boys,89.81,6,Colton Oliver,Forney,89.27,185.97,108.86,192.78,487.61,Single-ply,SBD,M
Boys,89.81,7,Anthony Hambric,Forney,85.91,185.97,108.86,172.37,467.2,Single-ply,SBD,M
Boys,89.81,8,John Foster,Sunnyvale,84.55,170.1,99.79,185.97,455.86,Single-ply,SBD,M
Boys,89.81,9,Austin Morgan,Sunnyvale,84.01,183.7,99.79,167.83,451.32,Single-ply,SBD,M
Boys,89.81,DQ,Rico Cortez,Crandall,89.81,181.44,124.74,,,Single-ply,SBD,M
Boys,99.79,DQ,Clayton Sullivent,Forney,89.9,147.42,,,,Single-ply,SBD,M
Boys,89.81,DQ,Crosby Shaver,Sunnyvale,83.55,149.69,,,,Single-ply,SBD,M
Boys,99.79,1,Keith Moore,Lindale,97.7,235.87,133.81,272.16,641.83,Single-ply,SBD,M
Boys,99.79,2,Jacob Merriman,Lindale,94.89,238.14,136.08,249.48,623.69,Single-ply,SBD,M
Boys,99.79,3,Cyle Henderson,Wills Point,98.97,226.8,136.08,219.99,582.87,Single-ply,SBD,M
Boys,109.77,4,Cameron Bradbury,Lindale,99.97,222.26,124.74,217.72,564.72,Single-ply,SBD,M
Boys,99.79,5,Shane King,Justin Northwest,97.25,226.8,104.33,226.8,557.92,Single-ply,SBD,M
Boys,99.79,6,Alex Anderson,Wills Point,96.25,215.46,131.54,204.12,551.11,Single-ply,SBD,M
Boys,109.77,7,Dillion Morrison,Crandall,99.88,213.19,154.22,179.17,546.58,Single-ply,SBD,M
Boys,99.79,8,Michael Ray,Justin Northwest,92.17,181.44,113.4,195.04,489.88,Single-ply,SBD,M
Boys,99.79,9,Truett Lewis,Wills Point,91.72,185.97,104.33,192.78,483.08,Single-ply,SBD,M
Boys,99.79,10,Brody Johnston,Royse City,95.53,188.24,111.13,183.7,483.08,Single-ply,SBD,M
Boys,99.79,11,Garrett York,Crandall,99.06,181.44,106.59,174.63,462.66,Single-ply,SBD,M
Boys,99.79,12,Ryan Bray,Rockwall,90.45,167.83,102.06,183.7,453.59,Single-ply,SBD,M
Boys,99.79,13,James Davis,Forney,96.43,183.7,74.84,174.63,433.18,Single-ply,SBD,M
Boys,99.79,14,Zach Fisher,Sunnyvale,94.53,158.76,83.91,154.22,396.89,Single-ply,SBD,M
Boys,99.79,15,Clay Hendon,Van,95.35,136.08,92.99,154.22,383.29,Single-ply,SBD,M
Boys,109.77,1,Jose Ramirez,Royse City,104.69,249.48,140.61,204.12,594.21,Single-ply,SBD,M
Boys,109.77,2,Damion Foster,Royse City,107.32,217.72,127.01,204.12,548.85,Single-ply,SBD,M
Boys,109.77,3,Dakota Norton,Justin Northwest,105.23,204.12,122.47,195.04,521.63,Single-ply,SBD,M
Boys,109.77,4,Steve Smith,North Forney,106.5,192.78,111.13,181.44,485.34,Single-ply,SBD,M
Boys,109.77,5,Nick McLean,Van,108.95,190.51,108.86,181.44,480.81,Single-ply,SBD,M
Boys,109.77,6,Scott Gaskill,Van,106.23,158.76,113.4,181.44,453.59,Single-ply,SBD,M
Boys,109.77,7,Jackson Bolin,Rockwall,104.51,163.29,111.13,158.76,433.18,Single-ply,SBD,M
Boys,109.77,DQ,Trey Coggins,North Forney,103.69,133.81,,,,Single-ply,SBD,M
Boys,109.77,DQ,Terrence Walker,North Forney,106.59,147.42,81.65,,,Single-ply,SBD,M
Boys,124.74,1,Jacob Alford,Lindale,122.02,317.51,161.03,226.8,705.34,Single-ply,SBD,M
Boys,124.74,2,Justin LaFrance,Wills Point,120.11,181.44,108.86,195.04,485.34,Single-ply,SBD,M
Boys,124.74+,1,Lewis Ray,Justin Northwest,143.88,258.55,120.2,235.87,614.62,Single-ply,SBD,M
Boys,124.74+,2,Sam Schomp,Lindale,130.82,242.67,136.08,219.99,598.74,Single-ply,SBD,M
Boys,124.74+,3,Chris Tanner,Rockwall,141.25,226.8,151.95,210.92,589.67,Single-ply,SBD,M
Boys,124.74+,4,Ryan Burgess,Lindale,161.12,258.55,117.93,208.65,585.13,Single-ply,SBD,M
Boys,124.74+,5,Seth Butler,Wills Point,134.99,219.99,113.4,195.04,528.44,Single-ply,SBD,M
Boys,124.74+,6,Gunner Hudson,North Forney,142.16,190.51,117.93,199.58,508.02,Single-ply,SBD,M
Boys,124.74+,DQ,Ezra Roberson,Forney,126.28,249.48,,,,Single-ply,SBD,M
