Division,WeightClassKg,Place,Name,Team,BodyweightKg,Best3SquatKg,Best3BenchKg,Best3DeadliftKg,TotalKg,Equipment,Event,Sex
Boys,51.71,1,Rafael Morales,Laredo Cigarroa,51.26,149.69,92.99,170.1,412.77,Single-ply,SBD,M
Boys,51.71,2,Diego Pena,Roma,51.03,149.69,83.91,163.29,396.89,Single-ply,SBD,M
Boys,51.71,3,Jerry Alaniz,Laredo Alexander,51.71,138.35,88.45,156.49,383.29,Single-ply,SBD,M
Boys,51.71,4,Martin Villarreal,Laredo United South,51.26,124.74,77.11,149.69,351.53,Single-ply,SBD,M
Boys,55.79,1,Enrique Alvarez,Laredo Cigarroa,54.88,197.31,106.59,170.1,474,Single-ply,SBD,M
Boys,55.79,2,Amado De La Fuente,Laredo United South,55.61,149.69,97.52,181.44,428.64,Single-ply,SBD,M
Boys,55.79,3,Micheal Saucedo,Laredo United,53.71,158.76,83.91,158.76,401.43,Single-ply,SBD,M
Boys,55.79,4,Edgar Barboza,Laredo Cigarroa,54.52,111.13,72.57,111.13,294.84,Single-ply,SBD,M
Boys,59.87,DQ,Alexis Flores,Laredo Alexander,55.88,158.76,92.99,,,Single-ply,SBD,M
Boys,55.79,DQ,Rudy Davila,Laredo United,55.7,,,,,Single-ply,SBD,M
Boys,59.87,1,John Bojanski,Laredo Alexander,59.06,192.78,92.99,195.04,480.81,Single-ply,SBD,M
Boys,59.87,2,Cesar Alfaro,Laredo United South,58.88,158.76,108.86,181.44,449.06,Single-ply,SBD,M
Boys,59.87,3,Juan Delgado,Roma,59.06,145.15,86.18,163.29,394.63,Single-ply,SBD,M
Boys,67.13,4,Jairo Morales,Laredo Cigarroa,59.96,142.88,72.57,176.9,392.36,Single-ply,SBD,M
Boys,67.13,5,Yoni Portillo,Laredo Nixon,59.96,136.08,70.31,145.15,351.53,Single-ply,SBD,M
Boys,59.87,6,Brandon Evans,Laredo United,57.79,113.4,92.99,142.88,349.27,Single-ply,SBD,M
Boys,59.87,7,Israel Granados,Laredo Nixon,56.52,120.2,65.77,136.08,322.05,Single-ply,SBD,M
Boys,59.87,8,Albert Estrada,Laredo Martin,59.42,113.4,81.65,113.4,308.44,Single-ply,SBD,M
Boys,59.87,DQ,Leo Ibarra,Laredo Johnson,56.25,,,,,Single-ply,SBD,M
Boys,67.13,DQ,Marcos Ortiz,Laredo Alexander,59.96,,,,,Single-ply,SBD,M
Boys,67.13,1,Ruben Salinas,Roma,66.68,231.33,131.54,210.92,573.79,Single-ply,SBD,M
Boys,67.13,2,Brian Lopez,Laredo United South,66.04,147.42,90.72,183.7,421.84,Single-ply,SBD,M
Boys,67.13,3,Jorge Silva,Laredo Nixon,64.41,149.69,79.38,170.1,399.16,Single-ply,SBD,M
Boys,67.13,4,Jose Carillo,Laredo Johnson,66.32,145.15,104.33,149.69,399.16,Single-ply,SBD,M
Boys,67.13,5,Ricky Gongora,Laredo Alexander,65.5,147.42,83.91,163.29,394.63,Single-ply,SBD,M
Boys,67.13,6,Jose Luis Vasquez,Laredo United,63.78,145.15,92.99,154.22,392.36,Single-ply,SBD,M
Boys,67.13,7,Mario Cantu,Laredo Cigarroa,61.51,147.42,81.65,158.76,387.82,Single-ply,SBD,M
Boys,67.13,8,John Beltran,Laredo United,66.32,129.27,88.45,163.29,381.02,Single-ply,SBD,M
Boys,74.84,1,Edgar Mendiola,Laredo Nixon,73.75,195.04,129.27,213.19,537.51,Single-ply,SBD,M
Boys,82.1,2,Edipio Escobedo,Laredo Cigarroa,75.02,208.65,117.93,174.63,501.22,Single-ply,SBD,M
Boys,74.84,3,Manuel Garcia,Laredo Cigarroa,72.21,183.7,92.99,197.31,474,Single-ply,SBD,M
Boys,74.84,4,Fermin Rendon,Laredo Nixon,70.67,156.49,95.25,192.78,444.52,Single-ply,SBD,M
Boys,74.84,5,Eloy Guerrero,Roma,70.13,156.49,81.65,163.29,401.43,Single-ply,SBD,M
Boys,74.84,6,Ricky Zavala,Laredo Martin,67.86,149.69,81.65,149.69,381.02,Single-ply,SBD,M
Boys,74.84,7,David Reyes,Laredo Martin,73.21,124.74,70.31,131.54,326.59,Single-ply,SBD,M
Boys,74.84,DQ,Carlos Ramirez,Laredo Alexander,72.48,181.44,127.01,,,Single-ply,SBD,M
Boys,82.1,1,Jose de la Rosa,Roma,80.74,229.06,124.74,222.26,576.06,Single-ply,SBD,M
Boys,82.1,2,Edgar Gonzalez,Roma,81.83,195.04,108.86,215.46,519.36,Single-ply,SBD,M
Boys,89.81,3,Jose Herrera,Laredo United,82.28,204.12,97.52,197.31,498.95,Single-ply,SBD,M
Boys,82.1,4,Alex Salinas,Laredo United,77.56,185.97,104.33,190.51,480.81,Single-ply,SBD,M
Boys,82.1,5,David Garza,Laredo Johnson,78.65,163.29,92.99,181.44,437.72,Single-ply,SBD,M
Boys,82.1,6,Arturo Delgado,Laredo United,76.84,156.49,90.72,181.44,428.64,Single-ply,SBD,M
Boys,82.1,7,JC Gutierrez,Laredo Johnson,76.84,147.42,90.72,154.22,392.36,Single-ply,SBD,M
Boys,82.1,8,Octavio Solorio,Laredo United,75.39,142.88,86.18,158.76,387.82,Single-ply,SBD,M
Boys,89.81,1,Richie Lopez,Laredo United South,89.36,240.4,145.15,249.48,635.03,Single-ply,SBD,M
Boys,89.81,2,Jerry Ayala,Laredo Johnson,85.18,201.85,120.2,210.92,532.97,Single-ply,SBD,M
Boys,89.81,3,Cliff Salinas,Roma,88.54,195.04,120.2,213.19,528.44,Single-ply,SBD,M
Boys,89.81,4,Cruz Garcia,Roma,87.27,204.12,131.54,183.7,519.36,Single-ply,SBD,M
Boys,89.81,5,Oscar Mohamed,Laredo United,84.46,190.51,102.06,176.9,469.47,Single-ply,SBD,M
Boys,89.81,6,Arman Khaledi,Laredo Alexander,85.82,181.44,106.59,179.17,467.2,Single-ply,SBD,M
Boys,89.81,7,Adrian Munoz,Laredo Martin,87.45,165.56,92.99,183.7,442.25,Single-ply,SBD,M
Boys,89.81,8,Josefath Dominguez,Laredo United,88.9,172.37,92.99,174.63,439.98,Single-ply,SBD,M
Boys,89.81,9,Joe Guevara,Laredo Martin,86.55,165.56,90.72,174.63,430.91,Single-ply,SBD,M
Boys,89.81,10,Andrew Walker,Laredo Johnson,83.73,108.86,102.06,158.76,369.68,Single-ply,SBD,M
Boys,99.79,1,Jose Coreas,Laredo Cigarroa,97.98,258.55,115.67,226.8,601.01,Single-ply,SBD,M
Boys,109.77,2,Erick Fernandez,Laredo Nixon,99.88,219.99,147.42,217.72,585.13,Single-ply,SBD,M
Boys,99.79,3,George Gonzalez,Laredo United South,97.52,226.8,124.74,231.33,582.87,Single-ply,SBD,M
Boys,99.79,4,Ricky Martinez,Laredo United,96.71,235.87,124.74,199.58,560.19,Single-ply,SBD,M
Boys,99.79,5,Jimmy Montalvo,Laredo United,94.08,170.1,106.59,190.51,467.2,Single-ply,SBD,M
Boys,99.79,6,Homar Ochoa,Roma,93.17,179.17,92.99,185.97,458.13,Single-ply,SBD,M
Boys,99.79,7,Oscar Nava,Roma,94.12,163.29,97.52,151.95,412.77,Single-ply,SBD,M
Boys,99.79,8,Jose Barberena,Laredo Nixon,92.44,79.38,58.97,254.01,392.36,Single-ply,SBD,M
Boys,99.79,DQ,Carlos Munoz,Laredo Nixon,93.44,,,,,Single-ply,SBD,M
Boys,109.77,1,Victor Martinez,Laredo Martin,108.5,258.55,138.35,229.06,625.96,Single-ply,SBD,M
Boys,109.77,2,Alonza Villarreal,Laredo Alexander,104.24,231.33,129.27,235.87,596.47,Single-ply,SBD,M
Boys,109.77,3,Frank Villarreal,Laredo Martin,108.5,226.8,115.67,199.58,542.04,Single-ply,SBD,M
Boys,109.77,4,Christian Rosas,Laredo Alexander,102.78,188.24,124.74,210.92,523.9,Single-ply,SBD,M
Boys,109.77,5,Justin Hernandez,Laredo Nixon,103.96,183.7,97.52,172.37,453.59,Single-ply,SBD,M
Boys,109.77,6,Isael Claudio,Laredo Cigarroa,108.23,167.83,92.99,176.9,437.72,Single-ply,SBD,M
Boys,109.77,7,Eddy Alvarez,Laredo Martin,106.32,174.63,90.72,167.83,433.18,Single-ply,SBD,M
Boys,109.77,DQ,Tony Saavedra,Laredo Johnson,101.15,,,,,Single-ply,SBD,M
Boys,124.74,1,Rogelio Camero,Laredo United South,110.22,226.8,127.01,208.65,562.45,Single-ply,SBD,M
Boys,124.74,2,Jaime Cardona,Laredo Nixon,112.22,238.14,115.67,204.12,557.92,Single-ply,SBD,M
Boys,124.74+,1,Eliud Aguero,Laredo Alexander,128.82,247.21,142.88,247.21,637.3,Single-ply,SBD,M
Boys,124.74+,2,Edward Garza,Laredo Johnson,146.24,251.74,127.01,195.04,573.79,Single-ply,SBD,M
Boys,124.74+,3,Rudy Martinez,Laredo Nixon,125.55,222.26,120.2,217.72,560.19,Single-ply,SBD,M
Boys,124.74+,4,JR Sandoval,Laredo United,140.25,247.21,90.72,197.31,535.24,Single-ply,SBD,M
Boys,124.74+,5,Jose Gonzalez,Roma,155.04,192.78,133.81,199.58,526.17,Single-ply,SBD,M
Boys,124.74+,6,Alexis Manrique,Laredo United,129.09,197.31,127.01,197.31,521.63,Single-ply,SBD,M
Boys,124.74+,7,Sammy Alarcon,Laredo Johnson,176.18,181.44,83.91,165.56,430.91,Single-ply,SBD,M
