Division,WeightClassKg,Place,Name,Team,BodyweightKg,Best3SquatKg,Best3BenchKg,Best3DeadliftKg,TotalKg,Equipment,Event,Sex
Boys,51.71,1,Talon Romero,Amarillo Highland Park,51.44,149.69,95.25,151.95,396.89,Single-ply,SBD,M
Boys,51.71,2,Joseph Jenkins,Perryton,51.35,102.06,65.77,111.13,278.96,Single-ply,SBD,M
Boys,51.71,3,Andrew Luna,Perryton,47.9,104.33,45.36,102.06,251.74,Single-ply,SBD,M
Boys,51.71,4,Collier Bell,White Deer,51.26,72.57,36.29,104.33,213.19,Single-ply,SBD,M
Boys,51.71,5,Preston Mann,Amarillo Highland Park,50.08,70.31,52.16,86.18,208.65,Single-ply,SBD,M
Boys,55.79,1,Ignacio Romero,Plainview,54.52,170.1,72.57,158.76,401.43,Single-ply,SBD,M
Boys,55.79,2,Kordell Lawrence,Dalhart,55.79,142.88,70.31,149.69,362.87,Single-ply,SBD,M
Boys,55.79,3,Kevin Nguyen #8,Amarillo Highland Park,55.79,127.01,72.57,149.69,349.27,Single-ply,SBD,M
Boys,55.79,4,Dillon Cotton,White Deer,51.98,120.2,72.57,149.69,342.46,Single-ply,SBD,M
Boys,55.79,5,Juan Moreno,Amarillo Highland Park,55.79,117.93,74.84,147.42,340.19,Single-ply,SBD,M
Boys,55.79,6,Hunter Weaver,Canyon Randall,55.07,120.2,65.77,127.01,312.98,Single-ply,SBD,M
Boys,55.79,7,Sergio Romero,Childress,55.25,117.93,70.31,120.2,308.44,Single-ply,SBD,M
Boys,55.79,8,Bryan Nguyen,Amarillo Highland Park,55.52,111.13,63.5,124.74,299.37,Single-ply,SBD,M
Boys,59.87,1,Esteban Fierro,Plainview,58.79,167.83,102.06,172.37,442.25,Single-ply,SBD,M
Boys,59.87,2,Ray Jaramillo,Clarendon,59.78,163.29,97.52,176.9,437.72,Single-ply,SBD,M
Boys,59.87,3,Bryan Tran,Amarillo Highland Park,59.42,154.22,81.65,183.7,419.57,Single-ply,SBD,M
Boys,59.87,4,Christian Maldonado,Canyon Randall,58.51,154.22,102.06,154.22,410.5,Single-ply,SBD,M
Boys,59.87,5,Ezekiel Cuellar,Perryton,55.97,131.54,72.57,145.15,349.27,Single-ply,SBD,M
Boys,59.87,6,Ryan McClesky,Clarendon,57.15,127.01,70.31,145.15,342.46,Single-ply,SBD,M
Boys,59.87,7,Ceasar Luther,Perryton,58.69,120.2,79.38,131.54,331.12,Single-ply,SBD,M
Boys,59.87,8,Caio Zacharias,Dalhart,59.24,104.33,65.77,136.08,306.17,Single-ply,SBD,M
Boys,59.87,9,Brennon Eckert,Amarillo River Road,56.25,92.99,61.23,106.59,260.82,Single-ply,SBD,M
Boys,59.87,10,James Grandmaisson,Amarillo River Road,57.52,90.72,52.16,113.4,256.28,Single-ply,SBD,M
Boys,67.13,1,Luis Estrada,Plainview,67.13,190.51,124.74,204.12,519.36,Single-ply,SBD,M
Boys,67.13,2,Jerrico Enriquez,Plainview,65.95,204.12,99.79,183.7,487.61,Single-ply,SBD,M
Boys,67.13,3,Terrin Campbell,Amarillo Highland Park,65.77,183.7,102.06,190.51,476.27,Single-ply,SBD,M
Boys,67.13,4,Cody Castor,Childress,65.41,147.42,95.25,158.76,401.43,Single-ply,SBD,M
Boys,67.13,5,Deonte Woodard,Amarillo River Road,66.59,154.22,88.45,158.76,401.43,Single-ply,SBD,M
Boys,67.13,6,Jaden Shaver,Panhandle,66.13,142.88,81.65,154.22,378.75,Single-ply,SBD,M
Boys,67.13,7,Caigon Cook,Amarillo River Road,65.5,142.88,70.31,149.69,362.87,Single-ply,SBD,M
Boys,67.13,8,Zach Walser,Canyon Randall,62.41,136.08,74.84,136.08,347,Single-ply,SBD,M
Boys,67.13,9,Nick Leal,Amarillo Highland Park,63.5,129.27,70.31,147.42,347,Single-ply,SBD,M
Boys,67.13,10,Zach Moore,Panhandle,64.32,117.93,72.57,127.01,317.51,Single-ply,SBD,M
Boys,67.13,11,Joe Smith,Panhandle,61.05,97.52,54.43,108.86,260.82,Single-ply,SBD,M
Boys,67.13,DQ,Patrick Shadid,Panhandle,66.13,163.29,,,,Single-ply,SBD,M
Boys,67.13,DQ,Matt Anders,Amarillo Highland Park,63.78,83.91,,,,Single-ply,SBD,M
Boys,67.13,DQ,Hayden Myers,Amarillo River Road,63.87,92.99,,,,Single-ply,SBD,M
Boys,74.84,1,Garron Weber,Borger,73.48,170.1,120.2,215.46,505.76,Single-ply,SBD,M
Boys,74.84,2,Layton Lamberson,Panhandle,73.94,183.7,106.59,199.58,489.88,Single-ply,SBD,M
Boys,74.84,3,Robert Quilimaco,White Deer,71.4,183.7,113.4,190.51,487.61,Single-ply,SBD,M
Boys,74.84,4,Tylor Genn,Memphis,73.57,181.44,129.27,174.63,485.34,Single-ply,SBD,M
Boys,74.84,5,Noah Martinez,Dalhart,74.84,188.24,113.4,183.7,485.34,Single-ply,SBD,M
Boys,74.84,6,Daquawne Oliver,Clarendon,69.58,174.63,79.38,195.04,449.06,Single-ply,SBD,M
Boys,74.84,7,Kolton Keeth,Perryton,73.03,176.9,113.4,176.9,467.2,Single-ply,SBD,M
Boys,74.84,8,Devin Novak,Amarillo Highland Park,72.57,183.7,92.99,176.9,453.59,Single-ply,SBD,M
Boys,74.84,9,CJ McDaniel,Borger,67.95,183.7,65.77,185.97,435.45,Single-ply,SBD,M
Boys,74.84,10,Riley Graham,Panhandle,74.84,147.42,88.45,170.1,405.97,Single-ply,SBD,M
Boys,74.84,11,Chris Lara,Bushland,71.67,149.69,74.84,158.76,383.29,Single-ply,SBD,M
Boys,74.84,12,Kodiak Martinez,Dalhart,74.21,136.08,68.04,165.56,369.68,Single-ply,SBD,M
Boys,74.84,13,Mario Banos,Perryton,68.31,138.35,81.65,147.42,367.41,Single-ply,SBD,M
Boys,74.84,14,Carson Gross,Amarillo River Road,68.22,142.88,74.84,142.88,360.61,Single-ply,SBD,M
Boys,74.84,15,Ronit Patel,Dalhart,71.3,127.01,61.23,158.76,347,Single-ply,SBD,M
Boys,74.84,16,Stoney Griggs,Dalhart,68.4,113.4,70.31,147.42,331.12,Single-ply,SBD,M
Boys,74.84,17,Zane Hackett,Panhandle,74.21,113.4,79.38,136.08,328.85,Single-ply,SBD,M
Boys,74.84,18,Noah Aebischer-Like,Amarillo Highland Park,70.94,90.72,63.5,99.79,254.01,Single-ply,SBD,M
Boys,74.84,19,Collin Sharp,Childress,72.39,86.18,54.43,106.59,247.21,Single-ply,SBD,M
Boys,74.84,DQ,Brad Scott,Canyon Randall,72.39,142.88,,,,Single-ply,SBD,M
Boys,74.84,DQ,Ethan Ballard,Clarendon,74.57,158.76,99.79,,,Single-ply,SBD,M
Boys,82.1,1,Rolando Gill,Plainview,81.56,210.92,122.47,229.06,562.45,Single-ply,SBD,M
Boys,82.1,2,Jaidan Puga,Dalhart,80.1,201.85,149.69,208.65,560.19,Single-ply,SBD,M
Boys,82.1,3,Austin Powell,Plainview,80.56,195.04,124.74,208.65,528.44,Single-ply,SBD,M
Boys,82.1,4,Cutter Paris,Canyon Randall,81.83,206.38,117.93,197.31,521.63,Single-ply,SBD,M
Boys,82.1,5,Dat Luu,Amarillo Highland Park,81.37,183.7,102.06,204.12,489.88,Single-ply,SBD,M
Boys,82.1,6,Henry Torres,Perryton,77.75,190.51,111.13,185.97,487.61,Single-ply,SBD,M
Boys,82.1,7,Dre Williams,Bushland,82.1,181.44,102.06,204.12,487.61,Single-ply,SBD,M
Boys,82.1,8,Sean Meadows,Bushland,78.11,154.22,113.4,190.51,458.13,Single-ply,SBD,M
Boys,82.1,9,Miguel Olivas,Perryton,79.92,167.83,102.06,185.97,455.86,Single-ply,SBD,M
Boys,82.1,10,Angel Luther,Perryton,81.01,167.83,92.99,174.63,435.45,Single-ply,SBD,M
Boys,82.1,11,DJ Petties,Dalhart,82.1,154.22,77.11,188.24,419.57,Single-ply,SBD,M
Boys,82.1,12,Jaime Lizama,Childress,78.2,163.29,95.25,154.22,412.77,Single-ply,SBD,M
Boys,82.1,13,Elijah Perez,Bushland,75.75,145.15,81.65,170.1,396.89,Single-ply,SBD,M
Boys,82.1,14,Caleb Frausto,Canyon Randall,82.1,124.74,102.06,158.76,385.55,Single-ply,SBD,M
Boys,82.1,15,Levi Chesser,White Deer,80.29,142.88,81.65,151.95,376.48,Single-ply,SBD,M
Boys,82.1,16,Albert Rodriguez,Dalhart,79.38,115.67,61.23,158.76,335.66,Single-ply,SBD,M
Boys,82.1,17,Brody Barfield,Bushland,78.2,122.47,74.84,136.08,333.39,Single-ply,SBD,M
Boys,89.81,1,Courtney Gravely,Amarillo Highland Park,87.82,229.06,136.08,244.94,610.08,Single-ply,SBD,M
Boys,89.81,2,Alex Guerrero,Childress,88.27,208.65,140.61,249.48,598.74,Single-ply,SBD,M
Boys,89.81,3,Blaine McGregor,Amarillo Highland Park,86,226.8,136.08,229.06,591.94,Single-ply,SBD,M
Boys,89.81,4,Wesley Ward,Borger,86.36,174.63,104.33,208.65,487.61,Single-ply,SBD,M
Boys,89.81,5,Ethan Hays,Panhandle,85.91,192.78,104.33,183.7,480.81,Single-ply,SBD,M
Boys,89.81,6,Jeremy Dominguez,Plainview,89.27,192.78,104.33,174.63,471.74,Single-ply,SBD,M
Boys,89.81,7,Billy Ummel,Canyon,85.91,181.44,122.47,165.56,469.47,Single-ply,SBD,M
Boys,89.81,8,Waylon Hansen,Amarillo Highland Park,89.81,158.76,108.86,188.24,455.86,Single-ply,SBD,M
Boys,89.81,9,Tanner Mills,Childress,87.45,158.76,102.06,170.1,430.91,Single-ply,SBD,M
Boys,89.81,10,Garrett McClory,Panhandle,87.54,154.22,81.65,158.76,394.63,Single-ply,SBD,M
Boys,89.81,11,Augustine Moreno,Amarillo Highland Park,87.36,149.69,88.45,154.22,392.36,Single-ply,SBD,M
Boys,89.81,12,Andrew Rodriguez,Bushland,86.45,142.88,79.38,142.88,365.14,Single-ply,SBD,M
Boys,89.81,13,Jakob Nelson,Canyon,83.82,111.13,79.38,151.95,342.46,Single-ply,SBD,M
Boys,89.81,14,Tanner Boroughs,Amarillo River Road,88.72,124.74,65.77,136.08,326.59,Single-ply,SBD,M
Boys,89.81,15,Collin Barthlow,Panhandle,83.1,79.38,43.09,83.91,206.38,Single-ply,SBD,M
Boys,89.81,DQ,D'Angelo Thomas,Plainview,89.27,215.46,,,,Single-ply,SBD,M
Boys,99.79,1,Crystin Baston,Plainview,97.89,260.82,158.76,272.16,691.73,Single-ply,SBD,M
Boys,99.79,2,Gage Alexander,Panhandle,98.79,195.04,127.01,219.99,542.04,Single-ply,SBD,M
Boys,99.79,3,Reyes Ferrusquia,Memphis,93.62,215.46,136.08,181.44,532.97,Single-ply,SBD,M
Boys,99.79,4,Caden Lafever,Canyon Randall,92.8,195.04,124.74,204.12,523.9,Single-ply,SBD,M
Boys,99.79,5,Nick Adame,Memphis,99.79,192.78,102.06,213.19,508.02,Single-ply,SBD,M
Boys,99.79,6,Austin Archuleta,Panhandle,92.71,208.65,127.01,167.83,503.49,Single-ply,SBD,M
Boys,99.79,7,Jose Morin,Memphis,99.61,154.22,147.42,199.58,501.22,Single-ply,SBD,M
Boys,99.79,8,Victor Del Fierro,Canyon Randall,99.7,188.24,129.27,183.7,501.22,Single-ply,SBD,M
Boys,99.79,9,Blain Trimmell,Bushland,93.44,165.56,108.86,185.97,460.4,Single-ply,SBD,M
Boys,99.79,10,Ryan Ortiz,Dalhart,92.08,181.44,95.25,172.37,449.06,Single-ply,SBD,M
Boys,99.79,11,Hayden Putnam,Amarillo River Road,93.44,174.63,95.25,172.37,442.25,Single-ply,SBD,M
Boys,99.79,12,Dylan Bevel,Canyon Randall,94.8,183.7,108.86,142.88,435.45,Single-ply,SBD,M
Boys,99.79,13,Trent Welch,Bushland,96.62,127.01,97.52,170.1,394.63,Single-ply,SBD,M
Boys,99.79,14,Cole Bacon,Panhandle,99.7,145.15,72.57,136.08,353.8,Single-ply,SBD,M
Boys,109.77,1,Tyler Brewer,Dalhart,102.78,285.76,138.35,258.55,682.66,Single-ply,SBD,M
Boys,109.77,2,Andrew Vasquez,Perryton,101.7,233.6,133.81,199.58,566.99,Single-ply,SBD,M
Boys,109.77,3,Koty McWhorter,Panhandle,105.51,217.72,129.27,201.85,548.85,Single-ply,SBD,M
Boys,109.77,4,Joe Rodriguez,Childress,108.77,181.44,154.22,213.19,548.85,Single-ply,SBD,M
Boys,109.77,5,Rhett Buckley,Childress,108.59,195.04,124.74,195.04,514.83,Single-ply,SBD,M
Boys,109.77,6,Zac Zaccardo,Bushland,100.97,185.97,120.2,204.12,510.29,Single-ply,SBD,M
Boys,109.77,7,Quentin Weigle,Canyon,101.88,181.44,104.33,188.24,474,Single-ply,SBD,M
Boys,109.77,8,Dom Velasquez,Amarillo River Road,100.7,170.1,115.67,185.97,471.74,Single-ply,SBD,M
Boys,109.77,9,Isaac Huseman,Canyon,106.32,158.76,95.25,188.24,442.25,Single-ply,SBD,M
Boys,109.77,10,Javier Juarez,Childress,102.78,172.37,95.25,172.37,439.98,Single-ply,SBD,M
Boys,109.77,11,Cesar Maestas,Memphis,106.5,136.08,95.25,181.44,412.77,Single-ply,SBD,M
Boys,109.77,12,Mayson Dompe,Borger,107.14,142.88,81.65,151.95,376.48,Single-ply,SBD,M
Boys,109.77,13,Zack Flick,Amarillo River Road,102.87,136.08,72.57,140.61,349.27,Single-ply,SBD,M
Boys,109.77,DQ,David Muñoz,Canyon Randall,105.05,142.88,,,,Single-ply,SBD,M
Boys,124.74,1,Adriel Flores,Plainview,124.01,260.82,136.08,254.01,650.91,Single-ply,SBD,M
Boys,124.74,2,Roy Abanonu,Plainview,110.4,256.28,149.69,242.67,648.64,Single-ply,SBD,M
Boys,124.74,3,Seth Greer,Clarendon,119.93,199.58,145.15,213.19,557.92,Single-ply,SBD,M
Boys,124.74,4,Britton Milbern,Amarillo River Road,117.66,226.8,108.86,210.92,546.58,Single-ply,SBD,M
Boys,124.74,5,Andrew Smith #7,Panhandle,118.66,204.12,140.61,199.58,544.31,Single-ply,SBD,M
Boys,124.74,6,Damian Provencio,Borger,118.84,204.12,131.54,208.65,544.31,Single-ply,SBD,M
Boys,124.74,7,Carlos Romero,Childress,122.92,231.33,111.13,195.04,537.51,Single-ply,SBD,M
Boys,124.74,8,Austin McCarty,Childress,112.58,213.19,131.54,174.63,519.36,Single-ply,SBD,M
Boys,124.74,9,Tytus Williams,Borger,115.94,195.04,113.4,167.83,476.27,Single-ply,SBD,M
Boys,124.74,10,Jesse Garcia,Canyon,112.58,165.56,86.18,190.51,442.25,Single-ply,SBD,M
Boys,124.74,11,Brady Cook,Panhandle,110.77,181.44,92.99,158.76,433.18,Single-ply,SBD,M
Boys,124.74+,1,Colby Roach,Panhandle,145.42,265.35,156.49,217.72,639.57,Single-ply,SBD,M
Boys,124.74+,2,Casey Stewart,Dalhart,125.83,231.33,142.88,181.44,555.65,Single-ply,SBD,M
Boys,124.74+,3,Alex Munoz,Memphis,134.35,142.88,68.04,136.08,347,Single-ply,SBD,M
