Name,Sex,Event,Division,WeightClassKg,Equipment,State,Best3BenchKg,Bench4Kg,Best3DeadliftKg,Deadlift4Kg,TotalKg,Place
Angela Burkett,F,B,Teen Women 12-13,56,Single-ply,TX,57.5,,,,57.5,1
Asa Womack,M,B,Teen Men 18-19,110,Single-ply,TX,142.5,,,,142.5,1
Barran Stone,M,BD,Law-Fire Submasters Men,100,Single-ply,TX,185,188,243,245,428,1
Brandon Bankston,M,BD,Open Men,140,Single-ply,LA,297.5,305,277.5,292.5,575,1
Brandon Bankston,M,BD,Submasters Men 33-39,140,Single-ply,LA,297.5,305,277.5,292.5,575,1
Brennen Carr,M,B,Class 1 Men,125,Single-ply,OK,230,,,,230,1
Brian Kline,M,B,Masters Men 54-60,90,Single-ply,TX,180,,,,180,1
Bryan Vandiver,M,B,Masters Men 40-46,82.5,Single-ply,OK,95,,,,95,1
Carl Rex Hubbard,M,D,Open Men,140,Single-ply,AZ,,,325,,325,1
Chris Goyes,M,D,Masters Men 40-46,82.5,Single-ply,TX,,,230,,230,1
Chuck Ortwein,M,D,Class 1 Men,100,Single-ply,TX,,,252.5,,252.5,1
Chuck Ortwein,M,D,Masters Men 47-53,100,Single-ply,TX,,,252.5,,252.5,1
Coby Washburn,M,B,Submasters Men 33-39,100,Single-ply,TX,245,,,,245,1
Cyrus Gharib,M,B,Submasters Men 33-39,90,Single-ply,TX,207.5,,,,207.5,1
Daniel Gonzales,M,B,Class 1 Men,140+,Single-ply,OK,192.5,,,,192.5,1
Daniel Gonzales,M,B,Open Men,140+,Single-ply,OK,192.5,,,,192.5,1
David Layman,M,D,Teen Men 18-19,90,Single-ply,TX,,,225,,225,1
David R Smith,M,B,Open Men,67.5,Single-ply,TX,,,,,,DQ
David R Smith,M,B,Submasters Men 33-39,67.5,Single-ply,TX,,,,,,DQ
Dustin Dees,M,B,Juniors Men 20-25,140,Single-ply,TX,,,,,,DQ
Ed Reardon,M,D,Juniors Men 20-25,110,Single-ply,MA,,,280,,280,1
Elzy Morrow,M,BD,Masters Men 40-46,140,Single-ply,TX,230,,250,,480,1
Eric Dublin,M,B,Open Men,117.5,Single-ply,TX,,,,,,DQ
Frederick Alexander,M,B,Open Men,140,Single-ply,TX,280,,,,280,1
Hunter Beall,M,BD,Class 1 Men,100,Single-ply,LA,200,,277.5,292.5,477.5,1
Hunter Beall,M,BD,Juniors Men 20-25,100,Single-ply,LA,200,,277.5,292.5,477.5,1
James Dunn,M,BD,Class 1 Men,125,Single-ply,TX,187.5,,307.5,,495,1
James Dunn,M,BD,Open Men,125,Single-ply,TX,187.5,,307.5,,495,1
James Dunn,M,BD,Submasters Men 33-39,125,Single-ply,TX,187.5,,307.5,,495,1
Jerry Warren,M,B,Law-Fire 40-47 Men,117.5,Single-ply,OK,175,,,,175,1
Jerry Warren,M,B,Law-Fire Open Men,117.5,Single-ply,OK,175,,,,175,1
Jesse Triplett,M,B,Teen Men 18-19,125,Single-ply,OK,192.5,,,,192.5,1
Jim Parham,M,B,Masters Men 61-67,110,Single-ply,OK,175,,,,175,1
Joe Cantu,M,B,Masters Men 75-79,100,Single-ply,TX,147.5,153,,,147.5,1
John Erickson,M,B,Open Men,125,Single-ply,OK,295,,,,295,1
John Stewart,M,B,Elite Open Men,125,Single-ply,TX,332.5,,,,332.5,1
John Stewart,M,B,Masters Men 40-46,125,Single-ply,TX,332.5,,,,332.5,1
Jorge Guardado,M,B,Law-Fire 56+ Men,90,Single-ply,OK,125,,,,125,1
Joseph Lee Chaney,M,D,Law-Fire 40-47 Men,90,Single-ply,TX,,,267.5,,267.5,1
Joseph Lee Chaney,M,D,Law-Fire Open Men,90,Single-ply,TX,,,267.5,,267.5,1
Josh Friedman,M,D,Open Men,52,Single-ply,TX,,,100,,100,1
Joshua Ross,M,BD,Special Olympian Men,110,Single-ply,TX,100,,160,162.5,260,1
Julia Aaron-Boliver,F,B,Masters Women 61-67,90,Single-ply,TX,50,,,,50,1
Keith Sayles,M,B,Masters Men 47-53,140+,Single-ply,TX,,,,,,DQ
Kenneth Malone,M,B,Masters Men 40-46,117.5,Single-ply,TX,272.5,,,,272.5,1
Kevin Sawyer,M,B,Masters Men 40-46,90,Single-ply,OK,,,,,,DQ
Kris Chitty,M,B,Law-Fire Open Men,82.5,Single-ply,TX,,,,,,DQ
Kris Chitty,M,B,Submasters Men 33-39,82.5,Single-ply,TX,,,,,,DQ
Luke Mayo,M,B,Open Men,82.5,Single-ply,TX,137.5,,,,137.5,1
Luke Mayo,M,B,Teen Men 16-17,82.5,Single-ply,TX,137.5,,,,137.5,1
Mark Gibson,M,B,Masters Men 47-53,110,Single-ply,TX,187.5,,,,187.5,1
Mark Jamey Mauldin,M,D,Masters Men 54-60,90,Single-ply,TX,,,240,,240,1
Mark Pearce,M,D,Class 1 Men,90,Single-ply,TX,,,242.5,,242.5,2
Mark Pearce,M,D,Masters Men 40-46,90,Single-ply,TX,,,242.5,,242.5,1
Matt Stern,M,BD,Teen Men 16-17,75,Single-ply,LA,90,95,180,190,270,1
Mike Womack,M,B,Elite Open Men,140+,Single-ply,CA,427.5,,,,427.5,1
Miguel Jaurigui,M,B,Teen Men 18-19,60,Single-ply,TX,125,,,,125,1
Myrissa Barnet,F,B,Teen Women 18-19,48,Single-ply,TX,42.5,,,,42.5,1
Patrick Shamblin,M,B,Teen Men 18-19,82.5,Single-ply,TX,192.5,,,,192.5,1
Ric Duncan,M,B,Masters Men 54-60,125,Single-ply,TX,257.5,262.5,,,257.5,1
Rick Vraspier,M,B,Masters Men 47-53,100,Single-ply,TX,190,,,,190,1
Ryan Bell,M,D,Teen Men 14-15,100,Single-ply,TX,,,217.5,,217.5,1
Shannon Elvington,M,BD,Class 1 Men,90,Single-ply,TX,145,,225,,370,1
Steven Peterson,M,BD,Class 1 Men,100,Single-ply,TX,182.5,,265,,447.5,2
Steven Peterson,M,BD,Masters Men 40-46,100,Single-ply,TX,182.5,,265,,447.5,1
Terry Putman,M,D,Masters Men 40-46,125,Single-ply,OK,,,287.5,,287.5,1
Terry Putman,M,D,Open Men,125,Single-ply,OK,,,287.5,,287.5,1
Thomas Guiney,M,D,Masters Men 40-46,140+,Single-ply,OK,,,297.5,305,297.5,1
Thomas Guiney,M,D,Open Men,140+,Single-ply,OK,,,297.5,305,297.5,1
Tim Epting,M,BD,Masters Men 47-53,100,Single-ply,TX,125,,200,,325,1
Tom Ekenberg,M,D,Class 1 Men,117.5,Single-ply,TX,,,272.5,,272.5,1
Valente Inness-Thompson,M,B,Juniors Men 20-25,125,Single-ply,TX,265,,,,265,1
Vince Breaux,M,BD,Masters Men 61-67,100,Single-ply,LA,222.5,,255,,477.5,1
Winston Gilbert,M,BD,Juniors Men 20-25,60,Single-ply,TX,127.5,,170,,297.5,1
