Division,WeightClassKg,Place,Name,Team,BodyweightKg,Best3SquatKg,Best3BenchKg,Best3DeadliftKg,TotalKg,Equipment,Event,Sex
Boys,51.71,1,Benny Lara,Victoria West,51.17,167.83,88.45,172.37,428.64,Single-ply,SBD,M
Boys,51.71,2,Brandon Fernandez,Poteet,43.64,115.67,61.23,117.93,294.84,Single-ply,SBD,M
Boys,51.71,3,George Garcia,San Antonio Memorial,48.99,102.06,61.23,113.4,276.69,Single-ply,SBD,M
Boys,51.71,4,Damian Camacho,Lockhart,45.27,86.18,49.9,95.25,231.33,Single-ply,SBD,M
Boys,55.79,1,Michael Casillas,Victoria West,55.7,154.22,95.25,167.83,417.3,Single-ply,SBD,M
Boys,55.79,2,Colton Bean,Devine,55.7,136.08,68.04,133.81,337.93,Single-ply,SBD,M
Boys,55.79,3,Arthur Sanchez,Victoria West,55.79,129.27,56.7,145.15,331.12,Single-ply,SBD,M
Boys,55.79,DQ,Michael Gonzales,San Antonio Memorial,55.34,,,,,Single-ply,SBD,M
Boys,59.87,1,Moc Moo,Port Lavaca Calhoun,57.52,219.99,113.4,183.7,517.1,Single-ply,SBD,M
Boys,59.87,2,Nate Burnett,Lockhart,58.6,138.35,79.38,163.29,381.02,Single-ply,SBD,M
Boys,59.87,3,Demetrios Monreal,Devine,56.7,129.27,72.57,138.35,340.19,Single-ply,SBD,M
Boys,67.13,1,Raul Guerra,Poteet,64.41,181.44,117.93,172.37,471.74,Single-ply,SBD,M
Boys,67.13,2,Steven Ramirez,Devine,65.05,174.63,104.33,167.83,446.79,Single-ply,SBD,M
Boys,67.13,3,Aaron Sanchez,Poteet,65.14,154.22,90.72,163.29,408.23,Single-ply,SBD,M
Boys,67.13,4,Guillermo Campos,San Antonio Southwest,65.32,154.22,92.99,158.76,405.97,Single-ply,SBD,M
Boys,67.13,5,Joe Anthony Oliva,Poteet,64.59,131.54,77.11,167.83,376.48,Single-ply,SBD,M
Boys,74.84,1,Chayce Grevey,Victoria West,74.57,244.94,154.22,258.55,657.71,Single-ply,SBD,M
Boys,74.84,2,Daniel Leita,Port Lavaca Calhoun,72.39,231.33,129.27,256.28,616.89,Single-ply,SBD,M
Boys,74.84,3,Hunter Dollery,Victoria West,74.12,235.87,131.54,229.06,596.47,Single-ply,SBD,M
Boys,74.84,4,Kory Taylor,Victoria West,73.94,190.51,111.13,217.72,519.36,Single-ply,SBD,M
Boys,74.84,5,Abel Carrasco,San Antonio Southwest,74.03,185.97,104.33,192.78,483.08,Single-ply,SBD,M
Boys,74.84,6,Jacob Gonzales,Lockhart,72.03,156.49,83.91,199.58,439.98,Single-ply,SBD,M
Boys,74.84,7,Daniel Saucedo,San Antonio Memorial,72.76,124.74,79.38,124.74,328.85,Single-ply,SBD,M
Boys,74.84,DQ,Esai Gonzales,Port Lavaca Calhoun,72.12,181.44,,,,Single-ply,SBD,M
Boys,74.84,DQ,Hugo Perez,Lockhart,74.84,,,,,Single-ply,SBD,M
Boys,82.1,1,Daniel Rodriguez #6,Port Lavaca Calhoun,82.01,294.84,136.08,238.14,669.05,Single-ply,SBD,M
Boys,82.1,2,Nick Talamantez,San Antonio Southwest,80.47,201.85,140.61,201.85,544.31,Single-ply,SBD,M
Boys,82.1,3,Nathan Zambrana,San Antonio Southwest,77.66,190.51,104.33,197.31,492.15,Single-ply,SBD,M
Boys,82.1,4,Darwin Naguit,San Antonio Southwest,80.92,179.17,113.4,185.97,478.54,Single-ply,SBD,M
Boys,82.1,5,Isaac Corral,San Antonio Southwest,80.29,170.1,102.06,188.24,460.4,Single-ply,SBD,M
Boys,82.1,6,Ruben Pimentel,San Antonio Memorial,82.1,147.42,124.74,179.17,451.32,Single-ply,SBD,M
Boys,82.1,7,Nick Cruz,Lockhart,78.38,161.03,97.52,185.97,444.52,Single-ply,SBD,M
Boys,82.1,8,Victor Galvan,San Antonio Memorial,81.37,156.49,83.91,142.88,383.29,Single-ply,SBD,M
Boys,82.1,9,Demetrius Brown,San Antonio Memorial,82.1,183.7,97.52,97.52,378.75,Single-ply,SBD,M
Boys,82.1,DQ,Elliot Ramirez,San Antonio Memorial,78.11,197.31,120.2,,,Single-ply,SBD,M
Boys,89.81,1,Rene Osornia,Port Lavaca Calhoun,89.63,249.48,147.42,238.14,635.03,Single-ply,SBD,M
Boys,89.81,2,Efrain Sanchez,San Antonio Southwest,85,249.48,127.01,222.26,598.74,Single-ply,SBD,M
Boys,89.81,3,Mathew Stringham,Port Lavaca Calhoun,85.55,226.8,142.88,204.12,573.79,Single-ply,SBD,M
Boys,89.81,4,Mateo Garcia,San Antonio Memorial,89.63,226.8,120.2,213.19,560.19,Single-ply,SBD,M
Boys,89.81,5,Sylias Montgomery,Port Lavaca Calhoun,89.27,217.72,106.59,204.12,528.44,Single-ply,SBD,M
Boys,89.81,6,Josh Montez,San Antonio Southwest,84.01,195.04,106.59,222.26,523.9,Single-ply,SBD,M
Boys,89.81,7,Rene Gutierrez,San Antonio Memorial,85.91,172.37,92.99,183.7,449.06,Single-ply,SBD,M
Boys,99.79,1,Zevaughn Shelton,Victoria West,98.52,281.23,136.08,240.4,657.71,Single-ply,SBD,M
Boys,99.79,2,Tyler Crisp,Poteet,98.97,272.16,115.67,222.26,610.08,Single-ply,SBD,M
Boys,99.79,3,Dallin Hack,San Antonio Southwest,96.52,222.26,165.56,215.46,603.28,Single-ply,SBD,M
Boys,99.79,4,Roy Trevino,Poteet,92.99,226.8,127.01,238.14,591.94,Single-ply,SBD,M
Boys,99.79,5,John Perez,Port Lavaca Calhoun,97.98,233.6,145.15,204.12,582.87,Single-ply,SBD,M
Boys,99.79,6,Brandon Cotten,San Antonio Southwest,90.26,222.26,131.54,217.72,571.53,Single-ply,SBD,M
Boys,99.79,7,Leo Colom,Port Lavaca Calhoun,97.34,201.85,127.01,226.8,555.65,Single-ply,SBD,M
Boys,99.79,8,Manny Valverde,San Antonio Memorial,96.89,197.31,133.81,192.78,523.9,Single-ply,SBD,M
Boys,99.79,DQ,Fermin Cruz,San Antonio Memorial,99.34,,,,,Single-ply,SBD,M
Boys,109.77,1,Matt Frazier,Port Lavaca Calhoun,109.68,294.84,167.83,219.99,682.66,Single-ply,SBD,M
Boys,109.77,2,Isahi Cardenas,Victoria West,108.59,278.96,131.54,197.31,607.81,Single-ply,SBD,M
Boys,109.77,3,Bernard Aguilar,Poteet,104.87,226.8,90.72,190.51,508.02,Single-ply,SBD,M
Boys,109.77,4,Logan Till,Lockhart,102.78,165.56,95.25,190.51,451.32,Single-ply,SBD,M
Boys,109.77,DQ,James Durano,San Antonio Southwest,109.77,294.84,,,,Single-ply,SBD,M
Boys,124.74,1,Roman Ruiz,Lockhart,117.03,235.87,140.61,249.48,625.96,Single-ply,SBD,M
Boys,124.74,2,Jason Suniga,Victoria West,119.75,294.84,142.88,188.24,625.96,Single-ply,SBD,M
Boys,124.74,3,Caleb Bishop,Lockhart,117.03,240.4,151.95,229.06,621.42,Single-ply,SBD,M
Boys,124.74,4,Jorge Flores,San Antonio Memorial,112.13,242.67,115.67,226.8,585.13,Single-ply,SBD,M
Boys,124.74,5,Xavier Coronado,San Antonio Southwest,114.58,233.6,131.54,215.46,580.6,Single-ply,SBD,M
Boys,124.74,6,Elijah Amaro,San Antonio Southwest,120.29,192.78,145.15,183.7,521.63,Single-ply,SBD,M
Boys,124.74,7,Josh Baggett,Lockhart,111.67,149.69,79.38,156.49,385.55,Single-ply,SBD,M
Boys,124.74+,1,Drew Hathaway,Victoria West,125.65,240.4,158.76,226.8,625.96,Single-ply,SBD,M
Boys,124.74+,2,Edward Camacho,Lockhart,136.8,249.48,140.61,219.99,610.08,Single-ply,SBD,M
Boys,124.74+,3,Joe Colurciello,Lockhart,131.81,217.72,124.74,219.99,562.45,Single-ply,SBD,M
Boys,124.74+,4,EJ Hodges,Port Lavaca Calhoun,124.92,226.8,142.88,174.63,544.31,Single-ply,SBD,M
Boys,124.74+,5,Ruben Avila,Victoria West,137.89,204.12,113.4,197.31,514.83,Single-ply,SBD,M
Boys,124.74+,DQ,Jacob Hernandez,San Antonio Memorial,147.42,,,,,Single-ply,SBD,M
