Division,WeightClassKg,Place,Name,Team,BodyweightKg,Best3SquatKg,Best3BenchKg,Best3DeadliftKg,TotalKg,Equipment,Event,Sex
Boys,51.71,1,Andrick Ramirez,Fort Stockton,51.44,122.47,70.31,127.01,319.78,Single-ply,SBD,M
Boys,51.71,2,Alfredo Castillo,Andrews,49.26,120.2,49.9,136.08,306.17,Single-ply,SBD,M
Boys,51.71,3,Christian Solis,Pecos,51.71,97.52,72.57,136.08,306.17,Single-ply,SBD,M
Boys,51.71,4,Jorge Delgado,Andrews,45.45,79.38,49.9,102.06,231.33,Single-ply,SBD,M
Boys,55.79,1,Bryan Quinteros Jr,Lamesa,55.25,172.37,102.06,190.51,464.93,Single-ply,SBD,M
Boys,55.79,2,Zaniel Florez,Kermit,54.7,131.54,70.31,138.35,340.19,Single-ply,SBD,M
Boys,55.79,3,Kendrick Porras,Fort Stockton,54.88,131.54,58.97,138.35,328.85,Single-ply,SBD,M
Boys,55.79,4,Alex Lujan,Fort Stockton,53.98,95.25,52.16,131.54,278.96,Single-ply,SBD,M
Boys,59.87,1,Lucas Esparza,Andrews,59.87,158.76,90.72,149.69,399.16,Single-ply,SBD,M
Boys,59.87,2,Adan Gonzales,McCamey,59.87,120.2,72.57,124.74,317.51,Single-ply,SBD,M
Boys,59.87,3,Jackson Carroll,Pecos,57.42,108.86,61.23,111.13,281.23,Single-ply,SBD,M
Boys,59.87,4,Maxiio Yanez,Monahans,58.97,88.45,58.97,108.86,256.28,Single-ply,SBD,M
Boys,59.87,5,Rene Heredia,Monahans,58.97,83.91,45.36,99.79,229.06,Single-ply,SBD,M
Boys,67.13,1,Christian Valles,Andrews,65.77,185.97,104.33,190.51,480.81,Single-ply,SBD,M
Boys,67.13,2,Juan Salgado,Fort Stockton,67.13,183.7,122.47,174.63,480.81,Single-ply,SBD,M
Boys,67.13,3,Xavier Urias,McCamey,63.78,106.59,68.04,117.93,292.57,Single-ply,SBD,M
Boys,67.13,4,Sawyer Jackson,Alpine,64.23,58.97,56.7,83.91,199.58,Single-ply,SBD,M
Boys,67.13,DQ,Anthony Trevino,Lamesa,64.32,136.08,,,,Single-ply,SBD,M
Boys,74.84,1,Ryan Orona,Pecos,74.48,183.7,124.74,219.99,528.44,Single-ply,SBD,M
Boys,74.84,2,Raymond Flores,Andrews,69.22,197.31,115.67,174.63,487.61,Single-ply,SBD,M
Boys,74.84,3,Cesar Trejo,Fort Stockton,73.12,181.44,104.33,179.17,464.93,Single-ply,SBD,M
Boys,74.84,4,Chris Rodriguez,Lamesa,72.76,170.1,102.06,190.51,462.66,Single-ply,SBD,M
Boys,74.84,5,Jalen Ybarra,Crane,72.57,154.22,90.72,179.17,424.11,Single-ply,SBD,M
Boys,74.84,6,Gabriel Mendoza,Kermit,73.94,161.03,88.45,172.37,421.84,Single-ply,SBD,M
Boys,74.84,7,Devan Salas,Pecos,71.03,149.69,90.72,158.76,399.16,Single-ply,SBD,M
Boys,74.84,8,Isaac Noble,Pecos,67.68,129.27,90.72,147.42,367.41,Single-ply,SBD,M
Boys,74.84,DQ,Marcos Ogeda,Lamesa,71.4,,,,,Single-ply,SBD,M
Boys,82.1,1,Matthew Everett,Fort Stockton,77.38,240.4,113.4,235.87,589.67,Single-ply,SBD,M
Boys,82.1,2,Esau Flores,Andrews,82.01,213.19,145.15,226.8,585.13,Single-ply,SBD,M
Boys,82.1,3,Ernesto Ornelas,Monahans,80.29,190.51,142.88,195.04,528.44,Single-ply,SBD,M
Boys,82.1,4,Sam Clendenen,Crane,81.37,154.22,92.99,172.37,419.57,Single-ply,SBD,M
Boys,82.1,5,Hernan Hernandez,Kermit,76.66,149.69,102.06,158.76,410.5,Single-ply,SBD,M
Boys,82.1,6,Victor Salazar,Pecos,75.11,138.35,90.72,145.15,374.21,Single-ply,SBD,M
Boys,82.1,7,Ivan Salinas,Wink,79.92,136.08,77.11,136.08,349.27,Single-ply,SBD,M
Boys,82.1,8,Jesus Lara,Kermit,77.66,129.27,70.31,122.47,322.05,Single-ply,SBD,M
Boys,82.1,9,Rigo Molina,McCamey,80.2,131.54,58.97,131.54,322.05,Single-ply,SBD,M
Boys,82.1,10,Marco Martínez,Alpine,78.74,68.04,45.36,70.31,183.7,Single-ply,SBD,M
Boys,82.1,DQ,Edgar Caballero,Monahans,79.83,131.54,,,,Single-ply,SBD,M
Boys,82.1,DQ,Devin Mora,Andrews,79.38,213.19,127.01,,,Single-ply,SBD,M
Boys,89.81,1,Josue Flores,Andrews,82.64,226.8,120.2,231.33,578.33,Single-ply,SBD,M
Boys,89.81,2,Justin Gonzales,Andrews,88.81,213.19,136.08,183.7,532.97,Single-ply,SBD,M
Boys,89.81,3,Jaden Gonzalez,Fort Stockton,82.19,185.97,108.86,181.44,476.27,Single-ply,SBD,M
Boys,89.81,4,Gustavo Marin,Fort Stockton,89.81,170.1,106.59,176.9,453.59,Single-ply,SBD,M
Boys,89.81,5,Mikial Burralo,Kermit,88.72,161.03,106.59,165.56,433.18,Single-ply,SBD,M
Boys,89.81,6,Jonathan Rodriguez,Lamesa,87.91,142.88,99.79,151.95,394.63,Single-ply,SBD,M
Boys,89.81,7,Sylis Vidana,Monahans,85.73,147.42,83.91,156.49,387.82,Single-ply,SBD,M
Boys,89.81,8,Alexandro Mucharraz,Alpine,87.18,140.61,86.18,145.15,371.95,Single-ply,SBD,M
Boys,89.81,9,Ashton Vega,Alpine,84.37,72.57,54.43,90.72,217.72,Single-ply,SBD,M
Boys,99.79,1,Octavio Frausto,Andrews,96.71,240.4,145.15,215.46,601.01,Single-ply,SBD,M
Boys,99.79,2,Hayden Pipkin,Monahans,93.53,226.8,158.76,213.19,598.74,Single-ply,SBD,M
Boys,99.79,3,Emmanuel Camacho,Crane,98.34,244.94,129.27,192.78,566.99,Single-ply,SBD,M
Boys,99.79,4,Donnie De La Cruz,Fort Stockton,99.43,215.46,120.2,185.97,521.63,Single-ply,SBD,M
Boys,99.79,5,Paul Walker,Crane,96.62,201.85,108.86,188.24,498.95,Single-ply,SBD,M
Boys,99.79,6,Josue Vasquez,Kermit,94.89,188.24,117.93,167.83,474,Single-ply,SBD,M
Boys,99.79,7,Juan Pulido,Crane,99.34,181.44,97.52,181.44,460.4,Single-ply,SBD,M
Boys,99.79,8,Angelo Lopez,Kermit,99.52,174.63,106.59,179.17,460.4,Single-ply,SBD,M
Boys,99.79,9,Ryan Gooch,Alpine,90.36,145.15,72.57,151.95,369.68,Single-ply,SBD,M
Boys,99.79,10,Ethan Purcell,Wink,97.16,142.88,90.72,136.08,369.68,Single-ply,SBD,M
Boys,99.79,11,Mack Payne,Wink,92.08,142.88,81.65,136.08,360.61,Single-ply,SBD,M
Boys,99.79,12,Caleb Noble,Pecos,98.25,124.74,81.65,117.93,324.32,Single-ply,SBD,M
Boys,109.77,1,Joel Estrella,Andrews,108.14,238.14,145.15,219.99,603.28,Single-ply,SBD,M
Boys,109.77,2,Christian Baca,Pecos,109.59,226.8,111.13,219.99,557.92,Single-ply,SBD,M
Boys,109.77,3,Matthew Underwood,Wink,109.41,226.8,124.74,181.44,532.97,Single-ply,SBD,M
Boys,109.77,4,Andrew Castro,Fort Stockton,109.77,219.99,113.4,190.51,523.9,Single-ply,SBD,M
Boys,109.77,5,Devon Butler,Crane,106.14,190.51,129.27,174.63,494.42,Single-ply,SBD,M
Boys,109.77,6,Alejandro Valenzuela,Alpine,105.05,154.22,74.84,172.37,401.43,Single-ply,SBD,M
Boys,109.77,7,Cade Bayer,Fort Stockton,109.41,167.83,81.65,113.4,362.87,Single-ply,SBD,M
Boys,124.74,1,Ethan Martinez,Lamesa,117.48,281.23,183.7,204.12,669.05,Single-ply,SBD,M
Boys,124.74,2,Ivien Gonzales,Lamesa,119.2,244.94,142.88,215.46,603.28,Single-ply,SBD,M
Boys,124.74,3,Darius Pando,Kermit,114.03,226.8,120.2,213.19,560.19,Single-ply,SBD,M
Boys,124.74,4,Gerry Salazar,McCamey,111.04,197.31,111.13,204.12,512.56,Single-ply,SBD,M
Boys,124.74,5,Jayson Pagan,McCamey,111.67,199.58,122.47,185.97,508.02,Single-ply,SBD,M
Boys,124.74,6,Kyle Coffee,Monahans,115.21,181.44,104.33,199.58,485.34,Single-ply,SBD,M
Boys,124.74,7,Isaiah Garcia,McCamey,112.76,181.44,88.45,185.97,455.86,Single-ply,SBD,M
Boys,124.74+,1,Reece Azam,Andrews,131.18,263.08,181.44,204.12,648.64,Single-ply,SBD,M
Boys,124.74+,2,Alexis Rosas,Crane,127.19,249.48,154.22,226.8,630.49,Single-ply,SBD,M
Boys,124.74+,3,Albert Aguilar,Pecos,148.96,249.48,170.1,172.37,591.94,Single-ply,SBD,M
Boys,124.74+,4,Raziel Burralo,Kermit,125.1,199.58,147.42,213.19,560.19,Single-ply,SBD,M
Boys,124.74+,5,Jonathan Gomez,Fort Stockton,138.8,210.92,106.59,192.78,510.29,Single-ply,SBD,M
Boys,124.74+,6,Josh Price,Pecos,126.92,124.74,115.67,138.35,378.75,Single-ply,SBD,M
Boys,124.74+,DQ,Noah Martinez,Lamesa,146.06,199.58,,,,Single-ply,SBD,M
